[
    {
        "E": 36135.04702943848,
        "chi2": 0.0,
        "ip": 0.023771133012330838,
        "ipchi2": 1.6842551520588067,
        "mass": 1875.47,
        "particleId": "D0",
        "pvx": 0.6352,
        "pvy": 0.0924,
        "pvz": 51.8854,
        "px": 1219.89,
        "py": -3064.48,
        "pz": 35935.29,
        "q": 0.0,
        "trajectory": [
            [
                0.635200023651123,
                0.09239999949932098,
                51.885398864746094
            ],
            [
                0.7757999897003174,
                -0.29249998927116394,
                56.12179946899414
            ]
        ],
        "zFirstMeasurement": -9999.0
    },
    {
        "E": 22165.380064820845,
        "chi2": 0.8662684559822083,
        "ip": 0.13280626571954898,
        "ipchi2": 35.92098306030134,
        "mass": 493.677,
        "particleId": "K-",
        "pvx": 0.6352,
        "pvy": 0.0924,
        "pvz": 51.8854,
        "px": 324.71,
        "py": -2617.96,
        "pz": 22002.3,
        "q": -1.0,
        "trajectory": [
            [
                0.7381327748298645,
                -0.28434059023857117,
                56.12179946899414
            ],
            [
                0.8119200468063354,
                -0.8792697191238403,
                61.12179946899414
            ],
            [
                0.8857046365737915,
                -1.4741986989974976,
                66.1218032836914
            ],
            [
                0.9594864845275879,
                -2.0691277980804443,
                71.1218032836914
            ],
            [
                1.0332657098770142,
                -2.6640567779541016,
                76.1218032836914
            ],
            [
                1.1070419549942017,
                -3.258985757827759,
                81.1218032836914
            ],
            [
                1.180815577507019,
                -3.853914499282837,
                86.1218032836914
            ],
            [
                1.2545862197875977,
                -4.448843479156494,
                91.1218032836914
            ],
            [
                1.328354001045227,
                -5.043772220611572,
                96.1218032836914
            ],
            [
                1.4021188020706177,
                -5.63870096206665,
                101.1218032836914
            ],
            [
                1.6971527338027954,
                -8.018392562866211,
                121.1218032836914
            ],
            [
                1.9921363592147827,
                -10.398106575012207,
                141.12179565429688
            ],
            [
                2.2870707511901855,
                -12.777819633483887,
                161.12179565429688
            ],
            [
                2.5819523334503174,
                -15.15753173828125,
                181.12179565429688
            ],
            [
                2.8767781257629395,
                -17.537242889404297,
                201.12179565429688
            ],
            [
                3.1715447902679443,
                -19.916954040527344,
                221.12179565429688
            ],
            [
                3.4662489891052246,
                -22.29666519165039,
                241.12179565429688
            ],
            [
                3.7609143257141113,
                -24.676374435424805,
                261.1217956542969
            ],
            [
                4.055501937866211,
                -27.05608367919922,
                281.1217956542969
            ],
            [
                4.35002326965332,
                -29.435791015625,
                301.1217956542969
            ],
            [
                4.644475936889648,
                -31.815500259399414,
                321.1217956542969
            ],
            [
                4.938857078552246,
                -34.19520568847656,
                341.1217956542969
            ],
            [
                5.2331647872924805,
                -36.574913024902344,
                361.1217956542969
            ],
            [
                5.527397155761719,
                -38.954620361328125,
                381.1217956542969
            ],
            [
                5.8215508460998535,
                -41.33432388305664,
                401.1217956542969
            ],
            [
                6.115619659423828,
                -43.714027404785156,
                421.1217956542969
            ],
            [
                6.409605026245117,
                -46.09373092651367,
                441.1217956542969
            ],
            [
                6.703503608703613,
                -48.47343444824219,
                461.1217956542969
            ],
            [
                6.997312545776367,
                -50.8531379699707,
                481.1217956542969
            ],
            [
                7.291030406951904,
                -53.23284149169922,
                501.1217956542969
            ],
            [
                7.58465051651001,
                -55.612545013427734,
                521.121826171875
            ],
            [
                7.878173351287842,
                -57.992244720458984,
                541.121826171875
            ],
            [
                8.171595573425293,
                -60.371944427490234,
                561.121826171875
            ],
            [
                8.464902877807617,
                -62.75164794921875,
                581.121826171875
            ],
            [
                8.758098602294922,
                -65.13134765625,
                601.121826171875
            ],
            [
                9.051179885864258,
                -67.51104736328125,
                621.121826171875
            ],
            [
                9.344145774841309,
                -69.8907470703125,
                641.121826171875
            ],
            [
                9.636983871459961,
                -72.27044677734375,
                661.121826171875
            ],
            [
                9.929699897766113,
                -74.650146484375,
                681.121826171875
            ],
            [
                10.222290992736816,
                -77.02984619140625,
                701.121826171875
            ],
            [
                10.514758110046387,
                -79.40953826904297,
                721.121826171875
            ],
            [
                10.807077407836914,
                -81.78923797607422,
                741.121826171875
            ],
            [
                11.099242210388184,
                -84.16893768310547,
                761.121826171875
            ],
            [
                11.391266822814941,
                -86.54863739013672,
                781.121826171875
            ],
            [
                11.683146476745605,
                -88.92833709716797,
                801.121826171875
            ],
            [
                11.974884033203125,
                -91.30803680419922,
                821.121826171875
            ],
            [
                12.266470909118652,
                -93.68773651123047,
                841.121826171875
            ],
            [
                12.557905197143555,
                -96.06743621826172,
                861.121826171875
            ],
            [
                12.84918212890625,
                -98.44713592529297,
                881.121826171875
            ],
            [
                13.14029312133789,
                -100.82684326171875,
                901.121826171875
            ],
            [
                13.431220054626465,
                -103.20655059814453,
                921.121826171875
            ],
            [
                13.721978187561035,
                -105.58626556396484,
                941.121826171875
            ],
            [
                14.012563705444336,
                -107.96597290039063,
                961.121826171875
            ],
            [
                14.302947998046875,
                -110.34568786621094,
                981.121826171875
            ],
            [
                14.593108177185059,
                -112.72540283203125,
                1001.121826171875
            ],
            [
                16.04142189025879,
                -124.62397766113281,
                1101.121826171875
            ],
            [
                17.483671188354492,
                -136.5225372314453,
                1201.121826171875
            ],
            [
                18.92185401916504,
                -148.42117309570313,
                1301.121826171875
            ],
            [
                20.355205535888672,
                -160.31985473632813,
                1401.121826171875
            ],
            [
                21.78407096862793,
                -172.21849060058594,
                1501.121826171875
            ],
            [
                23.20849609375,
                -184.1171417236328,
                1601.121826171875
            ],
            [
                24.62837028503418,
                -196.0158233642578,
                1701.121826171875
            ],
            [
                26.042722702026367,
                -207.91456604003906,
                1801.121826171875
            ],
            [
                27.451574325561523,
                -219.81332397460938,
                1901.121826171875
            ],
            [
                28.853944778442383,
                -231.71205139160156,
                2001.121826171875
            ],
            [
                30.248849868774414,
                -243.61070251464844,
                2101.121826171875
            ],
            [
                31.634368896484375,
                -255.50941467285156,
                2201.121826171875
            ],
            [
                33.01246643066406,
                -267.40802001953125,
                2301.121826171875
            ],
            [
                34.37751770019531,
                -279.306640625,
                2401.121826171875
            ],
            [
                35.727237701416016,
                -291.2052307128906,
                2501.121826171875
            ],
            [
                37.057533264160156,
                -303.10369873046875,
                2601.121826171875
            ],
            [
                38.36696243286133,
                -315.002197265625,
                2701.121826171875
            ],
            [
                39.651458740234375,
                -326.9005126953125,
                2801.121826171875
            ],
            [
                40.902198791503906,
                -338.798583984375,
                2901.121826171875
            ],
            [
                42.114891052246094,
                -350.69647216796875,
                3001.121826171875
            ],
            [
                43.288143157958984,
                -362.5941162109375,
                3101.121826171875
            ],
            [
                44.4067268371582,
                -374.4908447265625,
                3201.121826171875
            ],
            [
                45.46920394897461,
                -386.3872375488281,
                3301.121826171875
            ],
            [
                46.46289825439453,
                -398.2831726074219,
                3401.121826171875
            ],
            [
                47.38127136230469,
                -410.1789245605469,
                3501.121826171875
            ],
            [
                48.219749450683594,
                -422.0746154785156,
                3601.121826171875
            ],
            [
                48.96491241455078,
                -433.9700012207031,
                3701.121826171875
            ],
            [
                49.59804153442383,
                -445.8642578125,
                3801.121826171875
            ],
            [
                50.12175750732422,
                -457.7585754394531,
                3901.121826171875
            ],
            [
                50.51741409301758,
                -469.65338134765625,
                4001.121826171875
            ],
            [
                50.79403305053711,
                -481.548828125,
                4101.12158203125
            ],
            [
                50.917545318603516,
                -493.4437255859375,
                4201.12158203125
            ],
            [
                50.90044403076172,
                -505.3387756347656,
                4301.12158203125
            ],
            [
                50.74269104003906,
                -517.2357177734375,
                4401.12158203125
            ],
            [
                50.43309020996094,
                -529.1319580078125,
                4501.12158203125
            ],
            [
                49.980262756347656,
                -541.0289916992188,
                4601.12158203125
            ],
            [
                49.35940170288086,
                -552.9254150390625,
                4701.12158203125
            ],
            [
                48.602134704589844,
                -564.8221435546875,
                4801.12158203125
            ],
            [
                44.52571487426758,
                -575.4439697265625,
                4901.12158203125
            ],
            [
                43.39004135131836,
                -587.3128051757813,
                5001.12158203125
            ],
            [
                42.09989929199219,
                -599.1831665039063,
                5101.12158203125
            ],
            [
                40.6690559387207,
                -611.0536499023438,
                5201.12158203125
            ],
            [
                39.09284210205078,
                -622.9244995117188,
                5301.12158203125
            ],
            [
                37.37460708618164,
                -634.7953491210938,
                5401.12158203125
            ],
            [
                35.515445709228516,
                -646.665771484375,
                5501.12158203125
            ],
            [
                33.523738861083984,
                -658.5381469726563,
                5601.12158203125
            ],
            [
                31.39624786376953,
                -670.4103393554688,
                5701.12158203125
            ],
            [
                29.133472442626953,
                -682.2826538085938,
                5801.12158203125
            ],
            [
                26.74671745300293,
                -694.15478515625,
                5901.12158203125
            ],
            [
                24.227022171020508,
                -706.027587890625,
                6001.12158203125
            ],
            [
                21.587614059448242,
                -717.9003295898438,
                6101.12158203125
            ],
            [
                18.827302932739258,
                -729.7726440429688,
                6201.12158203125
            ],
            [
                15.949264526367188,
                -741.6448974609375,
                6301.12158203125
            ],
            [
                12.959688186645508,
                -753.5169067382813,
                6401.12158203125
            ],
            [
                9.860774993896484,
                -765.3883056640625,
                6501.12158203125
            ],
            [
                6.656249046325684,
                -777.2594604492188,
                6601.12158203125
            ],
            [
                3.3517816066741943,
                -789.1300048828125,
                6701.12158203125
            ],
            [
                -0.044579438865184784,
                -800.9998779296875,
                6801.12158203125
            ],
            [
                -3.533390998840332,
                -812.8687744140625,
                6901.12158203125
            ],
            [
                -7.105682373046875,
                -824.7366943359375,
                7001.12158203125
            ],
            [
                -10.755303382873535,
                -836.6035766601563,
                7101.12158203125
            ],
            [
                -14.476383209228516,
                -848.4695434570313,
                7201.12158203125
            ],
            [
                -18.26335906982422,
                -860.3343505859375,
                7301.12158203125
            ],
            [
                -22.11376953125,
                -872.197998046875,
                7401.12158203125
            ],
            [
                -26.017301559448242,
                -884.0606689453125,
                7501.12158203125
            ],
            [
                -29.973573684692383,
                -895.9221801757813,
                7601.12158203125
            ],
            [
                -33.97488784790039,
                -907.7826538085938,
                7701.12158203125
            ],
            [
                -38.01871109008789,
                -919.6421508789063,
                7801.12158203125
            ],
            [
                -42.10041427612305,
                -931.5006713867188,
                7901.12158203125
            ],
            [
                -46.21586227416992,
                -943.3583374023438,
                8001.12158203125
            ],
            [
                -50.36268615722656,
                -955.215087890625,
                8101.12158203125
            ],
            [
                -54.536739349365234,
                -967.0711059570313,
                8201.1220703125
            ],
            [
                -58.73577117919922,
                -978.9263916015625,
                8301.1220703125
            ],
            [
                -62.957542419433594,
                -990.7809448242188,
                8401.1220703125
            ],
            [
                -67.19984436035156,
                -1002.6349487304688,
                8501.1220703125
            ],
            [
                -71.4600830078125,
                -1014.4883422851563,
                8601.1220703125
            ],
            [
                -75.73705291748047,
                -1026.3411865234375,
                8701.1220703125
            ],
            [
                -80.02899932861328,
                -1038.193603515625,
                8801.1220703125
            ],
            [
                -84.33439636230469,
                -1050.0455322265625,
                8901.1220703125
            ],
            [
                -88.65213012695313,
                -1061.897216796875,
                9001.1220703125
            ],
            [
                -92.98097229003906,
                -1073.7484130859375,
                9101.1220703125
            ],
            [
                -97.31983184814453,
                -1085.599365234375,
                9201.1220703125
            ],
            [
                -101.66780853271484,
                -1097.449951171875,
                9301.1220703125
            ],
            [
                -106.02401733398438,
                -1109.3004150390625,
                9401.1220703125
            ],
            [
                -110.38765716552734,
                -1121.150634765625,
                9501.1220703125
            ],
            [
                -114.75807189941406,
                -1133.0006103515625,
                9601.1220703125
            ],
            [
                -119.13459777832031,
                -1144.8504638671875,
                9701.1220703125
            ],
            [
                -123.51667785644531,
                -1156.7001953125,
                9801.1220703125
            ],
            [
                -127.90377807617188,
                -1168.5498046875,
                9901.1220703125
            ],
            [
                -132.2954559326172,
                -1180.3992919921875,
                10001.1220703125
            ],
            [
                -141.0908660888672,
                -1204.097900390625,
                10201.1220703125
            ],
            [
                -149.90005493164063,
                -1227.79638671875,
                10401.1220703125
            ],
            [
                -158.72039794921875,
                -1251.49462890625,
                10601.1220703125
            ],
            [
                -167.55027770996094,
                -1275.1927490234375,
                10801.1220703125
            ],
            [
                -176.38758850097656,
                -1298.8907470703125,
                11001.1220703125
            ],
            [
                -185.23129272460938,
                -1322.5887451171875,
                11201.1220703125
            ],
            [
                -194.08038330078125,
                -1346.28662109375,
                11401.1220703125
            ],
            [
                -202.9334716796875,
                -1369.9844970703125,
                11601.1220703125
            ],
            [
                -211.79006958007813,
                -1393.6824951171875,
                11801.1220703125
            ],
            [
                -220.64932250976563,
                -1417.38037109375,
                12001.1220703125
            ],
            [
                -229.51126098632813,
                -1441.078369140625,
                12201.1220703125
            ],
            [
                -238.37498474121094,
                -1464.7763671875,
                12401.1220703125
            ],
            [
                -247.23973083496094,
                -1488.474365234375,
                12601.1220703125
            ],
            [
                -256.1055908203125,
                -1512.1724853515625,
                12801.1220703125
            ],
            [
                -264.97259521484375,
                -1535.8704833984375,
                13001.1220703125
            ],
            [
                -273.8404541015625,
                -1559.568603515625,
                13201.1220703125
            ],
            [
                -282.708740234375,
                -1583.2666015625,
                13401.1220703125
            ]
        ],
        "zFirstMeasurement": 154.0981
    },
    {
        "E": 13976.076472529665,
        "chi2": 1.2305442094802856,
        "ip": 0.28602884588849875,
        "ipchi2": 102.03644901968285,
        "mass": 139.57,
        "particleId": "pi+",
        "pvx": 0.6352,
        "pvy": 0.0924,
        "pvz": 51.8854,
        "px": 896.51,
        "py": -446.36,
        "pz": 13939.45,
        "q": 1.0,
        "trajectory": [
            [
                0.8142532706260681,
                -0.31361374258995056,
                56.12179946899414
            ],
            [
                1.135837435722351,
                -0.473721981048584,
                61.12179946899414
            ],
            [
                1.457425832748413,
                -0.6338303089141846,
                66.1218032836914
            ],
            [
                1.7790186405181885,
                -0.7939387559890747,
                71.1218032836914
            ],
            [
                2.1006157398223877,
                -0.9540472626686096,
                76.1218032836914
            ],
            [
                2.422217607498169,
                -1.114155888557434,
                81.1218032836914
            ],
            [
                2.743823766708374,
                -1.2742646932601929,
                86.1218032836914
            ],
            [
                3.0654349327087402,
                -1.4343734979629517,
                91.1218032836914
            ],
            [
                3.3870503902435303,
                -1.594482421875,
                96.1218032836914
            ],
            [
                3.7086708545684814,
                -1.754591464996338,
                101.1218032836914
            ],
            [
                4.995142459869385,
                -2.395047903060913,
                121.1218032836914
            ],
            [
                6.2817487716674805,
                -3.0354866981506348,
                141.12179565429688
            ],
            [
                7.568431377410889,
                -3.675926923751831,
                161.12179565429688
            ],
            [
                8.855195999145508,
                -4.31636905670166,
                181.12179565429688
            ],
            [
                10.142047882080078,
                -4.956812381744385,
                201.12179565429688
            ],
            [
                11.42899227142334,
                -5.597257614135742,
                221.12179565429688
            ],
            [
                12.716033935546875,
                -6.237704277038574,
                241.12179565429688
            ],
            [
                14.003180503845215,
                -6.878152847290039,
                261.1217956542969
            ],
            [
                15.290436744689941,
                -7.5186028480529785,
                281.1217956542969
            ],
            [
                16.57774543762207,
                -8.15905475616455,
                301.1217956542969
            ],
            [
                17.86520004272461,
                -8.799508094787598,
                321.1217956542969
            ],
            [
                19.152769088745117,
                -9.439963340759277,
                341.1217956542969
            ],
            [
                20.44045639038086,
                -10.080419540405273,
                361.1217956542969
            ],
            [
                21.72826385498047,
                -10.720877647399902,
                381.1217956542969
            ],
            [
                23.016202926635742,
                -11.361337661743164,
                401.1217956542969
            ],
            [
                24.304271697998047,
                -12.001799583435059,
                421.1217956542969
            ],
            [
                25.59247589111328,
                -12.64226245880127,
                441.1217956542969
            ],
            [
                26.880821228027344,
                -13.28272819519043,
                461.1217956542969
            ],
            [
                28.169309616088867,
                -13.923194885253906,
                481.1217956542969
            ],
            [
                29.457944869995117,
                -14.5636625289917,
                501.1217956542969
            ],
            [
                30.746736526489258,
                -15.204133033752441,
                521.121826171875
            ],
            [
                32.03568649291992,
                -15.8446044921875,
                541.121826171875
            ],
            [
                33.32481384277344,
                -16.485078811645508,
                561.121826171875
            ],
            [
                34.61412048339844,
                -17.125553131103516,
                581.121826171875
            ],
            [
                35.90360641479492,
                -17.766029357910156,
                601.121826171875
            ],
            [
                37.19327926635742,
                -18.406505584716797,
                621.121826171875
            ],
            [
                38.48313903808594,
                -19.04698371887207,
                641.121826171875
            ],
            [
                39.773193359375,
                -19.687463760375977,
                661.121826171875
            ],
            [
                41.06344223022461,
                -20.327943801879883,
                681.121826171875
            ],
            [
                42.35388946533203,
                -20.968425750732422,
                701.121826171875
            ],
            [
                43.64456558227539,
                -21.608909606933594,
                721.121826171875
            ],
            [
                44.93548583984375,
                -22.249393463134766,
                741.121826171875
            ],
            [
                46.226627349853516,
                -22.88987922668457,
                761.121826171875
            ],
            [
                47.518001556396484,
                -23.530364990234375,
                781.121826171875
            ],
            [
                48.809608459472656,
                -24.170852661132813,
                801.121826171875
            ],
            [
                50.1014518737793,
                -24.81134033203125,
                821.121826171875
            ],
            [
                51.39353942871094,
                -25.45182991027832,
                841.121826171875
            ],
            [
                52.685874938964844,
                -26.09231948852539,
                861.121826171875
            ],
            [
                53.97848129272461,
                -26.732807159423828,
                881.121826171875
            ],
            [
                55.27140808105469,
                -27.3732852935791,
                901.121826171875
            ],
            [
                56.56464767456055,
                -28.013761520385742,
                921.121826171875
            ],
            [
                57.858177185058594,
                -28.654237747192383,
                941.121826171875
            ],
            [
                59.15200424194336,
                -29.29471206665039,
                961.121826171875
            ],
            [
                60.44612503051758,
                -29.935182571411133,
                981.121826171875
            ],
            [
                61.74054718017578,
                -30.575653076171875,
                1001.121826171875
            ],
            [
                68.21639251708984,
                -33.77804183959961,
                1101.121826171875
            ],
            [
                74.70184326171875,
                -36.98036193847656,
                1201.121826171875
            ],
            [
                81.19403839111328,
                -40.18263244628906,
                1301.121826171875
            ],
            [
                87.6939468383789,
                -43.384883880615234,
                1401.121826171875
            ],
            [
                94.20062255859375,
                -46.5871696472168,
                1501.121826171875
            ],
            [
                100.71525573730469,
                -49.78940963745117,
                1601.121826171875
            ],
            [
                107.23818969726563,
                -52.991615295410156,
                1701.121826171875
            ],
            [
                113.77096557617188,
                -56.19380187988281,
                1801.121826171875
            ],
            [
                120.3125228881836,
                -59.3960075378418,
                1901.121826171875
            ],
            [
                126.8659439086914,
                -62.59840393066406,
                2001.121826171875
            ],
            [
                133.4314727783203,
                -65.80091094970703,
                2101.121826171875
            ],
            [
                140.01695251464844,
                -69.00335693359375,
                2201.121826171875
            ],
            [
                146.61741638183594,
                -72.2060546875,
                2301.121826171875
            ],
            [
                153.24160766601563,
                -75.4089584350586,
                2401.121826171875
            ],
            [
                159.8968505859375,
                -78.61210632324219,
                2501.121826171875
            ],
            [
                166.58621215820313,
                -81.81559753417969,
                2601.121826171875
            ],
            [
                173.31423950195313,
                -85.01942443847656,
                2701.121826171875
            ],
            [
                180.08851623535156,
                -88.22382354736328,
                2801.121826171875
            ],
            [
                186.922607421875,
                -91.42904663085938,
                2901.121826171875
            ],
            [
                193.82485961914063,
                -94.63490295410156,
                3001.121826171875
            ],
            [
                200.79759216308594,
                -97.8415298461914,
                3101.121826171875
            ],
            [
                207.86898803710938,
                -101.04938507080078,
                3201.121826171875
            ],
            [
                215.03826904296875,
                -104.25840759277344,
                3301.121826171875
            ],
            [
                222.32168579101563,
                -107.46880340576172,
                3401.121826171875
            ],
            [
                229.73483276367188,
                -110.68070220947266,
                3501.121826171875
            ],
            [
                237.27828979492188,
                -113.89381408691406,
                3601.121826171875
            ],
            [
                244.9764404296875,
                -117.10810852050781,
                3701.121826171875
            ],
            [
                252.84291076660156,
                -120.32454681396484,
                3801.121826171875
            ],
            [
                260.88287353515625,
                -123.54276275634766,
                3901.121826171875
            ],
            [
                269.1066589355469,
                -126.76207733154297,
                4001.121826171875
            ],
            [
                277.5285949707031,
                -129.98216247558594,
                4101.12158203125
            ],
            [
                286.1722412109375,
                -133.2029266357422,
                4201.12158203125
            ],
            [
                295.0276184082031,
                -136.42605590820313,
                4301.12158203125
            ],
            [
                304.0968322753906,
                -139.64906311035156,
                4401.12158203125
            ],
            [
                313.3855285644531,
                -142.87286376953125,
                4501.12158203125
            ],
            [
                322.90277099609375,
                -146.09722900390625,
                4601.12158203125
            ],
            [
                332.6537170410156,
                -149.32244873046875,
                4701.12158203125
            ],
            [
                342.62200927734375,
                -152.5487823486328,
                4801.12158203125
            ],
            [
                355.0235595703125,
                -157.28038024902344,
                4901.12158203125
            ],
            [
                365.4920349121094,
                -160.55636596679688,
                5001.12158203125
            ],
            [
                376.19232177734375,
                -163.83200073242188,
                5101.12158203125
            ],
            [
                387.1134948730469,
                -167.10752868652344,
                5201.12158203125
            ],
            [
                398.2586669921875,
                -170.38235473632813,
                5301.12158203125
            ],
            [
                409.6208190917969,
                -173.65762329101563,
                5401.12158203125
            ],
            [
                421.2011413574219,
                -176.93377685546875,
                5501.12158203125
            ],
            [
                432.98431396484375,
                -180.2084503173828,
                5601.12158203125
            ],
            [
                444.97943115234375,
                -183.48268127441406,
                5701.12158203125
            ],
            [
                457.1778869628906,
                -186.7564697265625,
                5801.12158203125
            ],
            [
                469.5677490234375,
                -190.02957153320313,
                5901.12158203125
            ],
            [
                482.15570068359375,
                -193.3015899658203,
                6001.12158203125
            ],
            [
                494.9290771484375,
                -196.5724639892578,
                6101.12158203125
            ],
            [
                507.8835144042969,
                -199.84243774414063,
                6201.12158203125
            ],
            [
                521.01416015625,
                -203.11180114746094,
                6301.12158203125
            ],
            [
                534.3126220703125,
                -206.38026428222656,
                6401.12158203125
            ],
            [
                547.7750854492188,
                -209.64776611328125,
                6501.12158203125
            ],
            [
                561.3914794921875,
                -212.91392517089844,
                6601.12158203125
            ],
            [
                575.1580200195313,
                -216.17864990234375,
                6701.12158203125
            ],
            [
                589.063232421875,
                -219.44210815429688,
                6801.12158203125
            ],
            [
                603.1058959960938,
                -222.7040557861328,
                6901.12158203125
            ],
            [
                617.27587890625,
                -225.9644775390625,
                7001.12158203125
            ],
            [
                631.56494140625,
                -229.22349548339844,
                7101.12158203125
            ],
            [
                645.965576171875,
                -232.48110961914063,
                7201.12158203125
            ],
            [
                660.4717407226563,
                -235.73719787597656,
                7301.12158203125
            ],
            [
                675.0782470703125,
                -238.9917755126953,
                7401.12158203125
            ],
            [
                689.7731323242188,
                -242.2449188232422,
                7501.12158203125
            ],
            [
                704.554443359375,
                -245.4965362548828,
                7601.12158203125
            ],
            [
                719.4132080078125,
                -248.74679565429688,
                7701.12158203125
            ],
            [
                734.3460083007813,
                -251.9956512451172,
                7801.12158203125
            ],
            [
                749.3464965820313,
                -255.2431640625,
                7901.12158203125
            ],
            [
                764.4085083007813,
                -258.48944091796875,
                8001.12158203125
            ],
            [
                779.5286254882813,
                -261.7345886230469,
                8101.12158203125
            ],
            [
                794.7003173828125,
                -264.9786682128906,
                8201.1220703125
            ],
            [
                809.9200439453125,
                -268.2217712402344,
                8301.1220703125
            ],
            [
                825.1841430664063,
                -271.4640197753906,
                8401.1220703125
            ],
            [
                840.4890747070313,
                -274.7054443359375,
                8501.1220703125
            ],
            [
                855.8298950195313,
                -277.94622802734375,
                8601.1220703125
            ],
            [
                871.2047119140625,
                -281.1863708496094,
                8701.1220703125
            ],
            [
                886.6103515625,
                -284.4259948730469,
                8801.1220703125
            ],
            [
                902.0438232421875,
                -287.6651306152344,
                8901.1220703125
            ],
            [
                917.503173828125,
                -290.90386962890625,
                9001.1220703125
            ],
            [
                932.9859008789063,
                -294.1422424316406,
                9101.1220703125
            ],
            [
                948.4898071289063,
                -297.38031005859375,
                9201.1220703125
            ],
            [
                964.01318359375,
                -300.6181335449219,
                9301.1220703125
            ],
            [
                979.5541381835938,
                -303.85577392578125,
                9401.1220703125
            ],
            [
                995.111083984375,
                -307.0932312011719,
                9501.1220703125
            ],
            [
                1010.6826171875,
                -310.33056640625,
                9601.1220703125
            ],
            [
                1026.267333984375,
                -313.56781005859375,
                9701.1220703125
            ],
            [
                1041.8641357421875,
                -316.80499267578125,
                9801.1220703125
            ],
            [
                1057.4718017578125,
                -320.0421447753906,
                9901.1220703125
            ],
            [
                1073.08935546875,
                -323.2792663574219,
                10001.1220703125
            ],
            [
                1104.3507080078125,
                -329.75347900390625,
                10201.1220703125
            ],
            [
                1135.64208984375,
                -336.227783203125,
                10401.1220703125
            ],
            [
                1166.9576416015625,
                -342.7022399902344,
                10601.1220703125
            ],
            [
                1198.2940673828125,
                -349.1768798828125,
                10801.1220703125
            ],
            [
                1229.646484375,
                -355.6517639160156,
                11001.1220703125
            ],
            [
                1261.012939453125,
                -362.1268615722656,
                11201.1220703125
            ],
            [
                1292.3909912109375,
                -368.60223388671875,
                11401.1220703125
            ],
            [
                1323.7777099609375,
                -375.07781982421875,
                11601.1220703125
            ],
            [
                1355.1719970703125,
                -381.5536804199219,
                11801.1220703125
            ],
            [
                1386.5721435546875,
                -388.02972412109375,
                12001.1220703125
            ],
            [
                1417.97802734375,
                -394.5059814453125,
                12201.1220703125
            ],
            [
                1449.3878173828125,
                -400.9823913574219,
                12401.1220703125
            ],
            [
                1480.7996826171875,
                -407.4590148925781,
                12601.1220703125
            ],
            [
                1512.2139892578125,
                -413.9357604980469,
                12801.1220703125
            ],
            [
                1543.630859375,
                -420.41259765625,
                13001.1220703125
            ],
            [
                1575.0496826171875,
                -426.8894958496094,
                13201.1220703125
            ],
            [
                1606.4693603515625,
                -433.36651611328125,
                13401.1220703125
            ]
        ],
        "zFirstMeasurement": 184.2987
    },
    {
        "E": 17573.904234905945,
        "chi2": 0.8332553505897522,
        "ip": 0.0781997723584234,
        "ipchi2": 4.321144293577796,
        "mass": 139.57018,
        "particleId": "pi-",
        "pvx": 0.6352,
        "pvy": 0.0924,
        "pvz": 51.8854,
        "px": 226.49244503545498,
        "py": -934.2080549485527,
        "pz": 17547.039257518943,
        "q": -1.0,
        "trajectory": [
            [
                -1.3233766555786133,
                8.257073402404785,
                -100.0
            ],
            [
                -1.258754849433899,
                7.990870952606201,
                -95.0
            ],
            [
                -1.1941354274749756,
                7.724668025970459,
                -90.0
            ],
            [
                -1.1295182704925537,
                7.458465576171875,
                -85.0
            ],
            [
                -1.0649034976959229,
                7.192263603210449,
                -80.0
            ],
            [
                -1.0002912282943726,
                6.926061153411865,
                -75.0
            ],
            [
                -0.9356814026832581,
                6.659858703613281,
                -70.0
            ],
            [
                -0.8710740208625793,
                6.3936567306518555,
                -65.0
            ],
            [
                -0.8064691424369812,
                6.1274542808532715,
                -60.0
            ],
            [
                -0.7418668866157532,
                5.861252307891846,
                -55.0
            ],
            [
                -0.6772671341896057,
                5.595049858093262,
                -50.0
            ],
            [
                -0.6126484870910645,
                5.328847885131836,
                -45.0
            ],
            [
                -0.5480573773384094,
                5.06264591217041,
                -40.0
            ],
            [
                -0.48346850275993347,
                4.796443939208984,
                -35.0
            ],
            [
                -0.4188820421695709,
                4.530241966247559,
                -30.0
            ],
            [
                -0.35429802536964417,
                4.264040470123291,
                -25.0
            ],
            [
                -0.2897164523601532,
                3.9978384971618652,
                -20.0
            ],
            [
                -0.22513744235038757,
                3.7316367626190186,
                -15.0
            ],
            [
                -0.1605609953403473,
                3.465435266494751,
                -10.0
            ],
            [
                -0.09598718583583832,
                3.1992335319519043,
                -5.0
            ],
            [
                -0.03141606226563454,
                2.9330320358276367,
                0.0
            ],
            [
                0.033152319490909576,
                2.66683030128479,
                5.0
            ],
            [
                0.09771791100502014,
                2.4006288051605225,
                10.0
            ],
            [
                0.16228066384792328,
                2.134427547454834,
                15.0
            ],
            [
                0.2268405258655548,
                1.8682260513305664,
                20.0
            ],
            [
                0.29139742255210876,
                1.6020246744155884,
                25.0
            ],
            [
                0.35595133900642395,
                1.3358234167099,
                30.0
            ],
            [
                0.4205021858215332,
                1.0696221590042114,
                35.0
            ],
            [
                0.4850499629974365,
                0.8034210205078125,
                40.0
            ],
            [
                0.549594521522522,
                0.5372198820114136,
                45.0
            ],
            [
                0.6141359210014343,
                0.27101877331733704,
                50.0
            ],
            [
                0.6786741018295288,
                0.004817725159227848,
                55.0
            ],
            [
                0.7432088851928711,
                -0.2613832652568817,
                60.0
            ],
            [
                0.8077403903007507,
                -0.5275841951370239,
                65.0
            ],
            [
                0.8722683787345886,
                -0.7937850952148438,
                70.0
            ],
            [
                0.9367929697036743,
                -1.0599859952926636,
                75.0
            ],
            [
                1.0013140439987183,
                -1.3261867761611938,
                80.0
            ],
            [
                1.0658315420150757,
                -1.5923874378204346,
                85.0
            ],
            [
                1.1303454637527466,
                -1.8585882186889648,
                90.0
            ],
            [
                1.1948555707931519,
                -2.124788761138916,
                95.0
            ],
            [
                1.2593621015548706,
                -2.390989303588867,
                100.0
            ],
            [
                1.5173497200012207,
                -3.4557912349700928,
                120.0
            ],
            [
                1.775354266166687,
                -4.520639896392822,
                140.0
            ],
            [
                2.033214569091797,
                -5.585440158843994,
                160.0
            ],
            [
                2.291012763977051,
                -6.650239944458008,
                180.0
            ],
            [
                2.5487446784973145,
                -7.715038776397705,
                200.0
            ],
            [
                2.806406259536743,
                -8.779836654663086,
                220.0
            ],
            [
                3.063992977142334,
                -9.844634056091309,
                240.0
            ],
            [
                3.321500301361084,
                -10.909430503845215,
                260.0
            ],
            [
                3.5789237022399902,
                -11.974226951599121,
                280.0
            ],
            [
                3.83625864982605,
                -13.039021492004395,
                300.0
            ],
            [
                4.093535900115967,
                -14.103816032409668,
                320.0
            ],
            [
                4.350704669952393,
                -15.168609619140625,
                340.0
            ],
            [
                4.607780456542969,
                -16.233402252197266,
                360.0
            ],
            [
                4.86475944519043,
                -17.298194885253906,
                380.0
            ],
            [
                5.121638774871826,
                -18.362987518310547,
                400.0
            ],
            [
                5.378414154052734,
                -19.427778244018555,
                420.0
            ],
            [
                5.6350836753845215,
                -20.492568969726563,
                440.0
            ],
            [
                5.891643047332764,
                -21.55735969543457,
                460.0
            ],
            [
                6.14808988571167,
                -22.622150421142578,
                480.0
            ],
            [
                6.404419898986816,
                -23.686939239501953,
                500.0
            ],
            [
                6.660623550415039,
                -24.751728057861328,
                520.0
            ],
            [
                6.916692733764648,
                -25.816516876220703,
                540.0
            ],
            [
                7.172629356384277,
                -26.881303787231445,
                560.0
            ],
            [
                7.428431034088135,
                -27.946090698242188,
                580.0
            ],
            [
                7.6840949058532715,
                -29.010879516601563,
                600.0
            ],
            [
                7.939612865447998,
                -30.075666427612305,
                620.0
            ],
            [
                8.194984436035156,
                -31.140453338623047,
                640.0
            ],
            [
                8.45020580291748,
                -32.20524215698242,
                660.0
            ],
            [
                8.705272674560547,
                -33.27002716064453,
                680.0
            ],
            [
                8.960166931152344,
                -34.334815979003906,
                700.0
            ],
            [
                9.214886665344238,
                -35.399600982666016,
                720.0
            ],
            [
                9.469435691833496,
                -36.464385986328125,
                740.0
            ],
            [
                9.723812103271484,
                -37.5291748046875,
                760.0
            ],
            [
                9.978010177612305,
                -38.59395980834961,
                780.0
            ],
            [
                10.232027053833008,
                -39.65874481201172,
                800.0
            ],
            [
                10.485861778259277,
                -40.723533630371094,
                820.0
            ],
            [
                10.739480018615723,
                -41.7883186340332,
                840.0
            ],
            [
                10.992870330810547,
                -42.85310363769531,
                860.0
            ],
            [
                11.246024131774902,
                -43.91789627075195,
                880.0
            ],
            [
                11.498964309692383,
                -44.98269271850586,
                900.0
            ],
            [
                11.751709938049316,
                -46.047489166259766,
                920.0
            ],
            [
                12.004234313964844,
                -47.11228561401367,
                940.0
            ],
            [
                12.256534576416016,
                -48.17708206176758,
                960.0
            ],
            [
                12.50860595703125,
                -49.24188232421875,
                980.0
            ],
            [
                12.760444641113281,
                -50.30668258666992,
                1000.0
            ],
            [
                14.016592025756836,
                -55.630653381347656,
                1100.0
            ],
            [
                15.26662540435791,
                -60.954627990722656,
                1200.0
            ],
            [
                16.50862693786621,
                -66.27873992919922,
                1300.0
            ],
            [
                17.74601936340332,
                -71.60279083251953,
                1400.0
            ],
            [
                18.977874755859375,
                -76.92683410644531,
                1500.0
            ],
            [
                20.203039169311523,
                -82.25093841552734,
                1600.0
            ],
            [
                21.42192840576172,
                -87.57506561279297,
                1700.0
            ],
            [
                22.633684158325195,
                -92.89922332763672,
                1800.0
            ],
            [
                23.83868980407715,
                -98.22333526611328,
                1900.0
            ],
            [
                25.033588409423828,
                -103.54743957519531,
                2000.0
            ],
            [
                26.220041275024414,
                -108.87152862548828,
                2100.0
            ],
            [
                27.394216537475586,
                -114.19563293457031,
                2200.0
            ],
            [
                28.548805236816406,
                -119.51995849609375,
                2300.0
            ],
            [
                29.68937873840332,
                -124.84416198730469,
                2400.0
            ],
            [
                30.80510139465332,
                -130.16839599609375,
                2500.0
            ],
            [
                31.896440505981445,
                -135.49261474609375,
                2600.0
            ],
            [
                32.957279205322266,
                -140.81687927246094,
                2700.0
            ],
            [
                33.981510162353516,
                -146.14108276367188,
                2800.0
            ],
            [
                34.958839416503906,
                -151.4652099609375,
                2900.0
            ],
            [
                35.885013580322266,
                -156.78944396972656,
                3000.0
            ],
            [
                36.7532844543457,
                -162.11367797851563,
                3100.0
            ],
            [
                37.556461334228516,
                -167.4376983642578,
                3200.0
            ],
            [
                38.26216125488281,
                -172.7613983154297,
                3300.0
            ],
            [
                38.89076232910156,
                -178.0850067138672,
                3400.0
            ],
            [
                39.41817092895508,
                -183.4085693359375,
                3500.0
            ],
            [
                39.840877532958984,
                -188.73220825195313,
                3600.0
            ],
            [
                40.13996124267578,
                -194.05601501464844,
                3700.0
            ],
            [
                40.31132125854492,
                -199.37936401367188,
                3800.0
            ],
            [
                40.340389251708984,
                -204.70298767089844,
                3900.0
            ],
            [
                40.23029327392578,
                -210.02723693847656,
                4000.0
            ],
            [
                39.95289993286133,
                -215.35211181640625,
                4100.0
            ],
            [
                39.52104187011719,
                -220.6775360107422,
                4200.0
            ],
            [
                38.89231872558594,
                -226.00216674804688,
                4300.0
            ],
            [
                38.1103515625,
                -231.3282928466797,
                4400.0
            ],
            [
                37.14927673339844,
                -236.65505981445313,
                4500.0
            ],
            [
                36.004390716552734,
                -241.9819793701172,
                4600.0
            ],
            [
                34.68552780151367,
                -247.30909729003906,
                4700.0
            ],
            [
                33.181976318359375,
                -252.63681030273438,
                4800.0
            ],
            [
                29.410951614379883,
                -255.7277374267578,
                4900.0
            ],
            [
                27.456073760986328,
                -261.000732421875,
                5000.0
            ],
            [
                25.318357467651367,
                -266.2745666503906,
                5100.0
            ],
            [
                23.006698608398438,
                -271.548828125,
                5200.0
            ],
            [
                20.518714904785156,
                -276.82427978515625,
                5300.0
            ],
            [
                17.85985565185547,
                -282.09942626953125,
                5400.0
            ],
            [
                15.03048038482666,
                -287.3737487792969,
                5500.0
            ],
            [
                12.040310859680176,
                -292.64990234375,
                5600.0
            ],
            [
                8.882560729980469,
                -297.9259033203125,
                5700.0
            ],
            [
                5.565513610839844,
                -303.2025451660156,
                5800.0
            ],
            [
                2.097510814666748,
                -308.47918701171875,
                5900.0
            ],
            [
                -1.5262936353683472,
                -313.7560729980469,
                6000.0
            ],
            [
                -5.295873641967773,
                -319.03338623046875,
                6100.0
            ],
            [
                -9.207839965820313,
                -324.31060791015625,
                6200.0
            ],
            [
                -13.258572578430176,
                -329.5875244140625,
                6300.0
            ],
            [
                -17.441444396972656,
                -334.8642578125,
                6400.0
            ],
            [
                -21.75320816040039,
                -340.14068603515625,
                6500.0
            ],
            [
                -26.187131881713867,
                -345.4168395996094,
                6600.0
            ],
            [
                -30.739757537841797,
                -350.6927185058594,
                6700.0
            ],
            [
                -35.401187896728516,
                -355.9682312011719,
                6800.0
            ],
            [
                -40.17078399658203,
                -361.2430114746094,
                6900.0
            ],
            [
                -45.04043960571289,
                -366.5171813964844,
                7000.0
            ],
            [
                -50.003578186035156,
                -371.7907409667969,
                7100.0
            ],
            [
                -55.0543212890625,
                -377.0636901855469,
                7200.0
            ],
            [
                -60.1878547668457,
                -382.3360595703125,
                7300.0
            ],
            [
                -65.40019226074219,
                -387.607666015625,
                7400.0
            ],
            [
                -70.68148040771484,
                -392.87872314453125,
                7500.0
            ],
            [
                -76.03075408935547,
                -398.1490478515625,
                7600.0
            ],
            [
                -81.44036102294922,
                -403.4188232421875,
                7700.0
            ],
            [
                -86.90769958496094,
                -408.6880187988281,
                7800.0
            ],
            [
                -92.42768096923828,
                -413.9566650390625,
                7900.0
            ],
            [
                -97.99556732177734,
                -419.2248229980469,
                8000.0
            ],
            [
                -103.6086654663086,
                -424.4925231933594,
                8100.0
            ],
            [
                -109.26171112060547,
                -429.7597961425781,
                8200.0
            ],
            [
                -114.95208740234375,
                -435.0266418457031,
                8300.0
            ],
            [
                -120.67691802978516,
                -440.29315185546875,
                8400.0
            ],
            [
                -126.4333267211914,
                -445.5592956542969,
                8500.0
            ],
            [
                -132.21766662597656,
                -450.8251037597656,
                8600.0
            ],
            [
                -138.02838134765625,
                -456.09063720703125,
                8700.0
            ],
            [
                -143.86300659179688,
                -461.3558654785156,
                8800.0
            ],
            [
                -149.71929931640625,
                -466.6208801269531,
                8900.0
            ],
            [
                -155.5956573486328,
                -471.88568115234375,
                9000.0
            ],
            [
                -161.49024963378906,
                -477.1502685546875,
                9100.0
            ],
            [
                -167.40138244628906,
                -482.4147033691406,
                9200.0
            ],
            [
                -173.3276824951172,
                -487.67901611328125,
                9300.0
            ],
            [
                -179.26779174804688,
                -492.94317626953125,
                9400.0
            ],
            [
                -185.2204132080078,
                -498.20721435546875,
                9500.0
            ],
            [
                -191.18450927734375,
                -503.4711608886719,
                9600.0
            ],
            [
                -197.15902709960938,
                -508.73504638671875,
                9700.0
            ],
            [
                -203.14306640625,
                -513.9988403320313,
                9800.0
            ],
            [
                -209.1356964111328,
                -519.2625732421875,
                9900.0
            ],
            [
                -215.13623046875,
                -524.5262451171875,
                10000.0
            ],
            [
                -227.15817260742188,
                -535.0535278320313,
                10200.0
            ],
            [
                -239.20407104492188,
                -545.5806884765625,
                10400.0
            ],
            [
                -251.26953125,
                -556.1077880859375,
                10600.0
            ],
            [
                -263.35174560546875,
                -566.6348876953125,
                10800.0
            ],
            [
                -275.44708251953125,
                -577.1619262695313,
                11000.0
            ],
            [
                -287.55377197265625,
                -587.6890258789063,
                11200.0
            ],
            [
                -299.67010498046875,
                -598.216064453125,
                11400.0
            ],
            [
                -311.7936706542969,
                -608.7431640625,
                11600.0
            ],
            [
                -323.92352294921875,
                -619.2703247070313,
                11800.0
            ],
            [
                -336.0582275390625,
                -629.7974853515625,
                12000.0
            ],
            [
                -348.1978454589844,
                -640.3246459960938,
                12200.0
            ],
            [
                -360.3407287597656,
                -650.8518676757813,
                12400.0
            ],
            [
                -372.48553466796875,
                -661.379150390625,
                12600.0
            ],
            [
                -384.63238525390625,
                -671.9064331054688,
                12800.0
            ],
            [
                -396.7814636230469,
                -682.4337768554688,
                13000.0
            ],
            [
                -408.9321594238281,
                -692.9611206054688,
                13200.0
            ],
            [
                -421.0836486816406,
                -703.4884643554688,
                13400.0
            ]
        ],
        "zFirstMeasurement": 216.1413
    },
    {
        "E": 13697.649197684577,
        "chi2": 0.9745497107505798,
        "ip": 15.369023131165287,
        "ipchi2": 37039.53182279067,
        "mass": 493.67699999999996,
        "particleId": "K+",
        "pvx": 0.6352,
        "pvy": 0.0924,
        "pvz": 51.8854,
        "px": 501.62325998575346,
        "py": 872.0201859483199,
        "pz": 13651.733643125326,
        "q": 1.0,
        "trajectory": [
            [
                -11.577005386352539,
                -23.51610565185547,
                -100.0
            ],
            [
                -11.393610000610352,
                -23.196720123291016,
                -95.0
            ],
            [
                -11.210211753845215,
                -22.877334594726563,
                -90.0
            ],
            [
                -11.026809692382813,
                -22.557950973510742,
                -85.0
            ],
            [
                -10.843405723571777,
                -22.23856544494629,
                -80.0
            ],
            [
                -10.659997940063477,
                -21.919179916381836,
                -75.0
            ],
            [
                -10.476587295532227,
                -21.599794387817383,
                -70.0
            ],
            [
                -10.293173789978027,
                -21.280410766601563,
                -65.0
            ],
            [
                -10.109756469726563,
                -20.96102523803711,
                -60.0
            ],
            [
                -9.926336288452148,
                -20.64164161682129,
                -55.0
            ],
            [
                -9.742913246154785,
                -20.322256088256836,
                -50.0
            ],
            [
                -9.559486389160156,
                -20.002870559692383,
                -45.0
            ],
            [
                -9.376055717468262,
                -19.683486938476563,
                -40.0
            ],
            [
                -9.192622184753418,
                -19.364103317260742,
                -35.0
            ],
            [
                -9.009184837341309,
                -19.04471778869629,
                -30.0
            ],
            [
                -8.825743675231934,
                -18.72533416748047,
                -25.0
            ],
            [
                -8.64229965209961,
                -18.40595054626465,
                -20.0
            ],
            [
                -8.458850860595703,
                -18.086565017700195,
                -15.0
            ],
            [
                -8.275399208068848,
                -17.767181396484375,
                -10.0
            ],
            [
                -8.091943740844727,
                -17.447797775268555,
                -5.0
            ],
            [
                -7.908483028411865,
                -17.128414154052734,
                0.0
            ],
            [
                -7.725017547607422,
                -16.809030532836914,
                5.0
            ],
            [
                -7.541548252105713,
                -16.48964500427246,
                10.0
            ],
            [
                -7.3580756187438965,
                -16.17026138305664,
                15.0
            ],
            [
                -7.174598693847656,
                -15.850878715515137,
                20.0
            ],
            [
                -6.99111795425415,
                -15.531495094299316,
                25.0
            ],
            [
                -6.807633399963379,
                -15.212111473083496,
                30.0
            ],
            [
                -6.624145030975342,
                -14.892727851867676,
                35.0
            ],
            [
                -6.440652370452881,
                -14.573344230651855,
                40.0
            ],
            [
                -6.257155895233154,
                -14.253960609436035,
                45.0
            ],
            [
                -6.073654651641846,
                -13.934577941894531,
                50.0
            ],
            [
                -5.8901495933532715,
                -13.615194320678711,
                55.0
            ],
            [
                -5.706640243530273,
                -13.295811653137207,
                60.0
            ],
            [
                -5.523126602172852,
                -12.976428031921387,
                65.0
            ],
            [
                -5.339608669281006,
                -12.657045364379883,
                70.0
            ],
            [
                -5.156085968017578,
                -12.337662696838379,
                75.0
            ],
            [
                -4.972558498382568,
                -12.018280029296875,
                80.0
            ],
            [
                -4.789026737213135,
                -11.698896408081055,
                85.0
            ],
            [
                -4.605490207672119,
                -11.37951374053955,
                90.0
            ],
            [
                -4.4219489097595215,
                -11.060131072998047,
                95.0
            ],
            [
                -4.2384033203125,
                -10.740748405456543,
                100.0
            ],
            [
                -3.5041723251342773,
                -9.463218688964844,
                120.0
            ],
            [
                -2.7698628902435303,
                -8.185689926147461,
                140.0
            ],
            [
                -2.035506010055542,
                -6.908163070678711,
                160.0
            ],
            [
                -1.3010097742080688,
                -5.630636215209961,
                180.0
            ],
            [
                -0.56643146276474,
                -4.353110313415527,
                200.0
            ],
            [
                0.16823479533195496,
                -3.075585126876831,
                220.0
            ],
            [
                0.9029947519302368,
                -1.7980611324310303,
                240.0
            ],
            [
                1.6378543376922607,
                -0.5205379128456116,
                260.0
            ],
            [
                2.372819423675537,
                0.7569844722747803,
                280.0
            ],
            [
                3.107895612716675,
                2.03450608253479,
                300.0
            ],
            [
                3.8430888652801514,
                3.3120272159576416,
                320.0
            ],
            [
                4.578404903411865,
                4.589547634124756,
                340.0
            ],
            [
                5.31373405456543,
                5.86700963973999,
                360.0
            ],
            [
                6.049297332763672,
                7.144528865814209,
                380.0
            ],
            [
                6.784982681274414,
                8.42204761505127,
                400.0
            ],
            [
                7.5207977294921875,
                9.699565887451172,
                420.0
            ],
            [
                8.256750106811523,
                10.977083206176758,
                440.0
            ],
            [
                8.992846488952637,
                12.254600524902344,
                460.0
            ],
            [
                9.729095458984375,
                13.53211784362793,
                480.0
            ],
            [
                10.465503692626953,
                14.8096342086792,
                500.0
            ],
            [
                11.202078819274902,
                16.08715057373047,
                520.0
            ],
            [
                11.93876838684082,
                17.364665985107422,
                540.0
            ],
            [
                12.675661087036133,
                18.642181396484375,
                560.0
            ],
            [
                13.412731170654297,
                19.91969871520996,
                580.0
            ],
            [
                14.149982452392578,
                21.197214126586914,
                600.0
            ],
            [
                14.887421607971191,
                22.474729537963867,
                620.0
            ],
            [
                15.625054359436035,
                23.75224494934082,
                640.0
            ],
            [
                16.36288833618164,
                25.029760360717773,
                660.0
            ],
            [
                17.100936889648438,
                26.30727767944336,
                680.0
            ],
            [
                17.839197158813477,
                27.584793090820313,
                700.0
            ],
            [
                18.577680587768555,
                28.8623104095459,
                720.0
            ],
            [
                19.316396713256836,
                30.139827728271484,
                740.0
            ],
            [
                20.055347442626953,
                31.417346954345703,
                760.0
            ],
            [
                20.794540405273438,
                32.69486618041992,
                780.0
            ],
            [
                21.533977508544922,
                33.97238540649414,
                800.0
            ],
            [
                22.27366828918457,
                35.249908447265625,
                820.0
            ],
            [
                23.013620376586914,
                36.527427673339844,
                840.0
            ],
            [
                23.753835678100586,
                37.80495071411133,
                860.0
            ],
            [
                24.494321823120117,
                39.08247375488281,
                880.0
            ],
            [
                25.235061645507813,
                40.3599967956543,
                900.0
            ],
            [
                25.9760684967041,
                41.637516021728516,
                920.0
            ],
            [
                26.717357635498047,
                42.9150390625,
                940.0
            ],
            [
                27.458938598632813,
                44.192562103271484,
                960.0
            ],
            [
                28.20081329345703,
                45.47008514404297,
                980.0
            ],
            [
                28.94301986694336,
                46.74760818481445,
                1000.0
            ],
            [
                32.65861892700195,
                53.1352653503418,
                1100.0
            ],
            [
                36.38238525390625,
                59.52294921875,
                1200.0
            ],
            [
                40.1142578125,
                65.91065216064453,
                1300.0
            ],
            [
                43.854347229003906,
                72.2983169555664,
                1400.0
            ],
            [
                47.5988655090332,
                78.68577575683594,
                1500.0
            ],
            [
                51.353416442871094,
                85.07341003417969,
                1600.0
            ],
            [
                55.11640548706055,
                91.46109008789063,
                1700.0
            ],
            [
                58.8876953125,
                97.84881591796875,
                1800.0
            ],
            [
                62.6689567565918,
                104.23662567138672,
                1900.0
            ],
            [
                66.46281433105469,
                110.62454223632813,
                2000.0
            ],
            [
                70.26847076416016,
                117.01258087158203,
                2100.0
            ],
            [
                74.09098052978516,
                123.40081787109375,
                2200.0
            ],
            [
                77.93273162841797,
                129.78929138183594,
                2300.0
            ],
            [
                81.7950439453125,
                136.17811584472656,
                2400.0
            ],
            [
                85.68373107910156,
                142.56700134277344,
                2500.0
            ],
            [
                89.6064224243164,
                148.95677185058594,
                2600.0
            ],
            [
                93.57303619384766,
                155.34722900390625,
                2700.0
            ],
            [
                97.5839614868164,
                161.7385711669922,
                2800.0
            ],
            [
                101.65298461914063,
                168.1309814453125,
                2900.0
            ],
            [
                105.78865814208984,
                174.52432250976563,
                3000.0
            ],
            [
                109.99978637695313,
                180.9188232421875,
                3100.0
            ],
            [
                114.30574035644531,
                187.31491088867188,
                3200.0
            ],
            [
                118.71168518066406,
                193.71279907226563,
                3300.0
            ],
            [
                123.22055053710938,
                200.11233520507813,
                3400.0
            ],
            [
                127.86641693115234,
                206.51321411132813,
                3500.0
            ],
            [
                132.64759826660156,
                212.91659545898438,
                3600.0
            ],
            [
                137.5889892578125,
                219.322509765625,
                3700.0
            ],
            [
                142.6995849609375,
                225.73043823242188,
                3800.0
            ],
            [
                147.9873504638672,
                232.1402130126953,
                3900.0
            ],
            [
                153.45840454101563,
                238.55255126953125,
                4000.0
            ],
            [
                159.15692138671875,
                244.96771240234375,
                4100.0
            ],
            [
                165.060302734375,
                251.38534545898438,
                4200.0
            ],
            [
                171.1896209716797,
                257.8050537109375,
                4300.0
            ],
            [
                177.52096557617188,
                264.2266540527344,
                4400.0
            ],
            [
                184.09266662597656,
                270.6515197753906,
                4500.0
            ],
            [
                190.90257263183594,
                277.0777893066406,
                4600.0
            ],
            [
                197.94447326660156,
                283.5059814453125,
                4700.0
            ],
            [
                205.22494506835938,
                289.9350280761719,
                4800.0
            ],
            [
                212.7205810546875,
                296.3656005859375,
                4900.0
            ],
            [
                221.56427001953125,
                300.9768981933594,
                5000.0
            ],
            [
                229.5703887939453,
                307.3589172363281,
                5100.0
            ],
            [
                237.80300903320313,
                313.7416076660156,
                5200.0
            ],
            [
                246.2651824951172,
                320.12530517578125,
                5300.0
            ],
            [
                254.94834899902344,
                326.5083923339844,
                5400.0
            ],
            [
                263.85369873046875,
                332.8916015625,
                5500.0
            ],
            [
                272.9671630859375,
                339.27801513671875,
                5600.0
            ],
            [
                282.29742431640625,
                345.6633605957031,
                5700.0
            ],
            [
                291.8365783691406,
                352.049072265625,
                5800.0
            ],
            [
                301.5711975097656,
                358.43463134765625,
                5900.0
            ],
            [
                311.5097961425781,
                364.8218078613281,
                6000.0
            ],
            [
                321.638427734375,
                371.20904541015625,
                6100.0
            ],
            [
                331.952880859375,
                377.5950927734375,
                6200.0
            ],
            [
                342.4481201171875,
                383.9805908203125,
                6300.0
            ],
            [
                353.1159362792969,
                390.365234375,
                6400.0
            ],
            [
                363.95233154296875,
                396.7486572265625,
                6500.0
            ],
            [
                374.947265625,
                403.1314697265625,
                6600.0
            ],
            [
                386.0969543457031,
                409.5127868652344,
                6700.0
            ],
            [
                397.38916015625,
                415.8924560546875,
                6800.0
            ],
            [
                408.82293701171875,
                422.27056884765625,
                6900.0
            ],
            [
                420.3868103027344,
                428.64691162109375,
                7000.0
            ],
            [
                432.07257080078125,
                435.02130126953125,
                7100.0
            ],
            [
                443.8723449707031,
                441.3937072753906,
                7200.0
            ],
            [
                455.7793273925781,
                447.7641906738281,
                7300.0
            ],
            [
                467.7886962890625,
                454.1328430175781,
                7400.0
            ],
            [
                479.88690185546875,
                460.4997863769531,
                7500.0
            ],
            [
                492.07269287109375,
                466.8648376464844,
                7600.0
            ],
            [
                504.336181640625,
                473.2281494140625,
                7700.0
            ],
            [
                516.6737060546875,
                479.5898132324219,
                7800.0
            ],
            [
                529.0784301757813,
                485.949951171875,
                7900.0
            ],
            [
                541.544189453125,
                492.3087463378906,
                8000.0
            ],
            [
                554.0675048828125,
                498.6662292480469,
                8100.0
            ],
            [
                566.6414184570313,
                505.02264404296875,
                8200.0
            ],
            [
                579.2626342773438,
                511.3780212402344,
                8300.0
            ],
            [
                591.9274291992188,
                517.7324829101563,
                8400.0
            ],
            [
                604.6319580078125,
                524.086181640625,
                8500.0
            ],
            [
                617.3716430664063,
                530.4391479492188,
                8600.0
            ],
            [
                630.1444702148438,
                536.7915649414063,
                8700.0
            ],
            [
                642.9472045898438,
                543.1434326171875,
                8800.0
            ],
            [
                655.777099609375,
                549.494873046875,
                8900.0
            ],
            [
                668.632080078125,
                555.8460083007813,
                9000.0
            ],
            [
                681.509765625,
                562.1968994140625,
                9100.0
            ],
            [
                694.4080810546875,
                568.5475463867188,
                9200.0
            ],
            [
                707.3252563476563,
                574.8980712890625,
                9300.0
            ],
            [
                720.2594604492188,
                581.24853515625,
                9400.0
            ],
            [
                733.209228515625,
                587.598876953125,
                9500.0
            ],
            [
                746.173095703125,
                593.94921875,
                9600.0
            ],
            [
                759.1497802734375,
                600.299560546875,
                9700.0
            ],
            [
                772.13818359375,
                606.6499633789063,
                9800.0
            ],
            [
                785.1371459960938,
                613.0004272460938,
                9900.0
            ],
            [
                798.145751953125,
                619.3509521484375,
                10000.0
            ],
            [
                824.1884765625,
                632.05224609375,
                10200.0
            ],
            [
                850.2603149414063,
                644.7539672851563,
                10400.0
            ],
            [
                876.3557739257813,
                657.4561157226563,
                10600.0
            ],
            [
                902.4714965820313,
                670.1587524414063,
                10800.0
            ],
            [
                928.60302734375,
                682.8618774414063,
                11000.0
            ],
            [
                954.748046875,
                695.5654296875,
                11200.0
            ],
            [
                980.9046020507813,
                708.2693481445313,
                11400.0
            ],
            [
                1007.0697021484375,
                720.9737548828125,
                11600.0
            ],
            [
                1033.2421875,
                733.6785278320313,
                11800.0
            ],
            [
                1059.4202880859375,
                746.3836059570313,
                12000.0
            ],
            [
                1085.604248046875,
                759.0889282226563,
                12200.0
            ],
            [
                1111.7919921875,
                771.7945556640625,
                12400.0
            ],
            [
                1137.9818115234375,
                784.50048828125,
                12600.0
            ],
            [
                1164.174072265625,
                797.20654296875,
                12800.0
            ],
            [
                1190.368896484375,
                809.9127807617188,
                13000.0
            ],
            [
                1216.5654296875,
                822.619140625,
                13200.0
            ],
            [
                1242.762939453125,
                835.3255615234375,
                13400.0
            ]
        ],
        "zFirstMeasurement": 434.2704
    }
]
