[
    {
        "E": 29774.094848819073,
        "chi2": 0.0,
        "ip": 0.016184748199635907,
        "ipchi2": 0.763640199039778,
        "mass": 1867.331,
        "particleId": "D0",
        "pvx": 0.6023,
        "pvy": 0.0563,
        "pvz": 9.2575,
        "px": 522.31,
        "py": 2675.82,
        "pz": 29590.15,
        "q": 0.0,
        "trajectory": [
            [
                0.6022999882698059,
                0.056299999356269836,
                9.257499694824219
            ],
            [
                0.6513000130653381,
                0.24320000410079956,
                11.23550033569336
            ]
        ],
        "zFirstMeasurement": -9999.0
    },
    {
        "E": 15725.354692736104,
        "chi2": 0.8992599248886108,
        "ip": 0.1214423506298541,
        "ipchi2": 22.03302948853359,
        "mass": 493.677,
        "particleId": "K-",
        "pvx": 0.6023,
        "pvy": 0.0563,
        "pvz": 9.2575,
        "px": -303.25,
        "py": 2051.0,
        "pz": 15580.26,
        "q": -1.0,
        "trajectory": [
            [
                0.6655154824256897,
                0.24947407841682434,
                11.23550033569336
            ],
            [
                0.5681931972503662,
                0.9076794981956482,
                16.23550033569336
            ],
            [
                0.4708673059940338,
                1.5658849477767944,
                21.23550033569336
            ],
            [
                0.3735378682613373,
                2.224090576171875,
                26.23550033569336
            ],
            [
                0.27620476484298706,
                2.882296085357666,
                31.23550033569336
            ],
            [
                0.17886795103549957,
                3.540501594543457,
                36.23550033569336
            ],
            [
                0.08152738958597183,
                4.198707580566406,
                41.23550033569336
            ],
            [
                -0.015816988423466682,
                4.856913089752197,
                46.23550033569336
            ],
            [
                -0.1131652370095253,
                5.5151190757751465,
                51.23550033569336
            ],
            [
                -0.21051742136478424,
                6.1733245849609375,
                56.23550033569336
            ],
            [
                -0.30785608291625977,
                6.831523895263672,
                61.23550033569336
            ],
            [
                -0.4052160084247589,
                7.489729881286621,
                66.2354965209961
            ],
            [
                -0.5025796294212341,
                8.14793586730957,
                71.2354965209961
            ],
            [
                -0.5999470949172974,
                8.80614185333252,
                76.2354965209961
            ],
            [
                -0.6973183155059814,
                9.464347839355469,
                81.2354965209961
            ],
            [
                -0.7946934700012207,
                10.122553825378418,
                86.2354965209961
            ],
            [
                -0.8920726180076599,
                10.780759811401367,
                91.2354965209961
            ],
            [
                -0.9894557595252991,
                11.438965797424316,
                96.2354965209961
            ],
            [
                -1.0868428945541382,
                12.097172737121582,
                101.2354965209961
            ],
            [
                -1.476433515548706,
                14.729997634887695,
                121.2354965209961
            ],
            [
                -1.8660945892333984,
                17.362823486328125,
                141.23550415039063
            ],
            [
                -2.2558305263519287,
                19.995651245117188,
                161.23550415039063
            ],
            [
                -2.645646095275879,
                22.62847900390625,
                181.23550415039063
            ],
            [
                -3.035545587539673,
                25.261308670043945,
                201.23550415039063
            ],
            [
                -3.425489664077759,
                27.894136428833008,
                221.23550415039063
            ],
            [
                -3.8155429363250732,
                30.526968002319336,
                241.23550415039063
            ],
            [
                -4.205684185028076,
                33.15979766845703,
                261.2355041503906
            ],
            [
                -4.595917224884033,
                35.79262924194336,
                281.2355041503906
            ],
            [
                -4.986245155334473,
                38.42546463012695,
                301.2355041503906
            ],
            [
                -5.376671314239502,
                41.05829620361328,
                321.2355041503906
            ],
            [
                -5.767198085784912,
                43.691131591796875,
                341.2355041503906
            ],
            [
                -6.157829284667969,
                46.32396697998047,
                361.2355041503906
            ],
            [
                -6.548567771911621,
                48.95680236816406,
                381.2355041503906
            ],
            [
                -6.939416408538818,
                51.589637756347656,
                401.2355041503906
            ],
            [
                -7.330385684967041,
                54.222476959228516,
                421.2355041503906
            ],
            [
                -7.721479415893555,
                56.855316162109375,
                441.2355041503906
            ],
            [
                -8.112698554992676,
                59.488155364990234,
                461.2355041503906
            ],
            [
                -8.504044532775879,
                62.120994567871094,
                481.2355041503906
            ],
            [
                -8.895520210266113,
                64.75383758544922,
                501.2355041503906
            ],
            [
                -9.287134170532227,
                67.38668060302734,
                521.2354736328125
            ],
            [
                -9.678885459899902,
                70.01952362060547,
                541.2354736328125
            ],
            [
                -10.070778846740723,
                72.6523666381836,
                561.2354736328125
            ],
            [
                -10.46281623840332,
                75.28520965576172,
                581.2354736328125
            ],
            [
                -10.855016708374023,
                77.91805267333984,
                601.2354736328125
            ],
            [
                -11.247405052185059,
                80.5509033203125,
                621.2354736328125
            ],
            [
                -11.639957427978516,
                83.18375396728516,
                641.2354736328125
            ],
            [
                -12.032676696777344,
                85.81659698486328,
                661.2354736328125
            ],
            [
                -12.425567626953125,
                88.44944763183594,
                681.2354736328125
            ],
            [
                -12.818633079528809,
                91.0822982788086,
                701.2354736328125
            ],
            [
                -13.211877822875977,
                93.71515655517578,
                721.2354736328125
            ],
            [
                -13.605304718017578,
                96.34800720214844,
                741.2354736328125
            ],
            [
                -13.998939514160156,
                98.9808578491211,
                761.2354736328125
            ],
            [
                -14.392807006835938,
                101.61371612548828,
                781.2354736328125
            ],
            [
                -14.786874771118164,
                104.24656677246094,
                801.2354736328125
            ],
            [
                -15.181143760681152,
                106.8794174194336,
                821.2354736328125
            ],
            [
                -15.575621604919434,
                109.51227569580078,
                841.2354736328125
            ],
            [
                -15.970314025878906,
                112.14512634277344,
                861.2354736328125
            ],
            [
                -16.365224838256836,
                114.77798461914063,
                881.2354736328125
            ],
            [
                -16.76035499572754,
                117.41084289550781,
                901.2354736328125
            ],
            [
                -17.155675888061523,
                120.043701171875,
                921.2354736328125
            ],
            [
                -17.551286697387695,
                122.67655181884766,
                941.2354736328125
            ],
            [
                -17.94716453552246,
                125.30941009521484,
                961.2354736328125
            ],
            [
                -18.34328842163086,
                127.94226837158203,
                981.2354736328125
            ],
            [
                -18.739654541015625,
                130.5751190185547,
                1001.2354736328125
            ],
            [
                -20.72500228881836,
                143.73941040039063,
                1101.2354736328125
            ],
            [
                -22.719987869262695,
                156.90362548828125,
                1201.2354736328125
            ],
            [
                -24.720048904418945,
                170.06781005859375,
                1301.2354736328125
            ],
            [
                -26.7266845703125,
                183.2319793701172,
                1401.2354736328125
            ],
            [
                -28.740266799926758,
                196.39614868164063,
                1501.2354736328125
            ],
            [
                -30.75908851623535,
                209.5602569580078,
                1601.2354736328125
            ],
            [
                -32.78451156616211,
                222.72439575195313,
                1701.2354736328125
            ],
            [
                -34.816829681396484,
                235.88853454589844,
                1801.2354736328125
            ],
            [
                -36.85700988769531,
                249.05274963378906,
                1901.2354736328125
            ],
            [
                -38.904232025146484,
                262.2171630859375,
                2001.2354736328125
            ],
            [
                -40.96243667602539,
                275.38177490234375,
                2101.235595703125
            ],
            [
                -43.035343170166016,
                288.546630859375,
                2201.235595703125
            ],
            [
                -45.11534118652344,
                301.711669921875,
                2301.235595703125
            ],
            [
                -47.21320343017578,
                314.8771057128906,
                2401.235595703125
            ],
            [
                -49.32889175415039,
                328.0429992675781,
                2501.235595703125
            ],
            [
                -51.471397399902344,
                341.2094421386719,
                2601.235595703125
            ],
            [
                -53.640419006347656,
                354.37664794921875,
                2701.235595703125
            ],
            [
                -55.84646224975586,
                367.5446472167969,
                2801.235595703125
            ],
            [
                -58.09360885620117,
                380.7137145996094,
                2901.235595703125
            ],
            [
                -60.39138412475586,
                393.8841247558594,
                3001.235595703125
            ],
            [
                -62.74583053588867,
                407.0559997558594,
                3101.235595703125
            ],
            [
                -65.18185424804688,
                420.22930908203125,
                3201.235595703125
            ],
            [
                -67.68560028076172,
                433.40460205078125,
                3301.235595703125
            ],
            [
                -70.28618621826172,
                446.58154296875,
                3401.235595703125
            ],
            [
                -72.99296569824219,
                459.7605285644531,
                3501.235595703125
            ],
            [
                -75.81348419189453,
                472.9429016113281,
                3601.235595703125
            ],
            [
                -78.77058410644531,
                486.127685546875,
                3701.235595703125
            ],
            [
                -81.87714385986328,
                499.3149719238281,
                3801.235595703125
            ],
            [
                -85.14722442626953,
                512.5055541992188,
                3901.235595703125
            ],
            [
                -88.60189056396484,
                525.6991577148438,
                4001.235595703125
            ],
            [
                -92.22296142578125,
                538.8950805664063,
                4101.2353515625
            ],
            [
                -96.07573699951172,
                552.0934448242188,
                4201.2353515625
            ],
            [
                -100.1286392211914,
                565.2926025390625,
                4301.2353515625
            ],
            [
                -104.3846435546875,
                578.4942626953125,
                4401.2353515625
            ],
            [
                -108.86137390136719,
                591.69873046875,
                4501.2353515625
            ],
            [
                -113.5565185546875,
                604.9034423828125,
                4601.2353515625
            ],
            [
                -118.46647644042969,
                618.1083984375,
                4701.2353515625
            ],
            [
                -121.61213684082031,
                635.0184936523438,
                4801.2353515625
            ],
            [
                -126.91754913330078,
                648.3234252929688,
                4901.2353515625
            ],
            [
                -132.42938232421875,
                661.6279296875,
                5001.2353515625
            ],
            [
                -138.161376953125,
                674.9329833984375,
                5101.2353515625
            ],
            [
                -144.0939483642578,
                688.2373046875,
                5201.2353515625
            ],
            [
                -150.23770141601563,
                701.54248046875,
                5301.2353515625
            ],
            [
                -156.58120727539063,
                714.845947265625,
                5401.2353515625
            ],
            [
                -163.12583923339844,
                728.1488647460938,
                5501.2353515625
            ],
            [
                -169.86216735839844,
                741.4522705078125,
                5601.2353515625
            ],
            [
                -176.79296875,
                754.752685546875,
                5701.2353515625
            ],
            [
                -183.92068481445313,
                768.05322265625,
                5801.2353515625
            ],
            [
                -191.22488403320313,
                781.3521728515625,
                5901.2353515625
            ],
            [
                -198.7200164794922,
                794.6494140625,
                6001.2353515625
            ],
            [
                -206.38792419433594,
                807.9449462890625,
                6101.2353515625
            ],
            [
                -214.22975158691406,
                821.2380981445313,
                6201.2353515625
            ],
            [
                -222.2417449951172,
                834.5286865234375,
                6301.2353515625
            ],
            [
                -230.41778564453125,
                847.8168334960938,
                6401.2353515625
            ],
            [
                -238.75323486328125,
                861.1010131835938,
                6501.2353515625
            ],
            [
                -247.24217224121094,
                874.3828125,
                6601.2353515625
            ],
            [
                -255.87631225585938,
                887.6604614257813,
                6701.2353515625
            ],
            [
                -264.6443786621094,
                900.9340209960938,
                6801.2353515625
            ],
            [
                -273.5458984375,
                914.2026977539063,
                6901.2353515625
            ],
            [
                -282.5674743652344,
                927.4666137695313,
                7001.2353515625
            ],
            [
                -291.6993103027344,
                940.7255859375,
                7101.2353515625
            ],
            [
                -300.93389892578125,
                953.9796752929688,
                7201.2353515625
            ],
            [
                -310.2613525390625,
                967.228759765625,
                7301.2353515625
            ],
            [
                -319.6775817871094,
                980.4727172851563,
                7401.2353515625
            ],
            [
                -329.1675109863281,
                993.7122802734375,
                7501.2353515625
            ],
            [
                -338.73004150390625,
                1006.9469604492188,
                7601.2353515625
            ],
            [
                -348.353515625,
                1020.177490234375,
                7701.2353515625
            ],
            [
                -358.033935546875,
                1033.4039306640625,
                7801.2353515625
            ],
            [
                -367.7651062011719,
                1046.6265869140625,
                7901.2353515625
            ],
            [
                -377.5411682128906,
                1059.8458251953125,
                8001.2353515625
            ],
            [
                -387.3585205078125,
                1073.0618896484375,
                8101.2353515625
            ],
            [
                -397.21148681640625,
                1086.275146484375,
                8201.2353515625
            ],
            [
                -407.096923828125,
                1099.48583984375,
                8301.2353515625
            ],
            [
                -417.0118103027344,
                1112.694091796875,
                8401.2353515625
            ],
            [
                -426.95318603515625,
                1125.9002685546875,
                8501.2353515625
            ],
            [
                -436.91741943359375,
                1139.104736328125,
                8601.2353515625
            ],
            [
                -446.9030456542969,
                1152.3074951171875,
                8701.2353515625
            ],
            [
                -456.9077453613281,
                1165.5089111328125,
                8801.2353515625
            ],
            [
                -466.9296569824219,
                1178.7091064453125,
                8901.2353515625
            ],
            [
                -476.9672546386719,
                1191.9080810546875,
                9001.2353515625
            ],
            [
                -487.0190124511719,
                1205.106201171875,
                9101.2353515625
            ],
            [
                -497.0834655761719,
                1218.303466796875,
                9201.2353515625
            ],
            [
                -507.159423828125,
                1231.5001220703125,
                9301.2353515625
            ],
            [
                -517.2457885742188,
                1244.696044921875,
                9401.2353515625
            ],
            [
                -527.3414916992188,
                1257.8916015625,
                9501.2353515625
            ],
            [
                -537.4457397460938,
                1271.0867919921875,
                9601.2353515625
            ],
            [
                -547.5576171875,
                1284.2816162109375,
                9701.2353515625
            ],
            [
                -557.676513671875,
                1297.4761962890625,
                9801.2353515625
            ],
            [
                -567.8016357421875,
                1310.6705322265625,
                9901.2353515625
            ],
            [
                -577.9324951171875,
                1323.86474609375,
                10001.2353515625
            ],
            [
                -598.209228515625,
                1350.2529296875,
                10201.2353515625
            ],
            [
                -618.5031127929688,
                1376.640869140625,
                10401.2353515625
            ],
            [
                -638.8108520507813,
                1403.02880859375,
                10601.2353515625
            ],
            [
                -659.1303100585938,
                1429.4168701171875,
                10801.2353515625
            ],
            [
                -679.4589233398438,
                1455.80517578125,
                11001.2353515625
            ],
            [
                -699.7953491210938,
                1482.1937255859375,
                11201.2353515625
            ],
            [
                -720.1383666992188,
                1508.5826416015625,
                11401.2353515625
            ],
            [
                -740.4862060546875,
                1534.971923828125,
                11601.2353515625
            ],
            [
                -760.8381958007813,
                1561.361572265625,
                11801.2353515625
            ],
            [
                -781.1934814453125,
                1587.75146484375,
                12001.2353515625
            ],
            [
                -801.5519409179688,
                1614.1417236328125,
                12201.2353515625
            ],
            [
                -821.9124145507813,
                1640.5322265625,
                12401.2353515625
            ],
            [
                -842.2739868164063,
                1666.923095703125,
                12601.2353515625
            ],
            [
                -862.636962890625,
                1693.314208984375,
                12801.2353515625
            ],
            [
                -883.0013427734375,
                1719.705322265625,
                13001.2353515625
            ],
            [
                -903.3665771484375,
                1746.0966796875,
                13201.2353515625
            ],
            [
                -923.7322387695313,
                1772.48828125,
                13401.2353515625
            ]
        ],
        "zFirstMeasurement": 109.4064
    },
    {
        "E": 14048.244336699061,
        "chi2": 0.535077691078186,
        "ip": 0.11807186881968862,
        "ipchi2": 25.129065520741438,
        "mass": 139.57,
        "particleId": "pi+",
        "pvx": 0.6023,
        "pvy": 0.0563,
        "pvz": 9.2575,
        "px": 824.43,
        "py": 624.4,
        "pz": 14009.43,
        "q": 1.0,
        "trajectory": [
            [
                0.6458467245101929,
                0.23737238347530365,
                11.23550033569336
            ],
            [
                0.9400973916053772,
                0.46022334694862366,
                16.23550033569336
            ],
            [
                1.2343519926071167,
                0.6830742359161377,
                21.23550033569336
            ],
            [
                1.5286104679107666,
                0.9059250950813293,
                26.23550033569336
            ],
            [
                1.8228731155395508,
                1.1287758350372314,
                31.23550033569336
            ],
            [
                2.1171398162841797,
                1.3516265153884888,
                36.23550033569336
            ],
            [
                2.4114108085632324,
                1.5744770765304565,
                41.23550033569336
            ],
            [
                2.70568585395813,
                1.7973276376724243,
                46.23550033569336
            ],
            [
                2.9999654293060303,
                2.0201780796051025,
                51.23550033569336
            ],
            [
                3.2942492961883545,
                2.243028402328491,
                56.23550033569336
            ],
            [
                3.5885374546051025,
                2.46587872505188,
                61.23550033569336
            ],
            [
                3.8828911781311035,
                2.688730478286743,
                66.2354965209961
            ],
            [
                4.177187919616699,
                2.911580801010132,
                71.2354965209961
            ],
            [
                4.471488952636719,
                3.1344306468963623,
                76.2354965209961
            ],
            [
                4.765794277191162,
                3.357280731201172,
                81.2354965209961
            ],
            [
                5.060103893280029,
                3.5801305770874023,
                86.2354965209961
            ],
            [
                5.35441780090332,
                3.802980422973633,
                91.2354965209961
            ],
            [
                5.648736000061035,
                4.025830268859863,
                96.2354965209961
            ],
            [
                5.943058490753174,
                4.248680114746094,
                101.2354965209961
            ],
            [
                7.120394229888916,
                5.140078067779541,
                121.2354965209961
            ],
            [
                8.297806739807129,
                6.031474590301514,
                141.23550415039063
            ],
            [
                9.475300788879395,
                6.92287015914917,
                161.23550415039063
            ],
            [
                10.65288257598877,
                7.81426477432251,
                181.23550415039063
            ],
            [
                11.830556869506836,
                8.705658912658691,
                201.23550415039063
            ],
            [
                13.008328437805176,
                9.597051620483398,
                221.23550415039063
            ],
            [
                14.186145782470703,
                10.488442420959473,
                241.23550415039063
            ],
            [
                15.364093780517578,
                11.379833221435547,
                261.2355041503906
            ],
            [
                16.542144775390625,
                12.271223068237305,
                281.2355041503906
            ],
            [
                17.72030258178711,
                13.16261100769043,
                301.2355041503906
            ],
            [
                18.898569107055664,
                14.053998947143555,
                321.2355041503906
            ],
            [
                20.076948165893555,
                14.945385932922363,
                341.2355041503906
            ],
            [
                21.25544548034668,
                15.836772918701172,
                361.2355041503906
            ],
            [
                22.434062957763672,
                16.728158950805664,
                381.2355041503906
            ],
            [
                23.612810134887695,
                17.619543075561523,
                401.2355041503906
            ],
            [
                24.791690826416016,
                18.510927200317383,
                421.2355041503906
            ],
            [
                25.97071075439453,
                19.402311325073242,
                441.2355041503906
            ],
            [
                27.14986801147461,
                20.29369354248047,
                461.2355041503906
            ],
            [
                28.32917022705078,
                21.185075759887695,
                481.2355041503906
            ],
            [
                29.508621215820313,
                22.076457977294922,
                501.2355041503906
            ],
            [
                30.688230514526367,
                22.96784019470215,
                521.2354736328125
            ],
            [
                31.867998123168945,
                23.859222412109375,
                541.2354736328125
            ],
            [
                33.04792785644531,
                24.75060272216797,
                561.2354736328125
            ],
            [
                34.22801971435547,
                25.641984939575195,
                581.2354736328125
            ],
            [
                35.40830993652344,
                26.53336524963379,
                601.2354736328125
            ],
            [
                36.58879089355469,
                27.424745559692383,
                621.2354736328125
            ],
            [
                37.76945877075195,
                28.31612777709961,
                641.2354736328125
            ],
            [
                38.950313568115234,
                29.207508087158203,
                661.2354736328125
            ],
            [
                40.13136291503906,
                30.098888397216797,
                681.2354736328125
            ],
            [
                41.3126106262207,
                30.990270614624023,
                701.2354736328125
            ],
            [
                42.494056701660156,
                31.881649017333984,
                721.2354736328125
            ],
            [
                43.67572021484375,
                32.77302932739258,
                741.2354736328125
            ],
            [
                44.857643127441406,
                33.66440963745117,
                761.2354736328125
            ],
            [
                46.03982925415039,
                34.555789947509766,
                781.2354736328125
            ],
            [
                47.222251892089844,
                35.447174072265625,
                801.2354736328125
            ],
            [
                48.404903411865234,
                36.33855438232422,
                821.2354736328125
            ],
            [
                49.587799072265625,
                37.22993850708008,
                841.2354736328125
            ],
            [
                50.77094650268555,
                38.12131881713867,
                861.2354736328125
            ],
            [
                51.954345703125,
                39.01270294189453,
                881.2354736328125
            ],
            [
                53.138004302978516,
                39.90408706665039,
                901.2354736328125
            ],
            [
                54.3219108581543,
                40.79547119140625,
                921.2354736328125
            ],
            [
                55.50616455078125,
                41.68686294555664,
                941.2354736328125
            ],
            [
                56.690696716308594,
                42.57825469970703,
                961.2354736328125
            ],
            [
                57.875518798828125,
                43.46965026855469,
                981.2354736328125
            ],
            [
                59.06062698364258,
                44.36104202270508,
                1001.2354736328125
            ],
            [
                64.99044036865234,
                48.81801986694336,
                1101.2354736328125
            ],
            [
                70.92967224121094,
                53.27487564086914,
                1201.2354736328125
            ],
            [
                76.87549591064453,
                57.73179244995117,
                1301.2354736328125
            ],
            [
                82.82894897460938,
                62.18867874145508,
                1401.2354736328125
            ],
            [
                88.7901611328125,
                66.64552307128906,
                1501.2354736328125
            ],
            [
                94.75785064697266,
                71.10234069824219,
                1601.2354736328125
            ],
            [
                100.73358917236328,
                75.55918884277344,
                1701.2354736328125
            ],
            [
                106.71863555908203,
                80.01610565185547,
                1801.2354736328125
            ],
            [
                112.71360778808594,
                84.4731216430664,
                1901.2354736328125
            ],
            [
                118.71944427490234,
                88.93029022216797,
                2001.2354736328125
            ],
            [
                124.73954010009766,
                93.38751220703125,
                2101.235595703125
            ],
            [
                130.7774200439453,
                97.84503173828125,
                2201.235595703125
            ],
            [
                136.8287811279297,
                102.30282592773438,
                2301.235595703125
            ],
            [
                142.90509033203125,
                106.760986328125,
                2401.235595703125
            ],
            [
                149.0079803466797,
                111.21971130371094,
                2501.235595703125
            ],
            [
                155.1478729248047,
                115.6792221069336,
                2601.235595703125
            ],
            [
                161.3240203857422,
                120.13944244384766,
                2701.235595703125
            ],
            [
                167.54879760742188,
                124.6005630493164,
                2801.235595703125
            ],
            [
                173.82986450195313,
                129.06309509277344,
                2901.235595703125
            ],
            [
                180.1788330078125,
                133.5269775390625,
                3001.235595703125
            ],
            [
                186.59909057617188,
                137.99208068847656,
                3101.235595703125
            ],
            [
                193.1141357421875,
                142.4587860107422,
                3201.235595703125
            ],
            [
                199.7212677001953,
                146.92739868164063,
                3301.235595703125
            ],
            [
                206.448486328125,
                151.39833068847656,
                3401.235595703125
            ],
            [
                213.3031005859375,
                155.87130737304688,
                3501.235595703125
            ],
            [
                220.28961181640625,
                160.34609985351563,
                3601.235595703125
            ],
            [
                227.42649841308594,
                164.82318115234375,
                3701.235595703125
            ],
            [
                234.73245239257813,
                169.30316162109375,
                3801.235595703125
            ],
            [
                242.2066192626953,
                173.78565979003906,
                3901.235595703125
            ],
            [
                249.8815460205078,
                178.27078247070313,
                4001.235595703125
            ],
            [
                257.7370300292969,
                182.7582550048828,
                4101.2353515625
            ],
            [
                265.8138122558594,
                187.24737548828125,
                4201.2353515625
            ],
            [
                274.1098937988281,
                191.7398681640625,
                4301.2353515625
            ],
            [
                282.6203308105469,
                196.2343292236328,
                4401.2353515625
            ],
            [
                291.34765625,
                200.73040771484375,
                4501.2353515625
            ],
            [
                300.3011474609375,
                205.22830200195313,
                4601.2353515625
            ],
            [
                309.48944091796875,
                209.72860717773438,
                4701.2353515625
            ],
            [
                317.0897216796875,
                216.37953186035156,
                4801.2353515625
            ],
            [
                326.7120666503906,
                220.94691467285156,
                4901.2353515625
            ],
            [
                336.5560302734375,
                225.51519775390625,
                5001.2353515625
            ],
            [
                346.6311950683594,
                230.0872344970703,
                5101.2353515625
            ],
            [
                356.9270324707031,
                234.66001892089844,
                5201.2353515625
            ],
            [
                367.4466247558594,
                239.23385620117188,
                5301.2353515625
            ],
            [
                378.1816711425781,
                243.80714416503906,
                5401.2353515625
            ],
            [
                389.1331481933594,
                248.380126953125,
                5501.2353515625
            ],
            [
                400.2872009277344,
                252.95631408691406,
                5601.2353515625
            ],
            [
                411.652099609375,
                257.5315246582031,
                5701.2353515625
            ],
            [
                423.22027587890625,
                262.1069641113281,
                5801.2353515625
            ],
            [
                434.97869873046875,
                266.6822509765625,
                5901.2353515625
            ],
            [
                446.934814453125,
                271.2591247558594,
                6001.2353515625
            ],
            [
                459.0761413574219,
                275.836181640625,
                6101.2353515625
            ],
            [
                471.3978576660156,
                280.41229248046875,
                6201.2353515625
            ],
            [
                483.8949279785156,
                284.9878234863281,
                6301.2353515625
            ],
            [
                496.55938720703125,
                289.5626220703125,
                6401.2353515625
            ],
            [
                509.38775634765625,
                294.1362609863281,
                6501.2353515625
            ],
            [
                522.3692626953125,
                298.7096252441406,
                6601.2353515625
            ],
            [
                535.500732421875,
                303.28173828125,
                6701.2353515625
            ],
            [
                548.7705078125,
                307.8525085449219,
                6801.2353515625
            ],
            [
                562.1774291992188,
                312.4221496582031,
                6901.2353515625
            ],
            [
                575.7108764648438,
                316.99041748046875,
                7001.2353515625
            ],
            [
                589.3628540039063,
                321.5571594238281,
                7101.2353515625
            ],
            [
                603.1257934570313,
                326.122314453125,
                7201.2353515625
            ],
            [
                616.9934692382813,
                330.6859436035156,
                7301.2353515625
            ],
            [
                630.9607543945313,
                335.2482604980469,
                7401.2353515625
            ],
            [
                645.0154418945313,
                339.809326171875,
                7501.2353515625
            ],
            [
                659.1555786132813,
                344.36895751953125,
                7601.2353515625
            ],
            [
                673.3720703125,
                348.92730712890625,
                7701.2353515625
            ],
            [
                687.6614990234375,
                353.4844665527344,
                7801.2353515625
            ],
            [
                702.017333984375,
                358.0405578613281,
                7901.2353515625
            ],
            [
                716.43359375,
                362.59564208984375,
                8001.2353515625
            ],
            [
                730.9067993164063,
                367.1498718261719,
                8101.2353515625
            ],
            [
                745.4302978515625,
                371.703369140625,
                8201.2353515625
            ],
            [
                760.0008544921875,
                376.2561950683594,
                8301.2353515625
            ],
            [
                774.6148071289063,
                380.8084411621094,
                8401.2353515625
            ],
            [
                789.2685546875,
                385.36016845703125,
                8501.2353515625
            ],
            [
                803.957275390625,
                389.9115295410156,
                8601.2353515625
            ],
            [
                818.67919921875,
                394.4625549316406,
                8701.2353515625
            ],
            [
                833.4310913085938,
                399.0133056640625,
                8801.2353515625
            ],
            [
                848.210205078125,
                403.5638732910156,
                8901.2353515625
            ],
            [
                863.0144653320313,
                408.11431884765625,
                9001.2353515625
            ],
            [
                877.8414916992188,
                412.6646728515625,
                9101.2353515625
            ],
            [
                892.689208984375,
                417.2149963378906,
                9201.2353515625
            ],
            [
                907.5558471679688,
                421.76531982421875,
                9301.2353515625
            ],
            [
                922.4395751953125,
                426.3157043457031,
                9401.2353515625
            ],
            [
                937.3388671875,
                430.86614990234375,
                9501.2353515625
            ],
            [
                952.2523193359375,
                435.41668701171875,
                9601.2353515625
            ],
            [
                967.1786499023438,
                439.9673156738281,
                9701.2353515625
            ],
            [
                982.11669921875,
                444.5180969238281,
                9801.2353515625
            ],
            [
                997.0652465820313,
                449.0689697265625,
                9901.2353515625
            ],
            [
                1012.0235595703125,
                453.6199951171875,
                10001.2353515625
            ],
            [
                1041.965576171875,
                462.7225036621094,
                10201.2353515625
            ],
            [
                1071.936767578125,
                471.8255920410156,
                10401.2353515625
            ],
            [
                1101.9315185546875,
                480.92926025390625,
                10601.2353515625
            ],
            [
                1131.946533203125,
                490.03350830078125,
                10801.2353515625
            ],
            [
                1161.977294921875,
                499.1383056640625,
                11001.2353515625
            ],
            [
                1192.021484375,
                508.2435607910156,
                11201.2353515625
            ],
            [
                1222.0771484375,
                517.3493041992188,
                11401.2353515625
            ],
            [
                1252.1412353515625,
                526.4554443359375,
                11601.2353515625
            ],
            [
                1282.2127685546875,
                535.5619506835938,
                11801.2353515625
            ],
            [
                1312.289794921875,
                544.6688232421875,
                12001.2353515625
            ],
            [
                1342.3726806640625,
                553.7760009765625,
                12201.2353515625
            ],
            [
                1372.459228515625,
                562.8833618164063,
                12401.2353515625
            ],
            [
                1402.5478515625,
                571.9910278320313,
                12601.2353515625
            ],
            [
                1432.6387939453125,
                581.098876953125,
                12801.2353515625
            ],
            [
                1462.7322998046875,
                590.206787109375,
                13001.2353515625
            ],
            [
                1492.82763671875,
                599.3148803710938,
                13201.2353515625
            ],
            [
                1522.923828125,
                608.423095703125,
                13401.2353515625
            ]
        ],
        "zFirstMeasurement": 124.0877
    },
    {
        "E": 18527.84569823338,
        "chi2": 0.8173437714576721,
        "ip": 0.19051393362438568,
        "ipchi2": 4.175760456080863,
        "mass": 139.57018,
        "particleId": "pi-",
        "pvx": 0.6023,
        "pvy": 0.0563,
        "pvz": 9.2575,
        "px": 220.20612144902225,
        "py": 285.2048946156501,
        "pz": 18523.815854584704,
        "q": -1.0,
        "trajectory": [
            [
                -0.8459812998771667,
                -1.7446666955947876,
                -100.0
            ],
            [
                -0.7864978313446045,
                -1.6676843166351318,
                -95.0
            ],
            [
                -0.7270163893699646,
                -1.5907018184661865,
                -90.0
            ],
            [
                -0.6675370335578918,
                -1.5137193202972412,
                -85.0
            ],
            [
                -0.6080597639083862,
                -1.4367367029190063,
                -80.0
            ],
            [
                -0.5485845804214478,
                -1.3597540855407715,
                -75.0
            ],
            [
                -0.48911163210868835,
                -1.2827714681625366,
                -70.0
            ],
            [
                -0.42964088916778564,
                -1.2057887315750122,
                -65.0
            ],
            [
                -0.3701724112033844,
                -1.1288059949874878,
                -60.0
            ],
            [
                -0.310706228017807,
                -1.0518231391906738,
                -55.0
            ],
            [
                -0.25124242901802063,
                -0.9748403429985046,
                -50.0
            ],
            [
                -0.19178098440170288,
                -0.8978574275970459,
                -45.0
            ],
            [
                -0.13232198357582092,
                -0.8208745121955872,
                -40.0
            ],
            [
                -0.07286545634269714,
                -0.7438914775848389,
                -35.0
            ],
            [
                -0.013411440886557102,
                -0.6669084429740906,
                -30.0
            ],
            [
                0.046040017157793045,
                -0.5899253487586975,
                -25.0
            ],
            [
                0.10548887401819229,
                -0.5129422545433044,
                -20.0
            ],
            [
                0.16493509709835052,
                -0.4359590709209442,
                -15.0
            ],
            [
                0.22437863051891327,
                -0.3589758574962616,
                -10.0
            ],
            [
                0.2838194668292999,
                -0.2819925844669342,
                -5.0
            ],
            [
                0.34325751662254333,
                -0.20500928163528442,
                0.0
            ],
            [
                0.4026927649974823,
                -0.12802591919898987,
                5.0
            ],
            [
                0.46212515234947205,
                -0.051042526960372925,
                10.0
            ],
            [
                0.5215546488761902,
                0.025940917432308197,
                15.0
            ],
            [
                0.5809811353683472,
                0.1029244065284729,
                20.0
            ],
            [
                0.6404047012329102,
                0.1799079328775406,
                25.0
            ],
            [
                0.6998251676559448,
                0.25689151883125305,
                30.0
            ],
            [
                0.7592425346374512,
                0.3338751196861267,
                35.0
            ],
            [
                0.8186567425727844,
                0.41085878014564514,
                40.0
            ],
            [
                0.8780677318572998,
                0.48784250020980835,
                45.0
            ],
            [
                0.9374755024909973,
                0.564826250076294,
                50.0
            ],
            [
                0.9968799948692322,
                0.6418100595474243,
                55.0
            ],
            [
                1.0562810897827148,
                0.7187938690185547,
                60.0
            ],
            [
                1.1156789064407349,
                0.7957777976989746,
                65.0
            ],
            [
                1.1750731468200684,
                0.8727617263793945,
                70.0
            ],
            [
                1.2344639301300049,
                0.9497456550598145,
                75.0
            ],
            [
                1.2938511371612549,
                1.026729702949524,
                80.0
            ],
            [
                1.353234887123108,
                1.1037137508392334,
                85.0
            ],
            [
                1.4126148223876953,
                1.1806979179382324,
                90.0
            ],
            [
                1.4719911813735962,
                1.257681965827942,
                95.0
            ],
            [
                1.5313878059387207,
                1.3346662521362305,
                100.0
            ],
            [
                1.7688562870025635,
                1.6426033973693848,
                120.0
            ],
            [
                2.0062673091888428,
                1.950541377067566,
                140.0
            ],
            [
                2.2436184883117676,
                2.2584798336029053,
                160.0
            ],
            [
                2.4809062480926514,
                2.5664191246032715,
                180.0
            ],
            [
                2.718127489089966,
                2.874359130859375,
                200.0
            ],
            [
                2.955280303955078,
                3.1822996139526367,
                220.0
            ],
            [
                3.1923630237579346,
                3.4902408123016357,
                240.0
            ],
            [
                3.429373025894165,
                3.798182725906372,
                260.0
            ],
            [
                3.6663079261779785,
                4.1061248779296875,
                280.0
            ],
            [
                3.9031777381896973,
                4.414064884185791,
                300.0
            ],
            [
                4.139941692352295,
                4.722008228302002,
                320.0
            ],
            [
                4.376621723175049,
                5.029952526092529,
                340.0
            ],
            [
                4.613216400146484,
                5.337896823883057,
                360.0
            ],
            [
                4.8497209548950195,
                5.645841598510742,
                380.0
            ],
            [
                5.086132049560547,
                5.953787326812744,
                400.0
            ],
            [
                5.322444438934326,
                6.261733055114746,
                420.0
            ],
            [
                5.558655261993408,
                6.569679260253906,
                440.0
            ],
            [
                5.7947587966918945,
                6.877625942230225,
                460.0
            ],
            [
                6.030754089355469,
                7.185572624206543,
                480.0
            ],
            [
                6.266663551330566,
                7.493520259857178,
                500.0
            ],
            [
                6.502413272857666,
                7.8014678955078125,
                520.0
            ],
            [
                6.738048553466797,
                8.109416007995605,
                540.0
            ],
            [
                6.973563194274902,
                8.417364120483398,
                560.0
            ],
            [
                7.208950042724609,
                8.725312232971191,
                580.0
            ],
            [
                7.4442033767700195,
                9.0332612991333,
                600.0
            ],
            [
                7.679315567016602,
                9.34121036529541,
                620.0
            ],
            [
                7.914279937744141,
                9.64915943145752,
                640.0
            ],
            [
                8.149088859558105,
                9.957109451293945,
                660.0
            ],
            [
                8.383734703063965,
                10.265058517456055,
                680.0
            ],
            [
                8.618288040161133,
                10.573007583618164,
                700.0
            ],
            [
                8.85263442993164,
                10.88095760345459,
                720.0
            ],
            [
                9.086812973022461,
                11.188905715942383,
                740.0
            ],
            [
                9.320818901062012,
                11.496854782104492,
                760.0
            ],
            [
                9.554647445678711,
                11.804802894592285,
                780.0
            ],
            [
                9.788296699523926,
                12.112751007080078,
                800.0
            ],
            [
                10.021759986877441,
                12.420699119567871,
                820.0
            ],
            [
                10.255033493041992,
                12.728646278381348,
                840.0
            ],
            [
                10.488112449645996,
                13.036593437194824,
                860.0
            ],
            [
                10.720991134643555,
                13.344539642333984,
                880.0
            ],
            [
                10.953665733337402,
                13.652485847473145,
                900.0
            ],
            [
                11.186136245727539,
                13.960431098937988,
                920.0
            ],
            [
                11.4183931350708,
                14.268375396728516,
                940.0
            ],
            [
                11.65043830871582,
                14.576319694519043,
                960.0
            ],
            [
                11.882271766662598,
                14.88426399230957,
                980.0
            ],
            [
                12.11388874053955,
                15.192208290100098,
                1000.0
            ],
            [
                13.26861572265625,
                16.731924057006836,
                1100.0
            ],
            [
                14.417622566223145,
                18.271629333496094,
                1200.0
            ],
            [
                15.560624122619629,
                19.811323165893555,
                1300.0
            ],
            [
                16.698030471801758,
                21.351011276245117,
                1400.0
            ],
            [
                17.829227447509766,
                22.89069175720215,
                1500.0
            ],
            [
                18.956010818481445,
                24.430343627929688,
                1600.0
            ],
            [
                20.076040267944336,
                25.970003128051758,
                1700.0
            ],
            [
                21.189180374145508,
                27.509654998779297,
                1800.0
            ],
            [
                22.294710159301758,
                29.049297332763672,
                1900.0
            ],
            [
                23.391681671142578,
                30.58892250061035,
                2000.0
            ],
            [
                24.479196548461914,
                32.128536224365234,
                2100.0
            ],
            [
                25.554353713989258,
                33.66812515258789,
                2200.0
            ],
            [
                26.614137649536133,
                35.207664489746094,
                2300.0
            ],
            [
                27.657180786132813,
                36.74715805053711,
                2400.0
            ],
            [
                28.67902183532715,
                38.28660583496094,
                2500.0
            ],
            [
                29.675182342529297,
                39.82592010498047,
                2600.0
            ],
            [
                30.6428165435791,
                41.36518478393555,
                2700.0
            ],
            [
                31.570789337158203,
                42.904293060302734,
                2800.0
            ],
            [
                32.45652389526367,
                44.44330596923828,
                2900.0
            ],
            [
                33.29246520996094,
                45.98221206665039,
                3000.0
            ],
            [
                34.06808853149414,
                47.520999908447266,
                3100.0
            ],
            [
                34.77680969238281,
                49.059688568115234,
                3200.0
            ],
            [
                35.41149139404297,
                50.5982666015625,
                3300.0
            ],
            [
                35.963741302490234,
                52.13676071166992,
                3400.0
            ],
            [
                36.41788864135742,
                53.67512512207031,
                3500.0
            ],
            [
                36.76642608642578,
                55.21342086791992,
                3600.0
            ],
            [
                37.00012969970703,
                56.751522064208984,
                3700.0
            ],
            [
                37.11423873901367,
                58.28966522216797,
                3800.0
            ],
            [
                37.095733642578125,
                59.82767105102539,
                3900.0
            ],
            [
                36.932159423828125,
                61.36525344848633,
                4000.0
            ],
            [
                36.61814880371094,
                62.90251541137695,
                4100.0
            ],
            [
                36.15507888793945,
                64.43974304199219,
                4200.0
            ],
            [
                35.545875549316406,
                65.97689056396484,
                4300.0
            ],
            [
                34.766082763671875,
                67.5135498046875,
                4400.0
            ],
            [
                33.80965042114258,
                69.04977416992188,
                4500.0
            ],
            [
                32.6926155090332,
                70.58584594726563,
                4600.0
            ],
            [
                31.411588668823242,
                72.12177276611328,
                4700.0
            ],
            [
                29.95435333251953,
                73.65696716308594,
                4800.0
            ],
            [
                28.316143035888672,
                75.19185638427734,
                4900.0
            ],
            [
                26.514028549194336,
                76.72618865966797,
                5000.0
            ],
            [
                23.06262969970703,
                78.30702209472656,
                5100.0
            ],
            [
                20.911388397216797,
                79.8047866821289,
                5200.0
            ],
            [
                18.593563079833984,
                81.30171203613281,
                5300.0
            ],
            [
                16.11569595336914,
                82.79914855957031,
                5400.0
            ],
            [
                13.479415893554688,
                84.29668426513672,
                5500.0
            ],
            [
                10.690635681152344,
                85.79277038574219,
                5600.0
            ],
            [
                7.7453694343566895,
                87.28902435302734,
                5700.0
            ],
            [
                4.650035858154297,
                88.78470611572266,
                5800.0
            ],
            [
                1.4136571884155273,
                90.27982330322266,
                5900.0
            ],
            [
                -1.9682292938232422,
                91.77418518066406,
                6000.0
            ],
            [
                -5.487544536590576,
                93.26799011230469,
                6100.0
            ],
            [
                -9.140238761901855,
                94.76154327392578,
                6200.0
            ],
            [
                -12.921480178833008,
                96.25479125976563,
                6300.0
            ],
            [
                -16.826419830322266,
                97.74771881103516,
                6400.0
            ],
            [
                -20.852312088012695,
                99.240478515625,
                6500.0
            ],
            [
                -24.991260528564453,
                100.73265075683594,
                6600.0
            ],
            [
                -29.240676879882813,
                102.22437286376953,
                6700.0
            ],
            [
                -33.592342376708984,
                103.71572875976563,
                6800.0
            ],
            [
                -38.045047760009766,
                105.20677947998047,
                6900.0
            ],
            [
                -42.591583251953125,
                106.69743347167969,
                7000.0
            ],
            [
                -47.22571563720703,
                108.18772888183594,
                7100.0
            ],
            [
                -51.94231033325195,
                109.67766571044922,
                7200.0
            ],
            [
                -56.73695755004883,
                111.16718292236328,
                7300.0
            ],
            [
                -61.60590362548828,
                112.65633392333984,
                7400.0
            ],
            [
                -66.54061126708984,
                114.14502716064453,
                7500.0
            ],
            [
                -71.53917694091797,
                115.63331604003906,
                7600.0
            ],
            [
                -76.59538269042969,
                117.12116241455078,
                7700.0
            ],
            [
                -81.70679473876953,
                118.60855102539063,
                7800.0
            ],
            [
                -86.86876678466797,
                120.09548950195313,
                7900.0
            ],
            [
                -92.0768814086914,
                121.5820083618164,
                8000.0
            ],
            [
                -97.3287124633789,
                123.0680923461914,
                8100.0
            ],
            [
                -102.61934661865234,
                124.55377960205078,
                8200.0
            ],
            [
                -107.94632720947266,
                126.03907775878906,
                8300.0
            ],
            [
                -113.30695343017578,
                127.5240249633789,
                8400.0
            ],
            [
                -118.69852447509766,
                129.00863647460938,
                8500.0
            ],
            [
                -124.11754608154297,
                130.49295043945313,
                8600.0
            ],
            [
                -129.56256103515625,
                131.9769744873047,
                8700.0
            ],
            [
                -135.0312042236328,
                133.4607696533203,
                8800.0
            ],
            [
                -140.52130126953125,
                134.94430541992188,
                8900.0
            ],
            [
                -146.0313262939453,
                136.42762756347656,
                9000.0
            ],
            [
                -151.5594940185547,
                137.91073608398438,
                9100.0
            ],
            [
                -157.10415649414063,
                139.39364624023438,
                9200.0
            ],
            [
                -162.6639404296875,
                140.8763885498047,
                9300.0
            ],
            [
                -168.23753356933594,
                142.3589630126953,
                9400.0
            ],
            [
                -173.82366943359375,
                143.84140014648438,
                9500.0
            ],
            [
                -179.42129516601563,
                145.32369995117188,
                9600.0
            ],
            [
                -185.0293731689453,
                146.80589294433594,
                9700.0
            ],
            [
                -190.6470184326172,
                148.2879638671875,
                9800.0
            ],
            [
                -196.2733154296875,
                149.7699432373047,
                9900.0
            ],
            [
                -201.90756225585938,
                151.25184631347656,
                10000.0
            ],
            [
                -213.19712829589844,
                154.21542358398438,
                10200.0
            ],
            [
                -224.51087951660156,
                157.17874145507813,
                10400.0
            ],
            [
                -235.84449768066406,
                160.14187622070313,
                10600.0
            ],
            [
                -247.1950225830078,
                163.10484313964844,
                10800.0
            ],
            [
                -258.55889892578125,
                166.06771850585938,
                11000.0
            ],
            [
                -269.93426513671875,
                169.03050231933594,
                11200.0
            ],
            [
                -281.3194274902344,
                171.99322509765625,
                11400.0
            ],
            [
                -292.7121276855469,
                174.95590209960938,
                11600.0
            ],
            [
                -304.111083984375,
                177.91854858398438,
                11800.0
            ],
            [
                -315.5149841308594,
                180.8811798095703,
                12000.0
            ],
            [
                -326.9239196777344,
                183.8437957763672,
                12200.0
            ],
            [
                -338.336181640625,
                186.80641174316406,
                12400.0
            ],
            [
                -349.7506103515625,
                189.76902770996094,
                12600.0
            ],
            [
                -361.16693115234375,
                192.73165893554688,
                12800.0
            ],
            [
                -372.5856018066406,
                195.69427490234375,
                13000.0
            ],
            [
                -384.0058898925781,
                198.6569061279297,
                13200.0
            ],
            [
                -395.4269714355469,
                201.61952209472656,
                13400.0
            ]
        ],
        "zFirstMeasurement": 584.4155
    }
]
