[
    {
        "E": 70010.2855739721,
        "chi2": 0.0,
        "ip": 0.004171552114878908,
        "ipchi2": 0.07622531601025942,
        "mass": 1876.281,
        "particleId": "D0",
        "pvx": 0.5691,
        "pvy": 0.0828,
        "pvz": 12.4352,
        "px": 4917.41,
        "py": -1187.92,
        "pz": 69802.06,
        "q": 0.0,
        "trajectory": [
            [
                0.569100022315979,
                0.0828000009059906,
                12.435199737548828
            ],
            [
                1.0428999662399292,
                -0.03290000185370445,
                19.219999313354492
            ]
        ],
        "zFirstMeasurement": -9999.0
    },
    {
        "E": 59764.66847300968,
        "chi2": 0.7353033423423767,
        "ip": 0.07039573352408589,
        "ipchi2": 20.8298787546762,
        "mass": 493.677,
        "particleId": "K-",
        "pvx": 0.5691,
        "pvy": 0.0828,
        "pvz": 12.4352,
        "px": 4143.68,
        "py": -1634.29,
        "pz": 59596.4,
        "q": -1.0,
        "trajectory": [
            [
                1.041635274887085,
                -0.03284045308828354,
                19.219999313354492
            ],
            [
                1.3892779350280762,
                -0.16995318233966827,
                24.219999313354492
            ],
            [
                1.7369195222854614,
                -0.30706587433815,
                29.219999313354492
            ],
            [
                2.0845601558685303,
                -0.4441785514354706,
                34.220001220703125
            ],
            [
                2.4321999549865723,
                -0.5812911987304688,
                39.220001220703125
            ],
            [
                2.779838800430298,
                -0.7184038162231445,
                44.220001220703125
            ],
            [
                3.127476453781128,
                -0.8555164337158203,
                49.220001220703125
            ],
            [
                3.4751131534576416,
                -0.9926289916038513,
                54.220001220703125
            ],
            [
                3.822748899459839,
                -1.1297415494918823,
                59.220001220703125
            ],
            [
                4.170383453369141,
                -1.266854166984558,
                64.22000122070313
            ],
            [
                4.518031120300293,
                -1.4039801359176636,
                69.22000122070313
            ],
            [
                4.865663528442383,
                -1.5410925149917603,
                74.22000122070313
            ],
            [
                5.213294982910156,
                -1.6782050132751465,
                79.22000122070313
            ],
            [
                5.5609259605407715,
                -1.8153173923492432,
                84.22000122070313
            ],
            [
                5.908555507659912,
                -1.9524297714233398,
                89.22000122070313
            ],
            [
                6.256184101104736,
                -2.0895421504974365,
                94.22000122070313
            ],
            [
                6.603811740875244,
                -2.226654529571533,
                99.22000122070313
            ],
            [
                6.9514384269714355,
                -2.36376690864563,
                104.22000122070313
            ],
            [
                8.341934204101563,
                -2.9122159481048584,
                124.22000122070313
            ],
            [
                9.732412338256836,
                -3.4606645107269287,
                144.22000122070313
            ],
            [
                11.122870445251465,
                -4.00911283493042,
                164.22000122070313
            ],
            [
                12.51330852508545,
                -4.557560443878174,
                184.22000122070313
            ],
            [
                13.903724670410156,
                -5.106008052825928,
                204.22000122070313
            ],
            [
                15.294116973876953,
                -5.654455184936523,
                224.22000122070313
            ],
            [
                16.684499740600586,
                -6.202901840209961,
                244.22000122070313
            ],
            [
                18.074851989746094,
                -6.75134801864624,
                264.2200012207031
            ],
            [
                19.465179443359375,
                -7.299793720245361,
                284.2200012207031
            ],
            [
                20.85548210144043,
                -7.848239421844482,
                304.2200012207031
            ],
            [
                22.245758056640625,
                -8.396684646606445,
                324.2200012207031
            ],
            [
                23.63600730895996,
                -8.94512939453125,
                344.2200012207031
            ],
            [
                25.026229858398438,
                -9.493573188781738,
                364.2200012207031
            ],
            [
                26.416423797607422,
                -10.042016983032227,
                384.2200012207031
            ],
            [
                27.80658721923828,
                -10.590460777282715,
                404.2200012207031
            ],
            [
                29.196718215942383,
                -11.138903617858887,
                424.2200012207031
            ],
            [
                30.586816787719727,
                -11.687346458435059,
                444.2200012207031
            ],
            [
                31.976882934570313,
                -12.235788345336914,
                464.2200012207031
            ],
            [
                33.36691665649414,
                -12.78423023223877,
                484.2200012207031
            ],
            [
                34.75691223144531,
                -13.332672119140625,
                504.2200012207031
            ],
            [
                36.146873474121094,
                -13.881113052368164,
                524.219970703125
            ],
            [
                37.53679275512695,
                -14.429553985595703,
                544.219970703125
            ],
            [
                38.92667770385742,
                -14.977993965148926,
                564.219970703125
            ],
            [
                40.31652069091797,
                -15.526433944702148,
                584.219970703125
            ],
            [
                41.70631790161133,
                -16.074872970581055,
                604.219970703125
            ],
            [
                43.096073150634766,
                -16.623313903808594,
                624.219970703125
            ],
            [
                44.485782623291016,
                -17.1717529296875,
                644.219970703125
            ],
            [
                45.87544631958008,
                -17.720191955566406,
                664.219970703125
            ],
            [
                47.26506805419922,
                -18.26862907409668,
                684.219970703125
            ],
            [
                48.654640197753906,
                -18.817068099975586,
                704.219970703125
            ],
            [
                50.044166564941406,
                -19.36550521850586,
                724.219970703125
            ],
            [
                51.43363952636719,
                -19.913942337036133,
                744.219970703125
            ],
            [
                52.82304763793945,
                -20.462379455566406,
                764.219970703125
            ],
            [
                54.21239471435547,
                -21.01081657409668,
                784.219970703125
            ],
            [
                55.601688385009766,
                -21.559253692626953,
                804.219970703125
            ],
            [
                56.99092483520508,
                -22.107690811157227,
                824.219970703125
            ],
            [
                58.380104064941406,
                -22.6561279296875,
                844.219970703125
            ],
            [
                59.76922607421875,
                -23.204565048217773,
                864.219970703125
            ],
            [
                61.15828323364258,
                -23.753000259399414,
                884.219970703125
            ],
            [
                62.54728317260742,
                -24.301437377929688,
                904.219970703125
            ],
            [
                63.93621826171875,
                -24.84987449645996,
                924.219970703125
            ],
            [
                65.3250732421875,
                -25.3983154296875,
                944.219970703125
            ],
            [
                66.71385955810547,
                -25.94675636291504,
                964.219970703125
            ],
            [
                68.10257720947266,
                -26.495197296142578,
                984.219970703125
            ],
            [
                69.4912338256836,
                -27.043638229370117,
                1004.219970703125
            ],
            [
                76.43347930908203,
                -29.785846710205078,
                1104.219970703125
            ],
            [
                83.37355041503906,
                -32.528045654296875,
                1204.219970703125
            ],
            [
                90.31201934814453,
                -35.27027130126953,
                1304.219970703125
            ],
            [
                97.24868774414063,
                -38.012508392333984,
                1404.219970703125
            ],
            [
                104.18354797363281,
                -40.75474166870117,
                1504.219970703125
            ],
            [
                111.11683654785156,
                -43.49696731567383,
                1604.219970703125
            ],
            [
                118.04823303222656,
                -46.23918533325195,
                1704.219970703125
            ],
            [
                124.97736358642578,
                -48.98142623901367,
                1804.219970703125
            ],
            [
                131.9041290283203,
                -51.723670959472656,
                1904.219970703125
            ],
            [
                138.8282012939453,
                -54.46590042114258,
                2004.219970703125
            ],
            [
                145.74896240234375,
                -57.20809555053711,
                2104.219970703125
            ],
            [
                152.66552734375,
                -59.95027542114258,
                2204.219970703125
            ],
            [
                159.5787353515625,
                -62.6923942565918,
                2304.219970703125
            ],
            [
                166.4859619140625,
                -65.43447875976563,
                2404.219970703125
            ],
            [
                173.38673400878906,
                -68.1764907836914,
                2504.219970703125
            ],
            [
                180.27865600585938,
                -70.91846466064453,
                2604.219970703125
            ],
            [
                187.16180419921875,
                -73.66036224365234,
                2704.219970703125
            ],
            [
                194.03350830078125,
                -76.40216827392578,
                2804.219970703125
            ],
            [
                200.8915252685547,
                -79.1438217163086,
                2904.219970703125
            ],
            [
                207.73329162597656,
                -81.8853530883789,
                3004.219970703125
            ],
            [
                214.55816650390625,
                -84.62672424316406,
                3104.219970703125
            ],
            [
                221.36097717285156,
                -87.36773681640625,
                3204.219970703125
            ],
            [
                228.14138793945313,
                -90.10858917236328,
                3304.219970703125
            ],
            [
                234.89346313476563,
                -92.84921264648438,
                3404.219970703125
            ],
            [
                241.6154327392578,
                -95.58953094482422,
                3504.219970703125
            ],
            [
                248.30653381347656,
                -98.32966613769531,
                3604.219970703125
            ],
            [
                254.9623565673828,
                -101.06964874267578,
                3704.219970703125
            ],
            [
                261.5785217285156,
                -103.80925750732422,
                3804.219970703125
            ],
            [
                268.15570068359375,
                -106.54853057861328,
                3904.219970703125
            ],
            [
                274.68572998046875,
                -109.2876205444336,
                4004.219970703125
            ],
            [
                281.17364501953125,
                -112.02669525146484,
                4104.22021484375
            ],
            [
                287.61077880859375,
                -114.76559448242188,
                4204.22021484375
            ],
            [
                293.99676513671875,
                -117.50416564941406,
                4304.22021484375
            ],
            [
                300.332763671875,
                -120.24284362792969,
                4404.22021484375
            ],
            [
                306.617919921875,
                -122.98143005371094,
                4504.22021484375
            ],
            [
                312.851318359375,
                -125.72018432617188,
                4604.22021484375
            ],
            [
                319.02978515625,
                -128.4587860107422,
                4704.22021484375
            ],
            [
                325.5445861816406,
                -131.12222290039063,
                4804.22021484375
            ],
            [
                331.62969970703125,
                -133.85787963867188,
                4904.22021484375
            ],
            [
                337.6632385253906,
                -136.59347534179688,
                5004.22021484375
            ],
            [
                343.64324951171875,
                -139.32923889160156,
                5104.22021484375
            ],
            [
                349.572509765625,
                -142.0650634765625,
                5204.22021484375
            ],
            [
                355.4501953125,
                -144.80111694335938,
                5304.22021484375
            ],
            [
                361.2779235839844,
                -147.53704833984375,
                5404.22021484375
            ],
            [
                367.0558166503906,
                -150.2727813720703,
                5504.22021484375
            ],
            [
                372.7867126464844,
                -153.00894165039063,
                5604.22021484375
            ],
            [
                378.4690856933594,
                -155.7451171875,
                5704.22021484375
            ],
            [
                384.1047668457031,
                -158.48143005371094,
                5804.22021484375
            ],
            [
                389.6966247558594,
                -161.2178497314453,
                5904.22021484375
            ],
            [
                395.2431335449219,
                -163.9544677734375,
                6004.22021484375
            ],
            [
                400.747314453125,
                -166.69126892089844,
                6104.22021484375
            ],
            [
                406.2101135253906,
                -169.42816162109375,
                6204.22021484375
            ],
            [
                411.63275146484375,
                -172.16510009765625,
                6304.22021484375
            ],
            [
                417.01708984375,
                -174.90213012695313,
                6404.22021484375
            ],
            [
                422.3640441894531,
                -177.6392364501953,
                6504.22021484375
            ],
            [
                427.67578125,
                -180.37648010253906,
                6604.22021484375
            ],
            [
                432.9533996582031,
                -183.11387634277344,
                6704.22021484375
            ],
            [
                438.19940185546875,
                -185.85137939453125,
                6804.22021484375
            ],
            [
                443.4142150878906,
                -188.58897399902344,
                6904.22021484375
            ],
            [
                448.6000671386719,
                -191.32669067382813,
                7004.22021484375
            ],
            [
                453.75885009765625,
                -194.0644989013672,
                7104.22021484375
            ],
            [
                458.8921813964844,
                -196.80239868164063,
                7204.22021484375
            ],
            [
                464.0014953613281,
                -199.5404052734375,
                7304.22021484375
            ],
            [
                469.08807373046875,
                -202.27850341796875,
                7404.22021484375
            ],
            [
                474.1544494628906,
                -205.01670837402344,
                7504.22021484375
            ],
            [
                479.2010803222656,
                -207.7550048828125,
                7604.22021484375
            ],
            [
                484.2300720214844,
                -210.49339294433594,
                7704.22021484375
            ],
            [
                489.2421569824219,
                -213.23187255859375,
                7804.22021484375
            ],
            [
                494.2388000488281,
                -215.970458984375,
                7904.22021484375
            ],
            [
                499.2213439941406,
                -218.70912170410156,
                8004.22021484375
            ],
            [
                504.1905822753906,
                -221.4478759765625,
                8104.22021484375
            ],
            [
                509.14801025390625,
                -224.1866912841797,
                8204.2197265625
            ],
            [
                514.0943603515625,
                -226.9255828857422,
                8304.2197265625
            ],
            [
                519.030517578125,
                -229.66452026367188,
                8404.2197265625
            ],
            [
                523.9573364257813,
                -232.40350341796875,
                8504.2197265625
            ],
            [
                528.8757934570313,
                -235.1425323486328,
                8604.2197265625
            ],
            [
                533.786376953125,
                -237.88160705566406,
                8704.2197265625
            ],
            [
                538.6898803710938,
                -240.6206817626953,
                8804.2197265625
            ],
            [
                543.5869140625,
                -243.35980224609375,
                8904.2197265625
            ],
            [
                548.4779052734375,
                -246.09893798828125,
                9004.2197265625
            ],
            [
                553.3634643554688,
                -248.8380889892578,
                9104.2197265625
            ],
            [
                558.2440795898438,
                -251.57725524902344,
                9204.2197265625
            ],
            [
                563.1201782226563,
                -254.31642150878906,
                9304.2197265625
            ],
            [
                567.9921264648438,
                -257.05560302734375,
                9404.2197265625
            ],
            [
                572.8602905273438,
                -259.7947692871094,
                9504.2197265625
            ],
            [
                577.7250366210938,
                -262.5339660644531,
                9604.2197265625
            ],
            [
                582.586669921875,
                -265.27313232421875,
                9704.2197265625
            ],
            [
                587.4454345703125,
                -268.0123291015625,
                9804.2197265625
            ],
            [
                592.3015747070313,
                -270.7514953613281,
                9904.2197265625
            ],
            [
                597.1553955078125,
                -273.49066162109375,
                10004.2197265625
            ],
            [
                606.8567504882813,
                -278.9689636230469,
                10204.2197265625
            ],
            [
                616.5509033203125,
                -284.4472351074219,
                10404.2197265625
            ],
            [
                626.2391967773438,
                -289.92547607421875,
                10604.2197265625
            ],
            [
                635.9224853515625,
                -295.4036560058594,
                10804.2197265625
            ],
            [
                645.6017456054688,
                -300.8818054199219,
                11004.2197265625
            ],
            [
                655.2776489257813,
                -306.35992431640625,
                11204.2197265625
            ],
            [
                664.9506225585938,
                -311.8380126953125,
                11404.2197265625
            ],
            [
                674.6214599609375,
                -317.3160400390625,
                11604.2197265625
            ],
            [
                684.2903442382813,
                -322.7940673828125,
                11804.2197265625
            ],
            [
                693.9578247070313,
                -328.27203369140625,
                12004.2197265625
            ],
            [
                703.623779296875,
                -333.75,
                12204.2197265625
            ],
            [
                713.288818359375,
                -339.2279052734375,
                12404.2197265625
            ],
            [
                722.9532470703125,
                -344.7058410644531,
                12604.2197265625
            ],
            [
                732.6170654296875,
                -350.1837158203125,
                12804.2197265625
            ],
            [
                742.2802124023438,
                -355.6615905761719,
                13004.2197265625
            ],
            [
                751.94287109375,
                -361.13946533203125,
                13204.2197265625
            ],
            [
                761.6052856445313,
                -366.6173095703125,
                13404.2197265625
            ]
        ],
        "zFirstMeasurement": 125.9297
    },
    {
        "E": 10249.398494014038,
        "chi2": 0.9985731244087219,
        "ip": 0.4144494060833688,
        "ipchi2": 229.27772498681682,
        "mass": 139.57,
        "particleId": "pi+",
        "pvx": 0.5691,
        "pvy": 0.0828,
        "pvz": 12.4352,
        "px": 773.98,
        "py": 446.3,
        "pz": 10209.43,
        "q": 1.0,
        "trajectory": [
            [
                1.047777533531189,
                -0.034036409109830856,
                19.219999313354492
            ],
            [
                1.4268442392349243,
                0.1845341920852661,
                24.219999313354492
            ],
            [
                1.805916428565979,
                0.403104692697525,
                29.219999313354492
            ],
            [
                2.1849942207336426,
                0.6216750741004944,
                34.220001220703125
            ],
            [
                2.564077854156494,
                0.8402453064918518,
                39.220001220703125
            ],
            [
                2.943166971206665,
                1.0588154792785645,
                44.220001220703125
            ],
            [
                3.3222620487213135,
                1.2773854732513428,
                49.220001220703125
            ],
            [
                3.7013630867004395,
                1.495955467224121,
                54.220001220703125
            ],
            [
                4.080470085144043,
                1.7145252227783203,
                59.220001220703125
            ],
            [
                4.459583282470703,
                1.93309485912323,
                64.22000122070313
            ],
            [
                4.838627815246582,
                2.1517252922058105,
                69.22000122070313
            ],
            [
                5.217752933502197,
                2.3702948093414307,
                74.22000122070313
            ],
            [
                5.596883773803711,
                2.5888640880584717,
                79.22000122070313
            ],
            [
                5.976020812988281,
                2.8074333667755127,
                84.22000122070313
            ],
            [
                6.35516357421875,
                3.0260026454925537,
                89.22000122070313
            ],
            [
                6.734312057495117,
                3.2445714473724365,
                94.22000122070313
            ],
            [
                7.113466739654541,
                3.4631404876708984,
                99.22000122070313
            ],
            [
                7.492627143859863,
                3.6817092895507813,
                104.22000122070313
            ],
            [
                9.009333610534668,
                4.555983543395996,
                124.22000122070313
            ],
            [
                10.526145935058594,
                5.430255889892578,
                144.22000122070313
            ],
            [
                12.043072700500488,
                6.304526329040527,
                164.22000122070313
            ],
            [
                13.560120582580566,
                7.178795337677002,
                184.22000122070313
            ],
            [
                15.07729721069336,
                8.05306339263916,
                204.22000122070313
            ],
            [
                16.594558715820313,
                8.927329063415527,
                224.22000122070313
            ],
            [
                18.111976623535156,
                9.801592826843262,
                244.22000122070313
            ],
            [
                19.629531860351563,
                10.675856590270996,
                264.2200012207031
            ],
            [
                21.147226333618164,
                11.550117492675781,
                284.2200012207031
            ],
            [
                22.665069580078125,
                12.424378395080566,
                304.2200012207031
            ],
            [
                24.183063507080078,
                13.298637390136719,
                324.2200012207031
            ],
            [
                25.701215744018555,
                14.172895431518555,
                344.2200012207031
            ],
            [
                27.219528198242188,
                15.047151565551758,
                364.2200012207031
            ],
            [
                28.738008499145508,
                15.921407699584961,
                384.2200012207031
            ],
            [
                30.256668090820313,
                16.79566192626953,
                404.2200012207031
            ],
            [
                31.7755126953125,
                17.6699161529541,
                424.2200012207031
            ],
            [
                33.29454803466797,
                18.54416847229004,
                444.2200012207031
            ],
            [
                34.81377410888672,
                19.418420791625977,
                464.2200012207031
            ],
            [
                36.33320236206055,
                20.29267120361328,
                484.2200012207031
            ],
            [
                37.85283279418945,
                21.166921615600586,
                504.2200012207031
            ],
            [
                39.372684478759766,
                22.04117202758789,
                524.219970703125
            ],
            [
                40.89275360107422,
                22.915420532226563,
                544.219970703125
            ],
            [
                42.413047790527344,
                23.789670944213867,
                564.219970703125
            ],
            [
                43.933570861816406,
                24.66391944885254,
                584.219970703125
            ],
            [
                45.454368591308594,
                25.53816795349121,
                604.219970703125
            ],
            [
                46.975425720214844,
                26.412416458129883,
                624.219970703125
            ],
            [
                48.49673843383789,
                27.286666870117188,
                644.219970703125
            ],
            [
                50.018310546875,
                28.16091537475586,
                664.219970703125
            ],
            [
                51.54015350341797,
                29.03516387939453,
                684.219970703125
            ],
            [
                53.06226348876953,
                29.909412384033203,
                704.219970703125
            ],
            [
                54.584651947021484,
                30.783658981323242,
                724.219970703125
            ],
            [
                56.10734176635742,
                31.65790557861328,
                744.219970703125
            ],
            [
                57.63040542602539,
                32.53215408325195,
                764.219970703125
            ],
            [
                59.15382766723633,
                33.40640640258789,
                784.219970703125
            ],
            [
                60.67757034301758,
                34.28065490722656,
                804.219970703125
            ],
            [
                62.20164108276367,
                35.1549072265625,
                824.219970703125
            ],
            [
                63.72604751586914,
                36.02915954589844,
                844.219970703125
            ],
            [
                65.25080108642578,
                36.903411865234375,
                864.219970703125
            ],
            [
                66.7759017944336,
                37.77766799926758,
                884.219970703125
            ],
            [
                68.30136108398438,
                38.651920318603516,
                904.219970703125
            ],
            [
                69.82719421386719,
                39.526180267333984,
                924.219970703125
            ],
            [
                71.35348510742188,
                40.40044403076172,
                944.219970703125
            ],
            [
                72.88017272949219,
                41.27471160888672,
                964.219970703125
            ],
            [
                74.40726470947266,
                42.14897918701172,
                984.219970703125
            ],
            [
                75.93473815917969,
                43.023250579833984,
                1004.219970703125
            ],
            [
                83.57803344726563,
                47.39460372924805,
                1104.219970703125
            ],
            [
                91.2342300415039,
                51.76577377319336,
                1204.219970703125
            ],
            [
                98.89958953857422,
                56.13701629638672,
                1304.219970703125
            ],
            [
                106.57549285888672,
                60.508216857910156,
                1404.219970703125
            ],
            [
                114.26194763183594,
                64.87933349609375,
                1504.219970703125
            ],
            [
                121.9574203491211,
                69.25041198730469,
                1604.219970703125
            ],
            [
                129.66390991210938,
                73.62154388427734,
                1704.219970703125
            ],
            [
                137.3834686279297,
                77.99278259277344,
                1804.219970703125
            ],
            [
                145.11671447753906,
                82.36418914794922,
                1904.219970703125
            ],
            [
                152.86526489257813,
                86.7358627319336,
                2004.219970703125
            ],
            [
                160.63323974609375,
                91.1076431274414,
                2104.219970703125
            ],
            [
                168.4257354736328,
                95.47994232177734,
                2204.219970703125
            ],
            [
                176.2368621826172,
                99.85269927978516,
                2304.219970703125
            ],
            [
                184.0825653076172,
                104.22610473632813,
                2404.219970703125
            ],
            [
                191.9653778076172,
                108.6004867553711,
                2504.219970703125
            ],
            [
                199.89944458007813,
                112.9761962890625,
                2604.219970703125
            ],
            [
                207.88360595703125,
                117.35315704345703,
                2704.219970703125
            ],
            [
                215.93441772460938,
                121.7316665649414,
                2804.219970703125
            ],
            [
                224.06411743164063,
                126.11260223388672,
                2904.219970703125
            ],
            [
                232.288330078125,
                130.4958953857422,
                3004.219970703125
            ],
            [
                240.60971069335938,
                134.8812713623047,
                3104.219970703125
            ],
            [
                249.06092834472656,
                139.26951599121094,
                3204.219970703125
            ],
            [
                257.6408996582031,
                143.6610870361328,
                3304.219970703125
            ],
            [
                266.3866882324219,
                148.0565948486328,
                3404.219970703125
            ],
            [
                275.3085632324219,
                152.45570373535156,
                3504.219970703125
            ],
            [
                284.4114990234375,
                156.85824584960938,
                3604.219970703125
            ],
            [
                293.7220153808594,
                161.26461791992188,
                3704.219970703125
            ],
            [
                303.2667236328125,
                165.67596435546875,
                3804.219970703125
            ],
            [
                313.04443359375,
                170.0918731689453,
                3904.219970703125
            ],
            [
                323.099853515625,
                174.51235961914063,
                4004.219970703125
            ],
            [
                333.40325927734375,
                178.93678283691406,
                4104.22021484375
            ],
            [
                344.01031494140625,
                183.36404418945313,
                4204.22021484375
            ],
            [
                354.9220275878906,
                187.79701232910156,
                4304.22021484375
            ],
            [
                366.1297912597656,
                192.23341369628906,
                4404.22021484375
            ],
            [
                377.63946533203125,
                196.67279052734375,
                4504.22021484375
            ],
            [
                389.4573974609375,
                201.11483764648438,
                4604.22021484375
            ],
            [
                401.6032409667969,
                205.5608673095703,
                4704.22021484375
            ],
            [
                413.37078857421875,
                207.8029327392578,
                4804.22021484375
            ],
            [
                426.1264343261719,
                212.19882202148438,
                4904.22021484375
            ],
            [
                439.189208984375,
                216.59634399414063,
                5004.22021484375
            ],
            [
                452.57281494140625,
                220.99948120117188,
                5104.22021484375
            ],
            [
                466.2631530761719,
                225.40399169921875,
                5204.22021484375
            ],
            [
                480.26751708984375,
                229.81008911132813,
                5304.22021484375
            ],
            [
                494.56866455078125,
                234.21572875976563,
                5404.22021484375
            ],
            [
                509.16143798828125,
                238.6205596923828,
                5504.22021484375
            ],
            [
                524.041748046875,
                243.0301971435547,
                5604.22021484375
            ],
            [
                539.2138671875,
                247.43829345703125,
                5704.22021484375
            ],
            [
                554.6688842773438,
                251.84652709960938,
                5804.22021484375
            ],
            [
                570.3880004882813,
                256.2543640136719,
                5904.22021484375
            ],
            [
                586.3824462890625,
                260.66436767578125,
                6004.22021484375
            ],
            [
                602.637451171875,
                265.0744934082031,
                6104.22021484375
            ],
            [
                619.143310546875,
                269.4830017089844,
                6204.22021484375
            ],
            [
                635.8902587890625,
                273.8901672363281,
                6304.22021484375
            ],
            [
                652.8700561523438,
                278.2959289550781,
                6404.22021484375
            ],
            [
                670.0757446289063,
                282.6998291015625,
                6504.22021484375
            ],
            [
                687.4979858398438,
                287.1026306152344,
                6604.22021484375
            ],
            [
                705.128662109375,
                291.503173828125,
                6704.22021484375
            ],
            [
                722.9517211914063,
                295.9012451171875,
                6804.22021484375
            ],
            [
                740.966064453125,
                300.2972106933594,
                6904.22021484375
            ],
            [
                759.1583251953125,
                304.690673828125,
                7004.22021484375
            ],
            [
                777.5137939453125,
                309.0813293457031,
                7104.22021484375
            ],
            [
                796.0239868164063,
                313.4690246582031,
                7204.22021484375
            ],
            [
                814.6800537109375,
                317.8540344238281,
                7304.22021484375
            ],
            [
                833.474365234375,
                322.2366027832031,
                7404.22021484375
            ],
            [
                852.3901977539063,
                326.61676025390625,
                7504.22021484375
            ],
            [
                871.4259033203125,
                330.99432373046875,
                7604.22021484375
            ],
            [
                890.5675659179688,
                335.3695373535156,
                7704.22021484375
            ],
            [
                909.8104858398438,
                339.7425231933594,
                7804.22021484375
            ],
            [
                929.145751953125,
                344.1135559082031,
                7904.22021484375
            ],
            [
                948.5648803710938,
                348.4827880859375,
                8004.22021484375
            ],
            [
                968.0628051757813,
                352.8503723144531,
                8104.22021484375
            ],
            [
                987.6307373046875,
                357.21661376953125,
                8204.2197265625
            ],
            [
                1007.263671875,
                361.58160400390625,
                8304.2197265625
            ],
            [
                1026.95654296875,
                365.9455261230469,
                8404.2197265625
            ],
            [
                1046.7042236328125,
                370.30859375,
                8504.2197265625
            ],
            [
                1066.500244140625,
                374.6709289550781,
                8604.2197265625
            ],
            [
                1086.3419189453125,
                379.03265380859375,
                8704.2197265625
            ],
            [
                1106.224853515625,
                383.3939208984375,
                8804.2197265625
            ],
            [
                1126.14501953125,
                387.7548828125,
                8904.2197265625
            ],
            [
                1146.099609375,
                392.1156005859375,
                9004.2197265625
            ],
            [
                1166.0853271484375,
                396.4761962890625,
                9104.2197265625
            ],
            [
                1186.0992431640625,
                400.8367614746094,
                9204.2197265625
            ],
            [
                1206.138916015625,
                405.1973571777344,
                9304.2197265625
            ],
            [
                1226.201904296875,
                409.55804443359375,
                9404.2197265625
            ],
            [
                1246.2857666015625,
                413.9188537597656,
                9504.2197265625
            ],
            [
                1266.3890380859375,
                418.2798156738281,
                9604.2197265625
            ],
            [
                1286.509521484375,
                422.6409912109375,
                9704.2197265625
            ],
            [
                1306.645751953125,
                427.00238037109375,
                9804.2197265625
            ],
            [
                1326.796142578125,
                431.3640441894531,
                9904.2197265625
            ],
            [
                1346.9595947265625,
                435.7259216308594,
                10004.2197265625
            ],
            [
                1387.3204345703125,
                444.4504699707031,
                10204.2197265625
            ],
            [
                1427.7200927734375,
                453.1760559082031,
                10404.2197265625
            ],
            [
                1468.15087890625,
                461.9027099609375,
                10604.2197265625
            ],
            [
                1508.6085205078125,
                470.63031005859375,
                10804.2197265625
            ],
            [
                1549.0865478515625,
                479.3588562011719,
                11004.2197265625
            ],
            [
                1589.582275390625,
                488.0882568359375,
                11204.2197265625
            ],
            [
                1630.0928955078125,
                496.8184509277344,
                11404.2197265625
            ],
            [
                1670.6141357421875,
                505.5493469238281,
                11604.2197265625
            ],
            [
                1711.14501953125,
                514.2808837890625,
                11804.2197265625
            ],
            [
                1751.6829833984375,
                523.0130004882813,
                12004.2197265625
            ],
            [
                1792.2283935546875,
                531.74560546875,
                12204.2197265625
            ],
            [
                1832.7784423828125,
                540.4786376953125,
                12404.2197265625
            ],
            [
                1873.330810546875,
                549.2120971679688,
                12604.2197265625
            ],
            [
                1913.8861083984375,
                557.9458618164063,
                12804.2197265625
            ],
            [
                1954.44482421875,
                566.6798706054688,
                13004.2197265625
            ],
            [
                1995.0057373046875,
                575.4140625,
                13204.2197265625
            ],
            [
                2035.5677490234375,
                584.1484375,
                13404.2197265625
            ]
        ],
        "zFirstMeasurement": 124.0877
    },
    {
        "E": 2619.8104365097174,
        "chi2": 1.192468523979187,
        "ip": 1.2444525328199254,
        "ipchi2": 395.4927607123942,
        "mass": 139.57018,
        "particleId": "pi-",
        "pvx": 0.5691,
        "pvy": 0.0828,
        "pvz": 12.4352,
        "px": 426.8978131653318,
        "py": -379.9318197983124,
        "pz": 2552.9075497399826,
        "q": -1.0,
        "trajectory": [
            [
                -19.464027404785156,
                17.14105796813965,
                -100.0
            ],
            [
                -18.62750244140625,
                16.396915435791016,
                -95.0
            ],
            [
                -17.79099464416504,
                15.652771949768066,
                -90.0
            ],
            [
                -16.954504013061523,
                14.90863037109375,
                -85.0
            ],
            [
                -16.117902755737305,
                14.164483070373535,
                -80.0
            ],
            [
                -15.281463623046875,
                13.420344352722168,
                -75.0
            ],
            [
                -14.445039749145508,
                12.676207542419434,
                -70.0
            ],
            [
                -13.60863208770752,
                11.9320707321167,
                -65.0
            ],
            [
                -12.772239685058594,
                11.187935829162598,
                -60.0
            ],
            [
                -11.935863494873047,
                10.443801879882813,
                -55.0
            ],
            [
                -11.099504470825195,
                9.699668884277344,
                -50.0
            ],
            [
                -10.263161659240723,
                8.955537796020508,
                -45.0
            ],
            [
                -9.426836013793945,
                8.211406707763672,
                -40.0
            ],
            [
                -8.59052848815918,
                7.467277526855469,
                -35.0
            ],
            [
                -7.754239082336426,
                6.723149299621582,
                -30.0
            ],
            [
                -6.917967319488525,
                5.979022026062012,
                -25.0
            ],
            [
                -6.081714153289795,
                5.234896183013916,
                -20.0
            ],
            [
                -5.245479583740234,
                4.490771770477295,
                -15.0
            ],
            [
                -4.40926456451416,
                3.7466483116149902,
                -10.0
            ],
            [
                -3.573068618774414,
                3.00252628326416,
                -5.0
            ],
            [
                -2.7368922233581543,
                2.2584054470062256,
                0.0
            ],
            [
                -1.9007357358932495,
                1.5142860412597656,
                5.0
            ],
            [
                -1.064599633216858,
                0.770167887210846,
                10.0
            ],
            [
                -0.2284841686487198,
                0.026051059365272522,
                15.0
            ],
            [
                0.607610285282135,
                -0.7180644273757935,
                20.0
            ],
            [
                1.4436832666397095,
                -1.4621784687042236,
                25.0
            ],
            [
                2.2797346115112305,
                -2.2062911987304688,
                30.0
            ],
            [
                3.1157636642456055,
                -2.9504024982452393,
                35.0
            ],
            [
                3.951770544052124,
                -3.694512367248535,
                40.0
            ],
            [
                4.787754535675049,
                -4.438620567321777,
                45.0
            ],
            [
                5.623714923858643,
                -5.182727813720703,
                50.0
            ],
            [
                6.459651947021484,
                -5.926833152770996,
                55.0
            ],
            [
                7.295565605163574,
                -6.6709370613098145,
                60.0
            ],
            [
                8.131454467773438,
                -7.415039539337158,
                65.0
            ],
            [
                8.967330932617188,
                -8.159154891967773,
                70.0
            ],
            [
                9.803171157836914,
                -8.903254508972168,
                75.0
            ],
            [
                10.63898754119873,
                -9.64735221862793,
                80.0
            ],
            [
                11.474781036376953,
                -10.391448020935059,
                85.0
            ],
            [
                12.310551643371582,
                -11.135543823242188,
                90.0
            ],
            [
                13.1462984085083,
                -11.879636764526367,
                95.0
            ],
            [
                13.98202133178711,
                -12.62372875213623,
                100.0
            ],
            [
                17.324665069580078,
                -15.600081443786621,
                120.0
            ],
            [
                20.666889190673828,
                -18.57640838623047,
                140.0
            ],
            [
                24.008665084838867,
                -21.55270767211914,
                160.0
            ],
            [
                27.34996795654297,
                -24.52897834777832,
                180.0
            ],
            [
                30.690763473510742,
                -27.505218505859375,
                200.0
            ],
            [
                34.031028747558594,
                -30.481426239013672,
                220.0
            ],
            [
                37.371036529541016,
                -33.457618713378906,
                240.0
            ],
            [
                40.71033477783203,
                -36.43376541137695,
                260.0
            ],
            [
                44.049072265625,
                -39.409881591796875,
                280.0
            ],
            [
                47.38723373413086,
                -42.385963439941406,
                300.0
            ],
            [
                50.724796295166016,
                -45.36200714111328,
                320.0
            ],
            [
                54.061737060546875,
                -48.338016510009766,
                340.0
            ],
            [
                57.398040771484375,
                -51.31398391723633,
                360.0
            ],
            [
                60.73368453979492,
                -54.289913177490234,
                380.0
            ],
            [
                64.0686264038086,
                -57.26579666137695,
                400.0
            ],
            [
                67.40284729003906,
                -60.24163818359375,
                420.0
            ],
            [
                70.7363052368164,
                -63.217430114746094,
                440.0
            ],
            [
                74.06900787353516,
                -66.19317626953125,
                460.0
            ],
            [
                77.40093231201172,
                -69.16887664794922,
                480.0
            ],
            [
                80.73204803466797,
                -72.14451599121094,
                500.0
            ],
            [
                84.06227111816406,
                -75.12012481689453,
                520.0
            ],
            [
                87.3916244506836,
                -78.0956802368164,
                540.0
            ],
            [
                90.72010040283203,
                -81.07118225097656,
                560.0
            ],
            [
                94.04766082763672,
                -84.04662322998047,
                580.0
            ],
            [
                97.37421417236328,
                -87.02201080322266,
                600.0
            ],
            [
                100.6996841430664,
                -89.99736022949219,
                620.0
            ],
            [
                104.02413177490234,
                -92.97264862060547,
                640.0
            ],
            [
                107.34754180908203,
                -95.94788360595703,
                660.0
            ],
            [
                110.66987609863281,
                -98.92305755615234,
                680.0
            ],
            [
                113.99112701416016,
                -101.8981704711914,
                700.0
            ],
            [
                117.31141662597656,
                -104.87320709228516,
                720.0
            ],
            [
                120.6305160522461,
                -107.84817504882813,
                740.0
            ],
            [
                123.94811248779297,
                -110.82312774658203,
                760.0
            ],
            [
                127.26403045654297,
                -113.79811096191406,
                780.0
            ],
            [
                130.57864379882813,
                -116.7730484008789,
                800.0
            ],
            [
                133.89193725585938,
                -119.7479476928711,
                820.0
            ],
            [
                137.203857421875,
                -122.72280883789063,
                840.0
            ],
            [
                140.51437377929688,
                -125.69763946533203,
                860.0
            ],
            [
                143.8234405517578,
                -128.6724395751953,
                880.0
            ],
            [
                147.13104248046875,
                -131.647216796875,
                900.0
            ],
            [
                150.43722534179688,
                -134.62197875976563,
                920.0
            ],
            [
                153.7410430908203,
                -137.5969696044922,
                940.0
            ],
            [
                157.04310607910156,
                -140.57191467285156,
                960.0
            ],
            [
                160.34339904785156,
                -143.54685974121094,
                980.0
            ],
            [
                163.64187622070313,
                -146.52183532714844,
                1000.0
            ],
            [
                180.11065673828125,
                -161.396240234375,
                1100.0
            ],
            [
                196.52899169921875,
                -176.27198791503906,
                1200.0
            ],
            [
                212.90655517578125,
                -191.14938354492188,
                1300.0
            ],
            [
                229.24002075195313,
                -206.02780151367188,
                1400.0
            ],
            [
                245.53152465820313,
                -220.90765380859375,
                1500.0
            ],
            [
                261.7922668457031,
                -235.78697204589844,
                1600.0
            ],
            [
                278.0125427246094,
                -250.66529846191406,
                1700.0
            ],
            [
                294.1851806640625,
                -265.5440368652344,
                1800.0
            ],
            [
                310.3077392578125,
                -280.41937255859375,
                1900.0
            ],
            [
                326.38092041015625,
                -295.2897033691406,
                2000.0
            ],
            [
                342.3976745605469,
                -310.1545715332031,
                2100.0
            ],
            [
                358.33306884765625,
                -325.01129150390625,
                2200.0
            ],
            [
                374.2247314453125,
                -339.8534851074219,
                2300.0
            ],
            [
                390.01239013671875,
                -354.6801452636719,
                2400.0
            ],
            [
                405.69622802734375,
                -369.48199462890625,
                2500.0
            ],
            [
                421.2130432128906,
                -384.25799560546875,
                2600.0
            ],
            [
                436.5838317871094,
                -399.0013732910156,
                2700.0
            ],
            [
                451.7345275878906,
                -413.7059020996094,
                2800.0
            ],
            [
                466.6301574707031,
                -428.36346435546875,
                2900.0
            ],
            [
                481.21240234375,
                -442.97344970703125,
                3000.0
            ],
            [
                495.4845886230469,
                -457.52874755859375,
                3100.0
            ],
            [
                509.3095703125,
                -472.0110778808594,
                3200.0
            ],
            [
                522.6982421875,
                -486.42205810546875,
                3300.0
            ],
            [
                535.5068359375,
                -500.7633361816406,
                3400.0
            ],
            [
                547.6954345703125,
                -515.0284423828125,
                3500.0
            ],
            [
                559.1851806640625,
                -529.2203979492188,
                3600.0
            ],
            [
                569.8765258789063,
                -543.3389282226563,
                3700.0
            ],
            [
                579.5861206054688,
                -557.3788452148438,
                3800.0
            ],
            [
                588.3500366210938,
                -571.3623046875,
                3900.0
            ],
            [
                595.9431762695313,
                -585.3067626953125,
                4000.0
            ],
            [
                602.5020751953125,
                -599.2179565429688,
                4100.0
            ],
            [
                607.7169799804688,
                -613.0902709960938,
                4200.0
            ],
            [
                611.6675415039063,
                -626.936767578125,
                4300.0
            ],
            [
                614.36962890625,
                -640.7754516601563,
                4400.0
            ],
            [
                615.7238159179688,
                -654.59033203125,
                4500.0
            ],
            [
                615.6755981445313,
                -668.412841796875,
                4600.0
            ],
            [
                614.3231201171875,
                -682.2190551757813,
                4700.0
            ],
            [
                601.1563720703125,
                -698.6676025390625,
                4800.0
            ],
            [
                596.7621459960938,
                -712.5420532226563,
                4900.0
            ],
            [
                591.0781860351563,
                -726.3854370117188,
                5000.0
            ],
            [
                584.0591430664063,
                -740.2723999023438,
                5100.0
            ],
            [
                575.7793579101563,
                -754.1449584960938,
                5200.0
            ],
            [
                566.22900390625,
                -768.039794921875,
                5300.0
            ],
            [
                555.4365234375,
                -781.919677734375,
                5400.0
            ],
            [
                543.3707275390625,
                -795.789306640625,
                5500.0
            ],
            [
                530.1439208984375,
                -809.6815185546875,
                5600.0
            ],
            [
                515.6732788085938,
                -823.5565185546875,
                5700.0
            ],
            [
                500.00665283203125,
                -837.4400024414063,
                5800.0
            ],
            [
                483.21197509765625,
                -851.2914428710938,
                5900.0
            ],
            [
                465.2027893066406,
                -865.1419067382813,
                6000.0
            ],
            [
                446.0743408203125,
                -878.9738159179688,
                6100.0
            ],
            [
                425.8404846191406,
                -892.7689208984375,
                6200.0
            ],
            [
                404.4839172363281,
                -906.5256958007813,
                6300.0
            ],
            [
                382.05902099609375,
                -920.2467041015625,
                6400.0
            ],
            [
                358.5897521972656,
                -933.9096069335938,
                6500.0
            ],
            [
                334.12310791015625,
                -947.5133666992188,
                6600.0
            ],
            [
                308.6670837402344,
                -961.0440673828125,
                6700.0
            ],
            [
                282.333251953125,
                -974.4910278320313,
                6800.0
            ],
            [
                255.0902557373047,
                -987.8440551757813,
                6900.0
            ],
            [
                227.04617309570313,
                -1001.0986328125,
                7000.0
            ],
            [
                198.25035095214844,
                -1014.2444458007813,
                7100.0
            ],
            [
                168.76722717285156,
                -1027.2806396484375,
                7200.0
            ],
            [
                138.6596221923828,
                -1040.20068359375,
                7300.0
            ],
            [
                107.95538330078125,
                -1053.00439453125,
                7400.0
            ],
            [
                76.76014709472656,
                -1065.699951171875,
                7500.0
            ],
            [
                45.08021545410156,
                -1078.2801513671875,
                7600.0
            ],
            [
                12.990129470825195,
                -1090.7540283203125,
                7700.0
            ],
            [
                -19.48171615600586,
                -1103.123046875,
                7800.0
            ],
            [
                -52.289058685302734,
                -1115.3935546875,
                7900.0
            ],
            [
                -85.39385223388672,
                -1127.5723876953125,
                8000.0
            ],
            [
                -118.77222442626953,
                -1139.6627197265625,
                8100.0
            ],
            [
                -152.38414001464844,
                -1151.67431640625,
                8200.0
            ],
            [
                -186.20913696289063,
                -1163.611328125,
                8300.0
            ],
            [
                -220.22732543945313,
                -1175.478515625,
                8400.0
            ],
            [
                -254.4195556640625,
                -1187.28173828125,
                8500.0
            ],
            [
                -288.7599792480469,
                -1199.0286865234375,
                8600.0
            ],
            [
                -323.2393798828125,
                -1210.722412109375,
                8700.0
            ],
            [
                -357.84295654296875,
                -1222.3682861328125,
                8800.0
            ],
            [
                -392.557861328125,
                -1233.97119140625,
                8900.0
            ],
            [
                -427.37445068359375,
                -1245.53466796875,
                9000.0
            ],
            [
                -462.2822570800781,
                -1257.062744140625,
                9100.0
            ],
            [
                -497.2720947265625,
                -1268.5594482421875,
                9200.0
            ],
            [
                -532.3363647460938,
                -1280.027587890625,
                9300.0
            ],
            [
                -567.4677124023438,
                -1291.4705810546875,
                9400.0
            ],
            [
                -602.6594848632813,
                -1302.89111328125,
                9500.0
            ],
            [
                -637.9061889648438,
                -1314.2916259765625,
                9600.0
            ],
            [
                -673.2024536132813,
                -1325.67431640625,
                9700.0
            ],
            [
                -708.5435180664063,
                -1337.0413818359375,
                9800.0
            ],
            [
                -743.925048828125,
                -1348.394775390625,
                9900.0
            ],
            [
                -779.3433227539063,
                -1359.73583984375,
                10000.0
            ],
            [
                -850.2764282226563,
                -1382.3873291015625,
                10200.0
            ],
            [
                -921.3192749023438,
                -1405.0057373046875,
                10400.0
            ],
            [
                -992.4505615234375,
                -1427.599609375,
                10600.0
            ],
            [
                -1063.6563720703125,
                -1450.1741943359375,
                10800.0
            ],
            [
                -1134.919921875,
                -1472.7362060546875,
                11000.0
            ],
            [
                -1206.232666015625,
                -1495.2880859375,
                11200.0
            ],
            [
                -1277.5863037109375,
                -1517.83203125,
                11400.0
            ],
            [
                -1348.969970703125,
                -1540.3726806640625,
                11600.0
            ],
            [
                -1420.3785400390625,
                -1562.91064453125,
                11800.0
            ],
            [
                -1491.806396484375,
                -1585.447509765625,
                12000.0
            ],
            [
                -1563.253662109375,
                -1607.98193359375,
                12200.0
            ],
            [
                -1634.712646484375,
                -1630.5164794921875,
                12400.0
            ],
            [
                -1706.177734375,
                -1653.053955078125,
                12600.0
            ],
            [
                -1777.649658203125,
                -1675.5919189453125,
                12800.0
            ],
            [
                -1849.13037109375,
                -1698.12890625,
                13000.0
            ],
            [
                -1920.6153564453125,
                -1720.6661376953125,
                13200.0
            ],
            [
                -1992.1033935546875,
                -1743.20458984375,
                13400.0
            ]
        ],
        "zFirstMeasurement": 124.0877
    }
]
