[
    {
        "E": 56633.42944754486,
        "chi2": 0.0,
        "ip": 0.017422739659906254,
        "ipchi2": 1.4699844783485332,
        "mass": 1872.437,
        "particleId": "D0",
        "pvx": 0.5935,
        "pvy": 0.0374,
        "pvz": 47.3217,
        "px": -5262.79,
        "py": -2962.24,
        "pz": 56279.37,
        "q": 0.0,
        "trajectory": [
            [
                0.593500018119812,
                0.03739999979734421,
                47.32170104980469
            ],
            [
                0.13019999861717224,
                -0.23669999837875366,
                52.45880126953125
            ]
        ],
        "zFirstMeasurement": -9999.0
    },
    {
        "E": 22025.273428546974,
        "chi2": 1.2875927686691284,
        "ip": 0.1968043729072191,
        "ipchi2": 179.3226628447214,
        "mass": 493.677,
        "particleId": "K-",
        "pvx": 0.5935,
        "pvy": 0.0374,
        "pvz": 47.3217,
        "px": -2299.0,
        "py": -1931.86,
        "pz": 21814.02,
        "q": -1.0,
        "trajectory": [
            [
                0.1272333264350891,
                -0.23407801985740662,
                52.45880126953125
            ],
            [
                -0.39972344040870667,
                -0.6768800616264343,
                57.45880126953125
            ],
            [
                -0.9266828894615173,
                -1.1196820735931396,
                62.45880126953125
            ],
            [
                -1.45364511013031,
                -1.5624841451644897,
                67.45880126953125
            ],
            [
                -1.9806101322174072,
                -2.00528621673584,
                72.45880126953125
            ],
            [
                -2.507577896118164,
                -2.4480884075164795,
                77.45880126953125
            ],
            [
                -3.034532308578491,
                -2.8909080028533936,
                82.45880126953125
            ],
            [
                -3.5615057945251465,
                -3.3337104320526123,
                87.45880126953125
            ],
            [
                -4.088481903076172,
                -3.776512622833252,
                92.45880126953125
            ],
            [
                -4.615461349487305,
                -4.219315052032471,
                97.45880126953125
            ],
            [
                -5.1424431800842285,
                -4.6621174812316895,
                102.45880126953125
            ],
            [
                -7.250400543212891,
                -6.433326721191406,
                122.45880126953125
            ],
            [
                -9.358407974243164,
                -8.204537391662598,
                142.45880126953125
            ],
            [
                -11.466468811035156,
                -9.975748062133789,
                162.45880126953125
            ],
            [
                -13.574585914611816,
                -11.746960639953613,
                182.45880126953125
            ],
            [
                -15.68276309967041,
                -13.518173217773438,
                202.45880126953125
            ],
            [
                -17.790969848632813,
                -15.289385795593262,
                222.45880126953125
            ],
            [
                -19.89925765991211,
                -17.06060028076172,
                242.45880126953125
            ],
            [
                -22.007606506347656,
                -18.831815719604492,
                262.45880126953125
            ],
            [
                -24.11602020263672,
                -20.6030330657959,
                282.45880126953125
            ],
            [
                -26.224502563476563,
                -22.374250411987305,
                302.45880126953125
            ],
            [
                -28.333057403564453,
                -24.145469665527344,
                322.45880126953125
            ],
            [
                -30.441682815551758,
                -25.916690826416016,
                342.45880126953125
            ],
            [
                -32.55038070678711,
                -27.687911987304688,
                362.45880126953125
            ],
            [
                -34.65916061401367,
                -29.459135055541992,
                382.45880126953125
            ],
            [
                -36.76801681518555,
                -31.23036003112793,
                402.45880126953125
            ],
            [
                -38.87696075439453,
                -33.0015869140625,
                422.45880126953125
            ],
            [
                -40.98599624633789,
                -34.7728157043457,
                442.45880126953125
            ],
            [
                -43.09511947631836,
                -36.544044494628906,
                462.45880126953125
            ],
            [
                -45.20433807373047,
                -38.315277099609375,
                482.45880126953125
            ],
            [
                -47.31364822387695,
                -40.086509704589844,
                502.45880126953125
            ],
            [
                -49.42306137084961,
                -41.85774612426758,
                522.4588012695313
            ],
            [
                -51.53257369995117,
                -43.62898635864258,
                542.4588012695313
            ],
            [
                -53.642189025878906,
                -45.40022659301758,
                562.4588012695313
            ],
            [
                -55.75191116333008,
                -47.171470642089844,
                582.4588012695313
            ],
            [
                -57.86175537109375,
                -48.94271469116211,
                602.4588012695313
            ],
            [
                -59.97172546386719,
                -50.71396255493164,
                622.4588012695313
            ],
            [
                -62.081817626953125,
                -52.48521041870117,
                642.4588012695313
            ],
            [
                -64.19203186035156,
                -54.256465911865234,
                662.4588012695313
            ],
            [
                -66.3023681640625,
                -56.02771759033203,
                682.4588012695313
            ],
            [
                -68.41283416748047,
                -57.79897689819336,
                702.4588012695313
            ],
            [
                -70.52342224121094,
                -59.57023620605469,
                722.4588012695313
            ],
            [
                -72.63414764404297,
                -61.341495513916016,
                742.4588012695313
            ],
            [
                -74.74502563476563,
                -63.11275863647461,
                762.4588012695313
            ],
            [
                -76.85608673095703,
                -64.88402557373047,
                782.4588012695313
            ],
            [
                -78.96730041503906,
                -66.65528869628906,
                802.4588012695313
            ],
            [
                -81.07865905761719,
                -68.42655944824219,
                822.4588012695313
            ],
            [
                -83.19017028808594,
                -70.19783782958984,
                842.4588012695313
            ],
            [
                -85.30184173583984,
                -71.96910858154297,
                862.4588012695313
            ],
            [
                -87.4136734008789,
                -73.74038696289063,
                882.4588012695313
            ],
            [
                -89.52566528320313,
                -75.51167297363281,
                902.4588012695313
            ],
            [
                -91.63780975341797,
                -77.28295135498047,
                922.4588012695313
            ],
            [
                -93.75016021728516,
                -79.05423736572266,
                942.4588012695313
            ],
            [
                -95.86270904541016,
                -80.82552337646484,
                962.4588012695313
            ],
            [
                -97.97543334960938,
                -82.59680938720703,
                982.4588012695313
            ],
            [
                -100.08834075927734,
                -84.36809539794922,
                1002.4588012695313
            ],
            [
                -110.65550231933594,
                -93.22454833984375,
                1102.458740234375
            ],
            [
                -121.22931671142578,
                -102.0808334350586,
                1202.458740234375
            ],
            [
                -131.80706787109375,
                -110.93716430664063,
                1302.458740234375
            ],
            [
                -142.38967895507813,
                -119.79344940185547,
                1402.458740234375
            ],
            [
                -152.97756958007813,
                -128.64967346191406,
                1502.458740234375
            ],
            [
                -163.56954956054688,
                -137.5059051513672,
                1602.458740234375
            ],
            [
                -174.16673278808594,
                -146.36219787597656,
                1702.458740234375
            ],
            [
                -184.7693634033203,
                -155.21861267089844,
                1802.458740234375
            ],
            [
                -195.37826538085938,
                -164.07521057128906,
                1902.458740234375
            ],
            [
                -205.99342346191406,
                -172.93212890625,
                2002.458740234375
            ],
            [
                -216.6174774169922,
                -181.78939819335938,
                2102.458740234375
            ],
            [
                -227.2531280517578,
                -190.64720153808594,
                2202.458740234375
            ],
            [
                -237.89622497558594,
                -199.50570678710938,
                2302.458740234375
            ],
            [
                -248.55442810058594,
                -208.36509704589844,
                2402.458740234375
            ],
            [
                -259.2283020019531,
                -217.2257537841797,
                2502.458740234375
            ],
            [
                -269.9242858886719,
                -226.0878448486328,
                2602.458740234375
            ],
            [
                -280.642578125,
                -234.95169067382813,
                2702.458740234375
            ],
            [
                -291.390380859375,
                -243.81756591796875,
                2802.458740234375
            ],
            [
                -302.171630859375,
                -252.68600463867188,
                2902.458740234375
            ],
            [
                -312.9938659667969,
                -261.5573425292969,
                3002.458740234375
            ],
            [
                -323.86065673828125,
                -270.4314270019531,
                3102.458740234375
            ],
            [
                -334.78857421875,
                -279.30865478515625,
                3202.458740234375
            ],
            [
                -345.7703857421875,
                -288.1897888183594,
                3302.458740234375
            ],
            [
                -356.8267822265625,
                -297.0747985839844,
                3402.458740234375
            ],
            [
                -367.964111328125,
                -305.9643249511719,
                3502.458740234375
            ],
            [
                -379.1835021972656,
                -314.8592224121094,
                3602.458740234375
            ],
            [
                -390.5014953613281,
                -323.7582092285156,
                3702.458740234375
            ],
            [
                -401.9263916015625,
                -332.6617431640625,
                3802.458740234375
            ],
            [
                -413.4624938964844,
                -341.5708312988281,
                3902.458740234375
            ],
            [
                -425.1274719238281,
                -350.485595703125,
                4002.458740234375
            ],
            [
                -436.91143798828125,
                -359.40484619140625,
                4102.458984375
            ],
            [
                -448.8475036621094,
                -368.3266906738281,
                4202.458984375
            ],
            [
                -460.92572021484375,
                -377.25341796875,
                4302.458984375
            ],
            [
                -473.14495849609375,
                -386.18505859375,
                4402.458984375
            ],
            [
                -485.5069885253906,
                -395.12030029296875,
                4502.458984375
            ],
            [
                -498.02386474609375,
                -404.0573425292969,
                4602.458984375
            ],
            [
                -510.69195556640625,
                -412.9963073730469,
                4702.458984375
            ],
            [
                -523.5152587890625,
                -422.9168701171875,
                4802.458984375
            ],
            [
                -536.500244140625,
                -431.89404296875,
                4902.458984375
            ],
            [
                -549.6320190429688,
                -440.87225341796875,
                5002.458984375
            ],
            [
                -562.9183349609375,
                -449.8528747558594,
                5102.458984375
            ],
            [
                -576.34814453125,
                -458.83465576171875,
                5202.458984375
            ],
            [
                -589.9243774414063,
                -467.81781005859375,
                5302.458984375
            ],
            [
                -603.6432495117188,
                -476.801025390625,
                5402.458984375
            ],
            [
                -617.5056762695313,
                -485.78375244140625,
                5502.458984375
            ],
            [
                -631.5022583007813,
                -494.7693176269531,
                5602.458984375
            ],
            [
                -645.638427734375,
                -503.7541198730469,
                5702.458984375
            ],
            [
                -659.908935546875,
                -512.7395629882813,
                5802.458984375
            ],
            [
                -674.3051147460938,
                -521.7244262695313,
                5902.458984375
            ],
            [
                -688.8338012695313,
                -530.7094116210938,
                6002.458984375
            ],
            [
                -703.4838256835938,
                -539.6942138671875,
                6102.458984375
            ],
            [
                -718.2538452148438,
                -548.677734375,
                6202.458984375
            ],
            [
                -733.1419067382813,
                -557.6602783203125,
                6302.458984375
            ],
            [
                -748.141845703125,
                -566.6417846679688,
                6402.458984375
            ],
            [
                -763.250732421875,
                -575.6217041015625,
                6502.458984375
            ],
            [
                -778.4642333984375,
                -584.6002197265625,
                6602.458984375
            ],
            [
                -793.7775268554688,
                -593.5769653320313,
                6702.458984375
            ],
            [
                -809.1825561523438,
                -602.5519409179688,
                6802.458984375
            ],
            [
                -824.6792602539063,
                -611.5244140625,
                6902.458984375
            ],
            [
                -840.2596435546875,
                -620.4945068359375,
                7002.458984375
            ],
            [
                -855.9180908203125,
                -629.4622192382813,
                7102.458984375
            ],
            [
                -871.6494750976563,
                -638.4277954101563,
                7202.458984375
            ],
            [
                -887.4488525390625,
                -647.3910522460938,
                7302.458984375
            ],
            [
                -903.3129272460938,
                -656.351806640625,
                7402.458984375
            ],
            [
                -919.2324829101563,
                -665.3107299804688,
                7502.458984375
            ],
            [
                -935.2072143554688,
                -674.267333984375,
                7602.458984375
            ],
            [
                -951.229736328125,
                -683.22216796875,
                7702.458984375
            ],
            [
                -967.2977905273438,
                -692.1752319335938,
                7802.458984375
            ],
            [
                -983.40673828125,
                -701.126708984375,
                7902.458984375
            ],
            [
                -999.5525512695313,
                -710.0767822265625,
                8002.458984375
            ],
            [
                -1015.7327880859375,
                -719.0255737304688,
                8102.458984375
            ],
            [
                -1031.943115234375,
                -727.973388671875,
                8202.458984375
            ],
            [
                -1048.181396484375,
                -736.9203491210938,
                8302.458984375
            ],
            [
                -1064.4449462890625,
                -745.8665161132813,
                8402.458984375
            ],
            [
                -1080.7315673828125,
                -754.8120727539063,
                8502.458984375
            ],
            [
                -1097.0384521484375,
                -763.7572631835938,
                8602.458984375
            ],
            [
                -1113.3642578125,
                -772.7020263671875,
                8702.458984375
            ],
            [
                -1129.7069091796875,
                -781.6466064453125,
                8802.458984375
            ],
            [
                -1146.06494140625,
                -790.5910034179688,
                8902.458984375
            ],
            [
                -1162.4368896484375,
                -799.5353393554688,
                9002.458984375
            ],
            [
                -1178.8216552734375,
                -808.4796752929688,
                9102.458984375
            ],
            [
                -1195.2176513671875,
                -817.424072265625,
                9202.458984375
            ],
            [
                -1211.6239013671875,
                -826.3685913085938,
                9302.458984375
            ],
            [
                -1228.03955078125,
                -835.3132934570313,
                9402.458984375
            ],
            [
                -1244.463623046875,
                -844.2582397460938,
                9502.458984375
            ],
            [
                -1260.8953857421875,
                -853.203369140625,
                9602.458984375
            ],
            [
                -1277.3338623046875,
                -862.1487426757813,
                9702.458984375
            ],
            [
                -1293.7786865234375,
                -871.0944213867188,
                9802.458984375
            ],
            [
                -1310.2291259765625,
                -880.040283203125,
                9902.458984375
            ],
            [
                -1326.6846923828125,
                -888.9865112304688,
                10002.458984375
            ],
            [
                -1359.609130859375,
                -906.8797607421875,
                10202.458984375
            ],
            [
                -1392.5489501953125,
                -924.7740478515625,
                10402.458984375
            ],
            [
                -1425.5009765625,
                -942.66943359375,
                10602.458984375
            ],
            [
                -1458.4635009765625,
                -960.5657958984375,
                10802.458984375
            ],
            [
                -1491.43408203125,
                -978.4630737304688,
                11002.458984375
            ],
            [
                -1524.411376953125,
                -996.3612060546875,
                11202.458984375
            ],
            [
                -1557.3946533203125,
                -1014.2600708007813,
                11402.458984375
            ],
            [
                -1590.382080078125,
                -1032.15966796875,
                11602.458984375
            ],
            [
                -1623.3731689453125,
                -1050.0599365234375,
                11802.458984375
            ],
            [
                -1656.366943359375,
                -1067.960693359375,
                12002.458984375
            ],
            [
                -1689.3636474609375,
                -1085.8619384765625,
                12202.458984375
            ],
            [
                -1722.3621826171875,
                -1103.7635498046875,
                12402.458984375
            ],
            [
                -1755.3616943359375,
                -1121.6656494140625,
                12602.458984375
            ],
            [
                -1788.362060546875,
                -1139.5679931640625,
                12802.458984375
            ],
            [
                -1821.3638916015625,
                -1157.4705810546875,
                13002.458984375
            ],
            [
                -1854.3665771484375,
                -1175.373291015625,
                13202.458984375
            ],
            [
                -1887.3695068359375,
                -1193.2762451171875,
                13402.458984375
            ]
        ],
        "zFirstMeasurement": 109.4064
    },
    {
        "E": 34613.48209389366,
        "chi2": 0.877266526222229,
        "ip": 0.12420590085274798,
        "ipchi2": 65.24512396318674,
        "mass": 139.57,
        "particleId": "pi+",
        "pvx": 0.5935,
        "pvy": 0.0374,
        "pvz": 47.3217,
        "px": -2964.82,
        "py": -1030.5,
        "pz": 34470.59,
        "q": 1.0,
        "trajectory": [
            [
                0.13458818197250366,
                -0.2393077164888382,
                52.45880126953125
            ],
            [
                -0.2954619228839874,
                -0.38878241181373596,
                57.45880126953125
            ],
            [
                -0.72551029920578,
                -0.5382571220397949,
                62.45880126953125
            ],
            [
                -1.1555569171905518,
                -0.6877318024635315,
                67.45880126953125
            ],
            [
                -1.585601806640625,
                -0.8372064828872681,
                72.45880126953125
            ],
            [
                -2.0156447887420654,
                -0.9866811633110046,
                77.45880126953125
            ],
            [
                -2.445686101913452,
                -1.1361558437347412,
                82.45880126953125
            ],
            [
                -2.875725507736206,
                -1.285630464553833,
                87.45880126953125
            ],
            [
                -3.305763006210327,
                -1.4351052045822144,
                92.45880126953125
            ],
            [
                -3.7358667850494385,
                -1.5846362113952637,
                97.45880126953125
            ],
            [
                -4.165900707244873,
                -1.7341108322143555,
                102.45880126953125
            ],
            [
                -5.8860182762146,
                -2.3320093154907227,
                122.45880126953125
            ],
            [
                -7.606104850769043,
                -2.92990779876709,
                142.45880126953125
            ],
            [
                -9.32615852355957,
                -3.527806043624878,
                162.45880126953125
            ],
            [
                -11.046177864074707,
                -4.125704288482666,
                182.45880126953125
            ],
            [
                -12.766159057617188,
                -4.723602294921875,
                202.45880126953125
            ],
            [
                -14.486102104187012,
                -5.321500301361084,
                222.45880126953125
            ],
            [
                -16.20602035522461,
                -5.919397830963135,
                242.45880126953125
            ],
            [
                -17.925888061523438,
                -6.5172953605651855,
                262.45880126953125
            ],
            [
                -19.645715713500977,
                -7.115192890167236,
                282.45880126953125
            ],
            [
                -21.36549949645996,
                -7.713089942932129,
                302.45880126953125
            ],
            [
                -23.08523941040039,
                -8.310986518859863,
                322.45880126953125
            ],
            [
                -24.804933547973633,
                -8.908883094787598,
                342.45880126953125
            ],
            [
                -26.524578094482422,
                -9.506778717041016,
                362.45880126953125
            ],
            [
                -28.244173049926758,
                -10.10467529296875,
                382.45880126953125
            ],
            [
                -29.963716506958008,
                -10.702569961547852,
                402.45880126953125
            ],
            [
                -31.683204650878906,
                -11.30046558380127,
                422.45880126953125
            ],
            [
                -33.40263748168945,
                -11.898360252380371,
                442.45880126953125
            ],
            [
                -35.122013092041016,
                -12.496253967285156,
                462.45880126953125
            ],
            [
                -36.841331481933594,
                -13.094147682189941,
                482.45880126953125
            ],
            [
                -38.56058883666992,
                -13.692041397094727,
                502.45880126953125
            ],
            [
                -40.279781341552734,
                -14.289934158325195,
                522.4588012695313
            ],
            [
                -41.99890899658203,
                -14.887825965881348,
                542.4588012695313
            ],
            [
                -43.71797561645508,
                -15.4857177734375,
                562.4588012695313
            ],
            [
                -45.43696594238281,
                -16.083608627319336,
                582.4588012695313
            ],
            [
                -47.155879974365234,
                -16.681499481201172,
                602.4588012695313
            ],
            [
                -48.874717712402344,
                -17.279390335083008,
                622.4588012695313
            ],
            [
                -50.59347915649414,
                -17.87727928161621,
                642.4588012695313
            ],
            [
                -52.31216812133789,
                -18.475168228149414,
                662.4588012695313
            ],
            [
                -54.03076934814453,
                -19.073055267333984,
                682.4588012695313
            ],
            [
                -55.74928665161133,
                -19.670942306518555,
                702.4588012695313
            ],
            [
                -57.46772384643555,
                -20.268829345703125,
                722.4588012695313
            ],
            [
                -59.186073303222656,
                -20.866716384887695,
                742.4588012695313
            ],
            [
                -60.90431213378906,
                -21.464601516723633,
                762.4588012695313
            ],
            [
                -62.622459411621094,
                -22.06248664855957,
                782.4588012695313
            ],
            [
                -64.34051513671875,
                -22.660371780395508,
                802.4588012695313
            ],
            [
                -66.0584716796875,
                -23.258256912231445,
                822.4588012695313
            ],
            [
                -67.77632904052734,
                -23.85614013671875,
                842.4588012695313
            ],
            [
                -69.49409484863281,
                -24.454023361206055,
                862.4588012695313
            ],
            [
                -71.21175384521484,
                -25.05190658569336,
                882.4588012695313
            ],
            [
                -72.92930603027344,
                -25.64978790283203,
                902.4588012695313
            ],
            [
                -74.64674377441406,
                -26.24766731262207,
                922.4588012695313
            ],
            [
                -76.36406707763672,
                -26.845544815063477,
                942.4588012695313
            ],
            [
                -78.08128356933594,
                -27.443422317504883,
                962.4588012695313
            ],
            [
                -79.79837799072266,
                -28.04129981994629,
                982.4588012695313
            ],
            [
                -81.5153579711914,
                -28.639177322387695,
                1002.4588012695313
            ],
            [
                -90.09841918945313,
                -31.628555297851563,
                1102.458740234375
            ],
            [
                -98.67765045166016,
                -34.61796569824219,
                1202.458740234375
            ],
            [
                -107.25419616699219,
                -37.60734558105469,
                1302.458740234375
            ],
            [
                -115.82762908935547,
                -40.59672927856445,
                1402.458740234375
            ],
            [
                -124.39801788330078,
                -43.586124420166016,
                1502.458740234375
            ],
            [
                -132.9654998779297,
                -46.57551574707031,
                1602.458740234375
            ],
            [
                -141.52976989746094,
                -49.564884185791016,
                1702.458740234375
            ],
            [
                -150.09019470214844,
                -52.55421447753906,
                1802.458740234375
            ],
            [
                -158.64662170410156,
                -55.54350280761719,
                1902.458740234375
            ],
            [
                -167.19818115234375,
                -58.53272247314453,
                2002.458740234375
            ],
            [
                -175.74403381347656,
                -61.52190017700195,
                2102.458740234375
            ],
            [
                -184.28297424316406,
                -64.51097106933594,
                2202.458740234375
            ],
            [
                -192.8158416748047,
                -67.49990844726563,
                2302.458740234375
            ],
            [
                -201.33847045898438,
                -70.48866271972656,
                2402.458740234375
            ],
            [
                -209.849853515625,
                -73.47718811035156,
                2502.458740234375
            ],
            [
                -218.3463134765625,
                -76.4654312133789,
                2602.458740234375
            ],
            [
                -226.82740783691406,
                -79.45333862304688,
                2702.458740234375
            ],
            [
                -235.28919982910156,
                -82.44087982177734,
                2802.458740234375
            ],
            [
                -243.72698974609375,
                -85.42794799804688,
                2902.458740234375
            ],
            [
                -252.13711547851563,
                -88.41449737548828,
                3002.458740234375
            ],
            [
                -260.5179748535156,
                -91.40054321289063,
                3102.458740234375
            ],
            [
                -268.8612976074219,
                -94.3862075805664,
                3202.458740234375
            ],
            [
                -277.1650390625,
                -97.37116241455078,
                3302.458740234375
            ],
            [
                -285.4204406738281,
                -100.35546875,
                3402.458740234375
            ],
            [
                -293.6241760253906,
                -103.33905792236328,
                3502.458740234375
            ],
            [
                -301.7745361328125,
                -106.32176971435547,
                3602.458740234375
            ],
            [
                -309.8641357421875,
                -109.30378723144531,
                3702.458740234375
            ],
            [
                -317.88446044921875,
                -112.28519439697266,
                3802.458740234375
            ],
            [
                -325.8379821777344,
                -115.26573944091797,
                3902.458740234375
            ],
            [
                -333.710693359375,
                -118.2453384399414,
                4002.458740234375
            ],
            [
                -341.5099182128906,
                -121.22407531738281,
                4102.458984375
            ],
            [
                -349.2206115722656,
                -124.2025375366211,
                4202.458984375
            ],
            [
                -356.8440856933594,
                -127.18025207519531,
                4302.458984375
            ],
            [
                -364.381591796875,
                -130.15696716308594,
                4402.458984375
            ],
            [
                -371.8292236328125,
                -133.13311767578125,
                4502.458984375
            ],
            [
                -379.18817138671875,
                -136.1087646484375,
                4602.458984375
            ],
            [
                -386.4512939453125,
                -139.084228515625,
                4702.458984375
            ],
            [
                -394.2660217285156,
                -142.53561401367188,
                4802.458984375
            ],
            [
                -401.3589782714844,
                -145.524658203125,
                4902.458984375
            ],
            [
                -408.3627014160156,
                -148.5135498046875,
                5002.458984375
            ],
            [
                -415.2733459472656,
                -151.50201416015625,
                5102.458984375
            ],
            [
                -422.0962829589844,
                -154.4901580810547,
                5202.458984375
            ],
            [
                -428.83026123046875,
                -157.47767639160156,
                5302.458984375
            ],
            [
                -435.4777526855469,
                -160.46533203125,
                5402.458984375
            ],
            [
                -442.0389099121094,
                -163.4532470703125,
                5502.458984375
            ],
            [
                -448.5186767578125,
                -166.44021606445313,
                5602.458984375
            ],
            [
                -454.9143371582031,
                -169.42724609375,
                5702.458984375
            ],
            [
                -461.22900390625,
                -172.4138641357422,
                5802.458984375
            ],
            [
                -467.4675598144531,
                -175.4003448486328,
                5902.458984375
            ],
            [
                -473.6274719238281,
                -178.38665771484375,
                6002.458984375
            ],
            [
                -479.71441650390625,
                -181.37266540527344,
                6102.458984375
            ],
            [
                -485.7297058105469,
                -184.35862731933594,
                6202.458984375
            ],
            [
                -491.67535400390625,
                -187.34461975097656,
                6302.458984375
            ],
            [
                -497.5545349121094,
                -190.33056640625,
                6402.458984375
            ],
            [
                -503.3688049316406,
                -193.31654357910156,
                6502.458984375
            ],
            [
                -509.1223449707031,
                -196.30245971679688,
                6602.458984375
            ],
            [
                -514.8165893554688,
                -199.28831481933594,
                6702.458984375
            ],
            [
                -520.4558715820313,
                -202.27413940429688,
                6802.458984375
            ],
            [
                -526.0411376953125,
                -205.2600860595703,
                6902.458984375
            ],
            [
                -531.5762939453125,
                -208.24609375,
                7002.458984375
            ],
            [
                -537.0645141601563,
                -211.2321319580078,
                7102.458984375
            ],
            [
                -542.5086059570313,
                -214.21815490722656,
                7202.458984375
            ],
            [
                -547.9110717773438,
                -217.20416259765625,
                7302.458984375
            ],
            [
                -553.2740478515625,
                -220.1902313232422,
                7402.458984375
            ],
            [
                -558.60205078125,
                -223.17620849609375,
                7502.458984375
            ],
            [
                -563.8959350585938,
                -226.16221618652344,
                7602.458984375
            ],
            [
                -569.1592407226563,
                -229.1481475830078,
                7702.458984375
            ],
            [
                -574.393310546875,
                -232.13401794433594,
                7802.458984375
            ],
            [
                -579.6006469726563,
                -235.1197967529297,
                7902.458984375
            ],
            [
                -584.7835693359375,
                -238.10546875,
                8002.458984375
            ],
            [
                -589.9434814453125,
                -241.09103393554688,
                8102.458984375
            ],
            [
                -595.0828857421875,
                -244.07647705078125,
                8202.458984375
            ],
            [
                -600.2032470703125,
                -247.0618133544922,
                8302.458984375
            ],
            [
                -605.3060302734375,
                -250.04701232910156,
                8402.458984375
            ],
            [
                -610.3925170898438,
                -253.03208923339844,
                8502.458984375
            ],
            [
                -615.4646606445313,
                -256.01702880859375,
                8602.458984375
            ],
            [
                -620.5232543945313,
                -259.0018615722656,
                8702.458984375
            ],
            [
                -625.569580078125,
                -261.986572265625,
                8802.458984375
            ],
            [
                -630.6046752929688,
                -264.9711608886719,
                8902.458984375
            ],
            [
                -635.6295166015625,
                -267.95562744140625,
                9002.458984375
            ],
            [
                -640.6448974609375,
                -270.9399719238281,
                9102.458984375
            ],
            [
                -645.6517333984375,
                -273.9241943359375,
                9202.458984375
            ],
            [
                -650.6507568359375,
                -276.9083251953125,
                9302.458984375
            ],
            [
                -655.6427001953125,
                -279.8923034667969,
                9402.458984375
            ],
            [
                -660.6281127929688,
                -282.8761901855469,
                9502.458984375
            ],
            [
                -665.607666015625,
                -285.8599853515625,
                9602.458984375
            ],
            [
                -670.5818481445313,
                -288.8436584472656,
                9702.458984375
            ],
            [
                -675.5510864257813,
                -291.8272705078125,
                9802.458984375
            ],
            [
                -680.5159301757813,
                -294.8107604980469,
                9902.458984375
            ],
            [
                -685.4766235351563,
                -297.7941589355469,
                10002.458984375
            ],
            [
                -695.3873291015625,
                -303.7607421875,
                10202.458984375
            ],
            [
                -705.2857055664063,
                -309.72705078125,
                10402.458984375
            ],
            [
                -715.1739501953125,
                -315.6930847167969,
                10602.458984375
            ],
            [
                -725.0535888671875,
                -321.6589050292969,
                10802.458984375
            ],
            [
                -734.926513671875,
                -327.62451171875,
                11002.458984375
            ],
            [
                -744.7935180664063,
                -333.5899658203125,
                11202.458984375
            ],
            [
                -754.6555786132813,
                -339.5552673339844,
                11402.458984375
            ],
            [
                -764.5139770507813,
                -345.52044677734375,
                11602.458984375
            ],
            [
                -774.369140625,
                -351.4855041503906,
                11802.458984375
            ],
            [
                -784.2218017578125,
                -357.45050048828125,
                12002.458984375
            ],
            [
                -794.0718994140625,
                -363.4153747558594,
                12202.458984375
            ],
            [
                -803.9203491210938,
                -369.3802185058594,
                12402.458984375
            ],
            [
                -813.7678833007813,
                -375.3450012207031,
                12602.458984375
            ],
            [
                -823.6143188476563,
                -381.3097229003906,
                12802.458984375
            ],
            [
                -833.4595336914063,
                -387.2744445800781,
                13002.458984375
            ],
            [
                -843.3040161132813,
                -393.2391052246094,
                13202.458984375
            ],
            [
                -853.1480712890625,
                -399.2037353515625,
                13402.458984375
            ]
        ],
        "zFirstMeasurement": 139.4112
    },
    {
        "E": 5195.175139025173,
        "chi2": 0.8676084280014038,
        "ip": 0.08011369087753155,
        "ipchi2": 5.6772754201444835,
        "mass": 139.57018,
        "particleId": "pi+",
        "pvx": 0.5935,
        "pvy": 0.0374,
        "pvz": 47.3217,
        "px": 450.545712485994,
        "py": 766.5760117516035,
        "pz": 5116.613593888783,
        "q": 1.0,
        "trajectory": [
            [
                -12.30801010131836,
                -22.07912254333496,
                -100.0
            ],
            [
                -11.86801528930664,
                -21.33001136779785,
                -95.0
            ],
            [
                -11.42801284790039,
                -20.580902099609375,
                -90.0
            ],
            [
                -10.988001823425293,
                -19.8317928314209,
                -85.0
            ],
            [
                -10.547982215881348,
                -19.082683563232422,
                -80.0
            ],
            [
                -10.107953071594238,
                -18.333574295043945,
                -75.0
            ],
            [
                -9.667916297912598,
                -17.58446502685547,
                -70.0
            ],
            [
                -9.227869987487793,
                -16.835357666015625,
                -65.0
            ],
            [
                -8.787814140319824,
                -16.08624839782715,
                -60.0
            ],
            [
                -8.347749710083008,
                -15.337140083312988,
                -55.0
            ],
            [
                -7.907744884490967,
                -14.588033676147461,
                -50.0
            ],
            [
                -7.467652320861816,
                -13.8389253616333,
                -45.0
            ],
            [
                -7.027549743652344,
                -13.089818000793457,
                -40.0
            ],
            [
                -6.587438583374023,
                -12.340709686279297,
                -35.0
            ],
            [
                -6.1473188400268555,
                -11.591602325439453,
                -30.0
            ],
            [
                -5.70719051361084,
                -10.84249496459961,
                -25.0
            ],
            [
                -5.267053127288818,
                -10.093387603759766,
                -20.0
            ],
            [
                -4.826906204223633,
                -9.344281196594238,
                -15.0
            ],
            [
                -4.386750221252441,
                -8.595173835754395,
                -10.0
            ],
            [
                -3.946584701538086,
                -7.846067428588867,
                -5.0
            ],
            [
                -3.5064094066619873,
                -7.09696102142334,
                0.0
            ],
            [
                -3.0662240982055664,
                -6.347855091094971,
                5.0
            ],
            [
                -2.6260287761688232,
                -5.598749160766602,
                10.0
            ],
            [
                -2.1858232021331787,
                -4.849643230438232,
                15.0
            ],
            [
                -1.7456071376800537,
                -4.100537300109863,
                20.0
            ],
            [
                -1.3053805828094482,
                -3.3514318466186523,
                25.0
            ],
            [
                -0.8651431798934937,
                -2.6023266315460205,
                30.0
            ],
            [
                -0.4248948097229004,
                -1.8532212972640991,
                35.0
            ],
            [
                0.015364663675427437,
                -1.1041162014007568,
                40.0
            ],
            [
                0.4556354582309723,
                -0.35501131415367126,
                45.0
            ],
            [
                0.8959177136421204,
                0.39409348368644714,
                50.0
            ],
            [
                1.3362116813659668,
                1.1431981325149536,
                55.0
            ],
            [
                1.776517391204834,
                1.8923026323318481,
                60.0
            ],
            [
                2.2168350219726563,
                2.641407012939453,
                65.0
            ],
            [
                2.657165050506592,
                3.3905112743377686,
                70.0
            ],
            [
                3.097557783126831,
                4.139674186706543,
                75.0
            ],
            [
                3.537911891937256,
                4.888778209686279,
                80.0
            ],
            [
                3.9782779216766357,
                5.637882232666016,
                85.0
            ],
            [
                4.418656349182129,
                6.386985778808594,
                90.0
            ],
            [
                4.859046936035156,
                7.136089324951172,
                95.0
            ],
            [
                5.299450397491455,
                7.88519287109375,
                100.0
            ],
            [
                7.06119441986084,
                10.881606101989746,
                120.0
            ],
            [
                8.82315731048584,
                13.87801742553711,
                140.0
            ],
            [
                10.58535385131836,
                16.874427795410156,
                160.0
            ],
            [
                12.347795486450195,
                19.870838165283203,
                180.0
            ],
            [
                14.110390663146973,
                22.867246627807617,
                200.0
            ],
            [
                15.87329387664795,
                25.86365509033203,
                220.0
            ],
            [
                17.636455535888672,
                28.860061645507813,
                240.0
            ],
            [
                19.39988899230957,
                31.856470108032227,
                260.0
            ],
            [
                21.16360092163086,
                34.85287857055664,
                280.0
            ],
            [
                22.9276065826416,
                37.84928894042969,
                300.0
            ],
            [
                24.691911697387695,
                40.845703125,
                320.0
            ],
            [
                26.456527709960938,
                43.84211349487305,
                340.0
            ],
            [
                28.22146224975586,
                46.83852767944336,
                360.0
            ],
            [
                29.986726760864258,
                49.83494567871094,
                380.0
            ],
            [
                31.752328872680664,
                52.831363677978516,
                400.0
            ],
            [
                33.518287658691406,
                55.827789306640625,
                420.0
            ],
            [
                35.28461456298828,
                58.824214935302734,
                440.0
            ],
            [
                37.05134201049805,
                61.82064437866211,
                460.0
            ],
            [
                38.81846618652344,
                64.81707763671875,
                480.0
            ],
            [
                40.58598709106445,
                67.81351470947266,
                500.0
            ],
            [
                42.35394287109375,
                70.80996704101563,
                520.0
            ],
            [
                44.1223258972168,
                73.8064193725586,
                540.0
            ],
            [
                45.89113998413086,
                76.80287170410156,
                560.0
            ],
            [
                47.660404205322266,
                79.7993392944336,
                580.0
            ],
            [
                49.43012619018555,
                82.79581451416016,
                600.0
            ],
            [
                51.200439453125,
                85.79228973388672,
                620.0
            ],
            [
                52.97126770019531,
                88.78876495361328,
                640.0
            ],
            [
                54.74260330200195,
                91.7852554321289,
                660.0
            ],
            [
                56.51446533203125,
                94.78174591064453,
                680.0
            ],
            [
                58.286865234375,
                97.77824401855469,
                700.0
            ],
            [
                60.059776306152344,
                100.77474212646484,
                720.0
            ],
            [
                61.83323669433594,
                103.771240234375,
                740.0
            ],
            [
                63.607261657714844,
                106.76774597167969,
                760.0
            ],
            [
                65.38201141357422,
                109.76426696777344,
                780.0
            ],
            [
                67.15755462646484,
                112.76080322265625,
                800.0
            ],
            [
                68.9337158203125,
                115.75735473632813,
                820.0
            ],
            [
                70.71052551269531,
                118.75391387939453,
                840.0
            ],
            [
                72.48800659179688,
                121.75048065185547,
                860.0
            ],
            [
                74.26615905761719,
                124.7470474243164,
                880.0
            ],
            [
                76.04500579833984,
                127.7436294555664,
                900.0
            ],
            [
                77.824462890625,
                130.74021911621094,
                920.0
            ],
            [
                79.60469818115234,
                133.73681640625,
                940.0
            ],
            [
                81.38594818115234,
                136.7333984375,
                960.0
            ],
            [
                83.16796875,
                139.72996520996094,
                980.0
            ],
            [
                84.9507827758789,
                142.72653198242188,
                1000.0
            ],
            [
                93.87993621826172,
                157.70909118652344,
                1100.0
            ],
            [
                102.82787322998047,
                172.6913299560547,
                1200.0
            ],
            [
                111.79695892333984,
                187.67315673828125,
                1300.0
            ],
            [
                120.78638458251953,
                202.65447998046875,
                1400.0
            ],
            [
                129.79710388183594,
                217.63571166992188,
                1500.0
            ],
            [
                138.82412719726563,
                232.6165008544922,
                1600.0
            ],
            [
                147.8713836669922,
                247.5977020263672,
                1700.0
            ],
            [
                156.93641662597656,
                262.580078125,
                1800.0
            ],
            [
                166.02462768554688,
                277.5627136230469,
                1900.0
            ],
            [
                175.1356201171875,
                292.5467529296875,
                2000.0
            ],
            [
                184.28565979003906,
                307.5325927734375,
                2100.0
            ],
            [
                193.4604949951172,
                322.5212097167969,
                2200.0
            ],
            [
                202.6639862060547,
                337.513427734375,
                2300.0
            ],
            [
                211.91912841796875,
                352.509765625,
                2400.0
            ],
            [
                221.2228240966797,
                367.5143127441406,
                2500.0
            ],
            [
                230.59933471679688,
                382.5282897949219,
                2600.0
            ],
            [
                240.0533447265625,
                397.55126953125,
                2700.0
            ],
            [
                249.61026000976563,
                412.586181640625,
                2800.0
            ],
            [
                259.28973388671875,
                427.63623046875,
                2900.0
            ],
            [
                269.1168212890625,
                442.702880859375,
                3000.0
            ],
            [
                279.14068603515625,
                457.7864990234375,
                3100.0
            ],
            [
                289.35308837890625,
                472.8927917480469,
                3200.0
            ],
            [
                299.7846374511719,
                488.0250549316406,
                3300.0
            ],
            [
                310.50146484375,
                503.1869201660156,
                3400.0
            ],
            [
                321.5385437011719,
                518.3810424804688,
                3500.0
            ],
            [
                332.9159851074219,
                533.6033935546875,
                3600.0
            ],
            [
                344.721923828125,
                548.8606567382813,
                3700.0
            ],
            [
                356.98345947265625,
                564.156982421875,
                3800.0
            ],
            [
                369.77655029296875,
                579.4940795898438,
                3900.0
            ],
            [
                383.12322998046875,
                594.8701782226563,
                4000.0
            ],
            [
                397.07159423828125,
                610.271240234375,
                4100.0
            ],
            [
                411.6934814453125,
                625.7179565429688,
                4200.0
            ],
            [
                426.9558410644531,
                641.2047119140625,
                4300.0
            ],
            [
                442.8939514160156,
                656.7193603515625,
                4400.0
            ],
            [
                459.51904296875,
                672.2588500976563,
                4500.0
            ],
            [
                476.9145812988281,
                687.8247680664063,
                4600.0
            ],
            [
                494.958984375,
                703.4111328125,
                4700.0
            ],
            [
                513.3156127929688,
                718.3424072265625,
                4800.0
            ],
            [
                532.92138671875,
                734.0091552734375,
                4900.0
            ],
            [
                553.2007446289063,
                749.6744384765625,
                5000.0
            ],
            [
                574.21533203125,
                765.365966796875,
                5100.0
            ],
            [
                595.8881225585938,
                781.0584106445313,
                5200.0
            ],
            [
                618.2503051757813,
                796.7666625976563,
                5300.0
            ],
            [
                641.2669067382813,
                812.4760131835938,
                5400.0
            ],
            [
                664.950927734375,
                828.1832275390625,
                5500.0
            ],
            [
                689.2887573242188,
                843.905029296875,
                5600.0
            ],
            [
                714.2640991210938,
                859.6194458007813,
                5700.0
            ],
            [
                739.897705078125,
                875.3322143554688,
                5800.0
            ],
            [
                766.1257934570313,
                891.03466796875,
                5900.0
            ],
            [
                793.0175170898438,
                906.733642578125,
                6000.0
            ],
            [
                820.5010375976563,
                922.4234619140625,
                6100.0
            ],
            [
                848.5791625976563,
                938.0944213867188,
                6200.0
            ],
            [
                877.2527465820313,
                953.7462768554688,
                6300.0
            ],
            [
                906.5054321289063,
                969.3772583007813,
                6400.0
            ],
            [
                936.3158569335938,
                984.9763793945313,
                6500.0
            ],
            [
                966.6661376953125,
                1000.544677734375,
                6600.0
            ],
            [
                997.5277099609375,
                1016.0687255859375,
                6700.0
            ],
            [
                1028.8692626953125,
                1031.55322265625,
                6800.0
            ],
            [
                1060.6866455078125,
                1046.9835205078125,
                6900.0
            ],
            [
                1092.923828125,
                1062.3609619140625,
                7000.0
            ],
            [
                1125.544921875,
                1077.684814453125,
                7100.0
            ],
            [
                1158.51953125,
                1092.9541015625,
                7200.0
            ],
            [
                1191.808349609375,
                1108.1690673828125,
                7300.0
            ],
            [
                1225.3980712890625,
                1123.327392578125,
                7400.0
            ],
            [
                1259.2286376953125,
                1138.439697265625,
                7500.0
            ],
            [
                1293.2908935546875,
                1153.5018310546875,
                7600.0
            ],
            [
                1327.5479736328125,
                1168.52099609375,
                7700.0
            ],
            [
                1361.9853515625,
                1183.4984130859375,
                7800.0
            ],
            [
                1396.5782470703125,
                1198.43994140625,
                7900.0
            ],
            [
                1431.3055419921875,
                1213.3504638671875,
                8000.0
            ],
            [
                1466.1553955078125,
                1228.2320556640625,
                8100.0
            ],
            [
                1501.1077880859375,
                1243.0908203125,
                8200.0
            ],
            [
                1536.15234375,
                1257.92919921875,
                8300.0
            ],
            [
                1571.279296875,
                1272.750244140625,
                8400.0
            ],
            [
                1606.479248046875,
                1287.5574951171875,
                8500.0
            ],
            [
                1641.739990234375,
                1302.3536376953125,
                8600.0
            ],
            [
                1677.0574951171875,
                1317.1407470703125,
                8700.0
            ],
            [
                1712.424560546875,
                1331.9207763671875,
                8800.0
            ],
            [
                1747.836181640625,
                1346.696044921875,
                8900.0
            ],
            [
                1783.2877197265625,
                1361.4676513671875,
                9000.0
            ],
            [
                1818.774658203125,
                1376.2369384765625,
                9100.0
            ],
            [
                1854.2930908203125,
                1391.0050048828125,
                9200.0
            ],
            [
                1889.83984375,
                1405.7724609375,
                9300.0
            ],
            [
                1925.41162109375,
                1420.5401611328125,
                9400.0
            ],
            [
                1961.005859375,
                1435.30859375,
                9500.0
            ],
            [
                1996.6202392578125,
                1450.0780029296875,
                9600.0
            ],
            [
                2032.252685546875,
                1464.8487548828125,
                9700.0
            ],
            [
                2067.901123046875,
                1479.6209716796875,
                9800.0
            ],
            [
                2103.564208984375,
                1494.3948974609375,
                9900.0
            ],
            [
                2139.240478515625,
                1509.17041015625,
                10000.0
            ],
            [
                2210.626708984375,
                1538.726806640625,
                10200.0
            ],
            [
                2282.05126953125,
                1568.2901611328125,
                10400.0
            ],
            [
                2353.505859375,
                1597.8604736328125,
                10600.0
            ],
            [
                2424.985595703125,
                1627.4368896484375,
                10800.0
            ],
            [
                2496.484375,
                1657.0191650390625,
                11000.0
            ],
            [
                2567.998779296875,
                1686.6064453125,
                11200.0
            ],
            [
                2639.52587890625,
                1716.1988525390625,
                11400.0
            ],
            [
                2711.061767578125,
                1745.796142578125,
                11600.0
            ],
            [
                2782.6044921875,
                1775.397216796875,
                11800.0
            ],
            [
                2854.15234375,
                1805.001708984375,
                12000.0
            ],
            [
                2925.704833984375,
                1834.609619140625,
                12200.0
            ],
            [
                2997.259521484375,
                1864.2213134765625,
                12400.0
            ],
            [
                3068.815185546875,
                1893.8360595703125,
                12600.0
            ],
            [
                3140.37158203125,
                1923.45263671875,
                12800.0
            ],
            [
                3211.93017578125,
                1953.0706787109375,
                13000.0
            ],
            [
                3283.48876953125,
                1982.6910400390625,
                13200.0
            ],
            [
                3355.04736328125,
                2012.313232421875,
                13400.0
            ]
        ],
        "zFirstMeasurement": 95.9452
    },
    {
        "E": 2756.385850646682,
        "chi2": 1.0955101251602173,
        "ip": 0.11636827006600736,
        "ipchi2": 6.05043716264918,
        "mass": 139.57018,
        "particleId": "pi-",
        "pvx": 0.5935,
        "pvy": 0.0374,
        "pvz": 47.3217,
        "px": 263.846526910264,
        "py": -365.2814559460755,
        "pz": 2715.720455179308,
        "q": -1.0,
        "trajectory": [
            [
                -13.842107772827148,
                19.83153533935547,
                -100.0
            ],
            [
                -13.35582160949707,
                19.158981323242188,
                -95.0
            ],
            [
                -12.869550704956055,
                18.48642921447754,
                -90.0
            ],
            [
                -12.383295059204102,
                17.81387710571289,
                -85.0
            ],
            [
                -11.897054672241211,
                17.141326904296875,
                -80.0
            ],
            [
                -11.410829544067383,
                16.46877670288086,
                -75.0
            ],
            [
                -10.924620628356934,
                15.796226501464844,
                -70.0
            ],
            [
                -10.438426971435547,
                15.123677253723145,
                -65.0
            ],
            [
                -9.952249526977539,
                14.451128959655762,
                -60.0
            ],
            [
                -9.466089248657227,
                13.778581619262695,
                -55.0
            ],
            [
                -8.97981071472168,
                13.10603141784668,
                -50.0
            ],
            [
                -8.493701934814453,
                12.43348503112793,
                -45.0
            ],
            [
                -8.007610321044922,
                11.760940551757813,
                -40.0
            ],
            [
                -7.521534442901611,
                11.088396072387695,
                -35.0
            ],
            [
                -7.035473823547363,
                10.415852546691895,
                -30.0
            ],
            [
                -6.549428462982178,
                9.74330997467041,
                -25.0
            ],
            [
                -6.063399791717529,
                9.070768356323242,
                -20.0
            ],
            [
                -5.57738733291626,
                8.398226737976074,
                -15.0
            ],
            [
                -5.091391086578369,
                7.725686073303223,
                -10.0
            ],
            [
                -4.605412483215332,
                7.0531463623046875,
                -5.0
            ],
            [
                -4.11945104598999,
                6.3806071281433105,
                0.0
            ],
            [
                -3.63350772857666,
                5.70806884765625,
                5.0
            ],
            [
                -3.1475822925567627,
                5.035531520843506,
                10.0
            ],
            [
                -2.661675214767456,
                4.36299467086792,
                15.0
            ],
            [
                -2.1757872104644775,
                3.6904587745666504,
                20.0
            ],
            [
                -1.689918041229248,
                3.017923593521118,
                25.0
            ],
            [
                -1.2040684223175049,
                2.3453891277313232,
                30.0
            ],
            [
                -0.7182385921478271,
                1.6728556156158447,
                35.0
            ],
            [
                -0.23242893815040588,
                1.0003228187561035,
                40.0
            ],
            [
                0.25336024165153503,
                0.3277909457683563,
                45.0
            ],
            [
                0.7391286492347717,
                -0.3447401225566864,
                50.0
            ],
            [
                1.2248759269714355,
                -1.0172703266143799,
                55.0
            ],
            [
                1.7106016874313354,
                -1.6897997856140137,
                60.0
            ],
            [
                2.196305513381958,
                -2.362328290939331,
                65.0
            ],
            [
                2.6819872856140137,
                -3.034855842590332,
                70.0
            ],
            [
                3.167646646499634,
                -3.7073826789855957,
                75.0
            ],
            [
                3.65328311920166,
                -4.379908561706543,
                80.0
            ],
            [
                4.138778209686279,
                -5.0524396896362305,
                85.0
            ],
            [
                4.624368667602539,
                -5.724963665008545,
                90.0
            ],
            [
                5.10993766784668,
                -6.397487163543701,
                95.0
            ],
            [
                5.595484256744385,
                -7.070009231567383,
                100.0
            ],
            [
                7.537440299987793,
                -9.760089874267578,
                120.0
            ],
            [
                9.479008674621582,
                -12.450155258178711,
                140.0
            ],
            [
                11.420161247253418,
                -15.140205383300781,
                160.0
            ],
            [
                13.36087417602539,
                -17.83024024963379,
                180.0
            ],
            [
                15.301118850708008,
                -20.52025604248047,
                200.0
            ],
            [
                17.24087142944336,
                -23.210256576538086,
                220.0
            ],
            [
                19.18038558959961,
                -25.900245666503906,
                240.0
            ],
            [
                21.11924171447754,
                -28.590211868286133,
                260.0
            ],
            [
                23.05757713317871,
                -31.280160903930664,
                280.0
            ],
            [
                24.995376586914063,
                -33.9700927734375,
                300.0
            ],
            [
                26.932621002197266,
                -36.660003662109375,
                320.0
            ],
            [
                28.869291305541992,
                -39.34989547729492,
                340.0
            ],
            [
                30.805370330810547,
                -42.039764404296875,
                360.0
            ],
            [
                32.7408332824707,
                -44.7296142578125,
                380.0
            ],
            [
                34.6756477355957,
                -47.4194450378418,
                400.0
            ],
            [
                36.60979080200195,
                -50.109249114990234,
                420.0
            ],
            [
                38.54322814941406,
                -52.79903030395508,
                440.0
            ],
            [
                40.475955963134766,
                -55.48878860473633,
                460.0
            ],
            [
                42.407962799072266,
                -58.17852020263672,
                480.0
            ],
            [
                44.33922576904297,
                -60.868228912353516,
                500.0
            ],
            [
                46.26966857910156,
                -63.557918548583984,
                520.0
            ],
            [
                48.19931411743164,
                -66.2475814819336,
                540.0
            ],
            [
                50.12813949584961,
                -68.93721771240234,
                560.0
            ],
            [
                52.05612564086914,
                -71.6268310546875,
                580.0
            ],
            [
                53.983150482177734,
                -74.31640625,
                600.0
            ],
            [
                55.90918731689453,
                -77.00597381591797,
                620.0
            ],
            [
                57.834285736083984,
                -79.69551086425781,
                640.0
            ],
            [
                59.758426666259766,
                -82.38502502441406,
                660.0
            ],
            [
                61.681583404541016,
                -85.07451629638672,
                680.0
            ],
            [
                63.603736877441406,
                -87.76397705078125,
                700.0
            ],
            [
                65.52490997314453,
                -90.45339965820313,
                720.0
            ],
            [
                67.44497680664063,
                -93.14278411865234,
                740.0
            ],
            [
                69.36371612548828,
                -95.8321762084961,
                760.0
            ],
            [
                71.28102111816406,
                -98.52157592773438,
                780.0
            ],
            [
                73.19712829589844,
                -101.21095275878906,
                800.0
            ],
            [
                75.11205291748047,
                -103.90032196044922,
                820.0
            ],
            [
                77.02572631835938,
                -106.58966827392578,
                840.0
            ],
            [
                78.93812561035156,
                -109.27900695800781,
                860.0
            ],
            [
                80.84921264648438,
                -111.96833038330078,
                880.0
            ],
            [
                82.75895690917969,
                -114.65764617919922,
                900.0
            ],
            [
                84.6674575805664,
                -117.34696197509766,
                920.0
            ],
            [
                86.57398986816406,
                -120.03640747070313,
                940.0
            ],
            [
                88.47904205322266,
                -122.72586822509766,
                960.0
            ],
            [
                90.3825912475586,
                -125.41535186767578,
                980.0
            ],
            [
                92.28458404541016,
                -128.1048583984375,
                1000.0
            ],
            [
                101.77294921875,
                -141.55233764648438,
                1100.0
            ],
            [
                111.21235656738281,
                -155.0003204345703,
                1200.0
            ],
            [
                120.61714935302734,
                -168.44955444335938,
                1300.0
            ],
            [
                129.98245239257813,
                -181.89942932128906,
                1400.0
            ],
            [
                139.30792236328125,
                -195.35000610351563,
                1500.0
            ],
            [
                148.60304260253906,
                -208.80035400390625,
                1600.0
            ],
            [
                157.85943603515625,
                -222.24981689453125,
                1700.0
            ],
            [
                167.07186889648438,
                -235.69967651367188,
                1800.0
            ],
            [
                176.23883056640625,
                -249.14865112304688,
                1900.0
            ],
            [
                185.36068725585938,
                -262.5952453613281,
                2000.0
            ],
            [
                194.4207305908203,
                -276.0389709472656,
                2100.0
            ],
            [
                203.4022216796875,
                -289.47802734375,
                2200.0
            ],
            [
                212.3357696533203,
                -302.9110412597656,
                2300.0
            ],
            [
                221.16453552246094,
                -316.3370361328125,
                2400.0
            ],
            [
                229.88792419433594,
                -329.7512512207031,
                2500.0
            ],
            [
                238.4491729736328,
                -343.1544189453125,
                2600.0
            ],
            [
                246.8625030517578,
                -356.5450134277344,
                2700.0
            ],
            [
                255.06173706054688,
                -369.9189147949219,
                2800.0
            ],
            [
                263.0161437988281,
                -383.2715759277344,
                2900.0
            ],
            [
                270.671630859375,
                -396.6039123535156,
                3000.0
            ],
            [
                278.0146789550781,
                -409.9128112792969,
                3100.0
            ],
            [
                284.9082336425781,
                -423.1868896484375,
                3200.0
            ],
            [
                291.39385986328125,
                -436.43243408203125,
                3300.0
            ],
            [
                297.32086181640625,
                -449.6502685546875,
                3400.0
            ],
            [
                302.6537170410156,
                -462.8411865234375,
                3500.0
            ],
            [
                307.3282775878906,
                -476.0101013183594,
                3600.0
            ],
            [
                311.2569274902344,
                -489.1544189453125,
                3700.0
            ],
            [
                314.27783203125,
                -502.2701416015625,
                3800.0
            ],
            [
                316.4214172363281,
                -515.3701782226563,
                3900.0
            ],
            [
                317.49169921875,
                -528.4692993164063,
                4000.0
            ],
            [
                317.6005859375,
                -541.5687255859375,
                4100.0
            ],
            [
                316.45745849609375,
                -554.6580810546875,
                4200.0
            ],
            [
                314.14385986328125,
                -567.7540283203125,
                4300.0
            ],
            [
                310.66229248046875,
                -580.867431640625,
                4400.0
            ],
            [
                305.9257507324219,
                -593.9834594726563,
                4500.0
            ],
            [
                299.94097900390625,
                -607.1214599609375,
                4600.0
            ],
            [
                292.6434326171875,
                -620.2538452148438,
                4700.0
            ],
            [
                297.9344482421875,
                -636.708984375,
                4800.0
            ],
            [
                287.9639892578125,
                -649.9186401367188,
                4900.0
            ],
            [
                276.7220764160156,
                -663.1053466796875,
                5000.0
            ],
            [
                264.2449035644531,
                -676.347412109375,
                5100.0
            ],
            [
                250.58824157714844,
                -689.5833129882813,
                5200.0
            ],
            [
                235.69772338867188,
                -702.8408203125,
                5300.0
            ],
            [
                219.69207763671875,
                -716.0869140625,
                5400.0
            ],
            [
                202.3144073486328,
                -729.3148803710938,
                5500.0
            ],
            [
                183.90078735351563,
                -742.5816650390625,
                5600.0
            ],
            [
                164.29641723632813,
                -755.826904296875,
                5700.0
            ],
            [
                143.52601623535156,
                -769.0743408203125,
                5800.0
            ],
            [
                121.63825225830078,
                -782.2890625,
                5900.0
            ],
            [
                98.60530853271484,
                -795.509521484375,
                6000.0
            ],
            [
                74.50758361816406,
                -808.712158203125,
                6100.0
            ],
            [
                49.33090591430664,
                -821.8765258789063,
                6200.0
            ],
            [
                23.075090408325195,
                -835.0032348632813,
                6300.0
            ],
            [
                -4.201819896697998,
                -848.0935668945313,
                6400.0
            ],
            [
                -32.50113296508789,
                -861.12646484375,
                6500.0
            ],
            [
                -61.747310638427734,
                -874.1062622070313,
                6600.0
            ],
            [
                -91.9465103149414,
                -887.01171875,
                6700.0
            ],
            [
                -123.0115737915039,
                -899.8382568359375,
                6800.0
            ],
            [
                -154.94512939453125,
                -912.5767211914063,
                6900.0
            ],
            [
                -187.66543579101563,
                -925.2196655273438,
                7000.0
            ],
            [
                -221.11863708496094,
                -937.760986328125,
                7100.0
            ],
            [
                -255.24655151367188,
                -950.1997680664063,
                7200.0
            ],
            [
                -289.9969482421875,
                -962.52978515625,
                7300.0
            ],
            [
                -325.3438720703125,
                -974.74951171875,
                7400.0
            ],
            [
                -361.19061279296875,
                -986.8673095703125,
                7500.0
            ],
            [
                -397.52374267578125,
                -998.8782348632813,
                7600.0
            ],
            [
                -434.27569580078125,
                -1010.789794921875,
                7700.0
            ],
            [
                -471.4207458496094,
                -1022.6029663085938,
                7800.0
            ],
            [
                -508.9128723144531,
                -1034.3243408203125,
                7900.0
            ],
            [
                -546.712646484375,
                -1045.9608154296875,
                8000.0
            ],
            [
                -584.7978515625,
                -1057.51513671875,
                8100.0
            ],
            [
                -623.1287841796875,
                -1068.996826171875,
                8200.0
            ],
            [
                -661.6840209960938,
                -1080.410400390625,
                8300.0
            ],
            [
                -700.4429931640625,
                -1091.760498046875,
                8400.0
            ],
            [
                -739.3864135742188,
                -1103.052734375,
                8500.0
            ],
            [
                -778.4862060546875,
                -1114.294921875,
                8600.0
            ],
            [
                -817.7335205078125,
                -1125.4901123046875,
                8700.0
            ],
            [
                -857.1123657226563,
                -1136.6431884765625,
                8800.0
            ],
            [
                -896.6087036132813,
                -1147.7593994140625,
                8900.0
            ],
            [
                -936.21240234375,
                -1158.8421630859375,
                9000.0
            ],
            [
                -975.9121704101563,
                -1169.8953857421875,
                9100.0
            ],
            [
                -1015.6980590820313,
                -1180.9228515625,
                9200.0
            ],
            [
                -1055.5618896484375,
                -1191.9276123046875,
                9300.0
            ],
            [
                -1095.495849609375,
                -1202.91259765625,
                9400.0
            ],
            [
                -1135.4925537109375,
                -1213.880615234375,
                9500.0
            ],
            [
                -1175.5462646484375,
                -1224.8336181640625,
                9600.0
            ],
            [
                -1215.6510009765625,
                -1235.77392578125,
                9700.0
            ],
            [
                -1255.8018798828125,
                -1246.703125,
                9800.0
            ],
            [
                -1295.994140625,
                -1257.623291015625,
                9900.0
            ],
            [
                -1336.2237548828125,
                -1268.5352783203125,
                10000.0
            ],
            [
                -1416.78125,
                -1290.3404541015625,
                10200.0
            ],
            [
                -1497.4488525390625,
                -1312.12646484375,
                10400.0
            ],
            [
                -1578.2047119140625,
                -1333.9002685546875,
                10600.0
            ],
            [
                -1659.034423828125,
                -1355.6650390625,
                10800.0
            ],
            [
                -1739.92041015625,
                -1377.4259033203125,
                11000.0
            ],
            [
                -1820.853515625,
                -1399.184326171875,
                11200.0
            ],
            [
                -1901.8260498046875,
                -1420.94140625,
                11400.0
            ],
            [
                -1982.8272705078125,
                -1442.69970703125,
                11600.0
            ],
            [
                -2063.851318359375,
                -1464.4599609375,
                11800.0
            ],
            [
                -2144.892333984375,
                -1486.22265625,
                12000.0
            ],
            [
                -2225.951416015625,
                -1507.986328125,
                12200.0
            ],
            [
                -2307.0205078125,
                -1529.7523193359375,
                12400.0
            ],
            [
                -2388.095458984375,
                -1551.522216796875,
                12600.0
            ],
            [
                -2469.1748046875,
                -1573.2947998046875,
                12800.0
            ],
            [
                -2550.261474609375,
                -1595.06787109375,
                13000.0
            ],
            [
                -2631.3525390625,
                -1616.8424072265625,
                13200.0
            ],
            [
                -2712.4453125,
                -1638.61865234375,
                13400.0
            ]
        ],
        "zFirstMeasurement": 124.0877
    }
]
