[
    {
        "E": 123601.95530689688,
        "chi2": 0.0,
        "ip": 0.03673359376581747,
        "ipchi2": 5.506065670394385,
        "mass": 1868.266,
        "particleId": "D0",
        "pvx": 0.6066,
        "pvy": 0.1109,
        "pvz": 76.6709,
        "px": -3529.29,
        "py": -3658.08,
        "pz": 123483.26,
        "q": 0.0,
        "trajectory": [
            [
                0.6065999865531921,
                0.11089999973773956,
                76.6708984375
            ],
            [
                0.34540000557899475,
                -0.11590000241994858,
                85.53939819335938
            ]
        ],
        "zFirstMeasurement": -9999.0
    },
    {
        "E": 23504.951180733337,
        "chi2": 0.8377708792686462,
        "ip": 0.25505419422396325,
        "ipchi2": 76.36773033531385,
        "mass": 493.677,
        "particleId": "K-",
        "pvx": 0.6066,
        "pvy": 0.1109,
        "pvz": 76.6709,
        "px": -471.58,
        "py": -1239.8,
        "pz": 23462.3,
        "q": -1.0,
        "trajectory": [
            [
                0.35770314931869507,
                -0.11238496750593185,
                85.53939819335938
            ],
            [
                0.25720569491386414,
                -0.37659505009651184,
                90.53939819335938
            ],
            [
                0.1567055881023407,
                -0.6408051252365112,
                95.53939819335938
            ],
            [
                0.05620276927947998,
                -0.9050151705741882,
                100.53939819335938
            ],
            [
                -0.3458364009857178,
                -1.961855173110962,
                120.53939819335938
            ],
            [
                -0.7479227185249329,
                -3.0186948776245117,
                140.53939819335938
            ],
            [
                -1.1501123905181885,
                -4.075586318969727,
                160.53939819335938
            ],
            [
                -1.5522977113723755,
                -5.132425308227539,
                180.53939819335938
            ],
            [
                -1.9545320272445679,
                -6.189264297485352,
                200.53939819335938
            ],
            [
                -2.356818199157715,
                -7.246102809906006,
                220.53939819335938
            ],
            [
                -2.759159803390503,
                -8.30294132232666,
                240.53939819335938
            ],
            [
                -3.16156005859375,
                -9.359779357910156,
                260.5393981933594
            ],
            [
                -3.5640225410461426,
                -10.416617393493652,
                280.5393981933594
            ],
            [
                -3.966550588607788,
                -11.473455429077148,
                300.5393981933594
            ],
            [
                -4.369147300720215,
                -12.530293464660645,
                320.5393981933594
            ],
            [
                -4.77178430557251,
                -13.587130546569824,
                340.5393981933594
            ],
            [
                -5.174509048461914,
                -14.643967628479004,
                360.5393981933594
            ],
            [
                -5.577305793762207,
                -15.7008056640625,
                380.5393981933594
            ],
            [
                -5.98017692565918,
                -16.75764274597168,
                400.5393981933594
            ],
            [
                -6.383126258850098,
                -17.81447982788086,
                420.5393981933594
            ],
            [
                -6.786154747009277,
                -18.87131690979004,
                440.5393981933594
            ],
            [
                -7.189265251159668,
                -19.92815399169922,
                460.5393981933594
            ],
            [
                -7.592462062835693,
                -20.98499298095703,
                480.5393981933594
            ],
            [
                -7.995747089385986,
                -22.04183006286621,
                500.5393981933594
            ],
            [
                -8.399126052856445,
                -23.09866714477539,
                520.5394287109375
            ],
            [
                -8.802604675292969,
                -24.155506134033203,
                540.5394287109375
            ],
            [
                -9.206181526184082,
                -25.212343215942383,
                560.5394287109375
            ],
            [
                -9.609859466552734,
                -26.269182205200195,
                580.5394287109375
            ],
            [
                -10.013640403747559,
                -27.326021194458008,
                600.5394287109375
            ],
            [
                -10.417529106140137,
                -28.38286018371582,
                620.5394287109375
            ],
            [
                -10.821528434753418,
                -29.439699172973633,
                640.5394287109375
            ],
            [
                -11.225639343261719,
                -30.496538162231445,
                660.5394287109375
            ],
            [
                -11.629865646362305,
                -31.55337905883789,
                680.5394287109375
            ],
            [
                -12.034229278564453,
                -32.61022186279297,
                700.5394287109375
            ],
            [
                -12.438714027404785,
                -33.66706085205078,
                720.5394287109375
            ],
            [
                -12.843324661254883,
                -34.723899841308594,
                740.5394287109375
            ],
            [
                -13.248064994812012,
                -35.78074264526367,
                760.5394287109375
            ],
            [
                -13.652938842773438,
                -36.83758544921875,
                780.5394287109375
            ],
            [
                -14.057950973510742,
                -37.89442825317383,
                800.5394287109375
            ],
            [
                -14.463129043579102,
                -38.951271057128906,
                820.5394287109375
            ],
            [
                -14.868453979492188,
                -40.00811004638672,
                840.5394287109375
            ],
            [
                -15.273944854736328,
                -41.06495666503906,
                860.5394287109375
            ],
            [
                -15.679597854614258,
                -42.121803283691406,
                880.5394287109375
            ],
            [
                -16.085411071777344,
                -43.178653717041016,
                900.5394287109375
            ],
            [
                -16.491369247436523,
                -44.235504150390625,
                920.5394287109375
            ],
            [
                -16.897491455078125,
                -45.292354583740234,
                940.5394287109375
            ],
            [
                -17.303781509399414,
                -46.349205017089844,
                960.5394287109375
            ],
            [
                -17.710241317749023,
                -47.40605926513672,
                980.5394287109375
            ],
            [
                -18.11687469482422,
                -48.462913513183594,
                1000.5394287109375
            ],
            [
                -20.15235137939453,
                -53.747161865234375,
                1100.5394287109375
            ],
            [
                -22.192548751831055,
                -59.03141403198242,
                1200.5394287109375
            ],
            [
                -24.238298416137695,
                -64.31571960449219,
                1300.5394287109375
            ],
            [
                -26.287824630737305,
                -69.59999084472656,
                1400.5394287109375
            ],
            [
                -28.341552734375,
                -74.88426971435547,
                1500.5394287109375
            ],
            [
                -30.400127410888672,
                -80.16857147216797,
                1600.5394287109375
            ],
            [
                -32.463539123535156,
                -85.4529037475586,
                1700.5394287109375
            ],
            [
                -34.53199005126953,
                -90.73727416992188,
                1800.5394287109375
            ],
            [
                -36.60581588745117,
                -96.02163696289063,
                1900.5394287109375
            ],
            [
                -38.6870231628418,
                -101.30604553222656,
                2000.5394287109375
            ],
            [
                -40.77504348754883,
                -106.59052276611328,
                2100.539306640625
            ],
            [
                -42.87211227416992,
                -111.87507629394531,
                2200.539306640625
            ],
            [
                -44.983055114746094,
                -117.15987396240234,
                2300.539306640625
            ],
            [
                -47.10496139526367,
                -122.44475555419922,
                2400.539306640625
            ],
            [
                -49.24571990966797,
                -127.72982788085938,
                2500.539306640625
            ],
            [
                -51.404151916503906,
                -133.01512145996094,
                2600.539306640625
            ],
            [
                -53.58591079711914,
                -138.30067443847656,
                2700.539306640625
            ],
            [
                -55.795188903808594,
                -143.58653259277344,
                2800.539306640625
            ],
            [
                -58.0386848449707,
                -148.87274169921875,
                2900.539306640625
            ],
            [
                -60.3221321105957,
                -154.1594696044922,
                3000.539306640625
            ],
            [
                -62.64856719970703,
                -159.4466094970703,
                3100.539306640625
            ],
            [
                -65.0239028930664,
                -164.7340545654297,
                3200.539306640625
            ],
            [
                -67.46981048583984,
                -170.02195739746094,
                3300.539306640625
            ],
            [
                -69.97481536865234,
                -175.3103485107422,
                3400.539306640625
            ],
            [
                -72.55592346191406,
                -180.59938049316406,
                3500.539306640625
            ],
            [
                -75.21566772460938,
                -185.88914489746094,
                3600.539306640625
            ],
            [
                -77.96760559082031,
                -191.17962646484375,
                3700.539306640625
            ],
            [
                -80.81268310546875,
                -196.47052001953125,
                3800.539306640625
            ],
            [
                -83.76789855957031,
                -201.762451171875,
                3900.539306640625
            ],
            [
                -86.82512664794922,
                -207.05543518066406,
                4000.539306640625
            ],
            [
                -90.0093765258789,
                -212.34933471679688,
                4100.53955078125
            ],
            [
                -93.31067657470703,
                -217.64404296875,
                4200.53955078125
            ],
            [
                -96.75249481201172,
                -222.93890380859375,
                4300.53955078125
            ],
            [
                -100.31196594238281,
                -228.23521423339844,
                4400.53955078125
            ],
            [
                -104.00641632080078,
                -233.53240966796875,
                4500.53955078125
            ],
            [
                -107.84065246582031,
                -238.82997131347656,
                4600.53955078125
            ],
            [
                -111.79988861083984,
                -244.12799072265625,
                4700.53955078125
            ],
            [
                -115.90322875976563,
                -249.42698669433594,
                4800.53955078125
            ],
            [
                -121.36988067626953,
                -254.7829132080078,
                4900.53955078125
            ],
            [
                -125.7640380859375,
                -260.0838928222656,
                5000.53955078125
            ],
            [
                -130.29421997070313,
                -265.3856201171875,
                5100.53955078125
            ],
            [
                -134.9545135498047,
                -270.68780517578125,
                5200.53955078125
            ],
            [
                -139.74659729003906,
                -275.990966796875,
                5300.53955078125
            ],
            [
                -144.66671752929688,
                -281.2939147949219,
                5400.53955078125
            ],
            [
                -149.71531677246094,
                -286.59625244140625,
                5500.53955078125
            ],
            [
                -154.884033203125,
                -291.900146484375,
                5600.53955078125
            ],
            [
                -160.17747497558594,
                -297.203857421875,
                5700.53955078125
            ],
            [
                -165.59103393554688,
                -302.5080871582031,
                5800.53955078125
            ],
            [
                -171.1181640625,
                -307.8122863769531,
                5900.53955078125
            ],
            [
                -176.76148986816406,
                -313.1166687011719,
                6000.53955078125
            ],
            [
                -182.5137176513672,
                -318.4213562011719,
                6100.53955078125
            ],
            [
                -188.37271118164063,
                -323.7259216308594,
                6200.53955078125
            ],
            [
                -194.33587646484375,
                -329.0301818847656,
                6300.53955078125
            ],
            [
                -200.39801025390625,
                -334.33428955078125,
                6400.53955078125
            ],
            [
                -206.55699157714844,
                -339.6380920410156,
                6500.53955078125
            ],
            [
                -212.80718994140625,
                -344.941650390625,
                6600.53955078125
            ],
            [
                -219.14605712890625,
                -350.2449035644531,
                6700.53955078125
            ],
            [
                -225.56690979003906,
                -355.5478210449219,
                6800.53955078125
            ],
            [
                -232.068603515625,
                -360.8501281738281,
                6900.53955078125
            ],
            [
                -238.64512634277344,
                -366.15185546875,
                7000.53955078125
            ],
            [
                -245.29180908203125,
                -371.45306396484375,
                7100.53955078125
            ],
            [
                -252.00408935546875,
                -376.7537841796875,
                7200.53955078125
            ],
            [
                -258.77838134765625,
                -382.0539855957031,
                7300.53955078125
            ],
            [
                -265.6116638183594,
                -387.35357666015625,
                7400.53955078125
            ],
            [
                -272.4966125488281,
                -392.6527404785156,
                7500.53955078125
            ],
            [
                -279.4322814941406,
                -397.9512939453125,
                7600.53955078125
            ],
            [
                -286.4132385253906,
                -403.24945068359375,
                7700.53955078125
            ],
            [
                -293.4373779296875,
                -408.5471496582031,
                7800.53955078125
            ],
            [
                -300.50091552734375,
                -413.84442138671875,
                7900.53955078125
            ],
            [
                -307.60028076171875,
                -419.141357421875,
                8000.53955078125
            ],
            [
                -314.73345947265625,
                -424.4379577636719,
                8100.53955078125
            ],
            [
                -321.896484375,
                -429.7342529296875,
                8200.5390625
            ],
            [
                -329.0874328613281,
                -435.0303039550781,
                8300.5390625
            ],
            [
                -336.3040771484375,
                -440.32611083984375,
                8400.5390625
            ],
            [
                -343.5443115234375,
                -445.6216735839844,
                8500.5390625
            ],
            [
                -350.805419921875,
                -450.9171142578125,
                8600.5390625
            ],
            [
                -358.0862121582031,
                -456.21234130859375,
                8700.5390625
            ],
            [
                -365.3848571777344,
                -461.5074462890625,
                8800.5390625
            ],
            [
                -372.69964599609375,
                -466.8023986816406,
                8900.5390625
            ],
            [
                -380.0293884277344,
                -472.0972900390625,
                9000.5390625
            ],
            [
                -387.37274169921875,
                -477.39208984375,
                9100.5390625
            ],
            [
                -394.7283935546875,
                -482.6868591308594,
                9200.5390625
            ],
            [
                -402.0953674316406,
                -487.9815673828125,
                9300.5390625
            ],
            [
                -409.47259521484375,
                -493.2762145996094,
                9400.5390625
            ],
            [
                -416.859130859375,
                -498.5708923339844,
                9500.5390625
            ],
            [
                -424.25421142578125,
                -503.86553955078125,
                9600.5390625
            ],
            [
                -431.6570129394531,
                -509.1601867675781,
                9700.5390625
            ],
            [
                -439.06689453125,
                -514.454833984375,
                9800.5390625
            ],
            [
                -446.483154296875,
                -519.7495727539063,
                9900.5390625
            ],
            [
                -453.9053039550781,
                -525.0442504882813,
                10000.5390625
            ],
            [
                -468.7650451660156,
                -535.6337280273438,
                10200.5390625
            ],
            [
                -483.64251708984375,
                -546.2233276367188,
                10400.5390625
            ],
            [
                -498.53448486328125,
                -556.8131103515625,
                10600.5390625
            ],
            [
                -513.4388427734375,
                -567.4030151367188,
                10800.5390625
            ],
            [
                -528.3529052734375,
                -577.9930419921875,
                11000.5390625
            ],
            [
                -543.2753295898438,
                -588.5831909179688,
                11200.5390625
            ],
            [
                -558.2048950195313,
                -599.1735229492188,
                11400.5390625
            ],
            [
                -573.1397705078125,
                -609.763916015625,
                11600.5390625
            ],
            [
                -588.0792846679688,
                -620.3544311523438,
                11800.5390625
            ],
            [
                -603.0223388671875,
                -630.945068359375,
                12000.5390625
            ],
            [
                -617.968994140625,
                -641.5358276367188,
                12200.5390625
            ],
            [
                -632.9180297851563,
                -652.1265869140625,
                12400.5390625
            ],
            [
                -647.8685302734375,
                -662.7174682617188,
                12600.5390625
            ],
            [
                -662.8204956054688,
                -673.3084106445313,
                12800.5390625
            ],
            [
                -677.7741088867188,
                -683.8994140625,
                13000.5390625
            ],
            [
                -692.7288208007813,
                -694.4904174804688,
                13200.5390625
            ],
            [
                -707.6841430664063,
                -705.0814819335938,
                13400.5390625
            ]
        ],
        "zFirstMeasurement": 229.2578
    },
    {
        "E": 100098.73937680532,
        "chi2": 1.016964316368103,
        "ip": 0.015750227046067874,
        "ipchi2": 0.9302853363662971,
        "mass": 139.57,
        "particleId": "pi+",
        "pvx": 0.6066,
        "pvy": 0.1109,
        "pvz": 76.6709,
        "px": -3059.07,
        "py": -2418.62,
        "pz": 100022.65,
        "q": 1.0,
        "trajectory": [
            [
                0.3434402346611023,
                -0.11706990003585815,
                85.53939819335938
            ],
            [
                0.19052116572856903,
                -0.2379733920097351,
                90.53939819335938
            ],
            [
                0.03760271891951561,
                -0.35887688398361206,
                95.53939819335938
            ],
            [
                -0.11531509459018707,
                -0.4797804057598114,
                100.53939819335938
            ],
            [
                -0.7269797921180725,
                -0.9633944630622864,
                120.53939819335938
            ],
            [
                -1.338633418083191,
                -1.4470086097717285,
                140.53939819335938
            ],
            [
                -1.9502753019332886,
                -1.9306228160858154,
                160.53939819335938
            ],
            [
                -2.5619046688079834,
                -2.4142370223999023,
                180.53939819335938
            ],
            [
                -3.173541784286499,
                -2.8978843688964844,
                200.53939819335938
            ],
            [
                -3.7851462364196777,
                -3.3814988136291504,
                220.53939819335938
            ],
            [
                -4.396738529205322,
                -3.8651132583618164,
                240.53939819335938
            ],
            [
                -5.008317947387695,
                -4.348727703094482,
                260.5393981933594
            ],
            [
                -5.619883060455322,
                -4.832342147827148,
                280.5393981933594
            ],
            [
                -6.231433868408203,
                -5.315957069396973,
                300.5393981933594
            ],
            [
                -6.8429694175720215,
                -5.799571514129639,
                320.5393981933594
            ],
            [
                -7.454488277435303,
                -6.283186435699463,
                340.5393981933594
            ],
            [
                -8.065990447998047,
                -6.766800880432129,
                360.5393981933594
            ],
            [
                -8.677474021911621,
                -7.250415802001953,
                380.5393981933594
            ],
            [
                -9.288947105407715,
                -7.734030246734619,
                400.5393981933594
            ],
            [
                -9.900397300720215,
                -8.217644691467285,
                420.5393981933594
            ],
            [
                -10.511828422546387,
                -8.70125961303711,
                440.5393981933594
            ],
            [
                -11.12324047088623,
                -9.184874534606934,
                460.5393981933594
            ],
            [
                -11.73463249206543,
                -9.668488502502441,
                480.5393981933594
            ],
            [
                -12.346003532409668,
                -10.152103424072266,
                500.5393981933594
            ],
            [
                -12.957351684570313,
                -10.63571834564209,
                520.5394287109375
            ],
            [
                -13.56867790222168,
                -11.119332313537598,
                540.5394287109375
            ],
            [
                -14.17998218536377,
                -11.602947235107422,
                560.5394287109375
            ],
            [
                -14.791261672973633,
                -12.086562156677246,
                580.5394287109375
            ],
            [
                -15.402517318725586,
                -12.570176124572754,
                600.5394287109375
            ],
            [
                -16.013748168945313,
                -13.053790092468262,
                620.5394287109375
            ],
            [
                -16.62495231628418,
                -13.537405014038086,
                640.5394287109375
            ],
            [
                -17.236127853393555,
                -14.021018981933594,
                660.5394287109375
            ],
            [
                -17.847272872924805,
                -14.504632949829102,
                680.5394287109375
            ],
            [
                -18.45838737487793,
                -14.98824691772461,
                700.5394287109375
            ],
            [
                -19.069473266601563,
                -15.471860885620117,
                720.5394287109375
            ],
            [
                -19.680530548095703,
                -15.955475807189941,
                740.5394287109375
            ],
            [
                -20.291553497314453,
                -16.439088821411133,
                760.5394287109375
            ],
            [
                -20.902545928955078,
                -16.92270278930664,
                780.5394287109375
            ],
            [
                -21.513505935668945,
                -17.40631675720215,
                800.5394287109375
            ],
            [
                -22.124431610107422,
                -17.889930725097656,
                820.5394287109375
            ],
            [
                -22.735319137573242,
                -18.37354278564453,
                840.5394287109375
            ],
            [
                -23.346172332763672,
                -18.85715675354004,
                860.5394287109375
            ],
            [
                -23.956987380981445,
                -19.340768814086914,
                880.5394287109375
            ],
            [
                -24.567768096923828,
                -19.82438087463379,
                900.5394287109375
            ],
            [
                -25.178510665893555,
                -20.307992935180664,
                920.5394287109375
            ],
            [
                -25.789216995239258,
                -20.79160499572754,
                940.5394287109375
            ],
            [
                -26.399883270263672,
                -21.275217056274414,
                960.5394287109375
            ],
            [
                -27.010513305664063,
                -21.75882911682129,
                980.5394287109375
            ],
            [
                -27.6210994720459,
                -22.242441177368164,
                1000.5394287109375
            ],
            [
                -30.673412322998047,
                -24.660503387451172,
                1100.5394287109375
            ],
            [
                -33.72465515136719,
                -27.07856559753418,
                1200.5394287109375
            ],
            [
                -36.77470779418945,
                -29.496614456176758,
                1300.5394287109375
            ],
            [
                -39.82377243041992,
                -31.91466522216797,
                1400.5394287109375
            ],
            [
                -42.871849060058594,
                -34.33271408081055,
                1500.5394287109375
            ],
            [
                -45.91883087158203,
                -36.75075912475586,
                1600.5394287109375
            ],
            [
                -48.964595794677734,
                -39.16880416870117,
                1700.5394287109375
            ],
            [
                -52.00930404663086,
                -41.586849212646484,
                1800.5394287109375
            ],
            [
                -55.052406311035156,
                -44.004886627197266,
                1900.5394287109375
            ],
            [
                -58.09414291381836,
                -46.42292022705078,
                2000.5394287109375
            ],
            [
                -61.133914947509766,
                -48.8409423828125,
                2100.539306640625
            ],
            [
                -64.17161560058594,
                -51.25895309448242,
                2200.539306640625
            ],
            [
                -67.2061996459961,
                -53.67689895629883,
                2300.539306640625
            ],
            [
                -70.23790740966797,
                -56.09485626220703,
                2400.539306640625
            ],
            [
                -73.26557159423828,
                -58.512786865234375,
                2500.539306640625
            ],
            [
                -76.28839874267578,
                -60.93067932128906,
                2600.539306640625
            ],
            [
                -79.3056640625,
                -63.34852981567383,
                2700.539306640625
            ],
            [
                -82.31637573242188,
                -65.76632690429688,
                2800.539306640625
            ],
            [
                -85.31916809082031,
                -68.18407440185547,
                2900.539306640625
            ],
            [
                -88.31237030029297,
                -70.60173797607422,
                3000.539306640625
            ],
            [
                -91.29508209228516,
                -73.01934051513672,
                3100.539306640625
            ],
            [
                -94.26568603515625,
                -75.43690490722656,
                3200.539306640625
            ],
            [
                -97.22119140625,
                -77.85437774658203,
                3300.539306640625
            ],
            [
                -100.16095733642578,
                -80.27182006835938,
                3400.539306640625
            ],
            [
                -103.08350372314453,
                -82.68915557861328,
                3500.539306640625
            ],
            [
                -105.98726654052734,
                -85.10641479492188,
                3600.539306640625
            ],
            [
                -108.87008666992188,
                -87.52356719970703,
                3700.539306640625
            ],
            [
                -111.72957611083984,
                -89.94066619873047,
                3800.539306640625
            ],
            [
                -114.56507873535156,
                -92.35765838623047,
                3900.539306640625
            ],
            [
                -117.37505340576172,
                -94.77447509765625,
                4000.539306640625
            ],
            [
                -120.15740203857422,
                -97.19120788574219,
                4100.53955078125
            ],
            [
                -122.90928649902344,
                -99.60783386230469,
                4200.53955078125
            ],
            [
                -125.63282775878906,
                -102.02439880371094,
                4300.53955078125
            ],
            [
                -128.32733154296875,
                -104.44084167480469,
                4400.53955078125
            ],
            [
                -130.9903106689453,
                -106.85710144042969,
                4500.53955078125
            ],
            [
                -133.62203979492188,
                -109.27336120605469,
                4600.53955078125
            ],
            [
                -136.22206115722656,
                -111.68948364257813,
                4700.53955078125
            ],
            [
                -138.7926025390625,
                -114.10556030273438,
                4800.53955078125
            ],
            [
                -141.31869506835938,
                -116.62593841552734,
                4900.53955078125
            ],
            [
                -143.82192993164063,
                -119.04586791992188,
                5000.53955078125
            ],
            [
                -146.29347229003906,
                -121.46568298339844,
                5100.53955078125
            ],
            [
                -148.73472595214844,
                -123.88542938232422,
                5200.53955078125
            ],
            [
                -151.1453399658203,
                -126.30496215820313,
                5300.53955078125
            ],
            [
                -153.52626037597656,
                -128.72457885742188,
                5400.53955078125
            ],
            [
                -155.87771606445313,
                -131.144287109375,
                5500.53955078125
            ],
            [
                -158.20108032226563,
                -133.56370544433594,
                5600.53955078125
            ],
            [
                -160.49549865722656,
                -135.98313903808594,
                5700.53955078125
            ],
            [
                -162.7621307373047,
                -138.40245056152344,
                5800.53955078125
            ],
            [
                -165.00267028808594,
                -140.8217010498047,
                5900.53955078125
            ],
            [
                -167.21629333496094,
                -143.2408905029297,
                6000.53955078125
            ],
            [
                -169.40464782714844,
                -145.6599578857422,
                6100.53955078125
            ],
            [
                -171.568359375,
                -148.07901000976563,
                6200.53955078125
            ],
            [
                -173.7082061767578,
                -150.498046875,
                6300.53955078125
            ],
            [
                -175.82516479492188,
                -152.91705322265625,
                6400.53955078125
            ],
            [
                -177.9198760986328,
                -155.3360595703125,
                6500.53955078125
            ],
            [
                -179.9936065673828,
                -157.75503540039063,
                6600.53955078125
            ],
            [
                -182.04690551757813,
                -160.1739501953125,
                6700.53955078125
            ],
            [
                -184.08131408691406,
                -162.5928497314453,
                6800.53955078125
            ],
            [
                -186.09710693359375,
                -165.01174926757813,
                6900.53955078125
            ],
            [
                -188.09561157226563,
                -167.43064880371094,
                7000.53955078125
            ],
            [
                -190.07794189453125,
                -169.84951782226563,
                7100.53955078125
            ],
            [
                -192.0450439453125,
                -172.2683868408203,
                7200.53955078125
            ],
            [
                -193.9977569580078,
                -174.68722534179688,
                7300.53955078125
            ],
            [
                -195.9368133544922,
                -177.10604858398438,
                7400.53955078125
            ],
            [
                -197.86380004882813,
                -179.5248565673828,
                7500.53955078125
            ],
            [
                -199.77896118164063,
                -181.94363403320313,
                7600.53955078125
            ],
            [
                -201.6835174560547,
                -184.3623809814453,
                7700.53955078125
            ],
            [
                -203.57791137695313,
                -186.78109741210938,
                7800.53955078125
            ],
            [
                -205.46302795410156,
                -189.1997833251953,
                7900.53955078125
            ],
            [
                -207.3396453857422,
                -191.61842346191406,
                8000.53955078125
            ],
            [
                -209.20823669433594,
                -194.0370330810547,
                8100.53955078125
            ],
            [
                -211.06971740722656,
                -196.45559692382813,
                8200.5390625
            ],
            [
                -212.92453002929688,
                -198.87411499023438,
                8300.5390625
            ],
            [
                -214.77316284179688,
                -201.29261779785156,
                8400.5390625
            ],
            [
                -216.6161346435547,
                -203.7110595703125,
                8500.5390625
            ],
            [
                -218.45407104492188,
                -206.12948608398438,
                8600.5390625
            ],
            [
                -220.28724670410156,
                -208.54788208007813,
                8700.5390625
            ],
            [
                -222.11610412597656,
                -210.96624755859375,
                8800.5390625
            ],
            [
                -223.94102478027344,
                -213.38458251953125,
                8900.5390625
            ],
            [
                -225.7623291015625,
                -215.80288696289063,
                9000.5390625
            ],
            [
                -227.58030700683594,
                -218.22116088867188,
                9100.5390625
            ],
            [
                -229.39527893066406,
                -220.63941955566406,
                9200.5390625
            ],
            [
                -231.2074737548828,
                -223.05764770507813,
                9300.5390625
            ],
            [
                -233.0171661376953,
                -225.47584533691406,
                9400.5390625
            ],
            [
                -234.8245849609375,
                -227.89402770996094,
                9500.5390625
            ],
            [
                -236.6298828125,
                -230.31219482421875,
                9600.5390625
            ],
            [
                -238.43328857421875,
                -232.73033142089844,
                9700.5390625
            ],
            [
                -240.23495483398438,
                -235.14846801757813,
                9800.5390625
            ],
            [
                -242.0350341796875,
                -237.5665740966797,
                9900.5390625
            ],
            [
                -243.83367919921875,
                -239.9846649169922,
                10000.5390625
            ],
            [
                -247.42710876464844,
                -244.82080078125,
                10200.5390625
            ],
            [
                -251.01614379882813,
                -249.65689086914063,
                10400.5390625
            ],
            [
                -254.60157775878906,
                -254.49295043945313,
                10600.5390625
            ],
            [
                -258.1839294433594,
                -259.3289489746094,
                10800.5390625
            ],
            [
                -261.7638244628906,
                -264.1649475097656,
                11000.5390625
            ],
            [
                -265.3416442871094,
                -269.0008850097656,
                11200.5390625
            ],
            [
                -268.9176940917969,
                -273.8368225097656,
                11400.5390625
            ],
            [
                -272.49237060546875,
                -278.6727600097656,
                11600.5390625
            ],
            [
                -276.06591796875,
                -283.5086669921875,
                11800.5390625
            ],
            [
                -279.6385192871094,
                -288.34454345703125,
                12000.5390625
            ],
            [
                -283.2102355957031,
                -293.180419921875,
                12200.5390625
            ],
            [
                -286.7813415527344,
                -298.01629638671875,
                12400.5390625
            ],
            [
                -290.3520812988281,
                -302.8521728515625,
                12600.5390625
            ],
            [
                -293.9224548339844,
                -307.6880187988281,
                12800.5390625
            ],
            [
                -297.49237060546875,
                -312.5238952636719,
                13000.5390625
            ],
            [
                -301.06201171875,
                -317.3597412109375,
                13200.5390625
            ],
            [
                -304.63153076171875,
                -322.1955871582031,
                13400.5390625
            ]
        ],
        "zFirstMeasurement": 289.1933
    }
]
