[
    {
        "E": 45072.652392760356,
        "chi2": 0.0,
        "ip": 0.10756119010892115,
        "ipchi2": 25.742222991324567,
        "mass": 1836.662,
        "particleId": "D0",
        "pvx": 0.6321,
        "pvy": 0.0108,
        "pvz": 34.4326,
        "px": -1974.37,
        "py": 2585.08,
        "pz": 44917.59,
        "q": 0.0,
        "trajectory": [
            [
                0.632099986076355,
                0.01080000028014183,
                34.43259811401367
            ],
            [
                0.5246000289916992,
                0.2896000146865845,
                37.45949935913086
            ]
        ],
        "zFirstMeasurement": -9999.0
    },
    {
        "E": 22888.185079345138,
        "chi2": 0.7117205262184143,
        "ip": 0.2279629554697541,
        "ipchi2": 46.76214647897187,
        "mass": 493.677,
        "particleId": "K-",
        "pvx": 0.6321,
        "pvy": 0.0108,
        "pvz": 34.4326,
        "px": -1111.09,
        "py": 475.64,
        "pz": 22850.92,
        "q": -1.0,
        "trajectory": [
            [
                0.5490203499794006,
                0.2925765812397003,
                37.45949935913086
            ],
            [
                0.30590683221817017,
                0.39665180444717407,
                42.45949935913086
            ],
            [
                0.06279086321592331,
                0.5007270574569702,
                47.45949935913086
            ],
            [
                -0.1803276389837265,
                0.6048023104667664,
                52.45949935913086
            ],
            [
                -0.42344871163368225,
                0.7088776230812073,
                57.45949935913086
            ],
            [
                -0.6665723919868469,
                0.8129528760910034,
                62.45949935913086
            ],
            [
                -0.9096987247467041,
                0.9170282483100891,
                67.45950317382813
            ],
            [
                -1.1528277397155762,
                1.0211035013198853,
                72.45950317382813
            ],
            [
                -1.395959496498108,
                1.1251789331436157,
                77.45950317382813
            ],
            [
                -1.6390941143035889,
                1.2292542457580566,
                82.45950317382813
            ],
            [
                -1.88223135471344,
                1.333329677581787,
                87.45950317382813
            ],
            [
                -2.1253716945648193,
                1.4374051094055176,
                92.45950317382813
            ],
            [
                -2.3685147762298584,
                1.541480541229248,
                97.45950317382813
            ],
            [
                -2.6116607189178467,
                1.6455559730529785,
                102.45950317382813
            ],
            [
                -3.5842292308807373,
                2.0618181228637695,
                122.45950317382813
            ],
            [
                -4.556891918182373,
                2.4781203269958496,
                142.45950317382813
            ],
            [
                -5.529600620269775,
                2.894422769546509,
                162.45950317382813
            ],
            [
                -6.502359390258789,
                3.310725450515747,
                182.45950317382813
            ],
            [
                -7.475170612335205,
                3.7270283699035645,
                202.45950317382813
            ],
            [
                -8.448037147521973,
                4.143331527709961,
                222.45950317382813
            ],
            [
                -9.420964241027832,
                4.559634685516357,
                242.45950317382813
            ],
            [
                -10.393954277038574,
                4.975938320159912,
                262.4595031738281
            ],
            [
                -11.367010116577148,
                5.392242431640625,
                282.4595031738281
            ],
            [
                -12.340108871459961,
                5.80854606628418,
                302.4595031738281
            ],
            [
                -13.313289642333984,
                6.224850654602051,
                322.4595031738281
            ],
            [
                -14.286540985107422,
                6.641154766082764,
                342.4595031738281
            ],
            [
                -15.25986385345459,
                7.057459354400635,
                362.4595031738281
            ],
            [
                -16.233261108398438,
                7.473763942718506,
                382.4595031738281
            ],
            [
                -17.206737518310547,
                7.890069007873535,
                402.4595031738281
            ],
            [
                -18.180294036865234,
                8.306373596191406,
                422.4595031738281
            ],
            [
                -19.153934478759766,
                8.722679138183594,
                442.4595031738281
            ],
            [
                -20.12765884399414,
                9.138984680175781,
                462.4595031738281
            ],
            [
                -21.101470947265625,
                9.555289268493652,
                482.4595031738281
            ],
            [
                -22.075374603271484,
                9.97159481048584,
                502.4595031738281
            ],
            [
                -23.04937171936035,
                10.387900352478027,
                522.45947265625
            ],
            [
                -24.02347183227539,
                10.804205894470215,
                542.45947265625
            ],
            [
                -24.9976806640625,
                11.220511436462402,
                562.45947265625
            ],
            [
                -25.971994400024414,
                11.636817932128906,
                582.45947265625
            ],
            [
                -26.9464168548584,
                12.053123474121094,
                602.45947265625
            ],
            [
                -27.92095375061035,
                12.469429016113281,
                622.45947265625
            ],
            [
                -28.89560317993164,
                12.885733604431152,
                642.45947265625
            ],
            [
                -29.87036895751953,
                13.30203914642334,
                662.45947265625
            ],
            [
                -30.84525489807129,
                13.718344688415527,
                682.45947265625
            ],
            [
                -31.820266723632813,
                14.134650230407715,
                702.45947265625
            ],
            [
                -32.79541778564453,
                14.550955772399902,
                722.45947265625
            ],
            [
                -33.77070617675781,
                14.967262268066406,
                742.45947265625
            ],
            [
                -34.746124267578125,
                15.383567810058594,
                762.45947265625
            ],
            [
                -35.721683502197266,
                15.799874305725098,
                782.45947265625
            ],
            [
                -36.69738006591797,
                16.2161808013916,
                802.45947265625
            ],
            [
                -37.6732177734375,
                16.63248634338379,
                822.45947265625
            ],
            [
                -38.64920425415039,
                17.048791885375977,
                842.45947265625
            ],
            [
                -39.625335693359375,
                17.465097427368164,
                862.45947265625
            ],
            [
                -40.601680755615234,
                17.88140106201172,
                882.45947265625
            ],
            [
                -41.578208923339844,
                18.297700881958008,
                902.45947265625
            ],
            [
                -42.55488586425781,
                18.71400260925293,
                922.45947265625
            ],
            [
                -43.53173828125,
                19.13030242919922,
                942.45947265625
            ],
            [
                -44.50876235961914,
                19.546602249145508,
                962.45947265625
            ],
            [
                -45.4859619140625,
                19.962902069091797,
                982.45947265625
            ],
            [
                -46.46333694458008,
                20.379199981689453,
                1002.45947265625
            ],
            [
                -51.35261154174805,
                22.4606876373291,
                1102.45947265625
            ],
            [
                -56.24757385253906,
                24.542160034179688,
                1202.45947265625
            ],
            [
                -61.146602630615234,
                26.62360191345215,
                1302.45947265625
            ],
            [
                -66.05028533935547,
                28.705036163330078,
                1402.45947265625
            ],
            [
                -70.95812225341797,
                30.786462783813477,
                1502.45947265625
            ],
            [
                -75.8711166381836,
                32.867855072021484,
                1602.45947265625
            ],
            [
                -80.78900909423828,
                34.949249267578125,
                1702.45947265625
            ],
            [
                -85.7127685546875,
                37.03063201904297,
                1802.45947265625
            ],
            [
                -90.6416244506836,
                39.11204528808594,
                1902.45947265625
            ],
            [
                -95.57843780517578,
                41.193477630615234,
                2002.45947265625
            ],
            [
                -100.52224731445313,
                43.27495574951172,
                2102.45947265625
            ],
            [
                -105.47749328613281,
                45.356502532958984,
                2202.45947265625
            ],
            [
                -110.44309997558594,
                47.438045501708984,
                2302.45947265625
            ],
            [
                -115.42276763916016,
                49.519676208496094,
                2402.45947265625
            ],
            [
                -120.42183685302734,
                51.601383209228516,
                2502.45947265625
            ],
            [
                -125.44113159179688,
                53.68320846557617,
                2602.45947265625
            ],
            [
                -130.48402404785156,
                55.765174865722656,
                2702.45947265625
            ],
            [
                -135.55563354492188,
                57.84730529785156,
                2802.45947265625
            ],
            [
                -140.6642303466797,
                59.92965316772461,
                2902.45947265625
            ],
            [
                -145.81381225585938,
                62.01224899291992,
                3002.45947265625
            ],
            [
                -151.00755310058594,
                64.09510803222656,
                3102.45947265625
            ],
            [
                -156.26060485839844,
                66.17837524414063,
                3202.45947265625
            ],
            [
                -161.57330322265625,
                68.26205444335938,
                3302.45947265625
            ],
            [
                -166.95591735839844,
                70.34608459472656,
                3402.45947265625
            ],
            [
                -172.4171905517578,
                72.43061065673828,
                3502.45947265625
            ],
            [
                -177.9593048095703,
                74.51568603515625,
                3602.45947265625
            ],
            [
                -183.59629821777344,
                76.60102844238281,
                3702.45947265625
            ],
            [
                -189.33372497558594,
                78.68692779541016,
                3802.45947265625
            ],
            [
                -195.178955078125,
                80.77349853515625,
                3902.45947265625
            ],
            [
                -201.1324462890625,
                82.86042785644531,
                4002.45947265625
            ],
            [
                -207.2105712890625,
                84.94750213623047,
                4102.45947265625
            ],
            [
                -213.4184112548828,
                87.03473663330078,
                4202.45947265625
            ],
            [
                -219.75698852539063,
                89.12227630615234,
                4302.45947265625
            ],
            [
                -226.22340393066406,
                91.21005249023438,
                4402.45947265625
            ],
            [
                -232.82421875,
                93.29788970947266,
                4502.45947265625
            ],
            [
                -239.56434631347656,
                95.38536834716797,
                4602.45947265625
            ],
            [
                -246.4408721923828,
                97.47300720214844,
                4702.45947265625
            ],
            [
                -253.45521545410156,
                99.56098937988281,
                4802.45947265625
            ],
            [
                -260.886474609375,
                101.92860412597656,
                4902.45947265625
            ],
            [
                -268.2025146484375,
                104.02537536621094,
                5002.45947265625
            ],
            [
                -275.6579284667969,
                106.12153625488281,
                5102.45947265625
            ],
            [
                -283.2473449707031,
                108.21771240234375,
                5202.45947265625
            ],
            [
                -290.97210693359375,
                110.31338500976563,
                5302.45947265625
            ],
            [
                -298.82769775390625,
                112.40943145751953,
                5402.45947265625
            ],
            [
                -306.81280517578125,
                114.5054702758789,
                5502.45947265625
            ],
            [
                -314.9217529296875,
                116.60042572021484,
                5602.45947265625
            ],
            [
                -323.1583557128906,
                118.69542694091797,
                5702.45947265625
            ],
            [
                -331.5176696777344,
                120.78997039794922,
                5802.45947265625
            ],
            [
                -339.9917907714844,
                122.88395690917969,
                5902.45947265625
            ],
            [
                -348.5846252441406,
                124.97730255126953,
                6002.45947265625
            ],
            [
                -357.2894287109375,
                127.07015991210938,
                6102.45947265625
            ],
            [
                -366.1029968261719,
                129.16270446777344,
                6202.45947265625
            ],
            [
                -375.0219421386719,
                131.2548065185547,
                6302.45947265625
            ],
            [
                -384.04168701171875,
                133.34646606445313,
                6402.45947265625
            ],
            [
                -393.15972900390625,
                135.43789672851563,
                6502.45947265625
            ],
            [
                -402.3702392578125,
                137.5286407470703,
                6602.45947265625
            ],
            [
                -411.67095947265625,
                139.6188201904297,
                6702.45947265625
            ],
            [
                -421.0551452636719,
                141.70852661132813,
                6802.45947265625
            ],
            [
                -430.5216979980469,
                143.79779052734375,
                6902.45947265625
            ],
            [
                -440.0646057128906,
                145.8865203857422,
                7002.45947265625
            ],
            [
                -449.6791076660156,
                147.9747314453125,
                7102.45947265625
            ],
            [
                -459.36077880859375,
                150.0624542236328,
                7202.45947265625
            ],
            [
                -469.1059875488281,
                152.1496124267578,
                7302.45947265625
            ],
            [
                -478.91143798828125,
                154.23629760742188,
                7402.45947265625
            ],
            [
                -488.7701110839844,
                156.3224334716797,
                7502.45947265625
            ],
            [
                -498.6810607910156,
                158.40802001953125,
                7602.45947265625
            ],
            [
                -508.6387939453125,
                160.4930877685547,
                7702.45947265625
            ],
            [
                -518.6412353515625,
                162.57762145996094,
                7802.45947265625
            ],
            [
                -528.6846923828125,
                164.66163635253906,
                7902.45947265625
            ],
            [
                -538.7654418945313,
                166.74517822265625,
                8002.45947265625
            ],
            [
                -548.8814697265625,
                168.82823181152344,
                8102.45947265625
            ],
            [
                -559.0289306640625,
                170.910888671875,
                8202.4599609375
            ],
            [
                -569.2056274414063,
                172.99313354492188,
                8302.4599609375
            ],
            [
                -579.4094848632813,
                175.07501220703125,
                8402.4599609375
            ],
            [
                -589.63818359375,
                177.1565704345703,
                8502.4599609375
            ],
            [
                -599.8889770507813,
                179.23782348632813,
                8602.4599609375
            ],
            [
                -610.1607055664063,
                181.31883239746094,
                8702.4599609375
            ],
            [
                -620.4513549804688,
                183.39959716796875,
                8802.4599609375
            ],
            [
                -630.7592163085938,
                185.4801483154297,
                8902.4599609375
            ],
            [
                -641.0829467773438,
                187.5605010986328,
                9002.4599609375
            ],
            [
                -651.4212646484375,
                189.64068603515625,
                9102.4599609375
            ],
            [
                -661.772705078125,
                191.72071838378906,
                9202.4599609375
            ],
            [
                -672.1361694335938,
                193.8006134033203,
                9302.4599609375
            ],
            [
                -682.5106811523438,
                195.88040161132813,
                9402.4599609375
            ],
            [
                -692.8951416015625,
                197.9600830078125,
                9502.4599609375
            ],
            [
                -703.2886962890625,
                200.0396728515625,
                9602.4599609375
            ],
            [
                -713.6905517578125,
                202.11920166015625,
                9702.4599609375
            ],
            [
                -724.0999145507813,
                204.1986541748047,
                9802.4599609375
            ],
            [
                -734.5161743164063,
                206.278076171875,
                9902.4599609375
            ],
            [
                -744.9386596679688,
                208.35743713378906,
                10002.4599609375
            ],
            [
                -765.80029296875,
                212.51608276367188,
                10202.4599609375
            ],
            [
                -786.6808471679688,
                216.67465209960938,
                10402.4599609375
            ],
            [
                -807.576904296875,
                220.83316040039063,
                10602.4599609375
            ],
            [
                -828.4862060546875,
                224.99166870117188,
                10802.4599609375
            ],
            [
                -849.4058227539063,
                229.1501922607422,
                11002.4599609375
            ],
            [
                -870.3344116210938,
                233.30873107910156,
                11202.4599609375
            ],
            [
                -891.2705078125,
                237.46730041503906,
                11402.4599609375
            ],
            [
                -912.2122802734375,
                241.6259307861328,
                11602.4599609375
            ],
            [
                -933.1589965820313,
                245.78460693359375,
                11802.4599609375
            ],
            [
                -954.1094360351563,
                249.94332885742188,
                12002.4599609375
            ],
            [
                -975.0637817382813,
                254.1020965576172,
                12202.4599609375
            ],
            [
                -996.0205688476563,
                258.2608947753906,
                12402.4599609375
            ],
            [
                -1016.9788818359375,
                262.4197692871094,
                12602.4599609375
            ],
            [
                -1037.938720703125,
                266.57867431640625,
                12802.4599609375
            ],
            [
                -1058.900390625,
                270.73760986328125,
                13002.4599609375
            ],
            [
                -1079.86328125,
                274.89654541015625,
                13202.4599609375
            ],
            [
                -1100.82666015625,
                279.0555114746094,
                13402.4599609375
            ]
        ],
        "zFirstMeasurement": 199.2057
    },
    {
        "E": 22179.52266085763,
        "chi2": 0.9318870306015015,
        "ip": 0.015323852403180559,
        "ipchi2": 0.3642304464660212,
        "mass": 139.57,
        "particleId": "pi+",
        "pvx": 0.6321,
        "pvy": 0.0108,
        "pvz": 34.4326,
        "px": -862.36,
        "py": 2108.75,
        "pz": 22061.76,
        "q": 1.0,
        "trajectory": [
            [
                0.5036171078681946,
                0.2886362373828888,
                37.45949935913086
            ],
            [
                0.3081775903701782,
                0.7665561437606812,
                42.45949935913086
            ],
            [
                0.11274069547653198,
                1.2444759607315063,
                47.45949935913086
            ],
            [
                -0.08269352465867996,
                1.7223957777023315,
                52.45949935913086
            ],
            [
                -0.27812501788139343,
                2.200315475463867,
                57.45949935913086
            ],
            [
                -0.4735538065433502,
                2.6782352924346924,
                62.45949935913086
            ],
            [
                -0.6689797639846802,
                3.1561551094055176,
                67.45950317382813
            ],
            [
                -0.8644028902053833,
                3.6340746879577637,
                72.45950317382813
            ],
            [
                -1.0598231554031372,
                4.11199426651001,
                77.45950317382813
            ],
            [
                -1.255240559577942,
                4.589914321899414,
                82.45950317382813
            ],
            [
                -1.4506549835205078,
                5.06783390045166,
                87.45950317382813
            ],
            [
                -1.6460601091384888,
                5.545774459838867,
                92.45950317382813
            ],
            [
                -1.8414688110351563,
                6.023694038391113,
                97.45950317382813
            ],
            [
                -2.036874532699585,
                6.501613616943359,
                102.45950317382813
            ],
            [
                -2.818469524383545,
                8.413290977478027,
                122.45950317382813
            ],
            [
                -3.6000161170959473,
                10.324968338012695,
                142.45950317382813
            ],
            [
                -4.381511211395264,
                12.236644744873047,
                162.45950317382813
            ],
            [
                -5.162951469421387,
                14.148321151733398,
                182.45950317382813
            ],
            [
                -5.944333553314209,
                16.05999755859375,
                202.45950317382813
            ],
            [
                -6.725654602050781,
                17.97167205810547,
                222.45950317382813
            ],
            [
                -7.5069355964660645,
                19.883346557617188,
                242.45950317382813
            ],
            [
                -8.288140296936035,
                21.795021057128906,
                262.4595031738281
            ],
            [
                -9.069281578063965,
                23.706693649291992,
                282.4595031738281
            ],
            [
                -9.850354194641113,
                25.618366241455078,
                302.4595031738281
            ],
            [
                -10.63135814666748,
                27.530038833618164,
                322.4595031738281
            ],
            [
                -11.4122896194458,
                29.44171142578125,
                342.4595031738281
            ],
            [
                -12.193145751953125,
                31.353382110595703,
                362.4595031738281
            ],
            [
                -12.97392463684082,
                33.265052795410156,
                382.4595031738281
            ],
            [
                -13.754624366760254,
                35.17672348022461,
                402.4595031738281
            ],
            [
                -14.535237312316895,
                37.08839416503906,
                422.4595031738281
            ],
            [
                -15.315765380859375,
                39.00006103515625,
                442.4595031738281
            ],
            [
                -16.09620475769043,
                40.9117317199707,
                462.4595031738281
            ],
            [
                -16.87655258178711,
                42.82339859008789,
                482.4595031738281
            ],
            [
                -17.656808853149414,
                44.73506546020508,
                502.4595031738281
            ],
            [
                -18.436967849731445,
                46.646732330322266,
                522.45947265625
            ],
            [
                -19.21702766418457,
                48.55839538574219,
                542.45947265625
            ],
            [
                -19.996986389160156,
                50.470062255859375,
                562.45947265625
            ],
            [
                -20.776832580566406,
                52.3817253112793,
                582.45947265625
            ],
            [
                -21.556556701660156,
                54.29338836669922,
                602.45947265625
            ],
            [
                -22.336166381835938,
                56.20505142211914,
                622.45947265625
            ],
            [
                -23.115657806396484,
                58.11671447753906,
                642.45947265625
            ],
            [
                -23.895030975341797,
                60.028377532958984,
                662.45947265625
            ],
            [
                -24.674278259277344,
                61.94003677368164,
                682.45947265625
            ],
            [
                -25.453392028808594,
                63.8516960144043,
                702.45947265625
            ],
            [
                -26.232379913330078,
                65.76335906982422,
                722.45947265625
            ],
            [
                -27.011232376098633,
                67.67501831054688,
                742.45947265625
            ],
            [
                -27.78992462158203,
                69.58667755126953,
                762.45947265625
            ],
            [
                -28.5684757232666,
                71.49832916259766,
                782.45947265625
            ],
            [
                -29.346881866455078,
                73.40998840332031,
                802.45947265625
            ],
            [
                -30.125144958496094,
                75.32164764404297,
                822.45947265625
            ],
            [
                -30.90325927734375,
                77.23330688476563,
                842.45947265625
            ],
            [
                -31.68121910095215,
                79.14495849609375,
                862.45947265625
            ],
            [
                -32.459022521972656,
                81.0566177368164,
                882.45947265625
            ],
            [
                -33.236671447753906,
                82.96826934814453,
                902.45947265625
            ],
            [
                -34.01414108276367,
                84.87992858886719,
                922.45947265625
            ],
            [
                -34.79143142700195,
                86.79158782958984,
                942.45947265625
            ],
            [
                -35.56855010986328,
                88.7032470703125,
                962.45947265625
            ],
            [
                -36.34549331665039,
                90.61490631103516,
                982.45947265625
            ],
            [
                -37.12226486206055,
                92.52656555175781,
                1002.45947265625
            ],
            [
                -41.003211975097656,
                102.0848617553711,
                1102.45947265625
            ],
            [
                -44.878089904785156,
                111.6432113647461,
                1202.45947265625
            ],
            [
                -48.748931884765625,
                121.20161437988281,
                1302.45947265625
            ],
            [
                -52.61507034301758,
                130.76002502441406,
                1402.45947265625
            ],
            [
                -56.4765625,
                140.31846618652344,
                1502.45947265625
            ],
            [
                -60.33372497558594,
                149.87692260742188,
                1602.45947265625
            ],
            [
                -64.18622589111328,
                159.4353485107422,
                1702.45947265625
            ],
            [
                -68.03315734863281,
                168.99378967285156,
                1802.45947265625
            ],
            [
                -71.87447357177734,
                178.55213928222656,
                1902.45947265625
            ],
            [
                -75.70895385742188,
                188.11033630371094,
                2002.45947265625
            ],
            [
                -79.53524017333984,
                197.6684112548828,
                2102.45947265625
            ],
            [
                -83.35197448730469,
                207.2262420654297,
                2202.45947265625
            ],
            [
                -87.16065979003906,
                216.7838897705078,
                2302.45947265625
            ],
            [
                -90.95510864257813,
                226.3411407470703,
                2402.45947265625
            ],
            [
                -94.7341537475586,
                235.8979949951172,
                2502.45947265625
            ],
            [
                -98.4921875,
                245.45436096191406,
                2602.45947265625
            ],
            [
                -102.22882080078125,
                255.0100860595703,
                2702.45947265625
            ],
            [
                -105.93818664550781,
                264.5650939941406,
                2802.45947265625
            ],
            [
                -109.6131591796875,
                274.119140625,
                2902.45947265625
            ],
            [
                -113.24813842773438,
                283.6722106933594,
                3002.45947265625
            ],
            [
                -116.84053802490234,
                293.22418212890625,
                3102.45947265625
            ],
            [
                -120.37701416015625,
                302.7749938964844,
                3202.45947265625
            ],
            [
                -123.85584259033203,
                312.3243713378906,
                3302.45947265625
            ],
            [
                -127.26288604736328,
                321.87255859375,
                3402.45947265625
            ],
            [
                -130.59246826171875,
                331.4192810058594,
                3502.45947265625
            ],
            [
                -133.83946228027344,
                340.96405029296875,
                3602.45947265625
            ],
            [
                -136.99363708496094,
                350.5075988769531,
                3702.45947265625
            ],
            [
                -140.03683471679688,
                360.0497131347656,
                3802.45947265625
            ],
            [
                -142.9726104736328,
                369.5900573730469,
                3902.45947265625
            ],
            [
                -145.77825927734375,
                379.1289978027344,
                4002.45947265625
            ],
            [
                -148.46826171875,
                388.6670837402344,
                4102.45947265625
            ],
            [
                -151.01025390625,
                398.20477294921875,
                4202.45947265625
            ],
            [
                -153.41403198242188,
                407.74212646484375,
                4302.45947265625
            ],
            [
                -155.68006896972656,
                417.2784423828125,
                4402.45947265625
            ],
            [
                -157.79653930664063,
                426.81390380859375,
                4502.45947265625
            ],
            [
                -159.774658203125,
                436.35003662109375,
                4602.45947265625
            ],
            [
                -161.59336853027344,
                445.88623046875,
                4702.45947265625
            ],
            [
                -163.93743896484375,
                457.614990234375,
                4802.45947265625
            ],
            [
                -165.44815063476563,
                467.2058410644531,
                4902.45947265625
            ],
            [
                -166.81661987304688,
                476.7968444824219,
                5002.45947265625
            ],
            [
                -168.03558349609375,
                486.3894348144531,
                5102.45947265625
            ],
            [
                -169.11448669433594,
                495.9820251464844,
                5202.45947265625
            ],
            [
                -170.05027770996094,
                505.5744323730469,
                5302.45947265625
            ],
            [
                -170.8474578857422,
                515.1668701171875,
                5402.45947265625
            ],
            [
                -171.50897216796875,
                524.7595825195313,
                5502.45947265625
            ],
            [
                -172.03890991210938,
                534.353515625,
                5602.45947265625
            ],
            [
                -172.4342498779297,
                543.9475708007813,
                5702.45947265625
            ],
            [
                -172.69891357421875,
                553.5416870117188,
                5802.45947265625
            ],
            [
                -172.84286499023438,
                563.1360473632813,
                5902.45947265625
            ],
            [
                -172.85865783691406,
                572.7315063476563,
                6002.45947265625
            ],
            [
                -172.7566375732422,
                582.3271484375,
                6102.45947265625
            ],
            [
                -172.53785705566406,
                591.9227905273438,
                6202.45947265625
            ],
            [
                -172.20654296875,
                601.518798828125,
                6302.45947265625
            ],
            [
                -171.76686096191406,
                611.114990234375,
                6402.45947265625
            ],
            [
                -171.2213897705078,
                620.7113037109375,
                6502.45947265625
            ],
            [
                -170.57508850097656,
                630.307861328125,
                6602.45947265625
            ],
            [
                -169.83216857910156,
                639.9044799804688,
                6702.45947265625
            ],
            [
                -169.0006561279297,
                649.5010986328125,
                6802.45947265625
            ],
            [
                -168.08047485351563,
                659.0977783203125,
                6902.45947265625
            ],
            [
                -167.07960510253906,
                668.6944580078125,
                7002.45947265625
            ],
            [
                -166.0037078857422,
                678.2909545898438,
                7102.45947265625
            ],
            [
                -164.8576202392578,
                687.8872680664063,
                7202.45947265625
            ],
            [
                -163.64630126953125,
                697.4834594726563,
                7302.45947265625
            ],
            [
                -162.3726348876953,
                707.0794677734375,
                7402.45947265625
            ],
            [
                -161.04583740234375,
                716.6753540039063,
                7502.45947265625
            ],
            [
                -159.66629028320313,
                726.27099609375,
                7602.45947265625
            ],
            [
                -158.2411346435547,
                735.8663330078125,
                7702.45947265625
            ],
            [
                -156.77272033691406,
                745.4614868164063,
                7802.45947265625
            ],
            [
                -155.26547241210938,
                755.056396484375,
                7902.45947265625
            ],
            [
                -153.72311401367188,
                764.6510620117188,
                8002.45947265625
            ],
            [
                -152.14793395996094,
                774.2454833984375,
                8102.45947265625
            ],
            [
                -150.54408264160156,
                783.8396606445313,
                8202.4599609375
            ],
            [
                -148.91366577148438,
                793.43359375,
                8302.4599609375
            ],
            [
                -147.25892639160156,
                803.0272827148438,
                8402.4599609375
            ],
            [
                -145.58206176757813,
                812.6207275390625,
                8502.4599609375
            ],
            [
                -143.8857421875,
                822.2139282226563,
                8602.4599609375
            ],
            [
                -142.17115783691406,
                831.8069458007813,
                8702.4599609375
            ],
            [
                -140.44015502929688,
                841.399658203125,
                8802.4599609375
            ],
            [
                -138.69427490234375,
                850.9922485351563,
                8902.4599609375
            ],
            [
                -136.9346923828125,
                860.5845947265625,
                9002.4599609375
            ],
            [
                -135.1627197265625,
                870.1767578125,
                9102.4599609375
            ],
            [
                -133.3795623779297,
                879.768798828125,
                9202.4599609375
            ],
            [
                -131.58615112304688,
                889.3606567382813,
                9302.4599609375
            ],
            [
                -129.7834930419922,
                898.9523315429688,
                9402.4599609375
            ],
            [
                -127.97242736816406,
                908.5438842773438,
                9502.4599609375
            ],
            [
                -126.15369415283203,
                918.13525390625,
                9602.4599609375
            ],
            [
                -124.32803344726563,
                927.7265014648438,
                9702.4599609375
            ],
            [
                -122.49604034423828,
                937.3176879882813,
                9802.4599609375
            ],
            [
                -120.6583480834961,
                946.90869140625,
                9902.4599609375
            ],
            [
                -118.8154296875,
                956.4995727539063,
                10002.4599609375
            ],
            [
                -115.11577606201172,
                975.68115234375,
                10202.4599609375
            ],
            [
                -111.40033721923828,
                994.8623046875,
                10402.4599609375
            ],
            [
                -107.67205810546875,
                1014.0431518554688,
                10602.4599609375
            ],
            [
                -103.9327621459961,
                1033.2237548828125,
                10802.4599609375
            ],
            [
                -100.18486785888672,
                1052.404052734375,
                11002.4599609375
            ],
            [
                -96.42958068847656,
                1071.584228515625,
                11202.4599609375
            ],
            [
                -92.66798400878906,
                1090.76416015625,
                11402.4599609375
            ],
            [
                -88.90174865722656,
                1109.94384765625,
                11602.4599609375
            ],
            [
                -85.13138580322266,
                1129.12353515625,
                11802.4599609375
            ],
            [
                -81.35792541503906,
                1148.3031005859375,
                12002.4599609375
            ],
            [
                -77.58126068115234,
                1167.4825439453125,
                12202.4599609375
            ],
            [
                -73.8025131225586,
                1186.661865234375,
                12402.4599609375
            ],
            [
                -70.02256774902344,
                1205.8411865234375,
                12602.4599609375
            ],
            [
                -66.2413330078125,
                1225.0205078125,
                12802.4599609375
            ],
            [
                -62.4586067199707,
                1244.19970703125,
                13002.4599609375
            ],
            [
                -58.674922943115234,
                1263.3787841796875,
                13202.4599609375
            ],
            [
                -54.890716552734375,
                1282.5579833984375,
                13402.4599609375
            ]
        ],
        "zFirstMeasurement": 139.4112
    },
    {
        "E": 6532.011275674991,
        "chi2": 1.147770881652832,
        "ip": 0.0669467490244766,
        "ipchi2": 7.299787344129691,
        "mass": 139.57018,
        "particleId": "pi-",
        "pvx": 0.6321,
        "pvy": 0.0108,
        "pvz": 34.4326,
        "px": 532.5200930482098,
        "py": 332.6408649800357,
        "pz": 6500.266446527039,
        "q": -1.0,
        "trajectory": [
            [
                -10.320791244506836,
                -6.844429016113281,
                -100.0
            ],
            [
                -9.910987854003906,
                -6.588566780090332,
                -95.0
            ],
            [
                -9.501190185546875,
                -6.332704067230225,
                -90.0
            ],
            [
                -9.091400146484375,
                -6.076841354370117,
                -85.0
            ],
            [
                -8.68161678314209,
                -5.82097864151001,
                -80.0
            ],
            [
                -8.27184009552002,
                -5.565115451812744,
                -75.0
            ],
            [
                -7.862016201019287,
                -5.30925178527832,
                -70.0
            ],
            [
                -7.452260494232178,
                -5.0533881187438965,
                -65.0
            ],
            [
                -7.042511463165283,
                -4.797524452209473,
                -60.0
            ],
            [
                -6.6327691078186035,
                -4.541660785675049,
                -55.0
            ],
            [
                -6.2230329513549805,
                -4.285796642303467,
                -50.0
            ],
            [
                -5.813303470611572,
                -4.029932498931885,
                -45.0
            ],
            [
                -5.403580665588379,
                -3.7740681171417236,
                -40.0
            ],
            [
                -4.9938645362854,
                -3.5182034969329834,
                -35.0
            ],
            [
                -4.584156036376953,
                -3.262338876724243,
                -30.0
            ],
            [
                -4.174454212188721,
                -3.0064737796783447,
                -25.0
            ],
            [
                -3.7647602558135986,
                -2.750608444213867,
                -20.0
            ],
            [
                -3.3550732135772705,
                -2.4947431087493896,
                -15.0
            ],
            [
                -2.9453935623168945,
                -2.238877534866333,
                -10.0
            ],
            [
                -2.53572154045105,
                -1.9830118417739868,
                -5.0
            ],
            [
                -2.1260571479797363,
                -1.727145791053772,
                0.0
            ],
            [
                -1.7164005041122437,
                -1.4712796211242676,
                5.0
            ],
            [
                -1.3067518472671509,
                -1.2154133319854736,
                10.0
            ],
            [
                -0.8971112966537476,
                -0.9595468044281006,
                15.0
            ],
            [
                -0.48747891187667847,
                -0.7036800980567932,
                20.0
            ],
            [
                -0.07785490900278091,
                -0.4478132128715515,
                25.0
            ],
            [
                0.33176058530807495,
                -0.1919461488723755,
                30.0
            ],
            [
                0.7413674592971802,
                0.06392110139131546,
                35.0
            ],
            [
                1.1509655714035034,
                0.31978854537010193,
                40.0
            ],
            [
                1.5605546236038208,
                0.5756561160087585,
                45.0
            ],
            [
                1.9701347351074219,
                0.8315239548683167,
                50.0
            ],
            [
                2.3797056674957275,
                1.0873918533325195,
                55.0
            ],
            [
                2.7892673015594482,
                1.3432600498199463,
                60.0
            ],
            [
                3.198819160461426,
                1.5991283655166626,
                65.0
            ],
            [
                3.6083617210388184,
                1.8549968004226685,
                70.0
            ],
            [
                4.017894268035889,
                2.110865592956543,
                75.0
            ],
            [
                4.42732572555542,
                2.3667588233947754,
                80.0
            ],
            [
                4.83683967590332,
                2.6226277351379395,
                85.0
            ],
            [
                5.246344089508057,
                2.8784968852996826,
                90.0
            ],
            [
                5.655838966369629,
                3.134366273880005,
                95.0
            ],
            [
                6.065324783325195,
                3.3902359008789063,
                100.0
            ],
            [
                7.703169345855713,
                4.413715839385986,
                120.0
            ],
            [
                9.340847969055176,
                5.437198162078857,
                140.0
            ],
            [
                10.978349685668945,
                6.460683345794678,
                160.0
            ],
            [
                12.615663528442383,
                7.484170913696289,
                180.0
            ],
            [
                14.252779006958008,
                8.507660865783691,
                200.0
            ],
            [
                15.88968276977539,
                9.531152725219727,
                220.0
            ],
            [
                17.526485443115234,
                10.554648399353027,
                240.0
            ],
            [
                19.163007736206055,
                11.578145027160645,
                260.0
            ],
            [
                20.79930877685547,
                12.601643562316895,
                280.0
            ],
            [
                22.435380935668945,
                13.625144958496094,
                300.0
            ],
            [
                24.071216583251953,
                14.64864730834961,
                320.0
            ],
            [
                25.70680809020996,
                15.672151565551758,
                340.0
            ],
            [
                27.342145919799805,
                16.69565773010254,
                360.0
            ],
            [
                28.977222442626953,
                17.719165802001953,
                380.0
            ],
            [
                30.612022399902344,
                18.742673873901367,
                400.0
            ],
            [
                32.24653244018555,
                19.766183853149414,
                420.0
            ],
            [
                33.88074493408203,
                20.789695739746094,
                440.0
            ],
            [
                35.51465606689453,
                21.813207626342773,
                460.0
            ],
            [
                37.14825439453125,
                22.836721420288086,
                480.0
            ],
            [
                38.78153991699219,
                23.86023712158203,
                500.0
            ],
            [
                40.41447448730469,
                24.883750915527344,
                520.0
            ],
            [
                42.04706954956055,
                25.907264709472656,
                540.0
            ],
            [
                43.679317474365234,
                26.9307804107666,
                560.0
            ],
            [
                45.31120300292969,
                27.954296112060547,
                580.0
            ],
            [
                46.94267654418945,
                28.977811813354492,
                600.0
            ],
            [
                48.573734283447266,
                30.001325607299805,
                620.0
            ],
            [
                50.20439147949219,
                31.024839401245117,
                640.0
            ],
            [
                51.83463668823242,
                32.04835510253906,
                660.0
            ],
            [
                53.4644660949707,
                33.071868896484375,
                680.0
            ],
            [
                55.09386444091797,
                34.09537887573242,
                700.0
            ],
            [
                56.72284698486328,
                35.118896484375,
                720.0
            ],
            [
                58.351356506347656,
                36.14241409301758,
                740.0
            ],
            [
                59.979312896728516,
                37.16592788696289,
                760.0
            ],
            [
                61.60667419433594,
                38.18943786621094,
                780.0
            ],
            [
                63.2335319519043,
                39.21294403076172,
                800.0
            ],
            [
                64.85987854003906,
                40.2364501953125,
                820.0
            ],
            [
                66.48570251464844,
                41.25995635986328,
                840.0
            ],
            [
                68.1109848022461,
                42.2834587097168,
                860.0
            ],
            [
                69.7357177734375,
                43.30696105957031,
                880.0
            ],
            [
                71.35987854003906,
                44.33046340942383,
                900.0
            ],
            [
                72.9835205078125,
                45.35395812988281,
                920.0
            ],
            [
                74.60638427734375,
                46.37744140625,
                940.0
            ],
            [
                76.2286376953125,
                47.40092468261719,
                960.0
            ],
            [
                77.85025787353516,
                48.42440414428711,
                980.0
            ],
            [
                79.47123718261719,
                49.44788360595703,
                1000.0
            ],
            [
                87.56698608398438,
                54.56525421142578,
                1100.0
            ],
            [
                95.6426010131836,
                59.682960510253906,
                1200.0
            ],
            [
                103.70374298095703,
                64.8005599975586,
                1300.0
            ],
            [
                111.74832153320313,
                69.91824340820313,
                1400.0
            ],
            [
                119.77607727050781,
                75.03607177734375,
                1500.0
            ],
            [
                127.7900619506836,
                80.1539535522461,
                1600.0
            ],
            [
                135.78659057617188,
                85.27176666259766,
                1700.0
            ],
            [
                143.76295471191406,
                90.38939666748047,
                1800.0
            ],
            [
                151.7178192138672,
                95.50672912597656,
                1900.0
            ],
            [
                159.64930725097656,
                100.62358093261719,
                2000.0
            ],
            [
                167.550537109375,
                105.740234375,
                2100.0
            ],
            [
                175.41293334960938,
                110.8559799194336,
                2200.0
            ],
            [
                183.24716186523438,
                115.97084045410156,
                2300.0
            ],
            [
                191.0281524658203,
                121.08456420898438,
                2400.0
            ],
            [
                198.75262451171875,
                126.19657135009766,
                2500.0
            ],
            [
                206.39791870117188,
                131.3062744140625,
                2600.0
            ],
            [
                213.9658966064453,
                136.413818359375,
                2700.0
            ],
            [
                221.43003845214844,
                141.5186767578125,
                2800.0
            ],
            [
                228.77359008789063,
                146.6194610595703,
                2900.0
            ],
            [
                235.9708709716797,
                151.71641540527344,
                3000.0
            ],
            [
                243.01617431640625,
                156.8101043701172,
                3100.0
            ],
            [
                249.8582305908203,
                161.89918518066406,
                3200.0
            ],
            [
                256.5036315917969,
                166.98341369628906,
                3300.0
            ],
            [
                262.8919677734375,
                172.0618438720703,
                3400.0
            ],
            [
                269.0077209472656,
                177.1352996826172,
                3500.0
            ],
            [
                274.8401184082031,
                182.2046661376953,
                3600.0
            ],
            [
                280.3511047363281,
                187.26950073242188,
                3700.0
            ],
            [
                285.49896240234375,
                192.328125,
                3800.0
            ],
            [
                290.2828369140625,
                197.38172912597656,
                3900.0
            ],
            [
                294.6374816894531,
                202.4310302734375,
                4000.0
            ],
            [
                298.6040954589844,
                207.4778289794922,
                4100.0
            ],
            [
                302.10107421875,
                212.5215606689453,
                4200.0
            ],
            [
                305.126708984375,
                217.55992126464844,
                4300.0
            ],
            [
                307.691650390625,
                222.59596252441406,
                4400.0
            ],
            [
                309.7957763671875,
                227.6305694580078,
                4500.0
            ],
            [
                311.4167175292969,
                232.66368103027344,
                4600.0
            ],
            [
                312.534423828125,
                237.69287109375,
                4700.0
            ],
            [
                314.5911865234375,
                251.2841033935547,
                4800.0
            ],
            [
                314.7216796875,
                256.4902038574219,
                4900.0
            ],
            [
                314.3763122558594,
                261.69342041015625,
                5000.0
            ],
            [
                313.54376220703125,
                266.89300537109375,
                5100.0
            ],
            [
                312.2400817871094,
                272.091796875,
                5200.0
            ],
            [
                310.4569396972656,
                277.2895202636719,
                5300.0
            ],
            [
                308.21636962890625,
                282.4874267578125,
                5400.0
            ],
            [
                305.5201721191406,
                287.68377685546875,
                5500.0
            ],
            [
                302.388427734375,
                292.8771057128906,
                5600.0
            ],
            [
                298.8120422363281,
                298.06939697265625,
                5700.0
            ],
            [
                294.8038330078125,
                303.2604064941406,
                5800.0
            ],
            [
                290.3887634277344,
                308.4483642578125,
                5900.0
            ],
            [
                285.5562744140625,
                313.6325988769531,
                6000.0
            ],
            [
                280.32745361328125,
                318.8144226074219,
                6100.0
            ],
            [
                274.71539306640625,
                323.99420166015625,
                6200.0
            ],
            [
                268.7309875488281,
                329.1711730957031,
                6300.0
            ],
            [
                262.3902893066406,
                334.3453674316406,
                6400.0
            ],
            [
                255.7017059326172,
                339.5166320800781,
                6500.0
            ],
            [
                248.6839599609375,
                344.683837890625,
                6600.0
            ],
            [
                241.34873962402344,
                349.84698486328125,
                6700.0
            ],
            [
                233.71742248535156,
                355.00616455078125,
                6800.0
            ],
            [
                225.79446411132813,
                360.16070556640625,
                6900.0
            ],
            [
                217.6002960205078,
                365.3103942871094,
                7000.0
            ],
            [
                209.15394592285156,
                370.4553527832031,
                7100.0
            ],
            [
                200.47091674804688,
                375.5955505371094,
                7200.0
            ],
            [
                191.564208984375,
                380.7304992675781,
                7300.0
            ],
            [
                182.4443817138672,
                385.8600769042969,
                7400.0
            ],
            [
                173.13758850097656,
                390.984375,
                7500.0
            ],
            [
                163.64785766601563,
                396.1031799316406,
                7600.0
            ],
            [
                153.99517822265625,
                401.2167053222656,
                7700.0
            ],
            [
                144.1865234375,
                406.324951171875,
                7800.0
            ],
            [
                134.23561096191406,
                411.4280090332031,
                7900.0
            ],
            [
                124.1552963256836,
                416.5261535644531,
                8000.0
            ],
            [
                113.95280456542969,
                421.6194763183594,
                8100.0
            ],
            [
                103.6422348022461,
                426.70831298828125,
                8200.0
            ],
            [
                93.23062896728516,
                431.7928771972656,
                8300.0
            ],
            [
                82.72570037841797,
                436.87335205078125,
                8400.0
            ],
            [
                72.13481903076172,
                441.95001220703125,
                8500.0
            ],
            [
                61.46867752075195,
                447.0232238769531,
                8600.0
            ],
            [
                50.730873107910156,
                452.0931396484375,
                8700.0
            ],
            [
                39.92814636230469,
                457.16009521484375,
                8800.0
            ],
            [
                29.066436767578125,
                462.2242126464844,
                8900.0
            ],
            [
                18.150083541870117,
                467.28570556640625,
                9000.0
            ],
            [
                7.1840500831604,
                472.34478759765625,
                9100.0
            ],
            [
                -3.8271148204803467,
                477.40167236328125,
                9200.0
            ],
            [
                -14.879634857177734,
                482.45654296875,
                9300.0
            ],
            [
                -25.969810485839844,
                487.5095520019531,
                9400.0
            ],
            [
                -37.09416961669922,
                492.56085205078125,
                9500.0
            ],
            [
                -48.24985885620117,
                497.6106262207031,
                9600.0
            ],
            [
                -59.43400192260742,
                502.6590270996094,
                9700.0
            ],
            [
                -70.64414978027344,
                507.7061462402344,
                9800.0
            ],
            [
                -81.87781524658203,
                512.7521362304688,
                9900.0
            ],
            [
                -93.1330795288086,
                517.7970581054688,
                10000.0
            ],
            [
                -115.70075988769531,
                527.8841552734375,
                10200.0
            ],
            [
                -138.33395385742188,
                537.96826171875,
                10400.0
            ],
            [
                -161.0207977294922,
                548.0499267578125,
                10600.0
            ],
            [
                -183.75350952148438,
                558.1295776367188,
                10800.0
            ],
            [
                -206.5221405029297,
                568.207763671875,
                11000.0
            ],
            [
                -229.3218536376953,
                578.2847290039063,
                11200.0
            ],
            [
                -252.1479949951172,
                588.360595703125,
                11400.0
            ],
            [
                -274.9941711425781,
                598.4358520507813,
                11600.0
            ],
            [
                -297.8573303222656,
                608.5105590820313,
                11800.0
            ],
            [
                -320.7337341308594,
                618.5848388671875,
                12000.0
            ],
            [
                -343.62371826171875,
                628.65869140625,
                12200.0
            ],
            [
                -366.5225830078125,
                638.732421875,
                12400.0
            ],
            [
                -389.42694091796875,
                648.8060302734375,
                12600.0
            ],
            [
                -412.3365783691406,
                658.8795776367188,
                12800.0
            ],
            [
                -435.2524108886719,
                668.9530029296875,
                13000.0
            ],
            [
                -458.1729736328125,
                679.0263061523438,
                13200.0
            ],
            [
                -481.0953369140625,
                689.099609375,
                13400.0
            ]
        ],
        "zFirstMeasurement": 124.0877
    },
    {
        "E": 27338.966267348977,
        "chi2": 0.39761117100715637,
        "ip": 0.3118384529988586,
        "ipchi2": 4.112472354923011,
        "mass": 139.57018,
        "particleId": "pi-",
        "pvx": 0.4129,
        "pvy": 0.1484,
        "pvz": -123.0608,
        "px": -18.68299704785502,
        "py": 411.6532848739413,
        "pz": 27335.504188706193,
        "q": -1.0,
        "trajectory": [
            [
                0.5958431363105774,
                0.73599773645401,
                -100.0
            ],
            [
                0.5924108028411865,
                0.8112944960594177,
                -95.0
            ],
            [
                0.5889768600463867,
                0.8865913152694702,
                -90.0
            ],
            [
                0.585541307926178,
                0.9618880748748779,
                -85.0
            ],
            [
                0.5821040868759155,
                1.0371849536895752,
                -80.0
            ],
            [
                0.5786651372909546,
                1.1124818325042725,
                -75.0
            ],
            [
                0.5752245187759399,
                1.1877787113189697,
                -70.0
            ],
            [
                0.5717821717262268,
                1.263075590133667,
                -65.0
            ],
            [
                0.5683380365371704,
                1.3383724689483643,
                -60.0
            ],
            [
                0.5648921132087708,
                1.413669466972351,
                -55.0
            ],
            [
                0.5614442825317383,
                1.488966464996338,
                -50.0
            ],
            [
                0.5580055713653564,
                1.5642637014389038,
                -45.0
            ],
            [
                0.5545557141304016,
                1.6395606994628906,
                -40.0
            ],
            [
                0.5511041283607483,
                1.714857816696167,
                -35.0
            ],
            [
                0.5476508140563965,
                1.7901549339294434,
                -30.0
            ],
            [
                0.5441957116127014,
                1.8654520511627197,
                -25.0
            ],
            [
                0.5407388210296631,
                1.9407492876052856,
                -20.0
            ],
            [
                0.5372801423072815,
                2.0160465240478516,
                -15.0
            ],
            [
                0.5338196754455566,
                2.091343641281128,
                -10.0
            ],
            [
                0.530357301235199,
                2.1666409969329834,
                -5.0
            ],
            [
                0.526893138885498,
                2.2419381141662598,
                0.0
            ],
            [
                0.5234270095825195,
                2.3172354698181152,
                5.0
            ],
            [
                0.5199589729309082,
                2.3925328254699707,
                10.0
            ],
            [
                0.5164888501167297,
                2.467830181121826,
                15.0
            ],
            [
                0.5130167007446289,
                2.5431275367736816,
                20.0
            ],
            [
                0.5095425844192505,
                2.618425130844116,
                25.0
            ],
            [
                0.5060664415359497,
                2.6937224864959717,
                30.0
            ],
            [
                0.5025883316993713,
                2.769019842147827,
                35.0
            ],
            [
                0.49910810589790344,
                2.8443174362182617,
                40.0
            ],
            [
                0.4956258535385132,
                2.9196150302886963,
                45.0
            ],
            [
                0.4921415448188782,
                2.994912624359131,
                50.0
            ],
            [
                0.48865512013435364,
                3.0702102184295654,
                55.0
            ],
            [
                0.4851665496826172,
                3.1455078125,
                60.0
            ],
            [
                0.4816758930683136,
                3.2208054065704346,
                65.0
            ],
            [
                0.4781830310821533,
                3.296103000640869,
                70.0
            ],
            [
                0.47468802332878113,
                3.3714005947113037,
                75.0
            ],
            [
                0.47119084000587463,
                3.4466984272003174,
                80.0
            ],
            [
                0.46769142150878906,
                3.521996021270752,
                85.0
            ],
            [
                0.4641897678375244,
                3.5972938537597656,
                90.0
            ],
            [
                0.4606858789920807,
                3.6725916862487793,
                95.0
            ],
            [
                0.45717954635620117,
                3.747889518737793,
                100.0
            ],
            [
                0.44312795996665955,
                4.049080848693848,
                120.0
            ],
            [
                0.42903730273246765,
                4.350273132324219,
                140.0
            ],
            [
                0.4149062931537628,
                4.65146541595459,
                160.0
            ],
            [
                0.4007335603237152,
                4.952658176422119,
                180.0
            ],
            [
                0.3865177035331726,
                5.253851413726807,
                200.0
            ],
            [
                0.37225642800331116,
                5.555044651031494,
                220.0
            ],
            [
                0.3578667938709259,
                5.856245517730713,
                240.0
            ],
            [
                0.34351083636283875,
                6.157440185546875,
                260.0
            ],
            [
                0.32909324765205383,
                6.458634853363037,
                280.0
            ],
            [
                0.314618319272995,
                6.759829998016357,
                300.0
            ],
            [
                0.30008962750434875,
                7.061025142669678,
                320.0
            ],
            [
                0.2855053246021271,
                7.3622212409973145,
                340.0
            ],
            [
                0.2708626687526703,
                7.663416862487793,
                360.0
            ],
            [
                0.2561589777469635,
                7.96461296081543,
                380.0
            ],
            [
                0.2413915991783142,
                8.265810012817383,
                400.0
            ],
            [
                0.2265571504831314,
                8.56700611114502,
                420.0
            ],
            [
                0.21165333688259125,
                8.868203163146973,
                440.0
            ],
            [
                0.1966772973537445,
                9.169400215148926,
                460.0
            ],
            [
                0.18162761628627777,
                9.470597267150879,
                480.0
            ],
            [
                0.16653136909008026,
                9.771795272827148,
                500.0
            ],
            [
                0.15131090581417084,
                10.072992324829102,
                520.0
            ],
            [
                0.13601402938365936,
                10.374190330505371,
                540.0
            ],
            [
                0.12063632905483246,
                10.67538833618164,
                560.0
            ],
            [
                0.10517339408397675,
                10.97658634185791,
                580.0
            ],
            [
                0.08962079882621765,
                11.277785301208496,
                600.0
            ],
            [
                0.07397406548261642,
                11.578983306884766,
                620.0
            ],
            [
                0.058228421956300735,
                11.880182266235352,
                640.0
            ],
            [
                0.04237901419401169,
                12.181380271911621,
                660.0
            ],
            [
                0.02642100304365158,
                12.482579231262207,
                680.0
            ],
            [
                0.010383913293480873,
                12.783778190612793,
                700.0
            ],
            [
                -0.005780891049653292,
                13.084976196289063,
                720.0
            ],
            [
                -0.022058989852666855,
                13.386175155639648,
                740.0
            ],
            [
                -0.038453590124845505,
                13.687373161315918,
                760.0
            ],
            [
                -0.05496711656451225,
                13.988571166992188,
                780.0
            ],
            [
                -0.07160266488790512,
                14.289769172668457,
                800.0
            ],
            [
                -0.08836337924003601,
                14.59096622467041,
                820.0
            ],
            [
                -0.10525257140398026,
                14.89216423034668,
                840.0
            ],
            [
                -0.12227336317300797,
                15.193361282348633,
                860.0
            ],
            [
                -0.13942885398864746,
                15.49455738067627,
                880.0
            ],
            [
                -0.15672215819358826,
                15.795754432678223,
                900.0
            ],
            [
                -0.17415346205234528,
                16.09695053100586,
                920.0
            ],
            [
                -0.19172589480876923,
                16.39814567565918,
                940.0
            ],
            [
                -0.20943762362003326,
                16.699342727661133,
                960.0
            ],
            [
                -0.2272966504096985,
                17.000537872314453,
                980.0
            ],
            [
                -0.24530591070652008,
                17.301733016967773,
                1000.0
            ],
            [
                -0.33762964606285095,
                18.807703018188477,
                1100.0
            ],
            [
                -0.43382060527801514,
                20.31366729736328,
                1200.0
            ],
            [
                -0.5340272784233093,
                21.81962013244629,
                1300.0
            ],
            [
                -0.6381078362464905,
                23.32556915283203,
                1400.0
            ],
            [
                -0.7463662624359131,
                24.83150863647461,
                1500.0
            ],
            [
                -0.8575388789176941,
                26.337432861328125,
                1600.0
            ],
            [
                -0.9733422994613647,
                27.843360900878906,
                1700.0
            ],
            [
                -1.0938339233398438,
                29.349285125732422,
                1800.0
            ],
            [
                -1.2195733785629272,
                30.85520362854004,
                1900.0
            ],
            [
                -1.3507719039916992,
                32.36111831665039,
                2000.0
            ],
            [
                -1.4885997772216797,
                33.86703109741211,
                2100.0
            ],
            [
                -1.634965181350708,
                35.37293243408203,
                2200.0
            ],
            [
                -1.7915815114974976,
                36.878814697265625,
                2300.0
            ],
            [
                -1.9594981670379639,
                38.38467788696289,
                2400.0
            ],
            [
                -2.1422157287597656,
                39.890525817871094,
                2500.0
            ],
            [
                -2.3417398929595947,
                41.39631652832031,
                2600.0
            ],
            [
                -2.560614824295044,
                42.902095794677734,
                2700.0
            ],
            [
                -2.8061394691467285,
                44.40781021118164,
                2800.0
            ],
            [
                -3.0808768272399902,
                45.913490295410156,
                2900.0
            ],
            [
                -3.389246702194214,
                47.41913986206055,
                3000.0
            ],
            [
                -3.739075183868408,
                48.92475891113281,
                3100.0
            ],
            [
                -4.133132457733154,
                50.43036651611328,
                3200.0
            ],
            [
                -4.577377796173096,
                51.93596649169922,
                3300.0
            ],
            [
                -5.078991889953613,
                53.44156265258789,
                3400.0
            ],
            [
                -5.646427631378174,
                54.94713592529297,
                3500.0
            ],
            [
                -6.284695148468018,
                56.45274353027344,
                3600.0
            ],
            [
                -7.002711296081543,
                57.9582633972168,
                3700.0
            ],
            [
                -7.799507141113281,
                59.4638671875,
                3800.0
            ],
            [
                -8.688411712646484,
                60.96943664550781,
                3900.0
            ],
            [
                -9.674554824829102,
                62.47477722167969,
                4000.0
            ],
            [
                -10.762797355651855,
                63.97995376586914,
                4100.0
            ],
            [
                -11.950325012207031,
                65.48514556884766,
                4200.0
            ],
            [
                -13.240352630615234,
                66.99034118652344,
                4300.0
            ],
            [
                -14.643487930297852,
                68.49520111083984,
                4400.0
            ],
            [
                -16.168331146240234,
                69.99984741210938,
                4500.0
            ],
            [
                -17.80377769470215,
                71.50438690185547,
                4600.0
            ],
            [
                -19.551311492919922,
                73.00881958007813,
                4700.0
            ],
            [
                -21.41536521911621,
                74.51277160644531,
                4800.0
            ],
            [
                -23.402549743652344,
                76.0164794921875,
                4900.0
            ],
            [
                -25.49934196472168,
                77.51992797851563,
                5000.0
            ],
            [
                -27.247024536132813,
                79.03063201904297,
                5100.0
            ],
            [
                -29.554311752319336,
                80.53694915771484,
                5200.0
            ],
            [
                -31.97432518005371,
                82.04269409179688,
                5300.0
            ],
            [
                -34.50285339355469,
                83.54881286621094,
                5400.0
            ],
            [
                -37.13858413696289,
                85.05500030517578,
                5500.0
            ],
            [
                -39.87773132324219,
                86.56018829345703,
                5600.0
            ],
            [
                -42.722938537597656,
                88.06551361083984,
                5700.0
            ],
            [
                -45.66990661621094,
                89.5704345703125,
                5800.0
            ],
            [
                -48.71233367919922,
                91.07499694824219,
                5900.0
            ],
            [
                -51.85329055786133,
                92.57905578613281,
                6000.0
            ],
            [
                -55.08729553222656,
                94.0827407836914,
                6100.0
            ],
            [
                -58.411598205566406,
                95.58626556396484,
                6200.0
            ],
            [
                -61.82304000854492,
                97.08958435058594,
                6300.0
            ],
            [
                -65.31824493408203,
                98.59269714355469,
                6400.0
            ],
            [
                -68.8951416015625,
                100.0957260131836,
                6500.0
            ],
            [
                -72.54874420166016,
                101.59835815429688,
                6600.0
            ],
            [
                -76.27720642089844,
                103.1007080078125,
                6700.0
            ],
            [
                -80.07491302490234,
                104.60282897949219,
                6800.0
            ],
            [
                -83.94099426269531,
                106.1047592163086,
                6900.0
            ],
            [
                -87.87055206298828,
                107.60645294189453,
                7000.0
            ],
            [
                -91.85944366455078,
                109.1079330444336,
                7100.0
            ],
            [
                -95.9041519165039,
                110.60918426513672,
                7200.0
            ],
            [
                -100.00169372558594,
                112.11018371582031,
                7300.0
            ],
            [
                -104.14950561523438,
                113.6109619140625,
                7400.0
            ],
            [
                -108.34166717529297,
                115.1114501953125,
                7500.0
            ],
            [
                -112.57720184326172,
                116.61170196533203,
                7600.0
            ],
            [
                -116.85176086425781,
                118.11167907714844,
                7700.0
            ],
            [
                -121.16365814208984,
                119.61137390136719,
                7800.0
            ],
            [
                -125.509765625,
                121.11079406738281,
                7900.0
            ],
            [
                -129.8870849609375,
                122.60994720458984,
                8000.0
            ],
            [
                -134.29396057128906,
                124.10884094238281,
                8100.0
            ],
            [
                -138.72708129882813,
                125.60748291015625,
                8200.0
            ],
            [
                -143.18479919433594,
                127.10588836669922,
                8300.0
            ],
            [
                -147.66526794433594,
                128.6040802001953,
                8400.0
            ],
            [
                -152.1666259765625,
                130.10205078125,
                8500.0
            ],
            [
                -156.68658447265625,
                131.599853515625,
                8600.0
            ],
            [
                -161.22412109375,
                133.0974884033203,
                8700.0
            ],
            [
                -165.7776336669922,
                134.594970703125,
                8800.0
            ],
            [
                -170.3456573486328,
                136.09228515625,
                8900.0
            ],
            [
                -174.92715454101563,
                137.5894775390625,
                9000.0
            ],
            [
                -179.5209197998047,
                139.0865478515625,
                9100.0
            ],
            [
                -184.12582397460938,
                140.58348083496094,
                9200.0
            ],
            [
                -188.740966796875,
                142.080322265625,
                9300.0
            ],
            [
                -193.36544799804688,
                143.57705688476563,
                9400.0
            ],
            [
                -197.99838256835938,
                145.07371520996094,
                9500.0
            ],
            [
                -202.6391143798828,
                146.57028198242188,
                9600.0
            ],
            [
                -207.28689575195313,
                148.06678771972656,
                9700.0
            ],
            [
                -211.94114685058594,
                149.563232421875,
                9800.0
            ],
            [
                -216.6012420654297,
                151.0596160888672,
                9900.0
            ],
            [
                -221.2667236328125,
                152.55593872070313,
                10000.0
            ],
            [
                -230.61192321777344,
                155.5484619140625,
                10200.0
            ],
            [
                -239.9734649658203,
                158.5408477783203,
                10400.0
            ],
            [
                -249.34837341308594,
                161.53311157226563,
                10600.0
            ],
            [
                -258.7347717285156,
                164.52528381347656,
                10800.0
            ],
            [
                -268.13018798828125,
                167.5174102783203,
                11000.0
            ],
            [
                -277.5333557128906,
                170.5094757080078,
                11200.0
            ],
            [
                -286.94317626953125,
                173.5015106201172,
                11400.0
            ],
            [
                -296.35797119140625,
                176.4935302734375,
                11600.0
            ],
            [
                -305.7770690917969,
                179.48553466796875,
                11800.0
            ],
            [
                -315.1995544433594,
                182.47752380371094,
                12000.0
            ],
            [
                -324.62542724609375,
                185.46951293945313,
                12200.0
            ],
            [
                -334.05352783203125,
                188.4615020751953,
                12400.0
            ],
            [
                -343.4830017089844,
                191.45350646972656,
                12600.0
            ],
            [
                -352.91387939453125,
                194.44549560546875,
                12800.0
            ],
            [
                -362.3463134765625,
                197.4375,
                13000.0
            ],
            [
                -371.7798767089844,
                200.42950439453125,
                13200.0
            ],
            [
                -381.2139587402344,
                203.4215087890625,
                13400.0
            ]
        ],
        "zFirstMeasurement": 599.2573
    }
]
