[
    {
        "E": 91675.3291769237,
        "chi2": 0.0,
        "ip": 0.03771921865560201,
        "ipchi2": 3.2667061259938026,
        "mass": 1879.226,
        "particleId": "D0",
        "pvx": 0.5482,
        "pvy": 0.0647,
        "pvz": -5.5987,
        "px": -531.02,
        "py": -3445.05,
        "pz": 91589.76,
        "q": 0.0,
        "trajectory": [
            [
                0.5482000112533569,
                0.06469999998807907,
                -5.598700046539307
            ],
            [
                0.5562000274658203,
                -0.12330000102519989,
                -0.5031999945640564
            ]
        ],
        "zFirstMeasurement": -9999.0
    },
    {
        "E": 49666.32553661643,
        "chi2": 0.6339820027351379,
        "ip": 0.12675387674980154,
        "ipchi2": 35.261187264577956,
        "mass": 493.677,
        "particleId": "K-",
        "pvx": 0.5482,
        "pvy": 0.0647,
        "pvz": -5.5987,
        "px": -1034.95,
        "py": -2308.8,
        "pz": 49599.38,
        "q": -1.0,
        "trajectory": [
            [
                0.5622777938842773,
                -0.13262315094470978,
                -0.5031999945640564
            ],
            [
                0.4579470753669739,
                -0.3653678596019745,
                4.496799945831299
            ],
            [
                0.35361531376838684,
                -0.5981125235557556,
                9.496800422668457
            ],
            [
                0.24928247928619385,
                -0.8308572173118591,
                14.496800422668457
            ],
            [
                0.1449485570192337,
                -1.0636018514633179,
                19.49679946899414
            ],
            [
                0.04061353951692581,
                -1.2963465452194214,
                24.49679946899414
            ],
            [
                -0.06372260302305222,
                -1.529091238975525,
                29.49679946899414
            ],
            [
                -0.16805988550186157,
                -1.7618358135223389,
                34.49679946899414
            ],
            [
                -0.27239832282066345,
                -1.9945805072784424,
                39.49679946899414
            ],
            [
                -0.37673795223236084,
                -2.227324962615967,
                44.49679946899414
            ],
            [
                -0.48107874393463135,
                -2.4600696563720703,
                49.49679946899414
            ],
            [
                -0.5854207873344421,
                -2.692814350128174,
                54.49679946899414
            ],
            [
                -0.6897640228271484,
                -2.9255588054656982,
                59.49679946899414
            ],
            [
                -0.7941085696220398,
                -3.1583034992218018,
                64.4968032836914
            ],
            [
                -0.8984543085098267,
                -3.391047954559326,
                69.4968032836914
            ],
            [
                -1.0028014183044434,
                -3.6237926483154297,
                74.4968032836914
            ],
            [
                -1.1071497201919556,
                -3.856537103652954,
                79.4968032836914
            ],
            [
                -1.2114994525909424,
                -4.0892815589904785,
                84.4968032836914
            ],
            [
                -1.3158100843429565,
                -4.321990966796875,
                89.4968032836914
            ],
            [
                -1.4201624393463135,
                -4.55473518371582,
                94.4968032836914
            ],
            [
                -1.5245158672332764,
                -4.787479877471924,
                99.4968032836914
            ],
            [
                -1.6288704872131348,
                -5.020224094390869,
                104.4968032836914
            ],
            [
                -2.0463011264801025,
                -5.951201915740967,
                124.4968032836914
            ],
            [
                -2.463752508163452,
                -6.8821797370910645,
                144.49679565429688
            ],
            [
                -2.8812255859375,
                -7.813157081604004,
                164.49679565429688
            ],
            [
                -3.298722505569458,
                -8.744134902954102,
                184.49679565429688
            ],
            [
                -3.7162439823150635,
                -9.675111770629883,
                204.49679565429688
            ],
            [
                -4.133791923522949,
                -10.606088638305664,
                224.49679565429688
            ],
            [
                -4.551368236541748,
                -11.537066459655762,
                244.49679565429688
            ],
            [
                -4.9689741134643555,
                -12.468043327331543,
                264.4967956542969
            ],
            [
                -5.386594772338867,
                -13.399020195007324,
                284.4967956542969
            ],
            [
                -5.804254531860352,
                -14.329997062683105,
                304.4967956542969
            ],
            [
                -6.221945762634277,
                -15.26097297668457,
                324.4967956542969
            ],
            [
                -6.6396684646606445,
                -16.19194984436035,
                344.4967956542969
            ],
            [
                -7.057424545288086,
                -17.122926712036133,
                364.4967956542969
            ],
            [
                -7.47521448135376,
                -18.053903579711914,
                384.4967956542969
            ],
            [
                -7.893041133880615,
                -18.984880447387695,
                404.4967956542969
            ],
            [
                -8.310904502868652,
                -19.915857315063477,
                424.4967956542969
            ],
            [
                -8.728806495666504,
                -20.846832275390625,
                444.4967956542969
            ],
            [
                -9.146747589111328,
                -21.777809143066406,
                464.4967956542969
            ],
            [
                -9.564728736877441,
                -22.708786010742188,
                484.4967956542969
            ],
            [
                -9.982751846313477,
                -23.63976287841797,
                504.4967956542969
            ],
            [
                -10.400818824768066,
                -24.57073974609375,
                524.496826171875
            ],
            [
                -10.818929672241211,
                -25.50171661376953,
                544.496826171875
            ],
            [
                -11.237088203430176,
                -26.432693481445313,
                564.496826171875
            ],
            [
                -11.655298233032227,
                -27.363670349121094,
                584.496826171875
            ],
            [
                -12.073556900024414,
                -28.294647216796875,
                604.496826171875
            ],
            [
                -12.491870880126953,
                -29.22562599182129,
                624.496826171875
            ],
            [
                -12.910237312316895,
                -30.15660285949707,
                644.496826171875
            ],
            [
                -13.328658103942871,
                -31.087581634521484,
                664.496826171875
            ],
            [
                -13.747133255004883,
                -32.018558502197266,
                684.496826171875
            ],
            [
                -14.165665626525879,
                -32.94953918457031,
                704.496826171875
            ],
            [
                -14.584256172180176,
                -33.880516052246094,
                724.496826171875
            ],
            [
                -15.00291633605957,
                -34.811492919921875,
                744.496826171875
            ],
            [
                -15.421638488769531,
                -35.74247360229492,
                764.496826171875
            ],
            [
                -15.840424537658691,
                -36.6734504699707,
                784.496826171875
            ],
            [
                -16.259275436401367,
                -37.60443115234375,
                804.496826171875
            ],
            [
                -16.678190231323242,
                -38.53540802001953,
                824.496826171875
            ],
            [
                -17.0971736907959,
                -39.46638870239258,
                844.496826171875
            ],
            [
                -17.516225814819336,
                -40.397369384765625,
                864.496826171875
            ],
            [
                -17.935346603393555,
                -41.328346252441406,
                884.496826171875
            ],
            [
                -18.35455322265625,
                -42.25933074951172,
                904.496826171875
            ],
            [
                -18.773828506469727,
                -43.190311431884766,
                924.496826171875
            ],
            [
                -19.193187713623047,
                -44.12129592895508,
                944.496826171875
            ],
            [
                -19.612646102905273,
                -45.05228042602539,
                964.496826171875
            ],
            [
                -20.03218650817871,
                -45.9832649230957,
                984.496826171875
            ],
            [
                -20.45180320739746,
                -46.914249420166016,
                1004.496826171875
            ],
            [
                -22.551013946533203,
                -51.56916809082031,
                1104.496826171875
            ],
            [
                -24.652877807617188,
                -56.22407531738281,
                1204.496826171875
            ],
            [
                -26.756563186645508,
                -60.87900161743164,
                1304.496826171875
            ],
            [
                -28.86241912841797,
                -65.533935546875,
                1404.496826171875
            ],
            [
                -30.97024154663086,
                -70.18885040283203,
                1504.496826171875
            ],
            [
                -33.08021926879883,
                -74.84378051757813,
                1604.496826171875
            ],
            [
                -35.192359924316406,
                -79.49872589111328,
                1704.496826171875
            ],
            [
                -37.307334899902344,
                -84.1536865234375,
                1804.496826171875
            ],
            [
                -39.42479705810547,
                -88.80867004394531,
                1904.496826171875
            ],
            [
                -41.54568862915039,
                -93.46366882324219,
                2004.496826171875
            ],
            [
                -43.67012023925781,
                -98.1186752319336,
                2104.496826171875
            ],
            [
                -45.799522399902344,
                -102.77374267578125,
                2204.496826171875
            ],
            [
                -47.93329620361328,
                -107.42884826660156,
                2304.496826171875
            ],
            [
                -50.07374572753906,
                -112.08403778076172,
                2404.496826171875
            ],
            [
                -52.22256088256836,
                -116.73931884765625,
                2504.496826171875
            ],
            [
                -54.38114929199219,
                -121.39469909667969,
                2604.496826171875
            ],
            [
                -56.550594329833984,
                -126.05021667480469,
                2704.496826171875
            ],
            [
                -58.73273849487305,
                -130.7058563232422,
                2804.496826171875
            ],
            [
                -60.93159103393555,
                -135.3616485595703,
                2904.496826171875
            ],
            [
                -63.14963912963867,
                -140.0176544189453,
                3004.496826171875
            ],
            [
                -65.38711547851563,
                -144.67384338378906,
                3104.496826171875
            ],
            [
                -67.65123748779297,
                -149.330078125,
                3204.496826171875
            ],
            [
                -69.94298553466797,
                -153.986572265625,
                3304.496826171875
            ],
            [
                -72.26713562011719,
                -158.64328002929688,
                3404.496826171875
            ],
            [
                -74.62754821777344,
                -163.30023193359375,
                3504.496826171875
            ],
            [
                -77.02412414550781,
                -167.95751953125,
                3604.496826171875
            ],
            [
                -79.46370697021484,
                -172.6151123046875,
                3704.496826171875
            ],
            [
                -81.95108032226563,
                -177.2728271484375,
                3804.496826171875
            ],
            [
                -84.48650360107422,
                -181.93087768554688,
                3904.496826171875
            ],
            [
                -87.07488250732422,
                -186.58937072753906,
                4004.496826171875
            ],
            [
                -89.71717071533203,
                -191.248291015625,
                4104.49658203125
            ],
            [
                -92.42112731933594,
                -195.9073486328125,
                4204.49658203125
            ],
            [
                -95.1854476928711,
                -200.5666046142578,
                4304.49658203125
            ],
            [
                -98.00940704345703,
                -205.22653198242188,
                4404.49658203125
            ],
            [
                -100.89508056640625,
                -209.88665771484375,
                4504.49658203125
            ],
            [
                -103.84418487548828,
                -214.5470733642578,
                4604.49658203125
            ],
            [
                -106.85939025878906,
                -219.20755004882813,
                4704.49658203125
            ],
            [
                -109.93347930908203,
                -223.86827087402344,
                4804.49658203125
            ],
            [
                -113.70936584472656,
                -228.264404296875,
                4904.49658203125
            ],
            [
                -116.9054946899414,
                -232.91831970214844,
                5004.49658203125
            ],
            [
                -120.16602325439453,
                -237.57247924804688,
                5104.49658203125
            ],
            [
                -123.48764038085938,
                -242.22686767578125,
                5204.49658203125
            ],
            [
                -126.87156677246094,
                -246.8816680908203,
                5304.49658203125
            ],
            [
                -130.31578063964844,
                -251.536376953125,
                5404.49658203125
            ],
            [
                -133.82000732421875,
                -256.1908264160156,
                5504.49658203125
            ],
            [
                -137.38111877441406,
                -260.8459167480469,
                5604.49658203125
            ],
            [
                -141.00074768066406,
                -265.5009460449219,
                5704.49658203125
            ],
            [
                -144.6769561767578,
                -270.15625,
                5804.49658203125
            ],
            [
                -148.40638732910156,
                -274.81158447265625,
                5904.49658203125
            ],
            [
                -152.19058227539063,
                -279.4670104980469,
                6004.49658203125
            ],
            [
                -156.02606201171875,
                -284.12261962890625,
                6104.49658203125
            ],
            [
                -159.91163635253906,
                -288.77825927734375,
                6204.49658203125
            ],
            [
                -163.84588623046875,
                -293.43377685546875,
                6304.49658203125
            ],
            [
                -167.82664489746094,
                -298.08929443359375,
                6404.49658203125
            ],
            [
                -171.85276794433594,
                -302.7447814941406,
                6504.49658203125
            ],
            [
                -175.92176818847656,
                -307.40020751953125,
                6604.49658203125
            ],
            [
                -180.0322265625,
                -312.0556335449219,
                6704.49658203125
            ],
            [
                -184.1811065673828,
                -316.71099853515625,
                6804.49658203125
            ],
            [
                -188.36785888671875,
                -321.3661804199219,
                6904.49658203125
            ],
            [
                -192.58982849121094,
                -326.0212707519531,
                7004.49658203125
            ],
            [
                -196.84454345703125,
                -330.6762390136719,
                7104.49658203125
            ],
            [
                -201.13014221191406,
                -335.3310852050781,
                7204.49658203125
            ],
            [
                -205.44485473632813,
                -339.9858703613281,
                7304.49658203125
            ],
            [
                -209.78707885742188,
                -344.6405029296875,
                7404.49658203125
            ],
            [
                -214.1536407470703,
                -349.2950744628906,
                7504.49658203125
            ],
            [
                -218.54408264160156,
                -353.9494934082031,
                7604.49658203125
            ],
            [
                -222.95579528808594,
                -358.6038513183594,
                7704.49658203125
            ],
            [
                -227.3878173828125,
                -363.2581787109375,
                7804.49658203125
            ],
            [
                -231.83837890625,
                -367.91241455078125,
                7904.49658203125
            ],
            [
                -236.3058624267578,
                -372.56658935546875,
                8004.49658203125
            ],
            [
                -240.7892608642578,
                -377.2207336425781,
                8104.49658203125
            ],
            [
                -245.28680419921875,
                -381.8748474121094,
                8204.4970703125
            ],
            [
                -249.7975311279297,
                -386.5289611816406,
                8304.4970703125
            ],
            [
                -254.32040405273438,
                -391.1830139160156,
                8404.4970703125
            ],
            [
                -258.8544616699219,
                -395.83709716796875,
                8504.4970703125
            ],
            [
                -263.3984069824219,
                -400.4911193847656,
                8604.4970703125
            ],
            [
                -267.95172119140625,
                -405.1451721191406,
                8704.4970703125
            ],
            [
                -272.51348876953125,
                -409.7991943359375,
                8804.4970703125
            ],
            [
                -277.08294677734375,
                -414.4532470703125,
                8904.4970703125
            ],
            [
                -281.6595153808594,
                -419.1072692871094,
                9004.4970703125
            ],
            [
                -286.2425231933594,
                -423.7613220214844,
                9104.4970703125
            ],
            [
                -290.8314208984375,
                -428.4153747558594,
                9204.4970703125
            ],
            [
                -295.4256896972656,
                -433.0694580078125,
                9304.4970703125
            ],
            [
                -300.02484130859375,
                -437.7235412597656,
                9404.4970703125
            ],
            [
                -304.6284484863281,
                -442.3776550292969,
                9504.4970703125
            ],
            [
                -309.2361145019531,
                -447.0317687988281,
                9604.4970703125
            ],
            [
                -313.84747314453125,
                -451.6859130859375,
                9704.4970703125
            ],
            [
                -318.4621887207031,
                -456.340087890625,
                9804.4970703125
            ],
            [
                -323.0799560546875,
                -460.9942626953125,
                9904.4970703125
            ],
            [
                -327.7005310058594,
                -465.6484680175781,
                10004.4970703125
            ],
            [
                -336.9491271972656,
                -474.9569396972656,
                10204.4970703125
            ],
            [
                -346.2062072753906,
                -484.2655029296875,
                10404.4970703125
            ],
            [
                -355.47021484375,
                -493.5741271972656,
                10604.4970703125
            ],
            [
                -364.74017333984375,
                -502.8828430175781,
                10804.4970703125
            ],
            [
                -374.0148010253906,
                -512.1915893554688,
                11004.4970703125
            ],
            [
                -383.29345703125,
                -521.5004272460938,
                11204.4970703125
            ],
            [
                -392.5755615234375,
                -530.809326171875,
                11404.4970703125
            ],
            [
                -401.86016845703125,
                -540.1182250976563,
                11604.4970703125
            ],
            [
                -411.1470642089844,
                -549.4271850585938,
                11804.4970703125
            ],
            [
                -420.4356689453125,
                -558.7362060546875,
                12004.4970703125
            ],
            [
                -429.7260437011719,
                -568.0452270507813,
                12204.4970703125
            ],
            [
                -439.0175476074219,
                -577.3543090820313,
                12404.4970703125
            ],
            [
                -448.3097229003906,
                -586.6633911132813,
                12604.4970703125
            ],
            [
                -457.6026306152344,
                -595.9725341796875,
                12804.4970703125
            ],
            [
                -466.8963623046875,
                -605.2816772460938,
                13004.4970703125
            ],
            [
                -476.1906433105469,
                -614.5908203125,
                13204.4970703125
            ],
            [
                -485.4851989746094,
                -623.8999633789063,
                13404.4970703125
            ]
        ],
        "zFirstMeasurement": 169.4538
    },
    {
        "E": 42008.45315724797,
        "chi2": 0.7968972325325012,
        "ip": 0.07096503688788351,
        "ipchi2": 4.199078883262723,
        "mass": 139.57,
        "particleId": "pi+",
        "pvx": 0.5482,
        "pvy": 0.0647,
        "pvz": -5.5987,
        "px": 504.76,
        "py": -1138.02,
        "pz": 41989.77,
        "q": 1.0,
        "trajectory": [
            [
                0.5416676998138428,
                -0.09439828991889954,
                -0.5031999945640564
            ],
            [
                0.6017763018608093,
                -0.22990994155406952,
                4.496799945831299
            ],
            [
                0.6618860960006714,
                -0.3654216229915619,
                9.496800422668457
            ],
            [
                0.7219972014427185,
                -0.5009332895278931,
                14.496800422668457
            ],
            [
                0.7821095585823059,
                -0.6364449858665466,
                19.49679946899414
            ],
            [
                0.8422232866287231,
                -0.771956741809845,
                24.49679946899414
            ],
            [
                0.9023383855819702,
                -0.9074684977531433,
                29.49679946899414
            ],
            [
                0.9624547958374023,
                -1.0429803133010864,
                34.49679946899414
            ],
            [
                1.022572636604309,
                -1.1784920692443848,
                39.49679946899414
            ],
            [
                1.0826919078826904,
                -1.314003825187683,
                44.49679946899414
            ],
            [
                1.1428124904632568,
                -1.449515700340271,
                49.49679946899414
            ],
            [
                1.2029346227645874,
                -1.5850275754928589,
                54.49679946899414
            ],
            [
                1.2630583047866821,
                -1.7205394506454468,
                59.49679946899414
            ],
            [
                1.323183298110962,
                -1.8560513257980347,
                64.4968032836914
            ],
            [
                1.3833099603652954,
                -1.9915632009506226,
                69.4968032836914
            ],
            [
                1.443438172340393,
                -2.1270751953125,
                74.4968032836914
            ],
            [
                1.5035678148269653,
                -2.262587070465088,
                79.4968032836914
            ],
            [
                1.5636991262435913,
                -2.398099184036255,
                84.4968032836914
            ],
            [
                1.6238319873809814,
                -2.5336110591888428,
                89.4968032836914
            ],
            [
                1.6839557886123657,
                -2.6691231727600098,
                94.4968032836914
            ],
            [
                1.7440903186798096,
                -2.8046350479125977,
                99.4968032836914
            ],
            [
                1.8042263984680176,
                -2.9401471614837646,
                104.4968032836914
            ],
            [
                2.044786214828491,
                -3.4821956157684326,
                124.4968032836914
            ],
            [
                2.2853758335113525,
                -4.0242438316345215,
                144.49679565429688
            ],
            [
                2.5259876251220703,
                -4.566292762756348,
                164.49679565429688
            ],
            [
                2.766618013381958,
                -5.108342170715332,
                184.49679565429688
            ],
            [
                3.007291793823242,
                -5.650392055511475,
                204.49679565429688
            ],
            [
                3.2479937076568604,
                -6.192441940307617,
                224.49679565429688
            ],
            [
                3.4887256622314453,
                -6.734492301940918,
                244.49679565429688
            ],
            [
                3.729489326477051,
                -7.276542663574219,
                264.4967956542969
            ],
            [
                3.9702868461608887,
                -7.818593502044678,
                284.4967956542969
            ],
            [
                4.211120128631592,
                -8.360644340515137,
                304.4967956542969
            ],
            [
                4.451990604400635,
                -8.902695655822754,
                324.4967956542969
            ],
            [
                4.692901134490967,
                -9.444747924804688,
                344.4967956542969
            ],
            [
                4.933853626251221,
                -9.986799240112305,
                364.4967956542969
            ],
            [
                5.174830913543701,
                -10.528851509094238,
                384.4967956542969
            ],
            [
                5.415860652923584,
                -11.070903778076172,
                404.4967956542969
            ],
            [
                5.6569342613220215,
                -11.612956047058105,
                424.4967956542969
            ],
            [
                5.898053169250488,
                -12.155009269714355,
                444.4967956542969
            ],
            [
                6.139218330383301,
                -12.697061538696289,
                464.4967956542969
            ],
            [
                6.380431652069092,
                -13.239114761352539,
                484.4967956542969
            ],
            [
                6.621696472167969,
                -13.781167984008789,
                504.4967956542969
            ],
            [
                6.863013744354248,
                -14.323222160339355,
                524.496826171875
            ],
            [
                7.104384899139404,
                -14.865275382995605,
                544.496826171875
            ],
            [
                7.345810413360596,
                -15.407329559326172,
                564.496826171875
            ],
            [
                7.587292671203613,
                -15.949382781982422,
                584.496826171875
            ],
            [
                7.828833103179932,
                -16.491437911987305,
                604.496826171875
            ],
            [
                8.0704345703125,
                -17.033491134643555,
                624.496826171875
            ],
            [
                8.31209659576416,
                -17.575544357299805,
                644.496826171875
            ],
            [
                8.553827285766602,
                -18.117599487304688,
                664.496826171875
            ],
            [
                8.795626640319824,
                -18.659652709960938,
                684.496826171875
            ],
            [
                9.03749942779541,
                -19.20170783996582,
                704.496826171875
            ],
            [
                9.27944564819336,
                -19.743762969970703,
                724.496826171875
            ],
            [
                9.521465301513672,
                -20.285816192626953,
                744.496826171875
            ],
            [
                9.763559341430664,
                -20.827871322631836,
                764.496826171875
            ],
            [
                10.005730628967285,
                -21.36992645263672,
                784.496826171875
            ],
            [
                10.247980117797852,
                -21.9119815826416,
                804.496826171875
            ],
            [
                10.490311622619629,
                -22.45403480529785,
                824.496826171875
            ],
            [
                10.732733726501465,
                -22.9960880279541,
                844.496826171875
            ],
            [
                10.975241661071777,
                -23.53813934326172,
                864.496826171875
            ],
            [
                11.217836380004883,
                -24.08019256591797,
                884.496826171875
            ],
            [
                11.460517883300781,
                -24.622243881225586,
                904.496826171875
            ],
            [
                11.703285217285156,
                -25.164295196533203,
                924.496826171875
            ],
            [
                11.946144104003906,
                -25.706344604492188,
                944.496826171875
            ],
            [
                12.18909740447998,
                -26.248395919799805,
                964.496826171875
            ],
            [
                12.432146072387695,
                -26.79044532775879,
                984.496826171875
            ],
            [
                12.67526912689209,
                -27.33249855041504,
                1004.496826171875
            ],
            [
                13.892420768737793,
                -30.042757034301758,
                1104.496826171875
            ],
            [
                15.112170219421387,
                -32.753013610839844,
                1204.496826171875
            ],
            [
                16.334814071655273,
                -35.46322250366211,
                1304.496826171875
            ],
            [
                17.55974006652832,
                -38.17345428466797,
                1404.496826171875
            ],
            [
                18.78701400756836,
                -40.883670806884766,
                1504.496826171875
            ],
            [
                20.016908645629883,
                -43.5938835144043,
                1604.496826171875
            ],
            [
                21.24976348876953,
                -46.30408477783203,
                1704.496826171875
            ],
            [
                22.484899520874023,
                -49.014305114746094,
                1804.496826171875
            ],
            [
                23.723976135253906,
                -51.724517822265625,
                1904.496826171875
            ],
            [
                24.966501235961914,
                -54.434730529785156,
                2004.496826171875
            ],
            [
                26.21356773376465,
                -57.14494323730469,
                2104.496826171875
            ],
            [
                27.46565055847168,
                -59.85515213012695,
                2204.496826171875
            ],
            [
                28.72528648376465,
                -62.56523132324219,
                2304.496826171875
            ],
            [
                29.991804122924805,
                -65.27538299560547,
                2404.496826171875
            ],
            [
                31.26793098449707,
                -67.98555755615234,
                2504.496826171875
            ],
            [
                32.55540466308594,
                -70.69570922851563,
                2604.496826171875
            ],
            [
                33.85639953613281,
                -73.40583801269531,
                2704.496826171875
            ],
            [
                35.17346954345703,
                -76.115966796875,
                2804.496826171875
            ],
            [
                36.50904083251953,
                -78.82609558105469,
                2904.496826171875
            ],
            [
                37.86783981323242,
                -81.53617858886719,
                3004.496826171875
            ],
            [
                39.2515869140625,
                -84.24626922607422,
                3104.496826171875
            ],
            [
                40.66424560546875,
                -86.95645141601563,
                3204.496826171875
            ],
            [
                42.11341094970703,
                -89.66663360595703,
                3304.496826171875
            ],
            [
                43.59978485107422,
                -92.37694549560547,
                3404.496826171875
            ],
            [
                45.127601623535156,
                -95.08726501464844,
                3504.496826171875
            ],
            [
                46.70077133178711,
                -97.7976303100586,
                3604.496826171875
            ],
            [
                48.32358169555664,
                -100.50799560546875,
                3704.496826171875
            ],
            [
                50.001338958740234,
                -103.21849822998047,
                3804.496826171875
            ],
            [
                51.737911224365234,
                -105.9290542602539,
                3904.496826171875
            ],
            [
                53.534358978271484,
                -108.6393814086914,
                4004.496826171875
            ],
            [
                55.397647857666016,
                -111.34972381591797,
                4104.49658203125
            ],
            [
                57.3325080871582,
                -114.06005096435547,
                4204.49658203125
            ],
            [
                59.33671569824219,
                -116.7704849243164,
                4304.49658203125
            ],
            [
                61.40962600708008,
                -119.48077392578125,
                4404.49658203125
            ],
            [
                63.5579719543457,
                -122.19075012207031,
                4504.49658203125
            ],
            [
                65.78034210205078,
                -124.90093231201172,
                4604.49658203125
            ],
            [
                68.07849884033203,
                -127.6109390258789,
                4704.49658203125
            ],
            [
                70.44895935058594,
                -130.32101440429688,
                4804.49658203125
            ],
            [
                74.94098663330078,
                -133.6946563720703,
                4904.49658203125
            ],
            [
                77.4456558227539,
                -136.43124389648438,
                5004.49658203125
            ],
            [
                80.02613830566406,
                -139.1676483154297,
                5104.49658203125
            ],
            [
                82.6787109375,
                -141.90390014648438,
                5204.49658203125
            ],
            [
                85.40462493896484,
                -144.63973999023438,
                5304.49658203125
            ],
            [
                88.20116424560547,
                -147.375732421875,
                5404.49658203125
            ],
            [
                91.06835174560547,
                -150.11203002929688,
                5504.49658203125
            ],
            [
                94.00279998779297,
                -152.84767150878906,
                5604.49658203125
            ],
            [
                97.00545501708984,
                -155.58331298828125,
                5704.49658203125
            ],
            [
                100.074462890625,
                -158.31869506835938,
                5804.49658203125
            ],
            [
                103.2057113647461,
                -161.0539093017578,
                5904.49658203125
            ],
            [
                106.40129089355469,
                -163.78892517089844,
                6004.49658203125
            ],
            [
                109.6572265625,
                -166.5236358642578,
                6104.49658203125
            ],
            [
                112.97185516357422,
                -169.25819396972656,
                6204.49658203125
            ],
            [
                116.34342193603516,
                -171.9927215576172,
                6304.49658203125
            ],
            [
                119.76948547363281,
                -174.72711181640625,
                6404.49658203125
            ],
            [
                123.24899291992188,
                -177.46139526367188,
                6504.49658203125
            ],
            [
                126.77853393554688,
                -180.1954803466797,
                6604.49658203125
            ],
            [
                130.35635375976563,
                -182.9293670654297,
                6704.49658203125
            ],
            [
                133.9792022705078,
                -185.66310119628906,
                6804.49658203125
            ],
            [
                137.64646911621094,
                -188.39669799804688,
                6904.49658203125
            ],
            [
                141.35507202148438,
                -191.13014221191406,
                7004.49658203125
            ],
            [
                145.1021270751953,
                -193.8634490966797,
                7104.49658203125
            ],
            [
                148.88548278808594,
                -196.59658813476563,
                7204.49658203125
            ],
            [
                152.703125,
                -199.3295440673828,
                7304.49658203125
            ],
            [
                156.5531768798828,
                -202.06236267089844,
                7404.49658203125
            ],
            [
                160.43222045898438,
                -204.79498291015625,
                7504.49658203125
            ],
            [
                164.33929443359375,
                -207.52745056152344,
                7604.49658203125
            ],
            [
                168.27154541015625,
                -210.25973510742188,
                7704.49658203125
            ],
            [
                172.22796630859375,
                -212.99183654785156,
                7804.49658203125
            ],
            [
                176.20648193359375,
                -215.72377014160156,
                7904.49658203125
            ],
            [
                180.20518493652344,
                -218.4555206298828,
                8004.49658203125
            ],
            [
                184.222900390625,
                -221.1870880126953,
                8104.49658203125
            ],
            [
                188.25759887695313,
                -223.91851806640625,
                8204.4970703125
            ],
            [
                192.30812072753906,
                -226.6497802734375,
                8304.4970703125
            ],
            [
                196.37326049804688,
                -229.38092041015625,
                8404.4970703125
            ],
            [
                200.45187377929688,
                -232.11192321777344,
                8504.4970703125
            ],
            [
                204.5424346923828,
                -234.84280395507813,
                8604.4970703125
            ],
            [
                208.644287109375,
                -237.57359313964844,
                8704.4970703125
            ],
            [
                212.75637817382813,
                -240.3042755126953,
                8804.4970703125
            ],
            [
                216.87779235839844,
                -243.03488159179688,
                8904.4970703125
            ],
            [
                221.00782775878906,
                -245.76539611816406,
                9004.4970703125
            ],
            [
                225.14572143554688,
                -248.49583435058594,
                9104.4970703125
            ],
            [
                229.29074096679688,
                -251.22621154785156,
                9204.4970703125
            ],
            [
                233.44232177734375,
                -253.95651245117188,
                9304.4970703125
            ],
            [
                237.59986877441406,
                -256.686767578125,
                9404.4970703125
            ],
            [
                241.7628173828125,
                -259.4169616699219,
                9504.4970703125
            ],
            [
                245.93075561523438,
                -262.1471252441406,
                9604.4970703125
            ],
            [
                250.1031951904297,
                -264.87725830078125,
                9704.4970703125
            ],
            [
                254.27976989746094,
                -267.6073303222656,
                9804.4970703125
            ],
            [
                258.4600830078125,
                -270.33740234375,
                9904.4970703125
            ],
            [
                262.6438293457031,
                -273.0674133300781,
                10004.4970703125
            ],
            [
                271.0203857421875,
                -278.52740478515625,
                10204.4970703125
            ],
            [
                279.40740966796875,
                -283.9873352050781,
                10404.4970703125
            ],
            [
                287.8029479980469,
                -289.4472351074219,
                10604.4970703125
            ],
            [
                296.205810546875,
                -294.9070739746094,
                10804.4970703125
            ],
            [
                304.61444091796875,
                -300.3669128417969,
                11004.4970703125
            ],
            [
                313.02801513671875,
                -305.82672119140625,
                11204.4970703125
            ],
            [
                321.4458312988281,
                -311.2865295410156,
                11404.4970703125
            ],
            [
                329.8667907714844,
                -316.746337890625,
                11604.4970703125
            ],
            [
                338.29052734375,
                -322.2061462402344,
                11804.4970703125
            ],
            [
                346.7164001464844,
                -327.66595458984375,
                12004.4970703125
            ],
            [
                355.1444396972656,
                -333.1257629394531,
                12204.4970703125
            ],
            [
                363.57391357421875,
                -338.5856018066406,
                12404.4970703125
            ],
            [
                372.00421142578125,
                -344.0454406738281,
                12604.4970703125
            ],
            [
                380.4354248046875,
                -349.5052795410156,
                12804.4970703125
            ],
            [
                388.8676452636719,
                -354.96514892578125,
                13004.4970703125
            ],
            [
                397.3005676269531,
                -360.42498779296875,
                13204.4970703125
            ],
            [
                405.73382568359375,
                -365.8848571777344,
                13404.4970703125
            ]
        ],
        "zFirstMeasurement": 274.1327
    },
    {
        "E": 2642.6682114002188,
        "chi2": 1.6145498752593994,
        "ip": 1.7334616536490803,
        "ipchi2": 178.7450732223455,
        "mass": 139.57018,
        "particleId": "pi+",
        "pvx": 0.5482,
        "pvy": 0.0647,
        "pvz": -5.5987,
        "px": -90.77485624495692,
        "py": 398.7320107286915,
        "pz": 2607.1034021484384,
        "q": 1.0,
        "trajectory": [
            [
                4.614622592926025,
                -15.945972442626953,
                -100.0
            ],
            [
                4.440145492553711,
                -15.181262969970703,
                -95.0
            ],
            [
                4.265567779541016,
                -14.41655445098877,
                -90.0
            ],
            [
                4.091141223907471,
                -13.651845932006836,
                -85.0
            ],
            [
                3.9167304039001465,
                -12.887137413024902,
                -80.0
            ],
            [
                3.7423348426818848,
                -12.122429847717285,
                -75.0
            ],
            [
                3.567955255508423,
                -11.357722282409668,
                -70.0
            ],
            [
                3.3935916423797607,
                -10.59301471710205,
                -65.0
            ],
            [
                3.2192444801330566,
                -9.82830810546875,
                -60.0
            ],
            [
                3.0449142456054688,
                -9.06360149383545,
                -55.0
            ],
            [
                2.870600700378418,
                -8.298894882202148,
                -50.0
            ],
            [
                2.6963045597076416,
                -7.534188747406006,
                -45.0
            ],
            [
                2.5220260620117188,
                -6.769482612609863,
                -40.0
            ],
            [
                2.3477654457092285,
                -6.004777431488037,
                -35.0
            ],
            [
                2.17352294921875,
                -5.240071773529053,
                -30.0
            ],
            [
                1.9992989301681519,
                -4.475367069244385,
                -25.0
            ],
            [
                1.8250936269760132,
                -3.7106621265411377,
                -20.0
            ],
            [
                1.6509073972702026,
                -2.945957660675049,
                -15.0
            ],
            [
                1.4767404794692993,
                -2.181253671646118,
                -10.0
            ],
            [
                1.3025932312011719,
                -1.4165496826171875,
                -5.0
            ],
            [
                1.1284657716751099,
                -0.6518461108207703,
                0.0
            ],
            [
                0.9543586373329163,
                0.11285721510648727,
                5.0
            ],
            [
                0.7802720069885254,
                0.8775602579116821,
                10.0
            ],
            [
                0.6062061786651611,
                1.6422629356384277,
                15.0
            ],
            [
                0.4321615993976593,
                2.406965494155884,
                20.0
            ],
            [
                0.2581385374069214,
                3.1716675758361816,
                25.0
            ],
            [
                0.08413732796907425,
                3.9363694190979004,
                30.0
            ],
            [
                -0.08984167128801346,
                4.701071262359619,
                35.0
            ],
            [
                -0.26379814743995667,
                5.4657721519470215,
                40.0
            ],
            [
                -0.4377317428588867,
                6.230473041534424,
                45.0
            ],
            [
                -0.6116421222686768,
                6.995173931121826,
                50.0
            ],
            [
                -0.7855290174484253,
                7.75987434387207,
                55.0
            ],
            [
                -0.9594498872756958,
                8.524601936340332,
                60.0
            ],
            [
                -1.1332902908325195,
                9.289301872253418,
                65.0
            ],
            [
                -1.3071084022521973,
                10.054000854492188,
                70.0
            ],
            [
                -1.48090398311615,
                10.818699836730957,
                75.0
            ],
            [
                -1.6546765565872192,
                11.583398818969727,
                80.0
            ],
            [
                -1.8284258842468262,
                12.348097801208496,
                85.0
            ],
            [
                -2.0021517276763916,
                13.11279582977295,
                90.0
            ],
            [
                -2.1758532524108887,
                13.877492904663086,
                95.0
            ],
            [
                -2.3495309352874756,
                14.642190933227539,
                100.0
            ],
            [
                -3.0439910888671875,
                17.700977325439453,
                120.0
            ],
            [
                -3.7380311489105225,
                20.75975799560547,
                140.0
            ],
            [
                -4.431624412536621,
                23.81853485107422,
                160.0
            ],
            [
                -5.124743461608887,
                26.877304077148438,
                180.0
            ],
            [
                -5.817362308502197,
                29.93606948852539,
                200.0
            ],
            [
                -6.509705066680908,
                32.99482727050781,
                220.0
            ],
            [
                -7.201403617858887,
                36.05358123779297,
                240.0
            ],
            [
                -7.892578601837158,
                39.112327575683594,
                260.0
            ],
            [
                -8.58320426940918,
                42.17107009887695,
                280.0
            ],
            [
                -9.273265838623047,
                45.229801177978516,
                300.0
            ],
            [
                -9.962742805480957,
                48.28852844238281,
                320.0
            ],
            [
                -10.651618003845215,
                51.347251892089844,
                340.0
            ],
            [
                -11.339874267578125,
                54.40596389770508,
                360.0
            ],
            [
                -12.027491569519043,
                57.46467208862305,
                380.0
            ],
            [
                -12.714452743530273,
                60.523372650146484,
                400.0
            ],
            [
                -13.400700569152832,
                63.58206558227539,
                420.0
            ],
            [
                -14.086204528808594,
                66.6407470703125,
                440.0
            ],
            [
                -14.770966529846191,
                69.69942474365234,
                460.0
            ],
            [
                -15.454973220825195,
                72.75809478759766,
                480.0
            ],
            [
                -16.138206481933594,
                75.8167495727539,
                500.0
            ],
            [
                -16.82062339782715,
                78.87540435791016,
                520.0
            ],
            [
                -17.502222061157227,
                81.93404388427734,
                540.0
            ],
            [
                -18.1829833984375,
                84.99267578125,
                560.0
            ],
            [
                -18.86288833618164,
                88.05130004882813,
                580.0
            ],
            [
                -19.541841506958008,
                91.10990905761719,
                600.0
            ],
            [
                -20.219654083251953,
                94.16851806640625,
                620.0
            ],
            [
                -20.89649772644043,
                97.22711181640625,
                640.0
            ],
            [
                -21.572345733642578,
                100.28569793701172,
                660.0
            ],
            [
                -22.247182846069336,
                103.34426879882813,
                680.0
            ],
            [
                -22.920978546142578,
                106.40283203125,
                700.0
            ],
            [
                -23.59370994567871,
                109.46139526367188,
                720.0
            ],
            [
                -24.265352249145508,
                112.51994323730469,
                740.0
            ],
            [
                -24.935791015625,
                115.57848358154297,
                760.0
            ],
            [
                -25.604841232299805,
                118.63703155517578,
                780.0
            ],
            [
                -26.272693634033203,
                121.69556427001953,
                800.0
            ],
            [
                -26.939348220825195,
                124.75409698486328,
                820.0
            ],
            [
                -27.604759216308594,
                127.8126220703125,
                840.0
            ],
            [
                -28.268898010253906,
                130.8711395263672,
                860.0
            ],
            [
                -28.931743621826172,
                133.92965698242188,
                880.0
            ],
            [
                -29.5932674407959,
                136.98817443847656,
                900.0
            ],
            [
                -30.25369644165039,
                140.04666137695313,
                920.0
            ],
            [
                -30.912410736083984,
                143.10516357421875,
                940.0
            ],
            [
                -31.56950569152832,
                146.16368103027344,
                960.0
            ],
            [
                -32.22514724731445,
                149.22219848632813,
                980.0
            ],
            [
                -32.87930679321289,
                152.28070068359375,
                1000.0
            ],
            [
                -36.12974548339844,
                167.5731964111328,
                1100.0
            ],
            [
                -39.321170806884766,
                182.86663818359375,
                1200.0
            ],
            [
                -42.482452392578125,
                198.16029357910156,
                1300.0
            ],
            [
                -45.60508728027344,
                213.45413208007813,
                1400.0
            ],
            [
                -48.68679428100586,
                228.74827575683594,
                1500.0
            ],
            [
                -51.738258361816406,
                244.04273986816406,
                1600.0
            ],
            [
                -54.751502990722656,
                259.3371276855469,
                1700.0
            ],
            [
                -57.7257080078125,
                274.63128662109375,
                1800.0
            ],
            [
                -60.6556510925293,
                289.9247741699219,
                1900.0
            ],
            [
                -63.54814910888672,
                305.2164611816406,
                2000.0
            ],
            [
                -66.3820571899414,
                320.5067138671875,
                2100.0
            ],
            [
                -69.13005065917969,
                335.7950744628906,
                2200.0
            ],
            [
                -71.84761810302734,
                351.08111572265625,
                2300.0
            ],
            [
                -74.46849060058594,
                366.3642883300781,
                2400.0
            ],
            [
                -76.99571990966797,
                381.642822265625,
                2500.0
            ],
            [
                -79.3795394897461,
                396.916748046875,
                2600.0
            ],
            [
                -81.62061309814453,
                412.1849365234375,
                2700.0
            ],
            [
                -83.65645599365234,
                427.4471435546875,
                2800.0
            ],
            [
                -85.46434020996094,
                442.7016296386719,
                2900.0
            ],
            [
                -86.99027252197266,
                457.9482421875,
                3000.0
            ],
            [
                -88.19945526123047,
                473.1876525878906,
                3100.0
            ],
            [
                -88.94422912597656,
                488.4219055175781,
                3200.0
            ],
            [
                -89.30751037597656,
                503.648681640625,
                3300.0
            ],
            [
                -89.12053680419922,
                518.8743286132813,
                3400.0
            ],
            [
                -88.31874084472656,
                534.1009521484375,
                3500.0
            ],
            [
                -86.84161376953125,
                549.32421875,
                3600.0
            ],
            [
                -84.5644760131836,
                564.554931640625,
                3700.0
            ],
            [
                -81.3493423461914,
                579.7999267578125,
                3800.0
            ],
            [
                -77.18596649169922,
                595.0618896484375,
                3900.0
            ],
            [
                -71.87084197998047,
                610.3489990234375,
                4000.0
            ],
            [
                -65.50180053710938,
                625.65771484375,
                4100.0
            ],
            [
                -57.699310302734375,
                641.0025634765625,
                4200.0
            ],
            [
                -48.66473388671875,
                656.3925170898438,
                4300.0
            ],
            [
                -38.3511962890625,
                671.8059692382813,
                4400.0
            ],
            [
                -26.637014389038086,
                687.2540893554688,
                4500.0
            ],
            [
                -13.60315990447998,
                702.7347412109375,
                4600.0
            ],
            [
                1.0275757312774658,
                718.2545776367188,
                4700.0
            ],
            [
                16.76666831970215,
                744.4088745117188,
                4800.0
            ],
            [
                34.16493606567383,
                760.0450439453125,
                4900.0
            ],
            [
                52.959346771240234,
                775.7279052734375,
                5000.0
            ],
            [
                73.15802001953125,
                791.4027709960938,
                5100.0
            ],
            [
                94.62122344970703,
                807.0979614257813,
                5200.0
            ],
            [
                117.44621276855469,
                822.8153686523438,
                5300.0
            ],
            [
                141.60777282714844,
                838.5332641601563,
                5400.0
            ],
            [
                167.11849975585938,
                854.224609375,
                5500.0
            ],
            [
                193.89808654785156,
                869.9630126953125,
                5600.0
            ],
            [
                222.03289794921875,
                885.6692504882813,
                5700.0
            ],
            [
                251.43963623046875,
                901.369384765625,
                5800.0
            ],
            [
                282.1338806152344,
                917.0758666992188,
                5900.0
            ],
            [
                314.1600341796875,
                932.7362060546875,
                6000.0
            ],
            [
                347.379638671875,
                948.384033203125,
                6100.0
            ],
            [
                381.8764343261719,
                963.9738159179688,
                6200.0
            ],
            [
                417.6165466308594,
                979.496826171875,
                6300.0
            ],
            [
                454.59930419921875,
                994.9605102539063,
                6400.0
            ],
            [
                492.7733459472656,
                1010.3385009765625,
                6500.0
            ],
            [
                532.0930786132813,
                1025.6180419921875,
                6600.0
            ],
            [
                572.5407104492188,
                1040.7642822265625,
                6700.0
            ],
            [
                614.0289916992188,
                1055.785400390625,
                6800.0
            ],
            [
                656.5335083007813,
                1070.642822265625,
                6900.0
            ],
            [
                699.9506225585938,
                1085.3358154296875,
                7000.0
            ],
            [
                744.2308349609375,
                1099.85107421875,
                7100.0
            ],
            [
                789.2882080078125,
                1114.1866455078125,
                7200.0
            ],
            [
                835.0372314453125,
                1128.343017578125,
                7300.0
            ],
            [
                881.4431762695313,
                1142.31201171875,
                7400.0
            ],
            [
                928.3778076171875,
                1156.12158203125,
                7500.0
            ],
            [
                975.8314208984375,
                1169.7537841796875,
                7600.0
            ],
            [
                1023.7168579101563,
                1183.2320556640625,
                7700.0
            ],
            [
                1072.0003662109375,
                1196.5601806640625,
                7800.0
            ],
            [
                1120.62841796875,
                1209.75146484375,
                7900.0
            ],
            [
                1169.556640625,
                1222.8203125,
                8000.0
            ],
            [
                1218.758056640625,
                1235.7734375,
                8100.0
            ],
            [
                1268.1893310546875,
                1248.629150390625,
                8200.0
            ],
            [
                1317.826904296875,
                1261.39599609375,
                8300.0
            ],
            [
                1367.650146484375,
                1274.0826416015625,
                8400.0
            ],
            [
                1417.63818359375,
                1286.6998291015625,
                8500.0
            ],
            [
                1467.764404296875,
                1299.2586669921875,
                8600.0
            ],
            [
                1518.019775390625,
                1311.765380859375,
                8700.0
            ],
            [
                1568.3883056640625,
                1324.227783203125,
                8800.0
            ],
            [
                1618.858154296875,
                1336.654052734375,
                8900.0
            ],
            [
                1669.4195556640625,
                1349.048828125,
                9000.0
            ],
            [
                1720.06201171875,
                1361.4178466796875,
                9100.0
            ],
            [
                1770.7764892578125,
                1373.7659912109375,
                9200.0
            ],
            [
                1821.5556640625,
                1386.096923828125,
                9300.0
            ],
            [
                1872.392333984375,
                1398.4139404296875,
                9400.0
            ],
            [
                1923.2803955078125,
                1410.72021484375,
                9500.0
            ],
            [
                1974.214599609375,
                1423.0177001953125,
                9600.0
            ],
            [
                2025.18994140625,
                1435.30859375,
                9700.0
            ],
            [
                2076.202392578125,
                1447.5943603515625,
                9800.0
            ],
            [
                2127.248046875,
                1459.87646484375,
                9900.0
            ],
            [
                2178.3232421875,
                1472.1558837890625,
                10000.0
            ],
            [
                2280.5517578125,
                1496.7098388671875,
                10200.0
            ],
            [
                2382.8671875,
                1521.2611083984375,
                10400.0
            ],
            [
                2485.251708984375,
                1545.8138427734375,
                10600.0
            ],
            [
                2587.692626953125,
                1570.36865234375,
                10800.0
            ],
            [
                2690.177001953125,
                1594.9271240234375,
                11000.0
            ],
            [
                2792.696533203125,
                1619.4903564453125,
                11200.0
            ],
            [
                2895.24462890625,
                1644.0570068359375,
                11400.0
            ],
            [
                2997.810791015625,
                1668.63232421875,
                11600.0
            ],
            [
                3100.391357421875,
                1693.212646484375,
                11800.0
            ],
            [
                3202.98095703125,
                1717.800048828125,
                12000.0
            ],
            [
                3305.578857421875,
                1742.3941650390625,
                12200.0
            ],
            [
                3408.1845703125,
                1766.9893798828125,
                12400.0
            ],
            [
                3510.7890625,
                1791.5946044921875,
                12600.0
            ],
            [
                3613.394775390625,
                1816.203369140625,
                12800.0
            ],
            [
                3716.00048828125,
                1840.8179931640625,
                13000.0
            ],
            [
                3818.6103515625,
                1865.431884765625,
                13200.0
            ],
            [
                3921.2216796875,
                1890.0467529296875,
                13400.0
            ]
        ],
        "zFirstMeasurement": 109.4064
    },
    {
        "E": 3004.84315649673,
        "chi2": 2.1362855434417725,
        "ip": 1.2430451895914247,
        "ipchi2": 762.472496490389,
        "mass": 139.57018,
        "particleId": "pi-",
        "pvx": 0.5482,
        "pvy": 0.0647,
        "pvz": -5.5987,
        "px": 301.2760303760329,
        "py": 287.2024345774558,
        "pz": 2972.599884796748,
        "q": -1.0,
        "trajectory": [
            [
                -10.257089614868164,
                -9.2599458694458,
                -100.0
            ],
            [
                -9.750042915344238,
                -8.776870727539063,
                -95.0
            ],
            [
                -9.243010520935059,
                -8.293795585632324,
                -90.0
            ],
            [
                -8.735990524291992,
                -7.8107194900512695,
                -85.0
            ],
            [
                -8.228983879089355,
                -7.327642917633057,
                -80.0
            ],
            [
                -7.721990585327148,
                -6.844566345214844,
                -75.0
            ],
            [
                -7.2150115966796875,
                -6.3614888191223145,
                -70.0
            ],
            [
                -6.708046913146973,
                -5.878411293029785,
                -65.0
            ],
            [
                -6.201097011566162,
                -5.3953328132629395,
                -60.0
            ],
            [
                -5.694161415100098,
                -4.912254333496094,
                -55.0
            ],
            [
                -5.1872406005859375,
                -4.42917537689209,
                -50.0
            ],
            [
                -4.680335521697998,
                -3.9460959434509277,
                -45.0
            ],
            [
                -4.173445701599121,
                -3.4630162715911865,
                -40.0
            ],
            [
                -3.666571617126465,
                -2.979936122894287,
                -35.0
            ],
            [
                -3.1597137451171875,
                -2.4968554973602295,
                -30.0
            ],
            [
                -2.652872085571289,
                -2.0137743949890137,
                -25.0
            ],
            [
                -2.1460468769073486,
                -1.5306930541992188,
                -20.0
            ],
            [
                -1.6392385959625244,
                -1.0476112365722656,
                -15.0
            ],
            [
                -1.132447361946106,
                -0.5645291209220886,
                -10.0
            ],
            [
                -0.6256735324859619,
                -0.08144659548997879,
                -5.0
            ],
            [
                -0.11891724914312363,
                0.4016362726688385,
                0.0
            ],
            [
                0.38782116770744324,
                0.8847194910049438,
                5.0
            ],
            [
                0.8945413827896118,
                1.3678030967712402,
                10.0
            ],
            [
                1.4012432098388672,
                1.8508870601654053,
                15.0
            ],
            [
                1.9079262018203735,
                2.3339712619781494,
                20.0
            ],
            [
                2.4145901203155518,
                2.8170559406280518,
                25.0
            ],
            [
                2.921234607696533,
                3.300140857696533,
                30.0
            ],
            [
                3.4277915954589844,
                3.7832460403442383,
                35.0
            ],
            [
                3.9343981742858887,
                4.266331672668457,
                40.0
            ],
            [
                4.440985679626465,
                4.749417781829834,
                45.0
            ],
            [
                4.947554111480713,
                5.232504367828369,
                50.0
            ],
            [
                5.454102993011475,
                5.715590953826904,
                55.0
            ],
            [
                5.960631847381592,
                6.198678016662598,
                60.0
            ],
            [
                6.4671406745910645,
                6.681765079498291,
                65.0
            ],
            [
                6.973628997802734,
                7.164852619171143,
                70.0
            ],
            [
                7.480096340179443,
                7.647940635681152,
                75.0
            ],
            [
                7.986542701721191,
                8.13102912902832,
                80.0
            ],
            [
                8.49296760559082,
                8.614117622375488,
                85.0
            ],
            [
                8.999371528625488,
                9.097206115722656,
                90.0
            ],
            [
                9.505752563476563,
                9.58029556274414,
                95.0
            ],
            [
                10.01211166381836,
                10.063385009765625,
                100.0
            ],
            [
                12.03731918334961,
                11.995745658874512,
                120.0
            ],
            [
                14.062143325805664,
                13.928110122680664,
                140.0
            ],
            [
                16.086549758911133,
                15.860477447509766,
                160.0
            ],
            [
                18.11075782775879,
                17.7928524017334,
                180.0
            ],
            [
                20.13442039489746,
                19.72522735595703,
                200.0
            ],
            [
                22.15764617919922,
                21.65760612487793,
                220.0
            ],
            [
                24.180421829223633,
                23.58998680114746,
                240.0
            ],
            [
                26.202733993530273,
                25.522369384765625,
                260.0
            ],
            [
                28.224563598632813,
                27.454753875732422,
                280.0
            ],
            [
                30.245887756347656,
                29.38713836669922,
                300.0
            ],
            [
                32.26668167114258,
                31.31952476501465,
                320.0
            ],
            [
                34.28693771362305,
                33.25191116333008,
                340.0
            ],
            [
                36.306640625,
                35.184295654296875,
                360.0
            ],
            [
                38.325767517089844,
                37.11668014526367,
                380.0
            ],
            [
                40.34430694580078,
                39.04906463623047,
                400.0
            ],
            [
                42.36222457885742,
                40.9814453125,
                420.0
            ],
            [
                44.379512786865234,
                42.91382598876953,
                440.0
            ],
            [
                46.39615249633789,
                44.8462028503418,
                460.0
            ],
            [
                48.41209030151367,
                46.7785758972168,
                480.0
            ],
            [
                50.42733383178711,
                48.71094512939453,
                500.0
            ],
            [
                52.44180679321289,
                50.643306732177734,
                520.0
            ],
            [
                54.45547866821289,
                52.57566452026367,
                540.0
            ],
            [
                56.468387603759766,
                54.50801467895508,
                560.0
            ],
            [
                58.480506896972656,
                56.44035720825195,
                580.0
            ],
            [
                60.4918212890625,
                58.3726921081543,
                600.0
            ],
            [
                62.50224685668945,
                60.30502700805664,
                620.0
            ],
            [
                64.51166534423828,
                62.23735427856445,
                640.0
            ],
            [
                66.52014923095703,
                64.16967010498047,
                660.0
            ],
            [
                68.52771759033203,
                66.10198974609375,
                680.0
            ],
            [
                70.53433990478516,
                68.03429412841797,
                700.0
            ],
            [
                72.54011535644531,
                69.96661376953125,
                720.0
            ],
            [
                74.544921875,
                71.89893341064453,
                740.0
            ],
            [
                76.54874420166016,
                73.83124542236328,
                760.0
            ],
            [
                78.55155944824219,
                75.76355743408203,
                780.0
            ],
            [
                80.55306243896484,
                77.69584655761719,
                800.0
            ],
            [
                82.55318450927734,
                79.62810516357422,
                820.0
            ],
            [
                84.55216979980469,
                81.56036376953125,
                840.0
            ],
            [
                86.54987335205078,
                83.49259948730469,
                860.0
            ],
            [
                88.54627227783203,
                85.4248275756836,
                880.0
            ],
            [
                90.54143524169922,
                87.35704040527344,
                900.0
            ],
            [
                92.5355224609375,
                89.28924560546875,
                920.0
            ],
            [
                94.5283432006836,
                91.22144317626953,
                940.0
            ],
            [
                96.519775390625,
                93.15362548828125,
                960.0
            ],
            [
                98.50931549072266,
                95.0858383178711,
                980.0
            ],
            [
                100.49742889404297,
                97.0180435180664,
                1000.0
            ],
            [
                110.41284942626953,
                106.67939758300781,
                1100.0
            ],
            [
                120.29558563232422,
                116.34142303466797,
                1200.0
            ],
            [
                130.14120483398438,
                126.00364685058594,
                1300.0
            ],
            [
                139.9490966796875,
                135.6665802001953,
                1400.0
            ],
            [
                149.719482421875,
                145.330078125,
                1500.0
            ],
            [
                159.4649200439453,
                154.99342346191406,
                1600.0
            ],
            [
                169.16969299316406,
                164.65682983398438,
                1700.0
            ],
            [
                178.83734130859375,
                174.3194122314453,
                1800.0
            ],
            [
                188.46173095703125,
                183.98086547851563,
                1900.0
            ],
            [
                198.0340576171875,
                193.64060974121094,
                2000.0
            ],
            [
                207.53521728515625,
                203.29757690429688,
                2100.0
            ],
            [
                216.97784423828125,
                212.95228576660156,
                2200.0
            ],
            [
                226.35476684570313,
                222.6009521484375,
                2300.0
            ],
            [
                235.63775634765625,
                232.24493408203125,
                2400.0
            ],
            [
                244.797119140625,
                241.88096618652344,
                2500.0
            ],
            [
                253.81072998046875,
                251.5057373046875,
                2600.0
            ],
            [
                262.654052734375,
                261.1204833984375,
                2700.0
            ],
            [
                271.299560546875,
                270.72216796875,
                2800.0
            ],
            [
                279.69171142578125,
                280.30755615234375,
                2900.0
            ],
            [
                287.8117980957031,
                289.87420654296875,
                3000.0
            ],
            [
                295.5343017578125,
                299.423583984375,
                3100.0
            ],
            [
                302.9145202636719,
                308.9530029296875,
                3200.0
            ],
            [
                309.8503112792969,
                318.4627380371094,
                3300.0
            ],
            [
                316.26568603515625,
                327.9476318359375,
                3400.0
            ],
            [
                322.0953369140625,
                337.4087829589844,
                3500.0
            ],
            [
                327.3191833496094,
                346.85565185546875,
                3600.0
            ],
            [
                331.7883605957031,
                356.284912109375,
                3700.0
            ],
            [
                335.5245666503906,
                365.6983337402344,
                3800.0
            ],
            [
                338.3934631347656,
                375.0895690917969,
                3900.0
            ],
            [
                340.3748474121094,
                384.4696044921875,
                4000.0
            ],
            [
                341.3738098144531,
                393.85418701171875,
                4100.0
            ],
            [
                341.4098815917969,
                403.2253723144531,
                4200.0
            ],
            [
                340.38104248046875,
                412.5839538574219,
                4300.0
            ],
            [
                338.2392578125,
                421.9443359375,
                4400.0
            ],
            [
                335.11810302734375,
                431.30853271484375,
                4500.0
            ],
            [
                330.76171875,
                440.6782531738281,
                4600.0
            ],
            [
                325.4517517089844,
                450.046875,
                4700.0
            ],
            [
                300.46832275390625,
                445.9148254394531,
                4800.0
            ],
            [
                292.3583679199219,
                455.4604797363281,
                4900.0
            ],
            [
                283.16400146484375,
                464.99249267578125,
                5000.0
            ],
            [
                272.83416748046875,
                474.5345153808594,
                5100.0
            ],
            [
                261.4435729980469,
                484.072509765625,
                5200.0
            ],
            [
                249.0014190673828,
                493.6187438964844,
                5300.0
            ],
            [
                235.4754638671875,
                503.15155029296875,
                5400.0
            ],
            [
                220.95274353027344,
                512.6842651367188,
                5500.0
            ],
            [
                205.41754150390625,
                522.2196655273438,
                5600.0
            ],
            [
                188.8416290283203,
                531.7382202148438,
                5700.0
            ],
            [
                171.2491455078125,
                541.2548217773438,
                5800.0
            ],
            [
                152.6988067626953,
                550.7500610351563,
                5900.0
            ],
            [
                133.12985229492188,
                560.2330322265625,
                6000.0
            ],
            [
                112.65422821044922,
                569.7017822265625,
                6100.0
            ],
            [
                91.25360870361328,
                579.144775390625,
                6200.0
            ],
            [
                68.9549331665039,
                588.5638427734375,
                6300.0
            ],
            [
                45.79751205444336,
                597.9583129882813,
                6400.0
            ],
            [
                21.801408767700195,
                607.3182373046875,
                6500.0
            ],
            [
                -3.0104188919067383,
                616.6480102539063,
                6600.0
            ],
            [
                -28.610393524169922,
                625.934326171875,
                6700.0
            ],
            [
                -54.9417724609375,
                635.1766967773438,
                6800.0
            ],
            [
                -82.00889587402344,
                644.3682861328125,
                6900.0
            ],
            [
                -109.72888946533203,
                653.5084838867188,
                7000.0
            ],
            [
                -138.08265686035156,
                662.593505859375,
                7100.0
            ],
            [
                -167.01312255859375,
                671.6249389648438,
                7200.0
            ],
            [
                -196.48977661132813,
                680.598388671875,
                7300.0
            ],
            [
                -226.49090576171875,
                689.5136108398438,
                7400.0
            ],
            [
                -256.94146728515625,
                698.3739624023438,
                7500.0
            ],
            [
                -287.8359375,
                707.175537109375,
                7600.0
            ],
            [
                -319.1205749511719,
                715.92236328125,
                7700.0
            ],
            [
                -350.7747802734375,
                724.6148071289063,
                7800.0
            ],
            [
                -382.76324462890625,
                733.2554931640625,
                7900.0
            ],
            [
                -415.05303955078125,
                741.8478393554688,
                8000.0
            ],
            [
                -447.6253662109375,
                750.3934936523438,
                8100.0
            ],
            [
                -480.44476318359375,
                758.8973999023438,
                8200.0
            ],
            [
                -513.4940185546875,
                767.3612060546875,
                8300.0
            ],
            [
                -546.75390625,
                775.787841796875,
                8400.0
            ],
            [
                -580.2072143554688,
                784.1800537109375,
                8500.0
            ],
            [
                -613.8272094726563,
                792.5423583984375,
                8600.0
            ],
            [
                -647.6060180664063,
                800.8760375976563,
                8700.0
            ],
            [
                -681.5274658203125,
                809.18408203125,
                8800.0
            ],
            [
                -715.5779418945313,
                817.46923828125,
                8900.0
            ],
            [
                -749.7471923828125,
                825.7333984375,
                9000.0
            ],
            [
                -784.0236206054688,
                833.9788208007813,
                9100.0
            ],
            [
                -818.3968505859375,
                842.2077026367188,
                9200.0
            ],
            [
                -852.858154296875,
                850.4217529296875,
                9300.0
            ],
            [
                -887.3991088867188,
                858.6226806640625,
                9400.0
            ],
            [
                -922.0118408203125,
                866.8121948242188,
                9500.0
            ],
            [
                -956.6900024414063,
                874.9915771484375,
                9600.0
            ],
            [
                -991.4271240234375,
                883.162109375,
                9700.0
            ],
            [
                -1026.2177734375,
                891.3248901367188,
                9800.0
            ],
            [
                -1061.056640625,
                899.4810180664063,
                9900.0
            ],
            [
                -1095.9393310546875,
                907.6314086914063,
                10000.0
            ],
            [
                -1165.8199462890625,
                923.9177856445313,
                10200.0
            ],
            [
                -1235.8311767578125,
                940.189453125,
                10400.0
            ],
            [
                -1305.947021484375,
                956.4509887695313,
                10600.0
            ],
            [
                -1376.151611328125,
                972.7047729492188,
                10800.0
            ],
            [
                -1446.4244384765625,
                988.954345703125,
                11000.0
            ],
            [
                -1516.7552490234375,
                1005.2008056640625,
                11200.0
            ],
            [
                -1587.134521484375,
                1021.4452514648438,
                11400.0
            ],
            [
                -1657.5487060546875,
                1037.6898193359375,
                11600.0
            ],
            [
                -1727.9927978515625,
                1053.9344482421875,
                11800.0
            ],
            [
                -1798.459716796875,
                1070.1800537109375,
                12000.0
            ],
            [
                -1868.9495849609375,
                1086.425537109375,
                12200.0
            ],
            [
                -1939.453125,
                1102.67236328125,
                12400.0
            ],
            [
                -2009.9639892578125,
                1118.921630859375,
                12600.0
            ],
            [
                -2080.4833984375,
                1135.171875,
                12800.0
            ],
            [
                -2151.01318359375,
                1151.4222412109375,
                13000.0
            ],
            [
                -2221.548828125,
                1167.6732177734375,
                13200.0
            ],
            [
                -2292.087646484375,
                1183.925537109375,
                13400.0
            ]
        ],
        "zFirstMeasurement": 64.4073
    }
]
