[
    {
        "E": 90367.72362198227,
        "chi2": 0.0,
        "ip": 0.0167182105937476,
        "ipchi2": 1.7678389134331993,
        "mass": 1876.485,
        "particleId": "D0",
        "pvx": 0.5624,
        "pvy": 0.0573,
        "pvz": -24.3138,
        "px": -4708.35,
        "py": -3858.95,
        "pz": 90142.91,
        "q": 0.0,
        "trajectory": [
            [
                0.5623999834060669,
                0.05730000138282776,
                -24.313800811767578
            ],
            [
                0.003100000089034438,
                -0.4226999878883362,
                -13.412799835205078
            ]
        ],
        "zFirstMeasurement": -9999.0
    },
    {
        "E": 15560.989403892589,
        "chi2": 0.8269330859184265,
        "ip": 0.39671442412445984,
        "ipchi2": 257.2728212528505,
        "mass": 493.677,
        "particleId": "K-",
        "pvx": 0.5624,
        "pvy": 0.0573,
        "pvz": -24.3138,
        "px": -1284.71,
        "py": -397.44,
        "pz": 15494.91,
        "q": -1.0,
        "trajectory": [
            [
                0.006788237020373344,
                -0.41389113664627075,
                -13.412799835205078
            ],
            [
                -0.40777361392974854,
                -0.542138397693634,
                -8.412799835205078
            ],
            [
                -0.8223387598991394,
                -0.6703856587409973,
                -3.4128000736236572
            ],
            [
                -1.2369072437286377,
                -0.7986329197883606,
                1.5872000455856323
            ],
            [
                -1.6514791250228882,
                -0.9268801808357239,
                6.587200164794922
            ],
            [
                -2.066054582595825,
                -1.055127501487732,
                11.587200164794922
            ],
            [
                -2.480633497238159,
                -1.1833747625350952,
                16.587200164794922
            ],
            [
                -2.8952159881591797,
                -1.3116220235824585,
                21.587200164794922
            ],
            [
                -3.3098020553588867,
                -1.4398692846298218,
                26.587200164794922
            ],
            [
                -3.7243919372558594,
                -1.5681166648864746,
                31.587200164794922
            ],
            [
                -4.139017105102539,
                -1.696319341659546,
                36.58720016479492
            ],
            [
                -4.553614139556885,
                -1.8245667219161987,
                41.58720016479492
            ],
            [
                -4.968214511871338,
                -1.9528141021728516,
                46.58720016479492
            ],
            [
                -5.382818698883057,
                -2.081061363220215,
                51.58720016479492
            ],
            [
                -5.797426700592041,
                -2.2093088626861572,
                56.58720016479492
            ],
            [
                -6.212038040161133,
                -2.3375561237335205,
                61.58720016479492
            ],
            [
                -6.62665319442749,
                -2.465803623199463,
                66.58719635009766
            ],
            [
                -7.041272163391113,
                -2.594050884246826,
                71.58719635009766
            ],
            [
                -7.455894947052002,
                -2.7222983837127686,
                76.58719635009766
            ],
            [
                -7.8705220222473145,
                -2.850545644760132,
                81.58719635009766
            ],
            [
                -8.285152435302734,
                -2.978793144226074,
                86.58719635009766
            ],
            [
                -8.699787139892578,
                -3.1070406436920166,
                91.58719635009766
            ],
            [
                -9.114426612854004,
                -3.23528790473938,
                96.58719635009766
            ],
            [
                -9.529069900512695,
                -3.3635354042053223,
                101.58719635009766
            ],
            [
                -11.187685012817383,
                -3.8765251636505127,
                121.58719635009766
            ],
            [
                -12.846373558044434,
                -4.389515399932861,
                141.5872039794922
            ],
            [
                -14.505139350891113,
                -4.902505874633789,
                161.5872039794922
            ],
            [
                -16.16395378112793,
                -5.415495872497559,
                181.5872039794922
            ],
            [
                -17.822864532470703,
                -5.9284868240356445,
                201.5872039794922
            ],
            [
                -19.48185920715332,
                -6.4414777755737305,
                221.5872039794922
            ],
            [
                -21.14093780517578,
                -6.954469680786133,
                241.5872039794922
            ],
            [
                -22.800106048583984,
                -7.467461585998535,
                261.5871887207031
            ],
            [
                -24.459365844726563,
                -7.980453968048096,
                281.5871887207031
            ],
            [
                -26.118722915649414,
                -8.493447303771973,
                301.5871887207031
            ],
            [
                -27.778179168701172,
                -9.006440162658691,
                321.5871887207031
            ],
            [
                -29.4377384185791,
                -9.519434928894043,
                341.5871887207031
            ],
            [
                -31.09740447998047,
                -10.032429695129395,
                361.5871887207031
            ],
            [
                -32.757179260253906,
                -10.545424461364746,
                381.5871887207031
            ],
            [
                -34.41706848144531,
                -11.05842113494873,
                401.5871887207031
            ],
            [
                -36.07707595825195,
                -11.571417808532715,
                421.5871887207031
            ],
            [
                -37.737205505371094,
                -12.084415435791016,
                441.5871887207031
            ],
            [
                -39.397464752197266,
                -12.597414016723633,
                461.5871887207031
            ],
            [
                -41.05785369873047,
                -13.110414505004883,
                481.5871887207031
            ],
            [
                -42.718387603759766,
                -13.623414993286133,
                501.5871887207031
            ],
            [
                -44.37906265258789,
                -14.1364164352417,
                521.5872192382813
            ],
            [
                -46.03988265991211,
                -14.649419784545898,
                541.5872192382813
            ],
            [
                -47.70084762573242,
                -15.162423133850098,
                561.5872192382813
            ],
            [
                -49.36196517944336,
                -15.67542839050293,
                581.5872192382813
            ],
            [
                -51.02323913574219,
                -16.188434600830078,
                601.5872192382813
            ],
            [
                -52.6846923828125,
                -16.70144271850586,
                621.5872192382813
            ],
            [
                -54.34633255004883,
                -17.21445083618164,
                641.5872192382813
            ],
            [
                -56.00815200805664,
                -17.727460861206055,
                661.5872192382813
            ],
            [
                -57.670143127441406,
                -18.2404727935791,
                681.5872192382813
            ],
            [
                -59.33231735229492,
                -18.75348472595215,
                701.5872192382813
            ],
            [
                -60.99467086791992,
                -19.266498565673828,
                721.5872192382813
            ],
            [
                -62.65721130371094,
                -19.779512405395508,
                741.5872192382813
            ],
            [
                -64.31993865966797,
                -20.29252815246582,
                761.5872192382813
            ],
            [
                -65.98287200927734,
                -20.805545806884766,
                781.5872192382813
            ],
            [
                -67.64607238769531,
                -21.318561553955078,
                801.5872192382813
            ],
            [
                -69.30949401855469,
                -21.831579208374023,
                821.5872192382813
            ],
            [
                -70.97314453125,
                -22.3445987701416,
                841.5872192382813
            ],
            [
                -72.63703155517578,
                -22.857620239257813,
                861.5872192382813
            ],
            [
                -74.30113983154297,
                -23.370641708374023,
                881.5872192382813
            ],
            [
                -75.96548461914063,
                -23.883665084838867,
                901.5872192382813
            ],
            [
                -77.6300277709961,
                -24.39668846130371,
                921.5872192382813
            ],
            [
                -79.29481506347656,
                -24.909713745117188,
                941.5872192382813
            ],
            [
                -80.95990753173828,
                -25.422744750976563,
                961.5872192382813
            ],
            [
                -82.62527465820313,
                -25.93577766418457,
                981.5872192382813
            ],
            [
                -84.2908935546875,
                -26.448814392089844,
                1001.5872192382813
            ],
            [
                -92.6240005493164,
                -29.01396942138672,
                1101.587158203125
            ],
            [
                -100.96344757080078,
                -31.579116821289063,
                1201.587158203125
            ],
            [
                -109.30992889404297,
                -34.14427947998047,
                1301.587158203125
            ],
            [
                -117.66342163085938,
                -36.709449768066406,
                1401.587158203125
            ],
            [
                -126.02427673339844,
                -39.27462387084961,
                1501.587158203125
            ],
            [
                -134.390625,
                -41.83977127075195,
                1601.587158203125
            ],
            [
                -142.7649688720703,
                -44.40495300292969,
                1701.587158203125
            ],
            [
                -151.1470184326172,
                -46.970176696777344,
                1801.587158203125
            ],
            [
                -159.5384521484375,
                -49.5355339050293,
                1901.587158203125
            ],
            [
                -167.94004821777344,
                -52.101016998291016,
                2001.587158203125
            ],
            [
                -176.3568572998047,
                -54.666656494140625,
                2101.587158203125
            ],
            [
                -184.78675842285156,
                -57.23246765136719,
                2201.587158203125
            ],
            [
                -193.2305450439453,
                -59.79853057861328,
                2301.587158203125
            ],
            [
                -201.69683837890625,
                -62.36492156982422,
                2401.587158203125
            ],
            [
                -210.18849182128906,
                -64.93175506591797,
                2501.587158203125
            ],
            [
                -218.7123565673828,
                -67.49915313720703,
                2601.587158203125
            ],
            [
                -227.2721405029297,
                -70.06718444824219,
                2701.587158203125
            ],
            [
                -235.87542724609375,
                -72.63602447509766,
                2801.587158203125
            ],
            [
                -244.53057861328125,
                -75.20575714111328,
                2901.587158203125
            ],
            [
                -253.24337768554688,
                -77.77660369873047,
                3001.587158203125
            ],
            [
                -262.0335388183594,
                -80.3484115600586,
                3101.587158203125
            ],
            [
                -270.89898681640625,
                -82.92118072509766,
                3201.587158203125
            ],
            [
                -279.850830078125,
                -85.4952621459961,
                3301.587158203125
            ],
            [
                -288.9110412597656,
                -88.07062530517578,
                3401.587158203125
            ],
            [
                -298.08892822265625,
                -90.64740753173828,
                3501.587158203125
            ],
            [
                -307.38568115234375,
                -93.22627258300781,
                3601.587158203125
            ],
            [
                -316.8249816894531,
                -95.80669403076172,
                3701.587158203125
            ],
            [
                -326.4075622558594,
                -98.3884048461914,
                3801.587158203125
            ],
            [
                -336.1477966308594,
                -100.97206115722656,
                3901.587158203125
            ],
            [
                -346.05572509765625,
                -103.55786895751953,
                4001.587158203125
            ],
            [
                -356.1490783691406,
                -106.14574432373047,
                4101.58740234375
            ],
            [
                -366.4182434082031,
                -108.73468017578125,
                4201.58740234375
            ],
            [
                -376.8945617675781,
                -111.32526397705078,
                4301.58740234375
            ],
            [
                -387.5712890625,
                -113.91767883300781,
                4401.58740234375
            ],
            [
                -398.4281005859375,
                -116.5121841430664,
                4501.58740234375
            ],
            [
                -409.5107727050781,
                -119.10804748535156,
                4601.58740234375
            ],
            [
                -420.78594970703125,
                -121.70450592041016,
                4701.58740234375
            ],
            [
                -431.5548400878906,
                -124.48355865478516,
                4801.58740234375
            ],
            [
                -443.2712707519531,
                -127.08246612548828,
                4901.58740234375
            ],
            [
                -455.1885070800781,
                -129.68179321289063,
                5001.58740234375
            ],
            [
                -467.3141784667969,
                -132.28262329101563,
                5101.58740234375
            ],
            [
                -479.6390075683594,
                -134.88414001464844,
                5201.58740234375
            ],
            [
                -492.1673278808594,
                -137.48704528808594,
                5301.58740234375
            ],
            [
                -504.8893737792969,
                -140.08950805664063,
                5401.58740234375
            ],
            [
                -517.8052978515625,
                -142.69171142578125,
                5501.58740234375
            ],
            [
                -530.9078979492188,
                -145.2962188720703,
                5601.58740234375
            ],
            [
                -544.2017211914063,
                -147.90032958984375,
                5701.58740234375
            ],
            [
                -557.679443359375,
                -150.5053253173828,
                5801.58740234375
            ],
            [
                -571.3296508789063,
                -153.1105194091797,
                5901.58740234375
            ],
            [
                -585.1580810546875,
                -155.71615600585938,
                6001.58740234375
            ],
            [
                -599.1537475585938,
                -158.3221893310547,
                6101.58740234375
            ],
            [
                -613.3134155273438,
                -160.9279022216797,
                6201.58740234375
            ],
            [
                -627.631103515625,
                -163.5333709716797,
                6301.58740234375
            ],
            [
                -642.1004028320313,
                -166.13865661621094,
                6401.58740234375
            ],
            [
                -656.7167358398438,
                -168.743408203125,
                6501.58740234375
            ],
            [
                -671.4727172851563,
                -171.34791564941406,
                6601.58740234375
            ],
            [
                -686.3643798828125,
                -173.95199584960938,
                6701.58740234375
            ],
            [
                -701.3812866210938,
                -176.5556182861328,
                6801.58740234375
            ],
            [
                -716.5219116210938,
                -179.15830993652344,
                6901.58740234375
            ],
            [
                -731.7774658203125,
                -181.76019287109375,
                7001.58740234375
            ],
            [
                -747.1403198242188,
                -184.3613739013672,
                7101.58740234375
            ],
            [
                -762.60400390625,
                -186.96189880371094,
                7201.58740234375
            ],
            [
                -778.1629638671875,
                -189.56170654296875,
                7301.58740234375
            ],
            [
                -793.8124389648438,
                -192.16067504882813,
                7401.58740234375
            ],
            [
                -809.5416870117188,
                -194.75912475585938,
                7501.58740234375
            ],
            [
                -825.34912109375,
                -197.35679626464844,
                7601.58740234375
            ],
            [
                -841.2266235351563,
                -199.95394897460938,
                7701.58740234375
            ],
            [
                -857.1710205078125,
                -202.5506134033203,
                7801.58740234375
            ],
            [
                -873.1765747070313,
                -205.14682006835938,
                7901.58740234375
            ],
            [
                -889.23779296875,
                -207.7426300048828,
                8001.58740234375
            ],
            [
                -905.3516235351563,
                -210.3380889892578,
                8101.58740234375
            ],
            [
                -921.5120239257813,
                -212.9333038330078,
                8201.5869140625
            ],
            [
                -937.7159423828125,
                -215.52828979492188,
                8301.5869140625
            ],
            [
                -953.9599609375,
                -218.12310791015625,
                8401.5869140625
            ],
            [
                -970.2407836914063,
                -220.7177734375,
                8501.5869140625
            ],
            [
                -986.5541381835938,
                -223.31236267089844,
                8601.5869140625
            ],
            [
                -1002.8982543945313,
                -225.9068603515625,
                8701.5869140625
            ],
            [
                -1019.2700805664063,
                -228.50132751464844,
                8801.5869140625
            ],
            [
                -1035.6671142578125,
                -231.09579467773438,
                8901.5869140625
            ],
            [
                -1052.08740234375,
                -233.6903076171875,
                9001.5869140625
            ],
            [
                -1068.5286865234375,
                -236.28485107421875,
                9101.5869140625
            ],
            [
                -1084.9892578125,
                -238.87948608398438,
                9201.5869140625
            ],
            [
                -1101.4671630859375,
                -241.4741973876953,
                9301.5869140625
            ],
            [
                -1117.9609375,
                -244.06903076171875,
                9401.5869140625
            ],
            [
                -1134.468994140625,
                -246.66397094726563,
                9501.5869140625
            ],
            [
                -1150.9901123046875,
                -249.25904846191406,
                9601.5869140625
            ],
            [
                -1167.523193359375,
                -251.854248046875,
                9701.5869140625
            ],
            [
                -1184.0670166015625,
                -254.4495849609375,
                9801.5869140625
            ],
            [
                -1200.62060546875,
                -257.0450439453125,
                9901.5869140625
            ],
            [
                -1217.1829833984375,
                -259.6406555175781,
                10001.5869140625
            ],
            [
                -1250.3314208984375,
                -264.832275390625,
                10201.5869140625
            ],
            [
                -1283.5064697265625,
                -270.0244140625,
                10401.5869140625
            ],
            [
                -1316.7032470703125,
                -275.217041015625,
                10601.5869140625
            ],
            [
                -1349.91845703125,
                -280.41009521484375,
                10801.5869140625
            ],
            [
                -1383.14794921875,
                -285.6036071777344,
                11001.5869140625
            ],
            [
                -1416.3897705078125,
                -290.7974548339844,
                11201.5869140625
            ],
            [
                -1449.6419677734375,
                -295.9916687011719,
                11401.5869140625
            ],
            [
                -1482.90185546875,
                -301.1861572265625,
                11601.5869140625
            ],
            [
                -1516.1683349609375,
                -306.3809509277344,
                11801.5869140625
            ],
            [
                -1549.43994140625,
                -311.575927734375,
                12001.5869140625
            ],
            [
                -1582.7166748046875,
                -316.7711486816406,
                12201.5869140625
            ],
            [
                -1615.996826171875,
                -321.9665222167969,
                12401.5869140625
            ],
            [
                -1649.2786865234375,
                -327.16204833984375,
                12601.5869140625
            ],
            [
                -1682.5626220703125,
                -332.35772705078125,
                12801.5869140625
            ],
            [
                -1715.8489990234375,
                -337.553466796875,
                13001.5869140625
            ],
            [
                -1749.136962890625,
                -342.7492980957031,
                13201.5869140625
            ],
            [
                -1782.42578125,
                -347.9451904296875,
                13401.5869140625
            ]
        ],
        "zFirstMeasurement": 79.5152
    },
    {
        "E": 74805.22914094373,
        "chi2": 0.654944896697998,
        "ip": 0.06433547340451887,
        "ipchi2": 26.850102699872423,
        "mass": 139.57,
        "particleId": "pi+",
        "pvx": 0.5624,
        "pvy": 0.0573,
        "pvz": -24.3138,
        "px": -3423.98,
        "py": -3462.18,
        "pz": 74646.45,
        "q": 1.0,
        "trajectory": [
            [
                0.0025576530024409294,
                -0.42456746101379395,
                -13.412799835205078
            ],
            [
                -0.22678802907466888,
                -0.6564728617668152,
                -8.412799835205078
            ],
            [
                -0.45613300800323486,
                -0.8883782625198364,
                -3.4128000736236572
            ],
            [
                -0.6854773163795471,
                -1.1202837228775024,
                1.5872000455856323
            ],
            [
                -0.9148209095001221,
                -1.352189064025879,
                6.587200164794922
            ],
            [
                -1.1441638469696045,
                -1.584094524383545,
                11.587200164794922
            ],
            [
                -1.37350594997406,
                -1.815999984741211,
                16.587200164794922
            ],
            [
                -1.6028473377227783,
                -2.047905445098877,
                21.587200164794922
            ],
            [
                -1.8321880102157593,
                -2.279810905456543,
                26.587200164794922
            ],
            [
                -2.061527967453003,
                -2.51171612739563,
                31.587200164794922
            ],
            [
                -2.2908670902252197,
                -2.743621587753296,
                36.58720016479492
            ],
            [
                -2.52020525932312,
                -2.975527048110962,
                41.58720016479492
            ],
            [
                -2.7495055198669434,
                -3.2073771953582764,
                46.58720016479492
            ],
            [
                -2.978842258453369,
                -3.4392826557159424,
                51.58720016479492
            ],
            [
                -3.2081782817840576,
                -3.6711881160736084,
                56.58720016479492
            ],
            [
                -3.437513589859009,
                -3.9030935764312744,
                61.58720016479492
            ],
            [
                -3.6668481826782227,
                -4.134998798370361,
                66.58719635009766
            ],
            [
                -3.89618182182312,
                -4.366904258728027,
                71.58719635009766
            ],
            [
                -4.125514984130859,
                -4.598809719085693,
                76.58719635009766
            ],
            [
                -4.354846954345703,
                -4.830715179443359,
                81.58719635009766
            ],
            [
                -4.584178447723389,
                -5.062620639801025,
                86.58719635009766
            ],
            [
                -4.813508987426758,
                -5.294526100158691,
                91.58719635009766
            ],
            [
                -5.042839050292969,
                -5.526431560516357,
                96.58719635009766
            ],
            [
                -5.272167682647705,
                -5.758337020874023,
                101.58719635009766
            ],
            [
                -6.189475059509277,
                -6.6859588623046875,
                121.58719635009766
            ],
            [
                -7.106767654418945,
                -7.613580703735352,
                141.5872039794922
            ],
            [
                -8.02404499053955,
                -8.541202545166016,
                161.5872039794922
            ],
            [
                -8.941306114196777,
                -9.46882438659668,
                181.5872039794922
            ],
            [
                -9.858549118041992,
                -10.396446228027344,
                201.5872039794922
            ],
            [
                -10.77578353881836,
                -11.324068069458008,
                221.5872039794922
            ],
            [
                -11.692995071411133,
                -12.251689910888672,
                241.5872039794922
            ],
            [
                -12.610188484191895,
                -13.179311752319336,
                261.5871887207031
            ],
            [
                -13.527362823486328,
                -14.10693359375,
                281.5871887207031
            ],
            [
                -14.444517135620117,
                -15.034555435180664,
                301.5871887207031
            ],
            [
                -15.361651420593262,
                -15.962177276611328,
                321.5871887207031
            ],
            [
                -16.278764724731445,
                -16.889799118041992,
                341.5871887207031
            ],
            [
                -17.19585609436035,
                -17.817420959472656,
                361.5871887207031
            ],
            [
                -18.112924575805664,
                -18.74504280090332,
                381.5871887207031
            ],
            [
                -19.029970169067383,
                -19.67266273498535,
                401.5871887207031
            ],
            [
                -19.946989059448242,
                -20.600284576416016,
                421.5871887207031
            ],
            [
                -20.863983154296875,
                -21.52790641784668,
                441.5871887207031
            ],
            [
                -21.78095054626465,
                -22.45552635192871,
                461.5871887207031
            ],
            [
                -22.697891235351563,
                -23.383148193359375,
                481.5871887207031
            ],
            [
                -23.614805221557617,
                -24.310768127441406,
                501.5871887207031
            ],
            [
                -24.531688690185547,
                -25.23838996887207,
                521.5872192382813
            ],
            [
                -25.448543548583984,
                -26.1660099029541,
                541.5872192382813
            ],
            [
                -26.365365982055664,
                -27.093629837036133,
                561.5872192382813
            ],
            [
                -27.28215980529785,
                -28.021251678466797,
                581.5872192382813
            ],
            [
                -28.19891929626465,
                -28.948871612548828,
                601.5872192382813
            ],
            [
                -29.115638732910156,
                -29.87649154663086,
                621.5872192382813
            ],
            [
                -30.032325744628906,
                -30.804109573364258,
                641.5872192382813
            ],
            [
                -30.948976516723633,
                -31.73172950744629,
                661.5872192382813
            ],
            [
                -31.865589141845703,
                -32.65934753417969,
                681.5872192382813
            ],
            [
                -32.78216552734375,
                -33.58696746826172,
                701.5872192382813
            ],
            [
                -33.698707580566406,
                -34.51458740234375,
                721.5872192382813
            ],
            [
                -34.61520767211914,
                -35.44220733642578,
                741.5872192382813
            ],
            [
                -35.53166580200195,
                -36.36982345581055,
                761.5872192382813
            ],
            [
                -36.44807052612305,
                -37.29744338989258,
                781.5872192382813
            ],
            [
                -37.36442947387695,
                -38.225059509277344,
                801.5872192382813
            ],
            [
                -38.28074645996094,
                -39.152679443359375,
                821.5872192382813
            ],
            [
                -39.197017669677734,
                -40.08029556274414,
                841.5872192382813
            ],
            [
                -40.11324691772461,
                -41.007911682128906,
                861.5872192382813
            ],
            [
                -41.029422760009766,
                -41.93553161621094,
                881.5872192382813
            ],
            [
                -41.945556640625,
                -42.8631477355957,
                901.5872192382813
            ],
            [
                -42.86164474487305,
                -43.79076385498047,
                921.5872192382813
            ],
            [
                -43.77767562866211,
                -44.718379974365234,
                941.5872192382813
            ],
            [
                -44.69364929199219,
                -45.645992279052734,
                961.5872192382813
            ],
            [
                -45.60956954956055,
                -46.5736083984375,
                981.5872192382813
            ],
            [
                -46.52544021606445,
                -47.501220703125,
                1001.5872192382813
            ],
            [
                -51.10403060913086,
                -52.13928985595703,
                1101.587158203125
            ],
            [
                -55.68070983886719,
                -56.777381896972656,
                1201.587158203125
            ],
            [
                -60.25625228881836,
                -61.41545486450195,
                1301.587158203125
            ],
            [
                -64.83039093017578,
                -66.05352783203125,
                1401.587158203125
            ],
            [
                -69.40299987792969,
                -70.69160461425781,
                1501.587158203125
            ],
            [
                -73.97441101074219,
                -75.3296890258789,
                1601.587158203125
            ],
            [
                -78.54427337646484,
                -79.96776580810547,
                1701.587158203125
            ],
            [
                -83.11249542236328,
                -84.60581970214844,
                1801.587158203125
            ],
            [
                -87.6788101196289,
                -89.24385833740234,
                1901.587158203125
            ],
            [
                -92.2431869506836,
                -93.8818588256836,
                2001.587158203125
            ],
            [
                -96.80482482910156,
                -98.51982879638672,
                2101.587158203125
            ],
            [
                -101.3629379272461,
                -103.15777587890625,
                2201.587158203125
            ],
            [
                -105.91861724853516,
                -107.79566192626953,
                2301.587158203125
            ],
            [
                -110.46957397460938,
                -112.4334716796875,
                2401.587158203125
            ],
            [
                -115.01564025878906,
                -117.07118225097656,
                2501.587158203125
            ],
            [
                -119.55488586425781,
                -121.70877838134766,
                2601.587158203125
            ],
            [
                -124.08708190917969,
                -126.34622955322266,
                2701.587158203125
            ],
            [
                -128.6102752685547,
                -130.9835205078125,
                2801.587158203125
            ],
            [
                -133.12326049804688,
                -135.62062072753906,
                2901.587158203125
            ],
            [
                -137.62367248535156,
                -140.2574920654297,
                3001.587158203125
            ],
            [
                -142.11029052734375,
                -144.89414978027344,
                3101.587158203125
            ],
            [
                -146.57879638671875,
                -149.53070068359375,
                3201.587158203125
            ],
            [
                -151.03085327148438,
                -154.1669464111328,
                3301.587158203125
            ],
            [
                -155.46058654785156,
                -158.80294799804688,
                3401.587158203125
            ],
            [
                -159.86610412597656,
                -163.4386749267578,
                3501.587158203125
            ],
            [
                -164.2472686767578,
                -168.073974609375,
                3601.587158203125
            ],
            [
                -168.5999298095703,
                -172.70901489257813,
                3701.587158203125
            ],
            [
                -172.92205810546875,
                -177.3438262939453,
                3801.587158203125
            ],
            [
                -177.21261596679688,
                -181.97828674316406,
                3901.587158203125
            ],
            [
                -181.46640014648438,
                -186.61233520507813,
                4001.587158203125
            ],
            [
                -185.68588256835938,
                -191.2459716796875,
                4101.58740234375
            ],
            [
                -189.86358642578125,
                -195.87957763671875,
                4201.58740234375
            ],
            [
                -194.0009002685547,
                -200.5128631591797,
                4301.58740234375
            ],
            [
                -198.09805297851563,
                -205.14572143554688,
                4401.58740234375
            ],
            [
                -202.15597534179688,
                -209.7783203125,
                4501.58740234375
            ],
            [
                -206.17025756835938,
                -214.41067504882813,
                4601.58740234375
            ],
            [
                -210.14248657226563,
                -219.04298400878906,
                4701.58740234375
            ],
            [
                -214.12319946289063,
                -223.9034881591797,
                4801.58740234375
            ],
            [
                -218.01332092285156,
                -228.54302978515625,
                4901.58740234375
            ],
            [
                -221.86196899414063,
                -233.1825408935547,
                5001.58740234375
            ],
            [
                -225.6678466796875,
                -237.8218994140625,
                5101.58740234375
            ],
            [
                -229.43310546875,
                -242.46109008789063,
                5201.58740234375
            ],
            [
                -233.15708923339844,
                -247.10000610351563,
                5301.58740234375
            ],
            [
                -236.8410186767578,
                -251.73895263671875,
                5401.58740234375
            ],
            [
                -240.48486328125,
                -256.3780822753906,
                5501.58740234375
            ],
            [
                -244.09107971191406,
                -261.01678466796875,
                5601.58740234375
            ],
            [
                -247.65835571289063,
                -265.6554870605469,
                5701.58740234375
            ],
            [
                -251.18812561035156,
                -270.29400634765625,
                5801.58740234375
            ],
            [
                -254.68255615234375,
                -274.9324951171875,
                5901.58740234375
            ],
            [
                -258.140625,
                -279.5709228515625,
                6001.58740234375
            ],
            [
                -261.56475830078125,
                -284.2091979980469,
                6101.58740234375
            ],
            [
                -264.95556640625,
                -288.8474426269531,
                6201.58740234375
            ],
            [
                -268.3139953613281,
                -293.4857482910156,
                6301.58740234375
            ],
            [
                -271.6415100097656,
                -298.1240234375,
                6401.58740234375
            ],
            [
                -274.93890380859375,
                -302.7622985839844,
                6501.58740234375
            ],
            [
                -278.2079162597656,
                -307.4005432128906,
                6601.58740234375
            ],
            [
                -281.4493408203125,
                -312.038818359375,
                6701.58740234375
            ],
            [
                -284.6653137207031,
                -316.6770324707031,
                6801.58740234375
            ],
            [
                -287.8560791015625,
                -321.3153381347656,
                6901.58740234375
            ],
            [
                -291.0235900878906,
                -325.9536437988281,
                7001.58740234375
            ],
            [
                -294.16925048828125,
                -330.5920104980469,
                7101.58740234375
            ],
            [
                -297.2944641113281,
                -335.2303466796875,
                7201.58740234375
            ],
            [
                -300.4003601074219,
                -339.86871337890625,
                7301.58740234375
            ],
            [
                -303.4878845214844,
                -344.5071105957031,
                7401.58740234375
            ],
            [
                -306.559326171875,
                -349.1454772949219,
                7501.58740234375
            ],
            [
                -309.6149597167969,
                -353.7838439941406,
                7601.58740234375
            ],
            [
                -312.6564636230469,
                -358.4222106933594,
                7701.58740234375
            ],
            [
                -315.6844482421875,
                -363.060546875,
                7801.58740234375
            ],
            [
                -318.7001647949219,
                -367.6988830566406,
                7901.58740234375
            ],
            [
                -321.70465087890625,
                -372.337158203125,
                8001.58740234375
            ],
            [
                -324.69854736328125,
                -376.9754333496094,
                8101.58740234375
            ],
            [
                -327.68310546875,
                -381.6136474609375,
                8201.5869140625
            ],
            [
                -330.6589050292969,
                -386.2518310546875,
                8301.5869140625
            ],
            [
                -333.6266174316406,
                -390.88995361328125,
                8401.5869140625
            ],
            [
                -336.58697509765625,
                -395.5280456542969,
                8501.5869140625
            ],
            [
                -339.54071044921875,
                -400.16607666015625,
                8601.5869140625
            ],
            [
                -342.48828125,
                -404.8041076660156,
                8701.5869140625
            ],
            [
                -345.4302062988281,
                -409.44207763671875,
                8801.5869140625
            ],
            [
                -348.3670654296875,
                -414.0799865722656,
                8901.5869140625
            ],
            [
                -351.2991943359375,
                -418.7178649902344,
                9001.5869140625
            ],
            [
                -354.22705078125,
                -423.355712890625,
                9101.5869140625
            ],
            [
                -357.1510314941406,
                -427.9934997558594,
                9201.5869140625
            ],
            [
                -360.0714416503906,
                -432.6312561035156,
                9301.5869140625
            ],
            [
                -362.98858642578125,
                -437.26898193359375,
                9401.5869140625
            ],
            [
                -365.9028015136719,
                -441.9066467285156,
                9501.5869140625
            ],
            [
                -368.8143310546875,
                -446.5442810058594,
                9601.5869140625
            ],
            [
                -371.7234191894531,
                -451.181884765625,
                9701.5869140625
            ],
            [
                -374.6302795410156,
                -455.8194274902344,
                9801.5869140625
            ],
            [
                -377.53509521484375,
                -460.45697021484375,
                9901.5869140625
            ],
            [
                -380.43804931640625,
                -465.094482421875,
                10001.5869140625
            ],
            [
                -386.23907470703125,
                -474.369384765625,
                10201.5869140625
            ],
            [
                -392.03448486328125,
                -483.6441650390625,
                10401.5869140625
            ],
            [
                -397.82525634765625,
                -492.91888427734375,
                10601.5869140625
            ],
            [
                -403.61212158203125,
                -502.1934814453125,
                10801.5869140625
            ],
            [
                -409.3958740234375,
                -511.4680480957031,
                11001.5869140625
            ],
            [
                -415.17694091796875,
                -520.7424926757813,
                11201.5869140625
            ],
            [
                -420.95574951171875,
                -530.0169067382813,
                11401.5869140625
            ],
            [
                -426.7328796386719,
                -539.2913208007813,
                11601.5869140625
            ],
            [
                -432.5085144042969,
                -548.5656127929688,
                11801.5869140625
            ],
            [
                -438.2829895019531,
                -557.8399047851563,
                12001.5869140625
            ],
            [
                -444.0563049316406,
                -567.1141357421875,
                12201.5869140625
            ],
            [
                -449.8288879394531,
                -576.3883666992188,
                12401.5869140625
            ],
            [
                -455.60101318359375,
                -585.66259765625,
                12601.5869140625
            ],
            [
                -461.37261962890625,
                -594.936767578125,
                12801.5869140625
            ],
            [
                -467.14373779296875,
                -604.2109985351563,
                13001.5869140625
            ],
            [
                -472.9144287109375,
                -613.485107421875,
                13201.5869140625
            ],
            [
                -478.6849670410156,
                -622.75927734375,
                13401.5869140625
            ]
        ],
        "zFirstMeasurement": 109.4064
    },
    {
        "E": 4283.044667995565,
        "chi2": 1.0254671573638916,
        "ip": 0.09748970389515173,
        "ipchi2": 4.651521644510592,
        "mass": 139.57018,
        "particleId": "pi+",
        "pvx": 0.5624,
        "pvy": 0.0573,
        "pvz": -24.3138,
        "px": -350.9653309009656,
        "py": 138.7040715613832,
        "pz": 4264.103224587542,
        "q": 1.0,
        "trajectory": [
            [
                6.712679386138916,
                -2.4596805572509766,
                -100.0
            ],
            [
                6.30098295211792,
                -2.2970380783081055,
                -95.0
            ],
            [
                5.8892951011657715,
                -2.1343955993652344,
                -90.0
            ],
            [
                5.477616786956787,
                -1.9717532396316528,
                -85.0
            ],
            [
                5.065948009490967,
                -1.8091109991073608,
                -80.0
            ],
            [
                4.6542887687683105,
                -1.6464687585830688,
                -75.0
            ],
            [
                4.242639064788818,
                -1.4838266372680664,
                -70.0
            ],
            [
                3.8309993743896484,
                -1.3211846351623535,
                -65.0
            ],
            [
                3.41936993598938,
                -1.158542513847351,
                -60.0
            ],
            [
                3.0077507495880127,
                -0.9959006309509277,
                -55.0
            ],
            [
                2.596142053604126,
                -0.8332587480545044,
                -50.0
            ],
            [
                2.184544086456299,
                -0.670616865158081,
                -45.0
            ],
            [
                1.7729568481445313,
                -0.5079751014709473,
                -40.0
            ],
            [
                1.361380696296692,
                -0.34533339738845825,
                -35.0
            ],
            [
                0.9498157501220703,
                -0.18269170820713043,
                -30.0
            ],
            [
                0.5382622480392456,
                -0.020050087943673134,
                -25.0
            ],
            [
                0.1267203539609909,
                0.14259149134159088,
                -20.0
            ],
            [
                -0.28480979800224304,
                0.30523303151130676,
                -15.0
            ],
            [
                -0.6963279843330383,
                0.4678744971752167,
                -10.0
            ],
            [
                -1.1078341007232666,
                0.6305159330368042,
                -5.0
            ],
            [
                -1.5193277597427368,
                0.7931573390960693,
                0.0
            ],
            [
                -1.9308091402053833,
                0.9557987451553345,
                5.0
            ],
            [
                -2.342277765274048,
                1.11844003200531,
                10.0
            ],
            [
                -2.7537333965301514,
                1.2810813188552856,
                15.0
            ],
            [
                -3.1651761531829834,
                1.4437226057052612,
                20.0
            ],
            [
                -3.5766050815582275,
                1.6063637733459473,
                25.0
            ],
            [
                -3.988020658493042,
                1.7690048217773438,
                30.0
            ],
            [
                -4.399350166320801,
                1.9316022396087646,
                35.0
            ],
            [
                -4.810739517211914,
                2.094243288040161,
                40.0
            ],
            [
                -5.222116470336914,
                2.2568840980529785,
                45.0
            ],
            [
                -5.633480548858643,
                2.419525146484375,
                50.0
            ],
            [
                -6.044830799102783,
                2.5821659564971924,
                55.0
            ],
            [
                -6.456168174743652,
                2.7448067665100098,
                60.0
            ],
            [
                -6.867491245269775,
                2.907447576522827,
                65.0
            ],
            [
                -7.278800964355469,
                3.0700883865356445,
                70.0
            ],
            [
                -7.690096378326416,
                3.232728958129883,
                75.0
            ],
            [
                -8.101377487182617,
                3.395369529724121,
                80.0
            ],
            [
                -8.512643814086914,
                3.5580101013183594,
                85.0
            ],
            [
                -8.923895835876465,
                3.7206506729125977,
                90.0
            ],
            [
                -9.335132598876953,
                3.883291244506836,
                95.0
            ],
            [
                -9.746354103088379,
                4.045931339263916,
                100.0
            ],
            [
                -11.391083717346191,
                4.696492671966553,
                120.0
            ],
            [
                -13.03554916381836,
                5.347052574157715,
                140.0
            ],
            [
                -14.679732322692871,
                5.997611999511719,
                160.0
            ],
            [
                -16.32373046875,
                6.648170471191406,
                180.0
            ],
            [
                -17.967384338378906,
                7.298727989196777,
                200.0
            ],
            [
                -19.610736846923828,
                7.949284553527832,
                220.0
            ],
            [
                -21.2537784576416,
                8.59984016418457,
                240.0
            ],
            [
                -22.89649772644043,
                9.250395774841309,
                260.0
            ],
            [
                -24.538883209228516,
                9.900949478149414,
                280.0
            ],
            [
                -26.180912017822266,
                10.55150318145752,
                300.0
            ],
            [
                -27.82257843017578,
                11.202055931091309,
                320.0
            ],
            [
                -29.463871002197266,
                11.852607727050781,
                340.0
            ],
            [
                -31.104778289794922,
                12.503158569335938,
                360.0
            ],
            [
                -32.74528884887695,
                13.153708457946777,
                380.0
            ],
            [
                -34.3853874206543,
                13.8042573928833,
                400.0
            ],
            [
                -36.02505111694336,
                14.454805374145508,
                420.0
            ],
            [
                -37.664276123046875,
                15.105353355407715,
                440.0
            ],
            [
                -39.30303192138672,
                15.755899429321289,
                460.0
            ],
            [
                -40.941314697265625,
                16.40644645690918,
                480.0
            ],
            [
                -42.579078674316406,
                17.056991577148438,
                500.0
            ],
            [
                -44.21631622314453,
                17.707534790039063,
                520.0
            ],
            [
                -45.8530387878418,
                18.358076095581055,
                540.0
            ],
            [
                -47.489227294921875,
                19.008617401123047,
                560.0
            ],
            [
                -49.12487030029297,
                19.659156799316406,
                580.0
            ],
            [
                -50.759952545166016,
                20.309694290161133,
                600.0
            ],
            [
                -52.394386291503906,
                20.960237503051758,
                620.0
            ],
            [
                -54.02811813354492,
                21.610776901245117,
                640.0
            ],
            [
                -55.66122055053711,
                22.26131820678711,
                660.0
            ],
            [
                -57.29368209838867,
                22.91185760498047,
                680.0
            ],
            [
                -58.92548370361328,
                23.562397003173828,
                700.0
            ],
            [
                -60.556640625,
                24.21293830871582,
                720.0
            ],
            [
                -62.18711471557617,
                24.86347770690918,
                740.0
            ],
            [
                -63.816890716552734,
                25.51401710510254,
                760.0
            ],
            [
                -65.44595336914063,
                26.16455841064453,
                780.0
            ],
            [
                -67.07405090332031,
                26.815088272094727,
                800.0
            ],
            [
                -68.70136260986328,
                27.465620040893555,
                820.0
            ],
            [
                -70.32780456542969,
                28.116151809692383,
                840.0
            ],
            [
                -71.95343017578125,
                28.76668357849121,
                860.0
            ],
            [
                -73.57823181152344,
                29.41721534729004,
                880.0
            ],
            [
                -75.20217895507813,
                30.067747116088867,
                900.0
            ],
            [
                -76.82539367675781,
                30.718273162841797,
                920.0
            ],
            [
                -78.44774627685547,
                31.368799209594727,
                940.0
            ],
            [
                -80.06903076171875,
                32.019351959228516,
                960.0
            ],
            [
                -81.68928527832031,
                32.66992950439453,
                980.0
            ],
            [
                -83.30860900878906,
                33.32051086425781,
                1000.0
            ],
            [
                -91.38701629638672,
                36.573509216308594,
                1100.0
            ],
            [
                -99.44245147705078,
                39.82661437988281,
                1200.0
            ],
            [
                -107.47235870361328,
                43.07994079589844,
                1300.0
            ],
            [
                -115.47679901123047,
                46.33355712890625,
                1400.0
            ],
            [
                -123.45454406738281,
                49.58731460571289,
                1500.0
            ],
            [
                -131.4126739501953,
                52.8410530090332,
                1600.0
            ],
            [
                -139.3416748046875,
                56.09480667114258,
                1700.0
            ],
            [
                -147.24325561523438,
                59.3484001159668,
                1800.0
            ],
            [
                -155.11105346679688,
                62.60197067260742,
                1900.0
            ],
            [
                -162.94224548339844,
                65.85523223876953,
                2000.0
            ],
            [
                -170.71751403808594,
                69.10784149169922,
                2100.0
            ],
            [
                -178.44691467285156,
                72.36006164550781,
                2200.0
            ],
            [
                -186.12611389160156,
                75.61103057861328,
                2300.0
            ],
            [
                -193.72474670410156,
                78.8611831665039,
                2400.0
            ],
            [
                -201.23162841796875,
                82.10977935791016,
                2500.0
            ],
            [
                -208.62347412109375,
                85.35636901855469,
                2600.0
            ],
            [
                -215.8854217529297,
                88.60115051269531,
                2700.0
            ],
            [
                -222.99021911621094,
                91.84384155273438,
                2800.0
            ],
            [
                -229.9082489013672,
                95.08366394042969,
                2900.0
            ],
            [
                -236.6192169189453,
                98.3197021484375,
                3000.0
            ],
            [
                -243.04641723632813,
                101.55240631103516,
                3100.0
            ],
            [
                -249.20574951171875,
                104.78136444091797,
                3200.0
            ],
            [
                -255.05136108398438,
                108.00568389892578,
                3300.0
            ],
            [
                -260.5089111328125,
                111.22586059570313,
                3400.0
            ],
            [
                -265.54278564453125,
                114.44184112548828,
                3500.0
            ],
            [
                -270.14459228515625,
                117.65316772460938,
                3600.0
            ],
            [
                -274.2319030761719,
                120.86231231689453,
                3700.0
            ],
            [
                -277.8045349121094,
                124.06849670410156,
                3800.0
            ],
            [
                -280.80535888671875,
                127.26966857910156,
                3900.0
            ],
            [
                -283.1839904785156,
                130.46981811523438,
                4000.0
            ],
            [
                -284.927490234375,
                133.6687774658203,
                4100.0
            ],
            [
                -286.02154541015625,
                136.86618041992188,
                4200.0
            ],
            [
                -286.3782653808594,
                140.06405639648438,
                4300.0
            ],
            [
                -286.0081481933594,
                143.26303100585938,
                4400.0
            ],
            [
                -284.9875793457031,
                146.4607391357422,
                4500.0
            ],
            [
                -283.1600341796875,
                149.66458129882813,
                4600.0
            ],
            [
                -280.647705078125,
                152.87014770507813,
                4700.0
            ],
            [
                -264.674072265625,
                164.18006896972656,
                4800.0
            ],
            [
                -260.5785827636719,
                167.41831970214844,
                4900.0
            ],
            [
                -255.7642059326172,
                170.65560913085938,
                5000.0
            ],
            [
                -250.20571899414063,
                173.901611328125,
                5100.0
            ],
            [
                -243.9222412109375,
                177.14773559570313,
                5200.0
            ],
            [
                -236.9109344482422,
                180.39749145507813,
                5300.0
            ],
            [
                -229.19906616210938,
                183.64308166503906,
                5400.0
            ],
            [
                -220.7690887451172,
                186.88668823242188,
                5500.0
            ],
            [
                -211.69903564453125,
                190.14044189453125,
                5600.0
            ],
            [
                -201.93597412109375,
                193.38980102539063,
                5700.0
            ],
            [
                -191.50953674316406,
                196.64068603515625,
                5800.0
            ],
            [
                -180.4593048095703,
                199.89048767089844,
                5900.0
            ],
            [
                -168.76564025878906,
                203.1435089111328,
                6000.0
            ],
            [
                -156.45726013183594,
                206.3962860107422,
                6100.0
            ],
            [
                -143.55767822265625,
                209.64561462402344,
                6200.0
            ],
            [
                -130.08116149902344,
                212.89285278320313,
                6300.0
            ],
            [
                -116.05278778076172,
                216.1373748779297,
                6400.0
            ],
            [
                -101.47522735595703,
                219.37693786621094,
                6500.0
            ],
            [
                -86.40259552001953,
                222.61460876464844,
                6600.0
            ],
            [
                -70.8314437866211,
                225.84764099121094,
                6700.0
            ],
            [
                -54.797908782958984,
                229.07534790039063,
                6800.0
            ],
            [
                -38.30803298950195,
                232.29713439941406,
                6900.0
            ],
            [
                -21.393997192382813,
                235.51268005371094,
                7000.0
            ],
            [
                -4.082281589508057,
                238.72171020507813,
                7100.0
            ],
            [
                13.602028846740723,
                241.92410278320313,
                7200.0
            ],
            [
                31.640901565551758,
                245.11953735351563,
                7300.0
            ],
            [
                50.015872955322266,
                248.3080291748047,
                7400.0
            ],
            [
                68.69062042236328,
                251.49002075195313,
                7500.0
            ],
            [
                87.6531753540039,
                254.66490173339844,
                7600.0
            ],
            [
                106.87812042236328,
                257.83319091796875,
                7700.0
            ],
            [
                126.35359191894531,
                260.99505615234375,
                7800.0
            ],
            [
                146.05833435058594,
                264.15081787109375,
                7900.0
            ],
            [
                165.97232055664063,
                267.30084228515625,
                8000.0
            ],
            [
                186.0843048095703,
                270.4453125,
                8100.0
            ],
            [
                206.3720703125,
                273.5848083496094,
                8200.0
            ],
            [
                226.82452392578125,
                276.71954345703125,
                8300.0
            ],
            [
                247.4295196533203,
                279.8497619628906,
                8400.0
            ],
            [
                268.1750793457031,
                282.9758605957031,
                8500.0
            ],
            [
                289.04425048828125,
                286.0981750488281,
                8600.0
            ],
            [
                310.0311584472656,
                289.2170104980469,
                8700.0
            ],
            [
                331.12481689453125,
                292.3325500488281,
                8800.0
            ],
            [
                352.31549072265625,
                295.4453430175781,
                8900.0
            ],
            [
                373.5961608886719,
                298.5555419921875,
                9000.0
            ],
            [
                394.9587097167969,
                301.6634216308594,
                9100.0
            ],
            [
                416.3955993652344,
                304.7692565917969,
                9200.0
            ],
            [
                437.9006652832031,
                307.8732604980469,
                9300.0
            ],
            [
                459.4677429199219,
                310.9755859375,
                9400.0
            ],
            [
                481.09112548828125,
                314.07647705078125,
                9500.0
            ],
            [
                502.76605224609375,
                317.1760559082031,
                9600.0
            ],
            [
                524.48779296875,
                320.2745056152344,
                9700.0
            ],
            [
                546.252197265625,
                323.3719177246094,
                9800.0
            ],
            [
                568.0552368164063,
                326.4684753417969,
                9900.0
            ],
            [
                589.8937377929688,
                329.56427001953125,
                10000.0
            ],
            [
                633.6641845703125,
                335.75390625,
                10200.0
            ],
            [
                677.5418090820313,
                341.9414978027344,
                10400.0
            ],
            [
                721.5067749023438,
                348.12762451171875,
                10600.0
            ],
            [
                765.5462036132813,
                354.3126220703125,
                10800.0
            ],
            [
                809.6436767578125,
                360.4969177246094,
                11000.0
            ],
            [
                853.7911987304688,
                366.6806945800781,
                11200.0
            ],
            [
                897.981201171875,
                372.86407470703125,
                11400.0
            ],
            [
                942.2030639648438,
                379.0473327636719,
                11600.0
            ],
            [
                986.4518432617188,
                385.23052978515625,
                11800.0
            ],
            [
                1030.721435546875,
                391.41375732421875,
                12000.0
            ],
            [
                1075.0125732421875,
                397.5968933105469,
                12200.0
            ],
            [
                1119.3173828125,
                403.7801208496094,
                12400.0
            ],
            [
                1163.6309814453125,
                409.96356201171875,
                12600.0
            ],
            [
                1207.952392578125,
                416.1471862792969,
                12800.0
            ],
            [
                1252.283203125,
                422.33074951171875,
                13000.0
            ],
            [
                1296.62109375,
                428.514404296875,
                13200.0
            ],
            [
                1340.9625244140625,
                434.6981506347656,
                13400.0
            ]
        ],
        "zFirstMeasurement": 79.5152
    },
    {
        "E": 16743.271731392437,
        "chi2": 0.8766933083534241,
        "ip": 0.22916793482981798,
        "ipchi2": 9.594621559609983,
        "mass": 139.57018,
        "particleId": "pi-",
        "pvx": 0.5624,
        "pvy": 0.0573,
        "pvz": -24.3138,
        "px": -337.9023807033307,
        "py": -94.87119057870531,
        "pz": 16739.011018408855,
        "q": -1.0,
        "trajectory": [
            [
                2.3136470317840576,
                0.5344595313072205,
                -100.0
            ],
            [
                2.2127785682678223,
                0.5061203837394714,
                -95.0
            ],
            [
                2.111907482147217,
                0.4777812659740448,
                -90.0
            ],
            [
                2.0110340118408203,
                0.44944217801094055,
                -85.0
            ],
            [
                1.9101765155792236,
                0.42110326886177063,
                -80.0
            ],
            [
                1.8092950582504272,
                0.39276424050331116,
                -75.0
            ],
            [
                1.7084113359451294,
                0.36442527174949646,
                -70.0
            ],
            [
                1.6075252294540405,
                0.33608633279800415,
                -65.0
            ],
            [
                1.506636619567871,
                0.30774742364883423,
                -60.0
            ],
            [
                1.4057456254959106,
                0.2794085443019867,
                -55.0
            ],
            [
                1.30485200881958,
                0.25106972455978394,
                -50.0
            ],
            [
                1.203955888748169,
                0.22273091971874237,
                -45.0
            ],
            [
                1.1030570268630981,
                0.19439217448234558,
                -40.0
            ],
            [
                1.0021556615829468,
                0.16605345904827118,
                -35.0
            ],
            [
                0.9012514352798462,
                0.13771477341651917,
                -30.0
            ],
            [
                0.8003445267677307,
                0.10937613248825073,
                -25.0
            ],
            [
                0.6994348168373108,
                0.08103752136230469,
                -20.0
            ],
            [
                0.5985222458839417,
                0.05269894748926163,
                -15.0
            ],
            [
                0.49760669469833374,
                0.02436041086912155,
                -10.0
            ],
            [
                0.3966882526874542,
                -0.003978092223405838,
                -5.0
            ],
            [
                0.2957668602466583,
                -0.03231656178832054,
                0.0
            ],
            [
                0.19484242796897888,
                -0.06065499782562256,
                5.0
            ],
            [
                0.09391490370035172,
                -0.08899340033531189,
                10.0
            ],
            [
                -0.007015755400061607,
                -0.11733177304267883,
                15.0
            ],
            [
                -0.10794959962368011,
                -0.1456701159477234,
                20.0
            ],
            [
                -0.20888669788837433,
                -0.17400841414928436,
                25.0
            ],
            [
                -0.3098270893096924,
                -0.20234668254852295,
                30.0
            ],
            [
                -0.41077083349227905,
                -0.23068492114543915,
                35.0
            ],
            [
                -0.5117179751396179,
                -0.25902312994003296,
                40.0
            ],
            [
                -0.6126686334609985,
                -0.2873612940311432,
                45.0
            ],
            [
                -0.7136227488517761,
                -0.31569942831993103,
                50.0
            ],
            [
                -0.8145804405212402,
                -0.3440375328063965,
                55.0
            ],
            [
                -0.9155417680740356,
                -0.37237560749053955,
                60.0
            ],
            [
                -1.0165067911148071,
                -0.40071365237236023,
                65.0
            ],
            [
                -1.1174755096435547,
                -0.4290516674518585,
                70.0
            ],
            [
                -1.2184480428695679,
                -0.4573896527290344,
                75.0
            ],
            [
                -1.3194243907928467,
                -0.48572757840156555,
                80.0
            ],
            [
                -1.4204046726226807,
                -0.5140655040740967,
                85.0
            ],
            [
                -1.5213888883590698,
                -0.5424033403396606,
                90.0
            ],
            [
                -1.6223771572113037,
                -0.5707412362098694,
                95.0
            ],
            [
                -1.7233694791793823,
                -0.5990790128707886,
                100.0
            ],
            [
                -2.1273531913757324,
                -0.712429940700531,
                120.0
            ],
            [
                -2.531414747238159,
                -0.8257803320884705,
                140.0
            ],
            [
                -2.935542583465576,
                -0.9391302466392517,
                160.0
            ],
            [
                -3.3397412300109863,
                -1.05247962474823,
                180.0
            ],
            [
                -3.7440121173858643,
                -1.1658287048339844,
                200.0
            ],
            [
                -4.14835786819458,
                -1.279177188873291,
                220.0
            ],
            [
                -4.552779674530029,
                -1.3925052881240845,
                240.0
            ],
            [
                -4.957286357879639,
                -1.5058528184890747,
                260.0
            ],
            [
                -5.361877918243408,
                -1.6192001104354858,
                280.0
            ],
            [
                -5.7665605545043945,
                -1.7325468063354492,
                300.0
            ],
            [
                -6.171334743499756,
                -1.8458932638168335,
                320.0
            ],
            [
                -6.576202392578125,
                -1.9592394828796387,
                340.0
            ],
            [
                -6.981136322021484,
                -2.072585105895996,
                360.0
            ],
            [
                -7.386221408843994,
                -2.1859309673309326,
                380.0
            ],
            [
                -7.791403293609619,
                -2.299276351928711,
                400.0
            ],
            [
                -8.196688652038574,
                -2.4126217365264893,
                420.0
            ],
            [
                -8.602084159851074,
                -2.5259668827056885,
                440.0
            ],
            [
                -9.00759506225586,
                -2.6393117904663086,
                460.0
            ],
            [
                -9.413228988647461,
                -2.7526566982269287,
                480.0
            ],
            [
                -9.818991661071777,
                -2.866001605987549,
                500.0
            ],
            [
                -10.224888801574707,
                -2.979346513748169,
                520.0
            ],
            [
                -10.630927085876465,
                -3.09269118309021,
                540.0
            ],
            [
                -11.037055969238281,
                -3.206035852432251,
                560.0
            ],
            [
                -11.443361282348633,
                -3.319380283355713,
                580.0
            ],
            [
                -11.849813461303711,
                -3.432724952697754,
                600.0
            ],
            [
                -12.256420135498047,
                -3.546069622039795,
                620.0
            ],
            [
                -12.663187980651855,
                -3.659414291381836,
                640.0
            ],
            [
                -13.070119857788086,
                -3.772759199142456,
                660.0
            ],
            [
                -13.477221488952637,
                -3.886103868484497,
                680.0
            ],
            [
                -13.884496688842773,
                -3.999448537826538,
                700.0
            ],
            [
                -14.29195499420166,
                -4.112794399261475,
                720.0
            ],
            [
                -14.69959831237793,
                -4.22614049911499,
                740.0
            ],
            [
                -15.10743236541748,
                -4.339487075805664,
                760.0
            ],
            [
                -15.515460968017578,
                -4.452834129333496,
                780.0
            ],
            [
                -15.923690795898438,
                -4.566181182861328,
                800.0
            ],
            [
                -16.332122802734375,
                -4.679529190063477,
                820.0
            ],
            [
                -16.740766525268555,
                -4.792877674102783,
                840.0
            ],
            [
                -17.149625778198242,
                -4.90622615814209,
                860.0
            ],
            [
                -17.55869483947754,
                -5.0195746421813965,
                880.0
            ],
            [
                -17.967985153198242,
                -5.132923126220703,
                900.0
            ],
            [
                -18.377490997314453,
                -5.24627161026001,
                920.0
            ],
            [
                -18.787227630615234,
                -5.359620571136475,
                940.0
            ],
            [
                -19.19721031188965,
                -5.4729719161987305,
                960.0
            ],
            [
                -19.607450485229492,
                -5.5863261222839355,
                980.0
            ],
            [
                -20.0179386138916,
                -5.699682235717773,
                1000.0
            ],
            [
                -22.07402229309082,
                -6.266473770141602,
                1100.0
            ],
            [
                -24.13671875,
                -6.833293914794922,
                1200.0
            ],
            [
                -26.20590591430664,
                -7.40014123916626,
                1300.0
            ],
            [
                -28.281740188598633,
                -7.966986179351807,
                1400.0
            ],
            [
                -30.361875534057617,
                -8.533722877502441,
                1500.0
            ],
            [
                -32.45001220703125,
                -9.10058879852295,
                1600.0
            ],
            [
                -34.54508590698242,
                -9.667469024658203,
                1700.0
            ],
            [
                -36.64687728881836,
                -10.234368324279785,
                1800.0
            ],
            [
                -38.75733184814453,
                -10.801294326782227,
                1900.0
            ],
            [
                -40.87789535522461,
                -11.368250846862793,
                2000.0
            ],
            [
                -43.009132385253906,
                -11.935242652893066,
                2100.0
            ],
            [
                -45.153934478759766,
                -12.502246856689453,
                2200.0
            ],
            [
                -47.3157958984375,
                -13.069299697875977,
                2300.0
            ],
            [
                -49.49519729614258,
                -13.636415481567383,
                2400.0
            ],
            [
                -51.698421478271484,
                -14.203432083129883,
                2500.0
            ],
            [
                -53.92919158935547,
                -14.77072525024414,
                2600.0
            ],
            [
                -56.19796371459961,
                -15.33816146850586,
                2700.0
            ],
            [
                -58.50343704223633,
                -15.905719757080078,
                2800.0
            ],
            [
                -60.85886001586914,
                -16.473440170288086,
                2900.0
            ],
            [
                -63.270355224609375,
                -17.041322708129883,
                3000.0
            ],
            [
                -65.74344635009766,
                -17.609285354614258,
                3100.0
            ],
            [
                -68.29825592041016,
                -18.177303314208984,
                3200.0
            ],
            [
                -70.93289184570313,
                -18.74540901184082,
                3300.0
            ],
            [
                -73.6562728881836,
                -19.313724517822266,
                3400.0
            ],
            [
                -76.49339294433594,
                -19.88180160522461,
                3500.0
            ],
            [
                -79.43997955322266,
                -20.450496673583984,
                3600.0
            ],
            [
                -82.5171127319336,
                -21.019330978393555,
                3700.0
            ],
            [
                -85.73223114013672,
                -21.588363647460938,
                3800.0
            ],
            [
                -89.08683776855469,
                -22.157581329345703,
                3900.0
            ],
            [
                -92.5907974243164,
                -22.72726058959961,
                4000.0
            ],
            [
                -96.28282165527344,
                -23.29749298095703,
                4100.0
            ],
            [
                -100.13240051269531,
                -23.867910385131836,
                4200.0
            ],
            [
                -104.15755462646484,
                -24.43876075744629,
                4300.0
            ],
            [
                -108.35025024414063,
                -25.009904861450195,
                4400.0
            ],
            [
                -112.7405014038086,
                -25.581451416015625,
                4500.0
            ],
            [
                -117.3178482055664,
                -26.15378761291504,
                4600.0
            ],
            [
                -122.07243347167969,
                -26.726232528686523,
                4700.0
            ],
            [
                -127.02069854736328,
                -27.299530029296875,
                4800.0
            ],
            [
                -132.1440887451172,
                -27.873254776000977,
                4900.0
            ],
            [
                -135.87391662597656,
                -27.02800750732422,
                5000.0
            ],
            [
                -141.3326416015625,
                -27.5698299407959,
                5100.0
            ],
            [
                -146.9731903076172,
                -28.11190414428711,
                5200.0
            ],
            [
                -152.7974395751953,
                -28.65511131286621,
                5300.0
            ],
            [
                -158.7997283935547,
                -29.1977481842041,
                5400.0
            ],
            [
                -164.97915649414063,
                -29.74005699157715,
                5500.0
            ],
            [
                -171.3265380859375,
                -30.284103393554688,
                5600.0
            ],
            [
                -177.8480224609375,
                -30.827905654907227,
                5700.0
            ],
            [
                -184.53643798828125,
                -31.37244987487793,
                5800.0
            ],
            [
                -191.38177490234375,
                -31.91745376586914,
                5900.0
            ],
            [
                -198.388916015625,
                -32.463016510009766,
                6000.0
            ],
            [
                -205.54769897460938,
                -33.0091552734375,
                6100.0
            ],
            [
                -212.85464477539063,
                -33.55545425415039,
                6200.0
            ],
            [
                -220.30511474609375,
                -34.10187911987305,
                6300.0
            ],
            [
                -227.89308166503906,
                -34.648494720458984,
                6400.0
            ],
            [
                -235.6154327392578,
                -35.195091247558594,
                6500.0
            ],
            [
                -243.46310424804688,
                -35.74203109741211,
                6600.0
            ],
            [
                -251.43394470214844,
                -36.289215087890625,
                6700.0
            ],
            [
                -259.51861572265625,
                -36.8365592956543,
                6800.0
            ],
            [
                -267.7156677246094,
                -37.38385009765625,
                6900.0
            ],
            [
                -276.0166931152344,
                -37.93119430541992,
                7000.0
            ],
            [
                -284.41546630859375,
                -38.478607177734375,
                7100.0
            ],
            [
                -292.9059753417969,
                -39.02610778808594,
                7200.0
            ],
            [
                -301.48345947265625,
                -39.57371520996094,
                7300.0
            ],
            [
                -310.14349365234375,
                -40.1213264465332,
                7400.0
            ],
            [
                -318.8766784667969,
                -40.66912078857422,
                7500.0
            ],
            [
                -327.6810607910156,
                -41.21696472167969,
                7600.0
            ],
            [
                -336.5497741699219,
                -41.76497268676758,
                7700.0
            ],
            [
                -345.47998046875,
                -42.31315231323242,
                7800.0
            ],
            [
                -354.466552734375,
                -42.86149215698242,
                7900.0
            ],
            [
                -363.5045471191406,
                -43.410003662109375,
                8000.0
            ],
            [
                -372.59130859375,
                -43.958702087402344,
                8100.0
            ],
            [
                -381.7213134765625,
                -44.5075798034668,
                8200.0
            ],
            [
                -390.8918151855469,
                -45.056636810302734,
                8300.0
            ],
            [
                -400.099853515625,
                -45.60585021972656,
                8400.0
            ],
            [
                -409.34234619140625,
                -46.15522384643555,
                8500.0
            ],
            [
                -418.6154479980469,
                -46.704734802246094,
                8600.0
            ],
            [
                -427.91748046875,
                -47.25437545776367,
                8700.0
            ],
            [
                -437.245849609375,
                -47.80412673950195,
                8800.0
            ],
            [
                -446.59808349609375,
                -48.35400390625,
                8900.0
            ],
            [
                -455.97247314453125,
                -48.90400314331055,
                9000.0
            ],
            [
                -465.3670349121094,
                -49.45410919189453,
                9100.0
            ],
            [
                -474.7799377441406,
                -50.00432586669922,
                9200.0
            ],
            [
                -484.2096252441406,
                -50.55464553833008,
                9300.0
            ],
            [
                -493.65460205078125,
                -51.10506057739258,
                9400.0
            ],
            [
                -503.113525390625,
                -51.65556335449219,
                9500.0
            ],
            [
                -512.5851440429688,
                -52.20615005493164,
                9600.0
            ],
            [
                -522.0684204101563,
                -52.756813049316406,
                9700.0
            ],
            [
                -531.5621948242188,
                -53.30754852294922,
                9800.0
            ],
            [
                -541.0655517578125,
                -53.85835266113281,
                9900.0
            ],
            [
                -550.5777587890625,
                -54.409217834472656,
                10000.0
            ],
            [
                -569.6253051757813,
                -55.5111198425293,
                10200.0
            ],
            [
                -588.6995849609375,
                -56.61322021484375,
                10400.0
            ],
            [
                -607.7955932617188,
                -57.715484619140625,
                10600.0
            ],
            [
                -626.9102783203125,
                -58.81789016723633,
                10800.0
            ],
            [
                -646.03955078125,
                -59.92041015625,
                11000.0
            ],
            [
                -665.1814575195313,
                -61.02302169799805,
                11200.0
            ],
            [
                -684.3341064453125,
                -62.12571334838867,
                11400.0
            ],
            [
                -703.4947509765625,
                -63.22846603393555,
                11600.0
            ],
            [
                -722.662353515625,
                -64.33126831054688,
                11800.0
            ],
            [
                -741.8353271484375,
                -65.4341049194336,
                12000.0
            ],
            [
                -761.0137939453125,
                -66.53697967529297,
                12200.0
            ],
            [
                -780.1958618164063,
                -67.63987731933594,
                12400.0
            ],
            [
                -799.3800659179688,
                -68.74279022216797,
                12600.0
            ],
            [
                -818.5664672851563,
                -69.84571838378906,
                12800.0
            ],
            [
                -837.75537109375,
                -70.94865417480469,
                13000.0
            ],
            [
                -856.9461059570313,
                -72.05160522460938,
                13200.0
            ],
            [
                -876.1376342773438,
                -73.1545639038086,
                13400.0
            ]
        ],
        "zFirstMeasurement": 449.2343
    }
]
