[
    {
        "E": 24944.6122625318,
        "chi2": 0.0,
        "ip": 0.0352090957646022,
        "ipchi2": 4.110189621529731,
        "mass": 1858.832,
        "particleId": "D0",
        "pvx": 0.6272,
        "pvy": 0.1228,
        "pvz": -4.8011,
        "px": -3333.79,
        "py": 594.81,
        "pz": 24643.67,
        "q": 0.0,
        "trajectory": [
            [
                0.6272000074386597,
                0.12280000001192093,
                -4.80109977722168
            ],
            [
                0.49810001254081726,
                0.11150000244379044,
                -3.963099956512451
            ]
        ],
        "zFirstMeasurement": -9999.0
    },
    {
        "E": 8189.208725851199,
        "chi2": 1.5816959142684937,
        "ip": 0.04933660284452884,
        "ipchi2": 6.417741887487393,
        "mass": 493.677,
        "particleId": "K-",
        "pvx": 0.6272,
        "pvy": 0.1228,
        "pvz": -4.8011,
        "px": -1263.26,
        "py": -554.71,
        "pz": 8057.04,
        "q": -1.0,
        "trajectory": [
            [
                0.49415165185928345,
                0.11451161652803421,
                -3.963099956512451
            ],
            [
                -0.28979721665382385,
                -0.2297259271144867,
                1.0369000434875488
            ],
            [
                -1.0737526416778564,
                -0.5739635825157166,
                6.036900043487549
            ],
            [
                -1.8577146530151367,
                -0.9182014465332031,
                11.03689956665039
            ],
            [
                -2.641683340072632,
                -1.2624393701553345,
                16.03689956665039
            ],
            [
                -3.4256591796875,
                -1.606677532196045,
                21.03689956665039
            ],
            [
                -4.209708213806152,
                -1.9509390592575073,
                26.03689956665039
            ],
            [
                -4.993697643280029,
                -2.295177459716797,
                31.03689956665039
            ],
            [
                -5.777693748474121,
                -2.639415979385376,
                36.03689956665039
            ],
            [
                -6.561697006225586,
                -2.983654737472534,
                41.03689956665039
            ],
            [
                -7.345707416534424,
                -3.3278937339782715,
                46.03689956665039
            ],
            [
                -8.129724502563477,
                -3.672132730484009,
                51.03689956665039
            ],
            [
                -8.913749694824219,
                -4.016371726989746,
                56.03689956665039
            ],
            [
                -9.697781562805176,
                -4.360611438751221,
                61.03689956665039
            ],
            [
                -10.481821060180664,
                -4.704850673675537,
                66.03690338134766
            ],
            [
                -11.265868186950684,
                -5.049090385437012,
                71.03690338134766
            ],
            [
                -12.04992389678955,
                -5.393330097198486,
                76.03690338134766
            ],
            [
                -12.833986282348633,
                -5.737570285797119,
                81.03690338134766
            ],
            [
                -13.618057250976563,
                -6.081810474395752,
                86.03690338134766
            ],
            [
                -14.402135848999023,
                -6.426050662994385,
                91.03690338134766
            ],
            [
                -15.186223030090332,
                -6.770291328430176,
                96.03690338134766
            ],
            [
                -15.970318794250488,
                -7.114531993865967,
                101.03690338134766
            ],
            [
                -19.106786727905273,
                -8.491497039794922,
                121.03690338134766
            ],
            [
                -22.243396759033203,
                -9.868464469909668,
                141.03689575195313
            ],
            [
                -25.380090713500977,
                -11.245434761047363,
                161.03689575195313
            ],
            [
                -28.5169677734375,
                -12.622408866882324,
                181.03689575195313
            ],
            [
                -31.65399742126465,
                -13.999385833740234,
                201.03689575195313
            ],
            [
                -34.79118728637695,
                -15.376367568969727,
                221.03689575195313
            ],
            [
                -37.92854690551758,
                -16.753353118896484,
                241.03689575195313
            ],
            [
                -41.066078186035156,
                -18.130342483520508,
                261.0368957519531
            ],
            [
                -44.20378875732422,
                -19.50733757019043,
                281.0368957519531
            ],
            [
                -47.3416862487793,
                -20.884336471557617,
                301.0368957519531
            ],
            [
                -50.47978210449219,
                -22.261341094970703,
                321.0368957519531
            ],
            [
                -53.618080139160156,
                -23.638349533081055,
                341.0368957519531
            ],
            [
                -56.75658416748047,
                -25.015365600585938,
                361.0368957519531
            ],
            [
                -59.895301818847656,
                -26.392385482788086,
                381.0368957519531
            ],
            [
                -63.034236907958984,
                -27.769411087036133,
                401.0368957519531
            ],
            [
                -66.17340850830078,
                -29.14644432067871,
                421.0368957519531
            ],
            [
                -69.31281280517578,
                -30.523483276367188,
                441.0368957519531
            ],
            [
                -72.45246124267578,
                -31.900527954101563,
                461.0368957519531
            ],
            [
                -75.59236907958984,
                -33.27758026123047,
                481.0368957519531
            ],
            [
                -78.7325439453125,
                -34.654640197753906,
                501.0368957519531
            ],
            [
                -81.87299346923828,
                -36.031707763671875,
                521.0369262695313
            ],
            [
                -85.01371765136719,
                -37.408782958984375,
                541.0369262695313
            ],
            [
                -88.15473937988281,
                -38.785865783691406,
                561.0369262695313
            ],
            [
                -91.29606628417969,
                -40.16295623779297,
                581.0369262695313
            ],
            [
                -94.43769836425781,
                -41.54005813598633,
                601.0369262695313
            ],
            [
                -97.57965850830078,
                -42.91716384887695,
                621.0369262695313
            ],
            [
                -100.72196960449219,
                -44.294273376464844,
                641.0369262695313
            ],
            [
                -103.86467742919922,
                -45.6713981628418,
                661.0369262695313
            ],
            [
                -107.00773620605469,
                -47.048526763916016,
                681.0369262695313
            ],
            [
                -110.15115356445313,
                -48.42566680908203,
                701.0369262695313
            ],
            [
                -113.29491424560547,
                -49.80281066894531,
                721.0369262695313
            ],
            [
                -116.43904113769531,
                -51.179962158203125,
                741.0369262695313
            ],
            [
                -119.58354187011719,
                -52.55712127685547,
                761.0369262695313
            ],
            [
                -122.72842407226563,
                -53.934288024902344,
                781.0369262695313
            ],
            [
                -125.87371063232422,
                -55.31146240234375,
                801.0369262695313
            ],
            [
                -129.01953125,
                -56.68864440917969,
                821.0369262695313
            ],
            [
                -132.16578674316406,
                -58.06583023071289,
                841.0369262695313
            ],
            [
                -135.3124542236328,
                -59.44302749633789,
                861.0369262695313
            ],
            [
                -138.45957946777344,
                -60.82022476196289,
                881.0369262695313
            ],
            [
                -141.60720825195313,
                -62.19743728637695,
                901.0369262695313
            ],
            [
                -144.75526428222656,
                -63.57465744018555,
                921.0369262695313
            ],
            [
                -147.90377807617188,
                -64.9518814086914,
                941.0369262695313
            ],
            [
                -151.05276489257813,
                -66.32911682128906,
                961.0369262695313
            ],
            [
                -154.20237731933594,
                -67.70634460449219,
                981.0369262695313
            ],
            [
                -157.35256958007813,
                -69.08355712890625,
                1001.0369262695313
            ],
            [
                -173.11387634277344,
                -75.96957397460938,
                1101.036865234375
            ],
            [
                -188.88748168945313,
                -82.85548400878906,
                1201.036865234375
            ],
            [
                -204.6749267578125,
                -89.74131774902344,
                1301.036865234375
            ],
            [
                -220.47698974609375,
                -96.62692260742188,
                1401.036865234375
            ],
            [
                -236.2935791015625,
                -103.51239776611328,
                1501.036865234375
            ],
            [
                -252.12066650390625,
                -110.39788055419922,
                1601.036865234375
            ],
            [
                -267.96295166015625,
                -117.28341674804688,
                1701.036865234375
            ],
            [
                -283.8199768066406,
                -124.16930389404297,
                1801.036865234375
            ],
            [
                -299.6933898925781,
                -131.05584716796875,
                1901.036865234375
            ],
            [
                -315.5885925292969,
                -137.9430694580078,
                2001.036865234375
            ],
            [
                -331.51153564453125,
                -144.83187866210938,
                2101.036865234375
            ],
            [
                -347.4588928222656,
                -151.72181701660156,
                2201.036865234375
            ],
            [
                -363.4350280761719,
                -158.6142578125,
                2301.036865234375
            ],
            [
                -379.4468078613281,
                -165.50933837890625,
                2401.036865234375
            ],
            [
                -395.50860595703125,
                -172.40817260742188,
                2501.036865234375
            ],
            [
                -411.6271667480469,
                -179.31179809570313,
                2601.036865234375
            ],
            [
                -427.8150634765625,
                -186.2209014892578,
                2701.036865234375
            ],
            [
                -444.0791320800781,
                -193.13706970214844,
                2801.036865234375
            ],
            [
                -460.4434814453125,
                -200.06072998046875,
                2901.036865234375
            ],
            [
                -476.9132385253906,
                -206.99375915527344,
                3001.036865234375
            ],
            [
                -493.5382080078125,
                -213.93670654296875,
                3101.036865234375
            ],
            [
                -510.2940979003906,
                -220.88995361328125,
                3201.036865234375
            ],
            [
                -527.2221069335938,
                -227.85565185546875,
                3301.036865234375
            ],
            [
                -544.3479614257813,
                -234.83425903320313,
                3401.036865234375
            ],
            [
                -561.699951171875,
                -241.828125,
                3501.036865234375
            ],
            [
                -579.2824096679688,
                -248.8396759033203,
                3601.036865234375
            ],
            [
                -597.1400146484375,
                -255.8662109375,
                3701.036865234375
            ],
            [
                -615.27734375,
                -262.9071044921875,
                3801.036865234375
            ],
            [
                -633.7429809570313,
                -269.96673583984375,
                3901.036865234375
            ],
            [
                -652.5233154296875,
                -277.04656982421875,
                4001.036865234375
            ],
            [
                -671.7058715820313,
                -284.1385498046875,
                4101.037109375
            ],
            [
                -691.2235717773438,
                -291.2452087402344,
                4201.037109375
            ],
            [
                -711.1483764648438,
                -298.3669128417969,
                4301.037109375
            ],
            [
                -731.4954223632813,
                -305.5030517578125,
                4401.037109375
            ],
            [
                -752.204345703125,
                -312.6549072265625,
                4501.037109375
            ],
            [
                -773.366943359375,
                -319.813720703125,
                4601.037109375
            ],
            [
                -794.9216918945313,
                -326.98028564453125,
                4701.037109375
            ],
            [
                -810.2008666992188,
                -331.55963134765625,
                4801.037109375
            ],
            [
                -832.5181884765625,
                -338.6581726074219,
                4901.037109375
            ],
            [
                -855.2435913085938,
                -345.76116943359375,
                5001.037109375
            ],
            [
                -878.4000854492188,
                -352.87396240234375,
                5101.037109375
            ],
            [
                -901.9645385742188,
                -359.9890441894531,
                5201.037109375
            ],
            [
                -925.9414672851563,
                -367.1103210449219,
                5301.037109375
            ],
            [
                -950.3224487304688,
                -374.23187255859375,
                5401.037109375
            ],
            [
                -975.1092529296875,
                -381.3573913574219,
                5501.037109375
            ],
            [
                -1000.28125,
                -388.4878234863281,
                5601.037109375
            ],
            [
                -1025.84765625,
                -395.6165771484375,
                5701.037109375
            ],
            [
                -1051.7940673828125,
                -402.7493591308594,
                5801.037109375
            ],
            [
                -1078.0972900390625,
                -409.881591796875,
                5901.037109375
            ],
            [
                -1104.777099609375,
                -417.0140075683594,
                6001.037109375
            ],
            [
                -1131.80517578125,
                -424.14532470703125,
                6101.037109375
            ],
            [
                -1159.1759033203125,
                -431.27301025390625,
                6201.037109375
            ],
            [
                -1186.8836669921875,
                -438.3977355957031,
                6301.037109375
            ],
            [
                -1214.91162109375,
                -445.5187683105469,
                6401.037109375
            ],
            [
                -1243.25,
                -452.6350402832031,
                6501.037109375
            ],
            [
                -1271.88916015625,
                -459.7453308105469,
                6601.037109375
            ],
            [
                -1300.8116455078125,
                -466.84906005859375,
                6701.037109375
            ],
            [
                -1329.99658203125,
                -473.947021484375,
                6801.037109375
            ],
            [
                -1359.444091796875,
                -481.03582763671875,
                6901.037109375
            ],
            [
                -1389.131591796875,
                -488.1160888671875,
                7001.037109375
            ],
            [
                -1419.0447998046875,
                -495.188232421875,
                7101.037109375
            ],
            [
                -1449.1678466796875,
                -502.2526550292969,
                7201.037109375
            ],
            [
                -1479.48681640625,
                -509.30914306640625,
                7301.037109375
            ],
            [
                -1509.9930419921875,
                -516.3569946289063,
                7401.037109375
            ],
            [
                -1540.65966796875,
                -523.3984985351563,
                7501.037109375
            ],
            [
                -1571.4859619140625,
                -530.4317626953125,
                7601.037109375
            ],
            [
                -1602.4500732421875,
                -537.4591674804688,
                7701.037109375
            ],
            [
                -1633.545166015625,
                -544.4810180664063,
                7801.037109375
            ],
            [
                -1664.758544921875,
                -551.4978637695313,
                7901.037109375
            ],
            [
                -1696.078369140625,
                -558.510498046875,
                8001.037109375
            ],
            [
                -1727.497314453125,
                -565.51953125,
                8101.037109375
            ],
            [
                -1759.00244140625,
                -572.5259399414063,
                8201.037109375
            ],
            [
                -1790.5867919921875,
                -579.5301513671875,
                8301.037109375
            ],
            [
                -1822.243408203125,
                -586.5328369140625,
                8401.037109375
            ],
            [
                -1853.9652099609375,
                -593.5344848632813,
                8501.037109375
            ],
            [
                -1885.7440185546875,
                -600.5355834960938,
                8601.037109375
            ],
            [
                -1917.575439453125,
                -607.5365600585938,
                8701.037109375
            ],
            [
                -1949.4541015625,
                -614.5376586914063,
                8801.037109375
            ],
            [
                -1981.37451171875,
                -621.539306640625,
                8901.037109375
            ],
            [
                -2013.333251953125,
                -628.5416870117188,
                9001.037109375
            ],
            [
                -2045.3260498046875,
                -635.5450439453125,
                9101.037109375
            ],
            [
                -2077.34912109375,
                -642.549560546875,
                9201.037109375
            ],
            [
                -2109.39990234375,
                -649.5552368164063,
                9301.037109375
            ],
            [
                -2141.47509765625,
                -656.5621948242188,
                9401.037109375
            ],
            [
                -2173.572265625,
                -663.5704956054688,
                9501.037109375
            ],
            [
                -2205.68896484375,
                -670.580078125,
                9601.037109375
            ],
            [
                -2237.823486328125,
                -677.5909423828125,
                9701.037109375
            ],
            [
                -2269.973876953125,
                -684.6031494140625,
                9801.037109375
            ],
            [
                -2302.138427734375,
                -691.6165771484375,
                9901.037109375
            ],
            [
                -2334.315673828125,
                -698.6311645507813,
                10001.037109375
            ],
            [
                -2398.703369140625,
                -712.663818359375,
                10201.037109375
            ],
            [
                -2463.12841796875,
                -726.7006225585938,
                10401.037109375
            ],
            [
                -2527.582763671875,
                -740.7412719726563,
                10601.037109375
            ],
            [
                -2592.061767578125,
                -754.7852783203125,
                10801.037109375
            ],
            [
                -2656.55908203125,
                -768.8322143554688,
                11001.037109375
            ],
            [
                -2721.07177734375,
                -782.8818359375,
                11201.037109375
            ],
            [
                -2785.597412109375,
                -796.9338989257813,
                11401.037109375
            ],
            [
                -2850.132080078125,
                -810.98828125,
                11601.037109375
            ],
            [
                -2914.673828125,
                -825.0444946289063,
                11801.037109375
            ],
            [
                -2979.22119140625,
                -839.1024169921875,
                12001.037109375
            ],
            [
                -3043.7744140625,
                -853.1619262695313,
                12201.037109375
            ],
            [
                -3108.330810546875,
                -867.2227783203125,
                12401.037109375
            ],
            [
                -3172.888671875,
                -881.2849731445313,
                12601.037109375
            ],
            [
                -3237.4482421875,
                -895.347900390625,
                12801.037109375
            ],
            [
                -3302.01025390625,
                -909.4115600585938,
                13001.037109375
            ],
            [
                -3366.57373046875,
                -923.4760131835938,
                13201.037109375
            ],
            [
                -3431.1376953125,
                -937.541015625,
                13401.037109375
            ]
        ],
        "zFirstMeasurement": 49.3225
    },
    {
        "E": 16755.91936714596,
        "chi2": 1.1406666040420532,
        "ip": 0.07148360358425579,
        "ipchi2": 10.920447632275899,
        "mass": 139.57,
        "particleId": "pi+",
        "pvx": 0.6272,
        "pvy": 0.1228,
        "pvz": -4.8011,
        "px": -2070.75,
        "py": 1149.26,
        "pz": 16587.12,
        "q": 1.0,
        "trajectory": [
            [
                0.5020677447319031,
                0.1123514249920845,
                -3.963099956512451
            ],
            [
                -0.12213551998138428,
                0.4587836265563965,
                1.0369000434875488
            ],
            [
                -0.7463355660438538,
                0.8052158355712891,
                6.036900043487549
            ],
            [
                -1.3705323934555054,
                1.1516480445861816,
                11.03689956665039
            ],
            [
                -1.9947258234024048,
                1.4980801343917847,
                16.03689956665039
            ],
            [
                -2.6189160346984863,
                1.8445123434066772,
                21.03689956665039
            ],
            [
                -3.243102550506592,
                2.1909444332122803,
                26.03689956665039
            ],
            [
                -3.86728572845459,
                2.537376642227173,
                31.03689956665039
            ],
            [
                -4.4914655685424805,
                2.8838086128234863,
                36.03689956665039
            ],
            [
                -5.115570068359375,
                3.2301766872406006,
                41.03689956665039
            ],
            [
                -5.739742755889893,
                3.576608657836914,
                46.03689956665039
            ],
            [
                -6.3639116287231445,
                3.9230408668518066,
                51.03689956665039
            ],
            [
                -6.988077640533447,
                4.269473075866699,
                56.03689956665039
            ],
            [
                -7.612239837646484,
                4.615904808044434,
                61.03689956665039
            ],
            [
                -8.236398696899414,
                4.962337017059326,
                66.03690338134766
            ],
            [
                -8.860553741455078,
                5.308769226074219,
                71.03690338134766
            ],
            [
                -9.484704971313477,
                5.655200958251953,
                76.03690338134766
            ],
            [
                -10.10885238647461,
                6.001633167266846,
                81.03690338134766
            ],
            [
                -10.732996940612793,
                6.34806489944458,
                86.03690338134766
            ],
            [
                -11.357136726379395,
                6.694497108459473,
                91.03690338134766
            ],
            [
                -11.98127269744873,
                7.040928840637207,
                96.03690338134766
            ],
            [
                -12.6054048538208,
                7.3873610496521,
                101.03690338134766
            ],
            [
                -15.101892471313477,
                8.773088455200195,
                121.03690338134766
            ],
            [
                -17.598310470581055,
                10.158815383911133,
                141.03689575195313
            ],
            [
                -20.094655990600586,
                11.54454231262207,
                161.03689575195313
            ],
            [
                -22.590953826904297,
                12.930268287658691,
                181.03689575195313
            ],
            [
                -25.087162017822266,
                14.315994262695313,
                201.03689575195313
            ],
            [
                -27.583290100097656,
                15.701720237731934,
                221.03689575195313
            ],
            [
                -30.07933807373047,
                17.087444305419922,
                241.03689575195313
            ],
            [
                -32.57530212402344,
                18.473169326782227,
                261.0368957519531
            ],
            [
                -35.07118225097656,
                19.8588924407959,
                281.0368957519531
            ],
            [
                -37.56696701049805,
                21.24461555480957,
                301.0368957519531
            ],
            [
                -40.06265640258789,
                22.630338668823242,
                321.0368957519531
            ],
            [
                -42.558250427246094,
                24.01605987548828,
                341.0368957519531
            ],
            [
                -45.05374526977539,
                25.40178108215332,
                361.0368957519531
            ],
            [
                -47.549137115478516,
                26.787500381469727,
                381.0368957519531
            ],
            [
                -50.0444221496582,
                28.173219680786133,
                401.0368957519531
            ],
            [
                -52.53959274291992,
                29.558937072753906,
                421.0368957519531
            ],
            [
                -55.03465270996094,
                30.94465446472168,
                441.0368957519531
            ],
            [
                -57.52959060668945,
                32.33037185668945,
                461.0368957519531
            ],
            [
                -60.0244026184082,
                33.71608352661133,
                481.0368957519531
            ],
            [
                -62.51908493041992,
                35.10179901123047,
                501.0368957519531
            ],
            [
                -65.01362609863281,
                36.487510681152344,
                521.0369262695313
            ],
            [
                -67.50804138183594,
                37.87321853637695,
                541.0369262695313
            ],
            [
                -70.00231170654297,
                39.25893020629883,
                561.0369262695313
            ],
            [
                -72.49644470214844,
                40.64463806152344,
                581.0369262695313
            ],
            [
                -74.99043273925781,
                42.03034210205078,
                601.0369262695313
            ],
            [
                -77.4842529296875,
                43.41604995727539,
                621.0369262695313
            ],
            [
                -79.97789001464844,
                44.801753997802734,
                641.0369262695313
            ],
            [
                -82.47136688232422,
                46.18745803833008,
                661.0369262695313
            ],
            [
                -84.96466827392578,
                47.573158264160156,
                681.0369262695313
            ],
            [
                -87.45780944824219,
                48.958858489990234,
                701.0369262695313
            ],
            [
                -89.9507827758789,
                50.34455871582031,
                721.0369262695313
            ],
            [
                -92.44357299804688,
                51.73025894165039,
                741.0369262695313
            ],
            [
                -94.93618774414063,
                53.11595916748047,
                761.0369262695313
            ],
            [
                -97.42861938476563,
                54.50165939331055,
                781.0369262695313
            ],
            [
                -99.92079162597656,
                55.887351989746094,
                801.0369262695313
            ],
            [
                -102.41276550292969,
                57.27304458618164,
                821.0369262695313
            ],
            [
                -104.90451049804688,
                58.65873336791992,
                841.0369262695313
            ],
            [
                -107.39604949951172,
                60.0444221496582,
                861.0369262695313
            ],
            [
                -109.88737487792969,
                61.430110931396484,
                881.0369262695313
            ],
            [
                -112.37847900390625,
                62.815799713134766,
                901.0369262695313
            ],
            [
                -114.86939239501953,
                64.20148468017578,
                921.0369262695313
            ],
            [
                -117.36007690429688,
                65.58716583251953,
                941.0369262695313
            ],
            [
                -119.8504867553711,
                66.97285461425781,
                961.0369262695313
            ],
            [
                -122.34063720703125,
                68.35855865478516,
                981.0369262695313
            ],
            [
                -124.8305435180664,
                69.7442626953125,
                1001.0369262695313
            ],
            [
                -137.2753448486328,
                76.6728515625,
                1101.036865234375
            ],
            [
                -149.71409606933594,
                83.60150909423828,
                1201.036865234375
            ],
            [
                -162.1461181640625,
                90.53026580810547,
                1301.036865234375
            ],
            [
                -174.57154846191406,
                97.45918273925781,
                1401.036865234375
            ],
            [
                -186.99008178710938,
                104.38819122314453,
                1501.036865234375
            ],
            [
                -199.40359497070313,
                111.31722259521484,
                1601.036865234375
            ],
            [
                -211.80972290039063,
                118.2462387084961,
                1701.036865234375
            ],
            [
                -224.2087860107422,
                125.17510986328125,
                1801.036865234375
            ],
            [
                -236.5994110107422,
                132.10385131835938,
                1901.036865234375
            ],
            [
                -248.9810028076172,
                139.0323028564453,
                2001.036865234375
            ],
            [
                -261.3487243652344,
                145.9602508544922,
                2101.036865234375
            ],
            [
                -273.705078125,
                152.8878173828125,
                2201.036865234375
            ],
            [
                -286.0495300292969,
                159.8144073486328,
                2301.036865234375
            ],
            [
                -298.3742370605469,
                166.7401123046875,
                2401.036865234375
            ],
            [
                -310.6766052246094,
                173.66436767578125,
                2501.036865234375
            ],
            [
                -322.95037841796875,
                180.58682250976563,
                2601.036865234375
            ],
            [
                -335.1923522949219,
                187.5074005126953,
                2701.036865234375
            ],
            [
                -347.39532470703125,
                194.4257354736328,
                2801.036865234375
            ],
            [
                -359.5518493652344,
                201.34129333496094,
                2901.036865234375
            ],
            [
                -371.6567687988281,
                208.2533416748047,
                3001.036865234375
            ],
            [
                -383.6911926269531,
                215.1620330810547,
                3101.036865234375
            ],
            [
                -395.65765380859375,
                222.06686401367188,
                3201.036865234375
            ],
            [
                -407.54547119140625,
                228.96702575683594,
                3301.036865234375
            ],
            [
                -419.33502197265625,
                235.8625946044922,
                3401.036865234375
            ],
            [
                -431.0169372558594,
                242.75318908691406,
                3501.036865234375
            ],
            [
                -442.5891418457031,
                249.6382598876953,
                3601.036865234375
            ],
            [
                -454.0279541015625,
                256.51873779296875,
                3701.036865234375
            ],
            [
                -465.3320007324219,
                263.3945617675781,
                3801.036865234375
            ],
            [
                -476.4848327636719,
                270.26434326171875,
                3901.036865234375
            ],
            [
                -487.478271484375,
                277.12872314453125,
                4001.036865234375
            ],
            [
                -498.3004455566406,
                283.9915771484375,
                4101.037109375
            ],
            [
                -508.95037841796875,
                290.8492431640625,
                4201.037109375
            ],
            [
                -519.4077758789063,
                297.703857421875,
                4301.037109375
            ],
            [
                -529.6759643554688,
                304.55572509765625,
                4401.037109375
            ],
            [
                -539.7716064453125,
                311.4040832519531,
                4501.037109375
            ],
            [
                -549.6560668945313,
                318.2528076171875,
                4601.037109375
            ],
            [
                -559.3599853515625,
                325.100341796875,
                4701.037109375
            ],
            [
                -569.8464965820313,
                334.04925537109375,
                4801.037109375
            ],
            [
                -579.1574096679688,
                340.9328918457031,
                4901.037109375
            ],
            [
                -588.2808837890625,
                347.8160705566406,
                5001.037109375
            ],
            [
                -597.2091674804688,
                354.70025634765625,
                5101.037109375
            ],
            [
                -605.9507446289063,
                361.5838623046875,
                5201.037109375
            ],
            [
                -614.50341796875,
                368.467041015625,
                5301.037109375
            ],
            [
                -622.8735961914063,
                375.3499450683594,
                5401.037109375
            ],
            [
                -631.0640258789063,
                382.2329406738281,
                5501.037109375
            ],
            [
                -639.0823974609375,
                389.11724853515625,
                5601.037109375
            ],
            [
                -646.9231567382813,
                396.00189208984375,
                5701.037109375
            ],
            [
                -654.5933227539063,
                402.8865661621094,
                5801.037109375
            ],
            [
                -662.1046142578125,
                409.7719421386719,
                5901.037109375
            ],
            [
                -669.4498291015625,
                416.6588134765625,
                6001.037109375
            ],
            [
                -676.6398315429688,
                423.5462646484375,
                6101.037109375
            ],
            [
                -683.6778564453125,
                430.4342041015625,
                6201.037109375
            ],
            [
                -690.569091796875,
                437.3232421875,
                6301.037109375
            ],
            [
                -697.3198852539063,
                444.213134765625,
                6401.037109375
            ],
            [
                -703.9332275390625,
                451.1035461425781,
                6501.037109375
            ],
            [
                -710.4175415039063,
                457.9952392578125,
                6601.037109375
            ],
            [
                -716.7763061523438,
                464.88787841796875,
                6701.037109375
            ],
            [
                -723.0195922851563,
                471.78131103515625,
                6801.037109375
            ],
            [
                -729.1484375,
                478.6757507324219,
                6901.037109375
            ],
            [
                -735.1719360351563,
                485.57110595703125,
                7001.037109375
            ],
            [
                -741.0971069335938,
                492.4672546386719,
                7101.037109375
            ],
            [
                -746.930419921875,
                499.3641052246094,
                7201.037109375
            ],
            [
                -752.6776123046875,
                506.2616271972656,
                7301.037109375
            ],
            [
                -758.342529296875,
                513.1598510742188,
                7401.037109375
            ],
            [
                -763.9364013671875,
                520.0585327148438,
                7501.037109375
            ],
            [
                -769.4600830078125,
                526.9578247070313,
                7601.037109375
            ],
            [
                -774.9221801757813,
                533.8575439453125,
                7701.037109375
            ],
            [
                -780.3255004882813,
                540.7576293945313,
                7801.037109375
            ],
            [
                -785.6755981445313,
                547.6580200195313,
                7901.037109375
            ],
            [
                -790.9774169921875,
                554.5585327148438,
                8001.037109375
            ],
            [
                -796.2339477539063,
                561.459228515625,
                8101.037109375
            ],
            [
                -801.4506225585938,
                568.3599853515625,
                8201.037109375
            ],
            [
                -806.6302490234375,
                575.2606811523438,
                8301.037109375
            ],
            [
                -811.7757568359375,
                582.1613159179688,
                8401.037109375
            ],
            [
                -816.89013671875,
                589.061767578125,
                8501.037109375
            ],
            [
                -821.9771118164063,
                595.9620361328125,
                8601.037109375
            ],
            [
                -827.0381469726563,
                602.862060546875,
                8701.037109375
            ],
            [
                -832.075927734375,
                609.7617797851563,
                8801.037109375
            ],
            [
                -837.0925903320313,
                616.6612548828125,
                8901.037109375
            ],
            [
                -842.0897827148438,
                623.5603637695313,
                9001.037109375
            ],
            [
                -847.0692749023438,
                630.4591674804688,
                9101.037109375
            ],
            [
                -852.0327758789063,
                637.357666015625,
                9201.037109375
            ],
            [
                -856.9817504882813,
                644.2557983398438,
                9301.037109375
            ],
            [
                -861.91748046875,
                651.153564453125,
                9401.037109375
            ],
            [
                -866.8411865234375,
                658.0509643554688,
                9501.037109375
            ],
            [
                -871.7539672851563,
                664.9480590820313,
                9601.037109375
            ],
            [
                -876.6568603515625,
                671.8447265625,
                9701.037109375
            ],
            [
                -881.5506591796875,
                678.7410888671875,
                9801.037109375
            ],
            [
                -886.4363403320313,
                685.6371459960938,
                9901.037109375
            ],
            [
                -891.3145751953125,
                692.5328369140625,
                10001.037109375
            ],
            [
                -901.05126953125,
                706.3232421875,
                10201.037109375
            ],
            [
                -910.765380859375,
                720.112548828125,
                10401.037109375
            ],
            [
                -920.4612426757813,
                733.9007568359375,
                10601.037109375
            ],
            [
                -930.141357421875,
                747.68798828125,
                10801.037109375
            ],
            [
                -939.8092651367188,
                761.4743041992188,
                11001.037109375
            ],
            [
                -949.4666137695313,
                775.2598266601563,
                11201.037109375
            ],
            [
                -959.1150512695313,
                789.044677734375,
                11401.037109375
            ],
            [
                -968.7568359375,
                802.828857421875,
                11601.037109375
            ],
            [
                -978.392822265625,
                816.6124267578125,
                11801.037109375
            ],
            [
                -988.0244140625,
                830.3955688476563,
                12001.037109375
            ],
            [
                -997.6513671875,
                844.1782836914063,
                12201.037109375
            ],
            [
                -1007.2754516601563,
                857.9606323242188,
                12401.037109375
            ],
            [
                -1016.8978271484375,
                871.74267578125,
                12601.037109375
            ],
            [
                -1026.518310546875,
                885.5244750976563,
                12801.037109375
            ],
            [
                -1036.1368408203125,
                899.3060302734375,
                13001.037109375
            ],
            [
                -1045.7537841796875,
                913.08740234375,
                13201.037109375
            ],
            [
                -1055.3701171875,
                926.86865234375,
                13401.037109375
            ]
        ],
        "zFirstMeasurement": 79.5152
    },
    {
        "E": 5146.452897748627,
        "chi2": 1.2808846235275269,
        "ip": 0.14869113578660897,
        "ipchi2": 11.321864359922268,
        "mass": 139.57018,
        "particleId": "pi-",
        "pvx": 0.6272,
        "pvy": 0.1228,
        "pvz": -4.8011,
        "px": 319.75000819501446,
        "py": 289.41433865661895,
        "pz": 5126.450708476504,
        "q": -1.0,
        "trajectory": [
            [
                -5.437355995178223,
                -5.332670211791992,
                -100.0
            ],
            [
                -5.125340461730957,
                -5.050398826599121,
                -95.0
            ],
            [
                -4.813332557678223,
                -4.768126964569092,
                -90.0
            ],
            [
                -4.501331806182861,
                -4.485854625701904,
                -85.0
            ],
            [
                -4.1893391609191895,
                -4.203582286834717,
                -80.0
            ],
            [
                -3.877354383468628,
                -3.92130970954895,
                -75.0
            ],
            [
                -3.565377712249756,
                -3.6390368938446045,
                -70.0
            ],
            [
                -3.2534091472625732,
                -3.356764078140259,
                -65.0
            ],
            [
                -2.941448926925659,
                -3.074490785598755,
                -60.0
            ],
            [
                -2.6294970512390137,
                -2.792217254638672,
                -55.0
            ],
            [
                -2.317553997039795,
                -2.5099434852600098,
                -50.0
            ],
            [
                -2.005619764328003,
                -2.2276697158813477,
                -45.0
            ],
            [
                -1.6936943531036377,
                -1.945395588874817,
                -40.0
            ],
            [
                -1.3817781209945679,
                -1.663121223449707,
                -35.0
            ],
            [
                -1.0698710680007935,
                -1.380846619606018,
                -30.0
            ],
            [
                -0.7579734921455383,
                -1.09857177734375,
                -25.0
            ],
            [
                -0.4460854232311249,
                -0.8162968158721924,
                -20.0
            ],
            [
                -0.13420706987380981,
                -0.5340216159820557,
                -15.0
            ],
            [
                0.17766141891479492,
                -0.25174614787101746,
                -10.0
            ],
            [
                0.4895199239253998,
                0.030529482290148735,
                -5.0
            ],
            [
                0.801368236541748,
                0.31280532479286194,
                0.0
            ],
            [
                1.1132062673568726,
                0.5950813889503479,
                5.0
            ],
            [
                1.4250339269638062,
                0.8773576617240906,
                10.0
            ],
            [
                1.7368507385253906,
                1.1596341133117676,
                15.0
            ],
            [
                2.048656702041626,
                1.4419108629226685,
                20.0
            ],
            [
                2.3604516983032227,
                1.7241877317428589,
                25.0
            ],
            [
                2.6722354888916016,
                2.006464719772339,
                30.0
            ],
            [
                2.9840080738067627,
                2.2887420654296875,
                35.0
            ],
            [
                3.295768976211548,
                2.5710196495056152,
                40.0
            ],
            [
                3.607524871826172,
                2.8533475399017334,
                45.0
            ],
            [
                3.9192633628845215,
                3.1356253623962402,
                50.0
            ],
            [
                4.230990886688232,
                3.417903423309326,
                55.0
            ],
            [
                4.542707443237305,
                3.700181722640991,
                60.0
            ],
            [
                4.854413032531738,
                3.9824602603912354,
                65.0
            ],
            [
                5.166107177734375,
                4.264739036560059,
                70.0
            ],
            [
                5.477789402008057,
                4.547017574310303,
                75.0
            ],
            [
                5.789460182189941,
                4.829297065734863,
                80.0
            ],
            [
                6.101119041442871,
                5.111576080322266,
                85.0
            ],
            [
                6.4127655029296875,
                5.393855571746826,
                90.0
            ],
            [
                6.724400043487549,
                5.676135540008545,
                95.0
            ],
            [
                7.036022186279297,
                5.9584150314331055,
                100.0
            ],
            [
                8.282381057739258,
                7.087536811828613,
                120.0
            ],
            [
                9.528524398803711,
                8.21666145324707,
                140.0
            ],
            [
                10.774435997009277,
                9.34578800201416,
                160.0
            ],
            [
                12.020103454589844,
                10.474918365478516,
                180.0
            ],
            [
                13.265626907348633,
                11.60405158996582,
                200.0
            ],
            [
                14.51084041595459,
                12.733187675476074,
                220.0
            ],
            [
                15.755796432495117,
                13.862325668334961,
                240.0
            ],
            [
                17.000484466552734,
                14.99146556854248,
                260.0
            ],
            [
                18.244892120361328,
                16.120609283447266,
                280.0
            ],
            [
                19.489009857177734,
                17.249753952026367,
                300.0
            ],
            [
                20.732826232910156,
                18.3789005279541,
                320.0
            ],
            [
                21.976333618164063,
                19.50804901123047,
                340.0
            ],
            [
                23.219520568847656,
                20.63719940185547,
                360.0
            ],
            [
                24.462377548217773,
                21.7663516998291,
                380.0
            ],
            [
                25.704896926879883,
                22.895505905151367,
                400.0
            ],
            [
                26.947057723999023,
                24.024660110473633,
                420.0
            ],
            [
                28.188852310180664,
                25.153818130493164,
                440.0
            ],
            [
                29.43024253845215,
                26.282974243164063,
                460.0
            ],
            [
                30.671232223510742,
                27.412132263183594,
                480.0
            ],
            [
                31.91181755065918,
                28.541292190551758,
                500.0
            ],
            [
                33.1519660949707,
                29.67045021057129,
                520.0
            ],
            [
                34.39168167114258,
                30.799610137939453,
                540.0
            ],
            [
                35.63095474243164,
                31.928770065307617,
                560.0
            ],
            [
                36.86977767944336,
                33.05792999267578,
                580.0
            ],
            [
                38.108131408691406,
                34.18709182739258,
                600.0
            ],
            [
                39.345909118652344,
                35.31624984741211,
                620.0
            ],
            [
                40.58315658569336,
                36.44540786743164,
                640.0
            ],
            [
                41.819889068603516,
                37.57456588745117,
                660.0
            ],
            [
                43.05609130859375,
                38.7037239074707,
                680.0
            ],
            [
                44.291748046875,
                39.832881927490234,
                700.0
            ],
            [
                45.52690124511719,
                40.96204376220703,
                720.0
            ],
            [
                46.761497497558594,
                42.09120559692383,
                740.0
            ],
            [
                47.995521545410156,
                43.22037124633789,
                760.0
            ],
            [
                49.22883605957031,
                44.34953308105469,
                780.0
            ],
            [
                50.461299896240234,
                45.47868347167969,
                800.0
            ],
            [
                51.6931266784668,
                46.60783386230469,
                820.0
            ],
            [
                52.924285888671875,
                47.73698425292969,
                840.0
            ],
            [
                54.15476608276367,
                48.86613082885742,
                860.0
            ],
            [
                55.38454818725586,
                49.995277404785156,
                880.0
            ],
            [
                56.61362075805664,
                51.124420166015625,
                900.0
            ],
            [
                57.84207534790039,
                52.253562927246094,
                920.0
            ],
            [
                59.06976318359375,
                53.3827018737793,
                940.0
            ],
            [
                60.296443939208984,
                54.5118293762207,
                960.0
            ],
            [
                61.5223388671875,
                55.640953063964844,
                980.0
            ],
            [
                62.747432708740234,
                56.77007293701172,
                1000.0
            ],
            [
                68.85808563232422,
                62.415767669677734,
                1100.0
            ],
            [
                74.94966888427734,
                68.0616226196289,
                1200.0
            ],
            [
                81.01993560791016,
                73.70748138427734,
                1300.0
            ],
            [
                87.06959533691406,
                79.35346221923828,
                1400.0
            ],
            [
                93.09696197509766,
                84.99954986572266,
                1500.0
            ],
            [
                99.10824584960938,
                90.64572143554688,
                1600.0
            ],
            [
                105.09603118896484,
                96.2918472290039,
                1700.0
            ],
            [
                111.06094360351563,
                101.93783569335938,
                1800.0
            ],
            [
                116.99760437011719,
                107.58345031738281,
                1900.0
            ],
            [
                122.9056396484375,
                113.22858428955078,
                2000.0
            ],
            [
                128.7671356201172,
                118.87323760986328,
                2100.0
            ],
            [
                134.5927276611328,
                124.51731872558594,
                2200.0
            ],
            [
                140.37828063964844,
                130.16024780273438,
                2300.0
            ],
            [
                146.0977325439453,
                135.80215454101563,
                2400.0
            ],
            [
                151.74586486816406,
                141.4422149658203,
                2500.0
            ],
            [
                157.29783630371094,
                147.07986450195313,
                2600.0
            ],
            [
                162.74627685546875,
                152.71539306640625,
                2700.0
            ],
            [
                168.06619262695313,
                158.34812927246094,
                2800.0
            ],
            [
                173.23634338378906,
                163.97679138183594,
                2900.0
            ],
            [
                178.23077392578125,
                169.6014862060547,
                3000.0
            ],
            [
                183.0000762939453,
                175.222900390625,
                3100.0
            ],
            [
                187.54660034179688,
                180.83973693847656,
                3200.0
            ],
            [
                191.83966064453125,
                186.45230102539063,
                3300.0
            ],
            [
                195.80723571777344,
                192.0592498779297,
                3400.0
            ],
            [
                199.42367553710938,
                197.66171264648438,
                3500.0
            ],
            [
                202.6854705810547,
                203.26126098632813,
                3600.0
            ],
            [
                205.52401733398438,
                208.85708618164063,
                3700.0
            ],
            [
                207.92445373535156,
                214.44808959960938,
                3800.0
            ],
            [
                209.8496856689453,
                220.03472900390625,
                3900.0
            ],
            [
                211.2404327392578,
                225.61773681640625,
                4000.0
            ],
            [
                212.12069702148438,
                231.20252990722656,
                4100.0
            ],
            [
                212.42367553710938,
                236.78302001953125,
                4200.0
            ],
            [
                212.11109924316406,
                242.35977172851563,
                4300.0
            ],
            [
                211.2036895751953,
                247.93597412109375,
                4400.0
            ],
            [
                209.7362518310547,
                253.51242065429688,
                4500.0
            ],
            [
                207.60760498046875,
                259.08892822265625,
                4600.0
            ],
            [
                204.88165283203125,
                264.6623840332031,
                4700.0
            ],
            [
                197.51031494140625,
                272.5403747558594,
                4800.0
            ],
            [
                193.605224609375,
                278.36553955078125,
                4900.0
            ],
            [
                189.09164428710938,
                284.1871643066406,
                5000.0
            ],
            [
                183.95635986328125,
                290.0069274902344,
                5100.0
            ],
            [
                178.2186737060547,
                295.8261413574219,
                5200.0
            ],
            [
                171.8724365234375,
                301.644775390625,
                5300.0
            ],
            [
                164.92709350585938,
                307.462890625,
                5400.0
            ],
            [
                157.44874572753906,
                313.2793884277344,
                5500.0
            ],
            [
                149.33834838867188,
                319.0931091308594,
                5600.0
            ],
            [
                140.67660522460938,
                324.9036560058594,
                5700.0
            ],
            [
                131.46986389160156,
                330.7130126953125,
                5800.0
            ],
            [
                121.7388916015625,
                336.51702880859375,
                5900.0
            ],
            [
                111.47016143798828,
                342.3163757324219,
                6000.0
            ],
            [
                100.69245910644531,
                348.1116638183594,
                6100.0
            ],
            [
                89.41270446777344,
                353.9021301269531,
                6200.0
            ],
            [
                77.65475463867188,
                359.687255859375,
                6300.0
            ],
            [
                65.43590545654297,
                365.46685791015625,
                6400.0
            ],
            [
                52.7677116394043,
                371.2404479980469,
                6500.0
            ],
            [
                39.6735725402832,
                377.0065612792969,
                6600.0
            ],
            [
                26.157154083251953,
                382.763916015625,
                6700.0
            ],
            [
                12.261699676513672,
                388.5133056640625,
                6800.0
            ],
            [
                -2.0133557319641113,
                394.2533874511719,
                6900.0
            ],
            [
                -16.639638900756836,
                399.9836120605469,
                7000.0
            ],
            [
                -31.598447799682617,
                405.7038879394531,
                7100.0
            ],
            [
                -46.86344909667969,
                411.414306640625,
                7200.0
            ],
            [
                -62.42010498046875,
                417.114013671875,
                7300.0
            ],
            [
                -78.25454711914063,
                422.80303955078125,
                7400.0
            ],
            [
                -94.33287048339844,
                428.4815673828125,
                7500.0
            ],
            [
                -110.65045928955078,
                434.1490173339844,
                7600.0
            ],
            [
                -127.17928314208984,
                439.80609130859375,
                7700.0
            ],
            [
                -143.91114807128906,
                445.4527893066406,
                7800.0
            ],
            [
                -160.82803344726563,
                451.08941650390625,
                7900.0
            ],
            [
                -177.9130401611328,
                456.71661376953125,
                8000.0
            ],
            [
                -195.1569061279297,
                462.3345947265625,
                8100.0
            ],
            [
                -212.54110717773438,
                467.9441833496094,
                8200.0
            ],
            [
                -230.05657958984375,
                473.5457458496094,
                8300.0
            ],
            [
                -247.6931610107422,
                479.1397705078125,
                8400.0
            ],
            [
                -265.4415588378906,
                484.72674560546875,
                8500.0
            ],
            [
                -283.2870788574219,
                490.30755615234375,
                8600.0
            ],
            [
                -301.2254943847656,
                495.8824157714844,
                8700.0
            ],
            [
                -319.2479248046875,
                501.4519348144531,
                8800.0
            ],
            [
                -337.34661865234375,
                507.0165710449219,
                8900.0
            ],
            [
                -355.5159606933594,
                512.57666015625,
                9000.0
            ],
            [
                -373.7494201660156,
                518.1326904296875,
                9100.0
            ],
            [
                -392.04107666015625,
                523.6849975585938,
                9200.0
            ],
            [
                -410.3859558105469,
                529.2339477539063,
                9300.0
            ],
            [
                -428.7792663574219,
                534.7799072265625,
                9400.0
            ],
            [
                -447.2164306640625,
                540.3232421875,
                9500.0
            ],
            [
                -465.6937561035156,
                545.8641357421875,
                9600.0
            ],
            [
                -484.20751953125,
                551.4028930664063,
                9700.0
            ],
            [
                -502.7544860839844,
                556.9397583007813,
                9800.0
            ],
            [
                -521.3314819335938,
                562.4749755859375,
                9900.0
            ],
            [
                -539.93603515625,
                568.0087280273438,
                10000.0
            ],
            [
                -577.2177734375,
                579.0723876953125,
                10200.0
            ],
            [
                -614.582763671875,
                590.1320190429688,
                10400.0
            ],
            [
                -652.0155029296875,
                601.1886596679688,
                10600.0
            ],
            [
                -689.5061645507813,
                612.242919921875,
                10800.0
            ],
            [
                -727.0419311523438,
                623.295654296875,
                11000.0
            ],
            [
                -764.6166381835938,
                634.34716796875,
                11200.0
            ],
            [
                -802.2242431640625,
                645.3977661132813,
                11400.0
            ],
            [
                -839.8563232421875,
                656.447998046875,
                11600.0
            ],
            [
                -877.5095825195313,
                667.4979858398438,
                11800.0
            ],
            [
                -915.1791381835938,
                678.5478515625,
                12000.0
            ],
            [
                -952.8652954101563,
                689.5975341796875,
                12200.0
            ],
            [
                -990.5621948242188,
                700.6473388671875,
                12400.0
            ],
            [
                -1028.2652587890625,
                711.697509765625,
                12600.0
            ],
            [
                -1065.97509765625,
                722.747802734375,
                12800.0
            ],
            [
                -1103.692626953125,
                733.798095703125,
                13000.0
            ],
            [
                -1141.4150390625,
                744.848388671875,
                13200.0
            ],
            [
                -1179.1402587890625,
                755.89892578125,
                13400.0
            ]
        ],
        "zFirstMeasurement": 94.1031
    },
    {
        "E": 6888.174150872293,
        "chi2": 0.9856747388839722,
        "ip": 1.0933768433256015,
        "ipchi2": 311.6460166957119,
        "mass": 139.57018,
        "particleId": "pi+",
        "pvx": 0.6272,
        "pvy": 0.1228,
        "pvz": -4.8011,
        "px": -349.46408438098985,
        "py": 272.86047629208093,
        "pz": 6872.473012810266,
        "q": 1.0,
        "trajectory": [
            [
                4.791553974151611,
                -2.7959811687469482,
                -100.0
            ],
            [
                4.537199020385742,
                -2.5974631309509277,
                -95.0
            ],
            [
                4.282849311828613,
                -2.3989450931549072,
                -90.0
            ],
            [
                4.028505325317383,
                -2.200427293777466,
                -85.0
            ],
            [
                3.774167537689209,
                -2.0019092559814453,
                -80.0
            ],
            [
                3.5198352336883545,
                -1.8033915758132935,
                -75.0
            ],
            [
                3.2655091285705566,
                -1.604873776435852,
                -70.0
            ],
            [
                3.0111892223358154,
                -1.4063562154769897,
                -65.0
            ],
            [
                2.7568752765655518,
                -1.2078386545181274,
                -60.0
            ],
            [
                2.502568006515503,
                -1.0093210935592651,
                -55.0
            ],
            [
                2.2482669353485107,
                -0.8108036518096924,
                -50.0
            ],
            [
                1.9939725399017334,
                -0.6122862696647644,
                -45.0
            ],
            [
                1.739684820175171,
                -0.4137689769268036,
                -40.0
            ],
            [
                1.4854038953781128,
                -0.21525174379348755,
                -35.0
            ],
            [
                1.2311298847198486,
                -0.01673458144068718,
                -30.0
            ],
            [
                0.9768629670143127,
                0.181782528758049,
                -25.0
            ],
            [
                0.7226030826568604,
                0.38029956817626953,
                -20.0
            ],
            [
                0.46835049986839294,
                0.5788165330886841,
                -15.0
            ],
            [
                0.2141052633523941,
                0.7773334383964539,
                -10.0
            ],
            [
                -0.04013250023126602,
                0.9758503437042236,
                -5.0
            ],
            [
                -0.2943626940250397,
                1.174367070198059,
                0.0
            ],
            [
                -0.5485851764678955,
                1.3728837966918945,
                5.0
            ],
            [
                -0.8027998805046082,
                1.57140052318573,
                10.0
            ],
            [
                -1.057006597518921,
                1.7699171304702759,
                15.0
            ],
            [
                -1.3112051486968994,
                1.9684337377548218,
                20.0
            ],
            [
                -1.565395474433899,
                2.166950225830078,
                25.0
            ],
            [
                -1.8195774555206299,
                2.365466594696045,
                30.0
            ],
            [
                -2.0737509727478027,
                2.5639829635620117,
                35.0
            ],
            [
                -2.327915668487549,
                2.7624993324279785,
                40.0
            ],
            [
                -2.5820717811584473,
                2.961015462875366,
                45.0
            ],
            [
                -2.836219072341919,
                3.159531593322754,
                50.0
            ],
            [
                -3.0903570652008057,
                3.3580477237701416,
                55.0
            ],
            [
                -3.3444859981536865,
                3.5565638542175293,
                60.0
            ],
            [
                -3.5986056327819824,
                3.755079746246338,
                65.0
            ],
            [
                -3.8527159690856934,
                3.9535956382751465,
                70.0
            ],
            [
                -4.10681676864624,
                4.152111530303955,
                75.0
            ],
            [
                -4.3610148429870605,
                4.35068416595459,
                80.0
            ],
            [
                -4.615095615386963,
                4.54919958114624,
                85.0
            ],
            [
                -4.869168281555176,
                4.747715473175049,
                90.0
            ],
            [
                -5.123232841491699,
                4.946230888366699,
                95.0
            ],
            [
                -5.377288818359375,
                5.144746780395508,
                100.0
            ],
            [
                -6.393425941467285,
                5.938807964324951,
                120.0
            ],
            [
                -7.4094157218933105,
                6.732868194580078,
                140.0
            ],
            [
                -8.425247192382813,
                7.526927471160889,
                160.0
            ],
            [
                -9.440910339355469,
                8.320985794067383,
                180.0
            ],
            [
                -10.45639419555664,
                9.115043640136719,
                200.0
            ],
            [
                -11.471688270568848,
                9.909099578857422,
                220.0
            ],
            [
                -12.486781120300293,
                10.703154563903809,
                240.0
            ],
            [
                -13.501660346984863,
                11.497208595275879,
                260.0
            ],
            [
                -14.516414642333984,
                12.29126262664795,
                280.0
            ],
            [
                -15.530899047851563,
                13.085314750671387,
                300.0
            ],
            [
                -16.5451602935791,
                13.879365921020508,
                320.0
            ],
            [
                -17.559188842773438,
                14.673416137695313,
                340.0
            ],
            [
                -18.572978973388672,
                15.4674654006958,
                360.0
            ],
            [
                -19.586523056030273,
                16.26151466369629,
                380.0
            ],
            [
                -20.59980583190918,
                17.055561065673828,
                400.0
            ],
            [
                -21.61281967163086,
                17.849609375,
                420.0
            ],
            [
                -22.625558853149414,
                18.643653869628906,
                440.0
            ],
            [
                -23.63801383972168,
                19.437698364257813,
                460.0
            ],
            [
                -24.65018081665039,
                20.23174285888672,
                480.0
            ],
            [
                -25.662046432495117,
                21.025785446166992,
                500.0
            ],
            [
                -26.67359733581543,
                21.819828033447266,
                520.0
            ],
            [
                -27.684831619262695,
                22.613868713378906,
                540.0
            ],
            [
                -28.695722579956055,
                23.407909393310547,
                560.0
            ],
            [
                -29.706241607666016,
                24.201948165893555,
                580.0
            ],
            [
                -30.71640968322754,
                24.99598503112793,
                600.0
            ],
            [
                -31.72617530822754,
                25.790023803710938,
                620.0
            ],
            [
                -32.735565185546875,
                26.584062576293945,
                640.0
            ],
            [
                -33.744564056396484,
                27.378101348876953,
                660.0
            ],
            [
                -34.75316619873047,
                28.172138214111328,
                680.0
            ],
            [
                -35.7613639831543,
                28.966175079345703,
                700.0
            ],
            [
                -36.76914978027344,
                29.760211944580078,
                720.0
            ],
            [
                -37.77642822265625,
                30.554244995117188,
                740.0
            ],
            [
                -38.78326416015625,
                31.348278045654297,
                760.0
            ],
            [
                -39.78963851928711,
                32.142311096191406,
                780.0
            ],
            [
                -40.79554748535156,
                32.93634033203125,
                800.0
            ],
            [
                -41.80099105834961,
                33.73037338256836,
                820.0
            ],
            [
                -42.80595016479492,
                34.5244026184082,
                840.0
            ],
            [
                -43.8104133605957,
                35.31843185424805,
                860.0
            ],
            [
                -44.81437301635742,
                36.11246109008789,
                880.0
            ],
            [
                -45.81772994995117,
                36.9065055847168,
                900.0
            ],
            [
                -46.820579528808594,
                37.70055389404297,
                920.0
            ],
            [
                -47.822818756103516,
                38.494598388671875,
                940.0
            ],
            [
                -48.8243408203125,
                39.28865051269531,
                960.0
            ],
            [
                -49.825279235839844,
                40.08270263671875,
                980.0
            ],
            [
                -50.825618743896484,
                40.87675476074219,
                1000.0
            ],
            [
                -55.8193244934082,
                44.8470458984375,
                1100.0
            ],
            [
                -60.79403305053711,
                48.81743240356445,
                1200.0
            ],
            [
                -65.75540161132813,
                52.7879638671875,
                1300.0
            ],
            [
                -70.70121002197266,
                56.75852584838867,
                1400.0
            ],
            [
                -75.63272094726563,
                60.729148864746094,
                1500.0
            ],
            [
                -80.54878234863281,
                64.6998291015625,
                1600.0
            ],
            [
                -85.44922637939453,
                68.67054748535156,
                1700.0
            ],
            [
                -90.32918548583984,
                72.6412582397461,
                1800.0
            ],
            [
                -95.19123840332031,
                76.61182403564453,
                1900.0
            ],
            [
                -100.0288314819336,
                80.58218383789063,
                2000.0
            ],
            [
                -104.8407974243164,
                84.55232238769531,
                2100.0
            ],
            [
                -109.61724853515625,
                88.52201843261719,
                2200.0
            ],
            [
                -114.36259460449219,
                92.49144744873047,
                2300.0
            ],
            [
                -119.05947875976563,
                96.4603271484375,
                2400.0
            ],
            [
                -123.6965560913086,
                100.4286117553711,
                2500.0
            ],
            [
                -128.2629852294922,
                104.39608001708984,
                2600.0
            ],
            [
                -132.75184631347656,
                108.36264038085938,
                2700.0
            ],
            [
                -137.1477813720703,
                112.32807922363281,
                2800.0
            ],
            [
                -141.42344665527344,
                116.29206848144531,
                2900.0
            ],
            [
                -145.56175231933594,
                120.254638671875,
                3000.0
            ],
            [
                -149.5609588623047,
                124.21553802490234,
                3100.0
            ],
            [
                -153.3655548095703,
                128.1746063232422,
                3200.0
            ],
            [
                -156.9720001220703,
                132.13169860839844,
                3300.0
            ],
            [
                -160.343994140625,
                136.08712768554688,
                3400.0
            ],
            [
                -163.4542694091797,
                140.04063415527344,
                3500.0
            ],
            [
                -166.30633544921875,
                143.99148559570313,
                3600.0
            ],
            [
                -168.84640502929688,
                147.9416961669922,
                3700.0
            ],
            [
                -171.03941345214844,
                151.88999938964844,
                3800.0
            ],
            [
                -172.88845825195313,
                155.8362274169922,
                3900.0
            ],
            [
                -174.35678100585938,
                159.78134155273438,
                4000.0
            ],
            [
                -175.4393310546875,
                163.72659301757813,
                4100.0
            ],
            [
                -176.0750274658203,
                167.67271423339844,
                4200.0
            ],
            [
                -176.27047729492188,
                171.6189422607422,
                4300.0
            ],
            [
                -176.04745483398438,
                175.5648193359375,
                4400.0
            ],
            [
                -175.38339233398438,
                179.51109313964844,
                4500.0
            ],
            [
                -174.2574005126953,
                183.46005249023438,
                4600.0
            ],
            [
                -172.65484619140625,
                187.40965270996094,
                4700.0
            ],
            [
                -170.6290740966797,
                191.3588409423828,
                4800.0
            ],
            [
                -171.34432983398438,
                189.76121520996094,
                4900.0
            ],
            [
                -168.44102478027344,
                193.6157989501953,
                5000.0
            ],
            [
                -165.074951171875,
                197.47544860839844,
                5100.0
            ],
            [
                -161.26097106933594,
                201.33523559570313,
                5200.0
            ],
            [
                -156.99607849121094,
                205.1969757080078,
                5300.0
            ],
            [
                -152.29592895507813,
                209.05650329589844,
                5400.0
            ],
            [
                -147.16299438476563,
                212.9156494140625,
                5500.0
            ],
            [
                -141.6189727783203,
                216.7801055908203,
                5600.0
            ],
            [
                -135.65834045410156,
                220.6427001953125,
                5700.0
            ],
            [
                -129.28929138183594,
                224.50631713867188,
                5800.0
            ],
            [
                -122.53707885742188,
                228.36993408203125,
                5900.0
            ],
            [
                -115.38874053955078,
                232.23587036132813,
                6000.0
            ],
            [
                -107.8648452758789,
                236.10208129882813,
                6100.0
            ],
            [
                -99.97762298583984,
                239.96685791015625,
                6200.0
            ],
            [
                -91.73526763916016,
                243.8311004638672,
                6300.0
            ],
            [
                -83.15935516357422,
                247.69448852539063,
                6400.0
            ],
            [
                -74.25260925292969,
                251.55589294433594,
                6500.0
            ],
            [
                -65.03337860107422,
                255.4168243408203,
                6600.0
            ],
            [
                -55.516448974609375,
                259.276123046875,
                6700.0
            ],
            [
                -45.71914291381836,
                263.1333312988281,
                6800.0
            ],
            [
                -35.64484786987305,
                266.98822021484375,
                6900.0
            ],
            [
                -25.313995361328125,
                270.8406982421875,
                7000.0
            ],
            [
                -14.742582321166992,
                274.6905212402344,
                7100.0
            ],
            [
                -3.9456992149353027,
                278.5376892089844,
                7200.0
            ],
            [
                7.06460428237915,
                282.382080078125,
                7300.0
            ],
            [
                18.277681350708008,
                286.2236633300781,
                7400.0
            ],
            [
                29.670751571655273,
                290.0627136230469,
                7500.0
            ],
            [
                41.23862075805664,
                293.8988952636719,
                7600.0
            ],
            [
                52.96202850341797,
                297.73248291015625,
                7700.0
            ],
            [
                64.83545684814453,
                301.56353759765625,
                7800.0
            ],
            [
                76.84601593017578,
                305.3922119140625,
                7900.0
            ],
            [
                88.98159790039063,
                309.2185974121094,
                8000.0
            ],
            [
                101.23532104492188,
                313.0428466796875,
                8100.0
            ],
            [
                113.59380340576172,
                316.8651428222656,
                8200.0
            ],
            [
                126.05033111572266,
                320.6855773925781,
                8300.0
            ],
            [
                138.59754943847656,
                324.5042724609375,
                8400.0
            ],
            [
                151.2285919189453,
                328.3213195800781,
                8500.0
            ],
            [
                163.9326629638672,
                332.13690185546875,
                8600.0
            ],
            [
                176.70657348632813,
                335.95111083984375,
                8700.0
            ],
            [
                189.54383850097656,
                339.7640075683594,
                8800.0
            ],
            [
                202.4386749267578,
                343.5758056640625,
                8900.0
            ],
            [
                215.38685607910156,
                347.3866271972656,
                9000.0
            ],
            [
                228.38357543945313,
                351.196533203125,
                9100.0
            ],
            [
                241.4243927001953,
                355.0056457519531,
                9200.0
            ],
            [
                254.50563049316406,
                358.81402587890625,
                9300.0
            ],
            [
                267.6236572265625,
                362.62176513671875,
                9400.0
            ],
            [
                280.7751159667969,
                366.4289245605469,
                9500.0
            ],
            [
                293.95721435546875,
                370.2355651855469,
                9600.0
            ],
            [
                307.1671447753906,
                374.0417785644531,
                9700.0
            ],
            [
                320.4024658203125,
                377.8475646972656,
                9800.0
            ],
            [
                333.6607971191406,
                381.6530456542969,
                9900.0
            ],
            [
                346.94024658203125,
                385.45819091796875,
                10000.0
            ],
            [
                373.5550231933594,
                393.0677185058594,
                10200.0
            ],
            [
                400.23388671875,
                400.67645263671875,
                10400.0
            ],
            [
                426.9651184082031,
                408.2845764160156,
                10600.0
            ],
            [
                453.74114990234375,
                415.8922424316406,
                10800.0
            ],
            [
                480.55224609375,
                423.4996032714844,
                11000.0
            ],
            [
                507.39361572265625,
                431.10675048828125,
                11200.0
            ],
            [
                534.2607421875,
                438.7137145996094,
                11400.0
            ],
            [
                561.1473388671875,
                446.32061767578125,
                11600.0
            ],
            [
                588.0503540039063,
                453.927490234375,
                11800.0
            ],
            [
                614.9662475585938,
                461.53436279296875,
                12000.0
            ],
            [
                641.8953857421875,
                469.1412048339844,
                12200.0
            ],
            [
                668.8330078125,
                476.748046875,
                12400.0
            ],
            [
                695.7760009765625,
                484.35498046875,
                12600.0
            ],
            [
                722.7240600585938,
                491.96197509765625,
                12800.0
            ],
            [
                749.6781616210938,
                499.5689392089844,
                13000.0
            ],
            [
                776.6365356445313,
                507.17596435546875,
                13200.0
            ],
            [
                803.5969848632813,
                514.7830200195313,
                13400.0
            ]
        ],
        "zFirstMeasurement": 171.2957
    }
]
