[
    {
        "E": 29859.08242574923,
        "chi2": 0.0,
        "ip": 0.03317194032368911,
        "ipchi2": 3.5802627286304345,
        "mass": 1877.946,
        "particleId": "D0",
        "pvx": 0.598,
        "pvy": 0.0961,
        "pvz": -5.6316,
        "px": 1753.61,
        "py": 2501.46,
        "pz": 29642.97,
        "q": 0.0,
        "trajectory": [
            [
                0.5979999899864197,
                0.09610000252723694,
                -5.6315999031066895
            ],
            [
                0.8366000056266785,
                0.39730000495910645,
                -2.14739990234375
            ]
        ],
        "zFirstMeasurement": -9999.0
    },
    {
        "E": 23577.60496088518,
        "chi2": 0.7366447448730469,
        "ip": 0.095399289535436,
        "ipchi2": 22.293248878464492,
        "mass": 493.677,
        "particleId": "K-",
        "pvx": 0.598,
        "pvy": 0.0961,
        "pvz": -5.6316,
        "px": 1871.2,
        "py": 1445.78,
        "pz": 23453.53,
        "q": -1.0,
        "trajectory": [
            [
                0.837588906288147,
                0.39824607968330383,
                -2.14739990234375
            ],
            [
                1.2365010976791382,
                0.7064684629440308,
                2.85260009765625
            ],
            [
                1.6354111433029175,
                1.0146909952163696,
                7.85260009765625
            ],
            [
                2.034318685531616,
                1.322913408279419,
                12.85260009765625
            ],
            [
                2.4332239627838135,
                1.6311360597610474,
                17.85260009765625
            ],
            [
                2.8321268558502197,
                1.9393585920333862,
                22.85260009765625
            ],
            [
                3.231027364730835,
                2.2475812435150146,
                27.85260009765625
            ],
            [
                3.62992525100708,
                2.5558040142059326,
                32.85260009765625
            ],
            [
                4.028820514678955,
                2.8640267848968506,
                37.85260009765625
            ],
            [
                4.427649974822998,
                3.17218279838562,
                42.85260009765625
            ],
            [
                4.826540470123291,
                3.480405569076538,
                47.85260009765625
            ],
            [
                5.225428581237793,
                3.788628578186035,
                52.85260009765625
            ],
            [
                5.624314308166504,
                4.096851348876953,
                57.85260009765625
            ],
            [
                6.023197650909424,
                4.405074596405029,
                62.85260009765625
            ],
            [
                6.4220781326293945,
                4.713297367095947,
                67.85260009765625
            ],
            [
                6.820956707000732,
                5.021520614624023,
                72.85260009765625
            ],
            [
                7.219832420349121,
                5.3297438621521,
                77.85260009765625
            ],
            [
                7.6187052726745605,
                5.637966632843018,
                82.85260009765625
            ],
            [
                8.017576217651367,
                5.946189880371094,
                87.85260009765625
            ],
            [
                8.416443824768066,
                6.25441312789917,
                92.85260009765625
            ],
            [
                8.815308570861816,
                6.562636852264404,
                97.85260009765625
            ],
            [
                9.214171409606934,
                6.8708600997924805,
                102.85260009765625
            ],
            [
                10.809591293334961,
                8.103754043579102,
                122.85260009765625
            ],
            [
                12.404964447021484,
                9.336647987365723,
                142.85260009765625
            ],
            [
                14.000287055969238,
                10.569543838500977,
                162.85260009765625
            ],
            [
                15.59555435180664,
                11.80243968963623,
                182.85260009765625
            ],
            [
                17.190792083740234,
                13.035335540771484,
                202.85260009765625
            ],
            [
                18.785961151123047,
                14.268233299255371,
                222.85260009765625
            ],
            [
                20.381072998046875,
                15.501130104064941,
                242.85260009765625
            ],
            [
                21.976125717163086,
                16.734027862548828,
                262.85260009765625
            ],
            [
                23.571115493774414,
                17.96692657470703,
                282.85260009765625
            ],
            [
                25.16604232788086,
                19.199825286865234,
                302.85260009765625
            ],
            [
                26.760902404785156,
                20.43272590637207,
                322.85260009765625
            ],
            [
                28.355695724487305,
                21.665624618530273,
                342.85260009765625
            ],
            [
                29.95041847229004,
                22.89852523803711,
                362.85260009765625
            ],
            [
                31.545066833496094,
                24.131425857543945,
                382.85260009765625
            ],
            [
                33.13964080810547,
                25.36432647705078,
                402.85260009765625
            ],
            [
                34.73413848876953,
                26.597227096557617,
                422.85260009765625
            ],
            [
                36.328556060791016,
                27.830127716064453,
                442.85260009765625
            ],
            [
                37.922882080078125,
                29.063030242919922,
                462.85260009765625
            ],
            [
                39.517120361328125,
                30.295930862426758,
                482.85260009765625
            ],
            [
                41.11126708984375,
                31.528833389282227,
                502.85260009765625
            ],
            [
                42.705322265625,
                32.76173400878906,
                522.8526000976563
            ],
            [
                44.299278259277344,
                33.99463653564453,
                542.8526000976563
            ],
            [
                45.89313888549805,
                35.227535247802734,
                562.8526000976563
            ],
            [
                47.486900329589844,
                36.4604377746582,
                582.8526000976563
            ],
            [
                49.08055877685547,
                37.69334030151367,
                602.8526000976563
            ],
            [
                50.67408752441406,
                38.926239013671875,
                622.8526000976563
            ],
            [
                52.26750183105469,
                40.159141540527344,
                642.8526000976563
            ],
            [
                53.860801696777344,
                41.39204025268555,
                662.8526000976563
            ],
            [
                55.45398712158203,
                42.62493896484375,
                682.8526000976563
            ],
            [
                57.047054290771484,
                43.85784149169922,
                702.8526000976563
            ],
            [
                58.6400146484375,
                45.09074020385742,
                722.8526000976563
            ],
            [
                60.23284912109375,
                46.32364273071289,
                742.8526000976563
            ],
            [
                61.825557708740234,
                47.55654525756836,
                762.8526000976563
            ],
            [
                63.41809844970703,
                48.78944396972656,
                782.8526000976563
            ],
            [
                65.01045989990234,
                50.022342681884766,
                802.8526000976563
            ],
            [
                66.60267639160156,
                51.25524139404297,
                822.8526000976563
            ],
            [
                68.19474792480469,
                52.488136291503906,
                842.8526000976563
            ],
            [
                69.78666687011719,
                53.721031188964844,
                862.8526000976563
            ],
            [
                71.37843322753906,
                54.95392990112305,
                882.8526000976563
            ],
            [
                72.97004699707031,
                56.186824798583984,
                902.8526000976563
            ],
            [
                74.5615234375,
                57.41971969604492,
                922.8526000976563
            ],
            [
                76.15281677246094,
                58.652610778808594,
                942.8526000976563
            ],
            [
                77.743896484375,
                59.885501861572266,
                962.8526000976563
            ],
            [
                79.33480072021484,
                61.11839294433594,
                982.8526000976563
            ],
            [
                80.92552947998047,
                62.35128402709961,
                1002.8526000976563
            ],
            [
                88.87596130371094,
                68.51576232910156,
                1102.8525390625
            ],
            [
                96.82218933105469,
                74.68029022216797,
                1202.8525390625
            ],
            [
                104.76372528076172,
                80.8448257446289,
                1302.8525390625
            ],
            [
                112.70077514648438,
                87.0093994140625,
                1402.8525390625
            ],
            [
                120.6329345703125,
                93.17401123046875,
                1502.8525390625
            ],
            [
                128.56155395507813,
                99.33863830566406,
                1602.8525390625
            ],
            [
                136.48509216308594,
                105.50325012207031,
                1702.8525390625
            ],
            [
                144.40357971191406,
                111.6678237915039,
                1802.8525390625
            ],
            [
                152.31576538085938,
                117.83228302001953,
                1902.8525390625
            ],
            [
                160.22171020507813,
                123.99658966064453,
                2002.8525390625
            ],
            [
                168.11782836914063,
                130.16075134277344,
                2102.8525390625
            ],
            [
                176.00601196289063,
                136.32472229003906,
                2202.8525390625
            ],
            [
                183.88552856445313,
                142.4883270263672,
                2302.8525390625
            ],
            [
                191.75054931640625,
                148.65158081054688,
                2402.8525390625
            ],
            [
                199.60003662109375,
                154.81423950195313,
                2502.8525390625
            ],
            [
                207.4285430908203,
                160.97613525390625,
                2602.8525390625
            ],
            [
                215.23472595214844,
                167.13729858398438,
                2702.8525390625
            ],
            [
                223.0126190185547,
                173.29751586914063,
                2802.8525390625
            ],
            [
                230.7574920654297,
                179.45639038085938,
                2902.8525390625
            ],
            [
                238.4638671875,
                185.61387634277344,
                3002.8525390625
            ],
            [
                246.1224822998047,
                191.77015686035156,
                3102.8525390625
            ],
            [
                253.7316131591797,
                197.92474365234375,
                3202.8525390625
            ],
            [
                261.28533935546875,
                204.07762145996094,
                3302.8525390625
            ],
            [
                268.76776123046875,
                210.22836303710938,
                3402.8525390625
            ],
            [
                276.1734619140625,
                216.37713623046875,
                3502.8525390625
            ],
            [
                283.501953125,
                222.5242156982422,
                3602.8525390625
            ],
            [
                290.7373352050781,
                228.66943359375,
                3702.8525390625
            ],
            [
                297.87542724609375,
                234.81234741210938,
                3802.8525390625
            ],
            [
                304.909423828125,
                240.95285034179688,
                3902.8525390625
            ],
            [
                311.827880859375,
                247.09130859375,
                4002.8525390625
            ],
            [
                318.63079833984375,
                253.2290496826172,
                4102.8525390625
            ],
            [
                325.3079833984375,
                259.3644104003906,
                4202.8525390625
            ],
            [
                331.85150146484375,
                265.4976501464844,
                4302.8525390625
            ],
            [
                338.26373291015625,
                271.6296081542969,
                4402.8525390625
            ],
            [
                344.5524597167969,
                277.76055908203125,
                4502.8525390625
            ],
            [
                350.6968994140625,
                283.890869140625,
                4602.8525390625
            ],
            [
                356.70892333984375,
                290.01959228515625,
                4702.8525390625
            ],
            [
                362.7049255371094,
                296.1224670410156,
                4802.8525390625
            ],
            [
                368.4420166015625,
                302.2445373535156,
                4902.8525390625
            ],
            [
                374.047119140625,
                308.3656921386719,
                5002.8525390625
            ],
            [
                379.5143127441406,
                314.4850158691406,
                5102.8525390625
            ],
            [
                384.8512878417969,
                320.6039123535156,
                5202.8525390625
            ],
            [
                390.0559997558594,
                326.722412109375,
                5302.8525390625
            ],
            [
                395.13311767578125,
                332.84100341796875,
                5402.8525390625
            ],
            [
                400.0826110839844,
                338.9593505859375,
                5502.8525390625
            ],
            [
                404.9118957519531,
                345.0763244628906,
                5602.8525390625
            ],
            [
                409.6170349121094,
                351.1934509277344,
                5702.8525390625
            ],
            [
                414.2021179199219,
                357.31036376953125,
                5802.8525390625
            ],
            [
                418.6750793457031,
                363.4269104003906,
                5902.8525390625
            ],
            [
                423.031005859375,
                369.5424499511719,
                6002.8525390625
            ],
            [
                427.2782287597656,
                375.6576843261719,
                6102.8525390625
            ],
            [
                431.41912841796875,
                381.7730407714844,
                6202.8525390625
            ],
            [
                435.4568176269531,
                387.8882141113281,
                6302.8525390625
            ],
            [
                439.3959045410156,
                394.00335693359375,
                6402.8525390625
            ],
            [
                443.238525390625,
                400.1184387207031,
                6502.8525390625
            ],
            [
                446.9906005859375,
                406.2332458496094,
                6602.8525390625
            ],
            [
                450.6546936035156,
                412.34796142578125,
                6702.8525390625
            ],
            [
                454.2376708984375,
                418.462646484375,
                6802.8525390625
            ],
            [
                457.7401428222656,
                424.5771789550781,
                6902.8525390625
            ],
            [
                461.16851806640625,
                430.69158935546875,
                7002.8525390625
            ],
            [
                464.5278015136719,
                436.80596923828125,
                7102.8525390625
            ],
            [
                467.8221740722656,
                442.9202880859375,
                7202.8525390625
            ],
            [
                471.0556640625,
                449.0344543457031,
                7302.8525390625
            ],
            [
                474.23126220703125,
                455.1484069824219,
                7402.8525390625
            ],
            [
                477.3563232421875,
                461.26214599609375,
                7502.8525390625
            ],
            [
                480.4316711425781,
                467.3756408691406,
                7602.8525390625
            ],
            [
                483.4630432128906,
                473.4889221191406,
                7702.8525390625
            ],
            [
                486.4524841308594,
                479.6019287109375,
                7802.8525390625
            ],
            [
                489.4038391113281,
                485.7146301269531,
                7902.8525390625
            ],
            [
                492.320556640625,
                491.8270263671875,
                8002.8525390625
            ],
            [
                495.2047119140625,
                497.9390869140625,
                8102.8525390625
            ],
            [
                498.06005859375,
                504.05084228515625,
                8202.8525390625
            ],
            [
                500.88861083984375,
                510.1622314453125,
                8302.8525390625
            ],
            [
                503.6925048828125,
                516.2732543945313,
                8402.8525390625
            ],
            [
                506.47381591796875,
                522.3839721679688,
                8502.8525390625
            ],
            [
                509.2351379394531,
                528.4943237304688,
                8602.8525390625
            ],
            [
                511.9776306152344,
                534.6043701171875,
                8702.8525390625
            ],
            [
                514.7030639648438,
                540.714111328125,
                8802.8525390625
            ],
            [
                517.4130859375,
                546.823486328125,
                8902.8525390625
            ],
            [
                520.1088256835938,
                552.9325561523438,
                9002.8525390625
            ],
            [
                522.7915649414063,
                559.0413208007813,
                9102.8525390625
            ],
            [
                525.4625244140625,
                565.1497802734375,
                9202.8525390625
            ],
            [
                528.1227416992188,
                571.2579956054688,
                9302.8525390625
            ],
            [
                530.773193359375,
                577.3659057617188,
                9402.8525390625
            ],
            [
                533.414794921875,
                583.4735107421875,
                9502.8525390625
            ],
            [
                536.0482177734375,
                589.5808715820313,
                9602.8525390625
            ],
            [
                538.67431640625,
                595.68798828125,
                9702.8525390625
            ],
            [
                541.293701171875,
                601.794921875,
                9802.8525390625
            ],
            [
                543.906982421875,
                607.9015502929688,
                9902.8525390625
            ],
            [
                546.5147094726563,
                614.008056640625,
                10002.8525390625
            ],
            [
                551.7153930664063,
                626.2203979492188,
                10202.8525390625
            ],
            [
                556.899169921875,
                638.4320678710938,
                10402.8525390625
            ],
            [
                562.0692138671875,
                650.6431274414063,
                10602.8525390625
            ],
            [
                567.2274169921875,
                662.8536376953125,
                10802.8525390625
            ],
            [
                572.37646484375,
                675.063720703125,
                11002.8525390625
            ],
            [
                577.5174560546875,
                687.2733764648438,
                11202.8525390625
            ],
            [
                582.6516723632813,
                699.482666015625,
                11402.8525390625
            ],
            [
                587.7808837890625,
                711.691650390625,
                11602.8525390625
            ],
            [
                592.9056396484375,
                723.900390625,
                11802.8525390625
            ],
            [
                598.0270385742188,
                736.1089477539063,
                12002.8525390625
            ],
            [
                603.1448974609375,
                748.3173217773438,
                12202.8525390625
            ],
            [
                608.260498046875,
                760.5255126953125,
                12402.8525390625
            ],
            [
                613.3748779296875,
                772.7335815429688,
                12602.8525390625
            ],
            [
                618.4877319335938,
                784.9415283203125,
                12802.8525390625
            ],
            [
                623.5989990234375,
                797.1494140625,
                13002.8525390625
            ],
            [
                628.7091674804688,
                809.3572387695313,
                13202.8525390625
            ],
            [
                633.8187866210938,
                821.5650024414063,
                13402.8525390625
            ]
        ],
        "zFirstMeasurement": 94.1031
    },
    {
        "E": 6281.199404022868,
        "chi2": 1.283929467201233,
        "ip": 0.4162896925004939,
        "ipchi2": 109.5532532174663,
        "mass": 139.57,
        "particleId": "pi+",
        "pvx": 0.598,
        "pvy": 0.0961,
        "pvz": -5.6316,
        "px": -117.18,
        "py": 1055.9,
        "pz": 6189.13,
        "q": 1.0,
        "trajectory": [
            [
                0.8274528384208679,
                0.3919840157032013,
                -2.14739990234375
            ],
            [
                0.7327913641929626,
                1.2450135946273804,
                2.85260009765625
            ],
            [
                0.6381385326385498,
                2.098043203353882,
                7.85260009765625
            ],
            [
                0.5434945225715637,
                2.9510724544525146,
                12.85260009765625
            ],
            [
                0.4488595128059387,
                3.8041017055511475,
                17.85260009765625
            ],
            [
                0.35423362255096436,
                4.657130718231201,
                22.85260009765625
            ],
            [
                0.2596169710159302,
                5.510159492492676,
                27.85260009765625
            ],
            [
                0.16500969231128693,
                6.363188743591309,
                32.85260009765625
            ],
            [
                0.07047512382268906,
                7.216126441955566,
                37.85260009765625
            ],
            [
                -0.02411331981420517,
                8.069154739379883,
                42.85260009765625
            ],
            [
                -0.11869273334741592,
                8.9221830368042,
                47.85260009765625
            ],
            [
                -0.21326297521591187,
                9.775211334228516,
                52.85260009765625
            ],
            [
                -0.30782389640808105,
                10.628239631652832,
                57.85260009765625
            ],
            [
                -0.40237537026405334,
                11.481267929077148,
                62.85260009765625
            ],
            [
                -0.4969172477722168,
                12.334296226501465,
                67.85260009765625
            ],
            [
                -0.5914493799209595,
                13.187323570251465,
                72.85260009765625
            ],
            [
                -0.6859716773033142,
                14.040350914001465,
                77.85260009765625
            ],
            [
                -0.7804839015007019,
                14.893379211425781,
                82.85260009765625
            ],
            [
                -0.8749860525131226,
                15.746406555175781,
                87.85260009765625
            ],
            [
                -0.9694778323173523,
                16.59943389892578,
                92.85260009765625
            ],
            [
                -1.0639592409133911,
                17.45246124267578,
                97.85260009765625
            ],
            [
                -1.1584299802780151,
                18.30548667907715,
                102.85260009765625
            ],
            [
                -1.5362043380737305,
                21.717594146728516,
                122.85260009765625
            ],
            [
                -1.9137942790985107,
                25.129697799682617,
                142.85260009765625
            ],
            [
                -2.291189193725586,
                28.54180145263672,
                162.85260009765625
            ],
            [
                -2.668459892272949,
                31.953901290893555,
                182.85260009765625
            ],
            [
                -3.045489549636841,
                35.365997314453125,
                202.85260009765625
            ],
            [
                -3.4223124980926514,
                38.77809524536133,
                222.85260009765625
            ],
            [
                -3.798921823501587,
                42.190185546875,
                242.85260009765625
            ],
            [
                -4.175310134887695,
                45.60227966308594,
                262.85260009765625
            ],
            [
                -4.551468849182129,
                49.014366149902344,
                282.85260009765625
            ],
            [
                -4.9273858070373535,
                52.42645263671875,
                302.85260009765625
            ],
            [
                -5.303055763244629,
                55.838539123535156,
                322.85260009765625
            ],
            [
                -5.678471565246582,
                59.25061798095703,
                342.85260009765625
            ],
            [
                -6.053626537322998,
                62.662696838378906,
                362.85260009765625
            ],
            [
                -6.428511619567871,
                66.07477569580078,
                382.85260009765625
            ],
            [
                -6.803118705749512,
                69.48684692382813,
                402.85260009765625
            ],
            [
                -7.177430152893066,
                72.89891815185547,
                422.85260009765625
            ],
            [
                -7.551446437835693,
                76.31098937988281,
                442.85260009765625
            ],
            [
                -7.925147533416748,
                79.72305297851563,
                462.85260009765625
            ],
            [
                -8.298530578613281,
                83.13511657714844,
                482.85260009765625
            ],
            [
                -8.6715669631958,
                86.54718017578125,
                502.85260009765625
            ],
            [
                -9.044261932373047,
                89.95923614501953,
                522.8526000976563
            ],
            [
                -9.416613578796387,
                93.37129211425781,
                542.8526000976563
            ],
            [
                -9.788612365722656,
                96.78334045410156,
                562.8526000976563
            ],
            [
                -10.160252571105957,
                100.19538879394531,
                582.8526000976563
            ],
            [
                -10.531523704528809,
                103.60743713378906,
                602.8526000976563
            ],
            [
                -10.902335166931152,
                107.01947784423828,
                622.8526000976563
            ],
            [
                -11.272674560546875,
                110.4315185546875,
                642.8526000976563
            ],
            [
                -11.642594337463379,
                113.84355163574219,
                662.8526000976563
            ],
            [
                -12.012084007263184,
                117.25558471679688,
                682.8526000976563
            ],
            [
                -12.381134986877441,
                120.66761016845703,
                702.8526000976563
            ],
            [
                -12.749736785888672,
                124.07963562011719,
                722.8526000976563
            ],
            [
                -13.117878913879395,
                127.49166107177734,
                742.8526000976563
            ],
            [
                -13.485553741455078,
                130.9036865234375,
                762.8526000976563
            ],
            [
                -13.852738380432129,
                134.31570434570313,
                782.8526000976563
            ],
            [
                -14.219356536865234,
                137.72772216796875,
                802.8526000976563
            ],
            [
                -14.58544635772705,
                141.13973999023438,
                822.8526000976563
            ],
            [
                -14.95097827911377,
                144.5517578125,
                842.8526000976563
            ],
            [
                -15.315977096557617,
                147.9637908935547,
                862.8526000976563
            ],
            [
                -15.680431365966797,
                151.3758087158203,
                882.8526000976563
            ],
            [
                -16.044349670410156,
                154.78782653808594,
                902.8526000976563
            ],
            [
                -16.407821655273438,
                158.1998291015625,
                922.8526000976563
            ],
            [
                -16.7707576751709,
                161.61183166503906,
                942.8526000976563
            ],
            [
                -17.132883071899414,
                165.02383422851563,
                962.8526000976563
            ],
            [
                -17.494335174560547,
                168.4358367919922,
                982.8526000976563
            ],
            [
                -17.855201721191406,
                171.8478240966797,
                1002.8526000976563
            ],
            [
                -19.64610481262207,
                188.9078826904297,
                1102.8525390625
            ],
            [
                -21.421964645385742,
                205.96807861328125,
                1202.8525390625
            ],
            [
                -23.180471420288086,
                223.02838134765625,
                1302.8525390625
            ],
            [
                -24.92207145690918,
                240.08868408203125,
                1402.8525390625
            ],
            [
                -26.646970748901367,
                257.1490173339844,
                1502.8525390625
            ],
            [
                -28.360567092895508,
                274.20953369140625,
                1602.8525390625
            ],
            [
                -30.05765151977539,
                291.2701416015625,
                1702.8525390625
            ],
            [
                -31.740299224853516,
                308.3306884765625,
                1802.8525390625
            ],
            [
                -33.40617370605469,
                325.3908996582031,
                1902.8525390625
            ],
            [
                -35.05555725097656,
                342.4506530761719,
                2002.8525390625
            ],
            [
                -36.67491149902344,
                359.5096435546875,
                2102.8525390625
            ],
            [
                -38.27668762207031,
                376.568359375,
                2202.8525390625
            ],
            [
                -39.862945556640625,
                393.6264343261719,
                2302.8525390625
            ],
            [
                -41.414634704589844,
                410.6837463378906,
                2402.8525390625
            ],
            [
                -42.92741775512695,
                427.73992919921875,
                2502.8525390625
            ],
            [
                -44.38762283325195,
                444.79461669921875,
                2602.8525390625
            ],
            [
                -45.791709899902344,
                461.8475646972656,
                2702.8525390625
            ],
            [
                -47.12046432495117,
                478.8986511230469,
                2802.8525390625
            ],
            [
                -48.35652542114258,
                495.9478759765625,
                2902.8525390625
            ],
            [
                -49.490020751953125,
                512.9940185546875,
                3002.8525390625
            ],
            [
                -50.47029113769531,
                530.03662109375,
                3102.8525390625
            ],
            [
                -51.30799865722656,
                547.0782470703125,
                3202.8525390625
            ],
            [
                -51.97267150878906,
                564.1165161132813,
                3302.8525390625
            ],
            [
                -52.41857147216797,
                581.1531982421875,
                3402.8525390625
            ],
            [
                -52.61311721801758,
                598.1873779296875,
                3502.8525390625
            ],
            [
                -52.54189682006836,
                615.2207641601563,
                3602.8525390625
            ],
            [
                -52.115875244140625,
                632.2517700195313,
                3702.8525390625
            ],
            [
                -51.32065200805664,
                649.2841796875,
                3802.8525390625
            ],
            [
                -50.075706481933594,
                666.3173217773438,
                3902.8525390625
            ],
            [
                -48.37932586669922,
                683.356201171875,
                4002.8525390625
            ],
            [
                -46.1668815612793,
                700.3950805664063,
                4102.8525390625
            ],
            [
                -43.39485168457031,
                717.44091796875,
                4202.8525390625
            ],
            [
                -40.07925033569336,
                734.4979248046875,
                4302.8525390625
            ],
            [
                -36.19931411743164,
                751.5572509765625,
                4402.8525390625
            ],
            [
                -31.75588035583496,
                768.6238403320313,
                4502.8525390625
            ],
            [
                -26.631738662719727,
                785.6978759765625,
                4602.8525390625
            ],
            [
                -21.030832290649414,
                802.77685546875,
                4702.8525390625
            ],
            [
                -9.807280540466309,
                818.9735107421875,
                4802.8525390625
            ],
            [
                -2.8409297466278076,
                836.0321655273438,
                4902.8525390625
            ],
            [
                4.697965145111084,
                853.0824584960938,
                5002.8525390625
            ],
            [
                12.81950855255127,
                870.1445922851563,
                5102.8525390625
            ],
            [
                21.438777923583984,
                887.210205078125,
                5202.8525390625
            ],
            [
                30.618453979492188,
                904.2817993164063,
                5302.8525390625
            ],
            [
                40.323036193847656,
                921.3578491210938,
                5402.8525390625
            ],
            [
                50.54640579223633,
                938.4277954101563,
                5502.8525390625
            ],
            [
                61.2935905456543,
                955.5076904296875,
                5602.8525390625
            ],
            [
                72.5267562866211,
                972.5826416015625,
                5702.8525390625
            ],
            [
                84.28321838378906,
                989.6607666015625,
                5802.8525390625
            ],
            [
                96.52001190185547,
                1006.7305908203125,
                5902.8525390625
            ],
            [
                109.27738189697266,
                1023.80078125,
                6002.8525390625
            ],
            [
                122.49365234375,
                1040.869873046875,
                6102.8525390625
            ],
            [
                136.18472290039063,
                1057.9307861328125,
                6202.8525390625
            ],
            [
                150.3472900390625,
                1074.98095703125,
                6302.8525390625
            ],
            [
                164.96322631835938,
                1092.0220947265625,
                6402.8525390625
            ],
            [
                180.02731323242188,
                1109.0498046875,
                6502.8525390625
            ],
            [
                195.524169921875,
                1126.0609130859375,
                6602.8525390625
            ],
            [
                211.4225311279297,
                1143.049560546875,
                6702.8525390625
            ],
            [
                227.7001190185547,
                1160.017822265625,
                6802.8525390625
            ],
            [
                244.3497772216797,
                1176.9588623046875,
                6902.8525390625
            ],
            [
                261.32940673828125,
                1193.8721923828125,
                7002.8525390625
            ],
            [
                278.6025085449219,
                1210.755615234375,
                7102.8525390625
            ],
            [
                296.1402587890625,
                1227.609130859375,
                7202.8525390625
            ],
            [
                313.9114074707031,
                1244.4326171875,
                7302.8525390625
            ],
            [
                331.9017028808594,
                1261.225830078125,
                7402.8525390625
            ],
            [
                350.0669250488281,
                1277.9925537109375,
                7502.8525390625
            ],
            [
                368.40020751953125,
                1294.73046875,
                7602.8525390625
            ],
            [
                386.8682861328125,
                1311.4434814453125,
                7702.8525390625
            ],
            [
                405.46124267578125,
                1328.132080078125,
                7802.8525390625
            ],
            [
                424.1611633300781,
                1344.798583984375,
                7902.8525390625
            ],
            [
                442.9527282714844,
                1361.445068359375,
                8002.8525390625
            ],
            [
                461.82672119140625,
                1378.0728759765625,
                8102.8525390625
            ],
            [
                480.7703552246094,
                1394.6844482421875,
                8202.8525390625
            ],
            [
                499.77557373046875,
                1411.28125,
                8302.8525390625
            ],
            [
                518.8357543945313,
                1427.864501953125,
                8402.8525390625
            ],
            [
                537.94482421875,
                1444.43603515625,
                8502.8525390625
            ],
            [
                557.0947265625,
                1460.997314453125,
                8602.8525390625
            ],
            [
                576.2830810546875,
                1477.54931640625,
                8702.8525390625
            ],
            [
                595.5052490234375,
                1494.0933837890625,
                8802.8525390625
            ],
            [
                614.7579345703125,
                1510.6304931640625,
                8902.8525390625
            ],
            [
                634.0381469726563,
                1527.1614990234375,
                9002.8525390625
            ],
            [
                653.3428955078125,
                1543.687255859375,
                9102.8525390625
            ],
            [
                672.6697387695313,
                1560.20849609375,
                9202.8525390625
            ],
            [
                692.0164184570313,
                1576.72607421875,
                9302.8525390625
            ],
            [
                711.3809204101563,
                1593.2403564453125,
                9402.8525390625
            ],
            [
                730.7614135742188,
                1609.751953125,
                9502.8525390625
            ],
            [
                750.1563720703125,
                1626.2613525390625,
                9602.8525390625
            ],
            [
                769.5643920898438,
                1642.7689208984375,
                9702.8525390625
            ],
            [
                788.9841918945313,
                1659.2747802734375,
                9802.8525390625
            ],
            [
                808.41455078125,
                1675.779541015625,
                9902.8525390625
            ],
            [
                827.8544921875,
                1692.2833251953125,
                10002.8525390625
            ],
            [
                866.7596435546875,
                1725.2886962890625,
                10202.8525390625
            ],
            [
                905.6932983398438,
                1758.2923583984375,
                10402.8525390625
            ],
            [
                944.6497802734375,
                1791.2955322265625,
                10602.8525390625
            ],
            [
                983.62548828125,
                1824.2984619140625,
                10802.8525390625
            ],
            [
                1022.6161499023438,
                1857.3021240234375,
                11002.8525390625
            ],
            [
                1061.619384765625,
                1890.3065185546875,
                11202.8525390625
            ],
            [
                1100.6328125,
                1923.311767578125,
                11402.8525390625
            ],
            [
                1139.6536865234375,
                1956.3184814453125,
                11602.8525390625
            ],
            [
                1178.6810302734375,
                1989.3262939453125,
                11802.8525390625
            ],
            [
                1217.7132568359375,
                2022.33544921875,
                12002.8525390625
            ],
            [
                1256.749755859375,
                2055.345458984375,
                12202.8525390625
            ],
            [
                1295.7891845703125,
                2088.356201171875,
                12402.8525390625
            ],
            [
                1334.8302001953125,
                2121.36865234375,
                12602.8525390625
            ],
            [
                1373.872802734375,
                2154.3818359375,
                12802.8525390625
            ],
            [
                1412.9171142578125,
                2187.3955078125,
                13002.8525390625
            ],
            [
                1451.96240234375,
                2220.40966796875,
                13202.8525390625
            ],
            [
                1491.0081787109375,
                2253.42431640625,
                13402.8525390625
            ]
        ],
        "zFirstMeasurement": 79.5152
    },
    {
        "E": 6994.692611197811,
        "chi2": 0.977418839931488,
        "ip": 0.23004644182107206,
        "ipchi2": 9.436772438559553,
        "mass": 139.57018,
        "particleId": "pi+",
        "pvx": 0.598,
        "pvy": 0.0961,
        "pvz": -5.6316,
        "px": -262.03111736553416,
        "py": 124.70101707672747,
        "pz": 6987.276596777332,
        "q": 1.0,
        "trajectory": [
            [
                4.368239402770996,
                -1.5734484195709229,
                -100.0
            ],
            [
                4.180592060089111,
                -1.4842126369476318,
                -95.0
            ],
            [
                3.992905378341675,
                -1.3949772119522095,
                -90.0
            ],
            [
                3.805276870727539,
                -1.3057414293289185,
                -85.0
            ],
            [
                3.6176538467407227,
                -1.216505765914917,
                -80.0
            ],
            [
                3.4300363063812256,
                -1.127270221710205,
                -75.0
            ],
            [
                3.242424726486206,
                -1.0380346775054932,
                -70.0
            ],
            [
                3.054818868637085,
                -0.9487992525100708,
                -65.0
            ],
            [
                2.8672189712524414,
                -0.859563946723938,
                -60.0
            ],
            [
                2.6796250343322754,
                -0.7703286409378052,
                -55.0
            ],
            [
                2.492037296295166,
                -0.6810934543609619,
                -50.0
            ],
            [
                2.3044559955596924,
                -0.5918583869934082,
                -45.0
            ],
            [
                2.1168808937072754,
                -0.5026233196258545,
                -40.0
            ],
            [
                1.9293122291564941,
                -0.41338837146759033,
                -35.0
            ],
            [
                1.7417503595352173,
                -0.32415348291397095,
                -30.0
            ],
            [
                1.5541950464248657,
                -0.23491865396499634,
                -25.0
            ],
            [
                1.3666465282440186,
                -0.1456838995218277,
                -20.0
            ],
            [
                1.1791050434112549,
                -0.056449223309755325,
                -15.0
            ],
            [
                0.9915705919265747,
                0.032785385847091675,
                -10.0
            ],
            [
                0.8040432929992676,
                0.122019924223423,
                -5.0
            ],
            [
                0.6165232062339783,
                0.21125440299510956,
                0.0
            ],
            [
                0.4290105402469635,
                0.30048879981040955,
                5.0
            ],
            [
                0.24150533974170685,
                0.38972315192222595,
                10.0
            ],
            [
                0.05400775745511055,
                0.4789574444293976,
                15.0
            ],
            [
                -0.13348206877708435,
                0.568191647529602,
                20.0
            ],
            [
                -0.3209640085697174,
                0.6574258208274841,
                25.0
            ],
            [
                -0.5084379315376282,
                0.7466598749160767,
                30.0
            ],
            [
                -0.6959037184715271,
                0.8358938694000244,
                35.0
            ],
            [
                -0.8833612203598022,
                0.9251278638839722,
                40.0
            ],
            [
                -1.070810317993164,
                1.0143617391586304,
                45.0
            ],
            [
                -1.2582509517669678,
                1.103595495223999,
                50.0
            ],
            [
                -1.4456828832626343,
                1.1928292512893677,
                55.0
            ],
            [
                -1.633105993270874,
                1.2820630073547363,
                60.0
            ],
            [
                -1.8205201625823975,
                1.3712966442108154,
                65.0
            ],
            [
                -2.007925271987915,
                1.460530161857605,
                70.0
            ],
            [
                -2.1953213214874268,
                1.5497636795043945,
                75.0
            ],
            [
                -2.3827078342437744,
                1.6389970779418945,
                80.0
            ],
            [
                -2.570085048675537,
                1.728230357170105,
                85.0
            ],
            [
                -2.7574527263641357,
                1.8174636363983154,
                90.0
            ],
            [
                -2.944810628890991,
                1.9066969156265259,
                95.0
            ],
            [
                -3.1321587562561035,
                1.9959300756454468,
                100.0
            ],
            [
                -3.881519079208374,
                2.35288405418396,
                120.0
            ],
            [
                -4.63067102432251,
                2.70981502532959,
                140.0
            ],
            [
                -5.379673004150391,
                3.0667450428009033,
                160.0
            ],
            [
                -6.128514766693115,
                3.4236743450164795,
                180.0
            ],
            [
                -6.877185821533203,
                3.78060245513916,
                200.0
            ],
            [
                -7.625675678253174,
                4.137529373168945,
                220.0
            ],
            [
                -8.37397289276123,
                4.494455814361572,
                240.0
            ],
            [
                -9.122066497802734,
                4.851381301879883,
                260.0
            ],
            [
                -9.86994457244873,
                5.208306312561035,
                280.0
            ],
            [
                -10.617596626281738,
                5.565230369567871,
                300.0
            ],
            [
                -11.365142822265625,
                5.922152996063232,
                320.0
            ],
            [
                -12.112384796142578,
                6.279075622558594,
                340.0
            ],
            [
                -12.859392166137695,
                6.635997295379639,
                360.0
            ],
            [
                -13.606154441833496,
                6.992918491363525,
                380.0
            ],
            [
                -14.35266399383545,
                7.349839210510254,
                400.0
            ],
            [
                -15.098910331726074,
                7.706759452819824,
                420.0
            ],
            [
                -15.844886779785156,
                8.063678741455078,
                440.0
            ],
            [
                -16.590585708618164,
                8.420598030090332,
                460.0
            ],
            [
                -17.336000442504883,
                8.777517318725586,
                480.0
            ],
            [
                -18.08112144470215,
                9.134435653686523,
                500.0
            ],
            [
                -18.825931549072266,
                9.491353988647461,
                520.0
            ],
            [
                -19.570411682128906,
                9.848271369934082,
                540.0
            ],
            [
                -20.314533233642578,
                10.205188751220703,
                560.0
            ],
            [
                -21.058313369750977,
                10.562106132507324,
                580.0
            ],
            [
                -21.80174446105957,
                10.919023513793945,
                600.0
            ],
            [
                -22.544803619384766,
                11.275941848754883,
                620.0
            ],
            [
                -23.287494659423828,
                11.63286018371582,
                640.0
            ],
            [
                -24.029802322387695,
                11.989779472351074,
                660.0
            ],
            [
                -24.77172088623047,
                12.346697807312012,
                680.0
            ],
            [
                -25.51323890686035,
                12.703617095947266,
                700.0
            ],
            [
                -26.25428581237793,
                13.060534477233887,
                720.0
            ],
            [
                -26.994905471801758,
                13.417450904846191,
                740.0
            ],
            [
                -27.735088348388672,
                13.774367332458496,
                760.0
            ],
            [
                -28.474821090698242,
                14.1312837600708,
                780.0
            ],
            [
                -29.214096069335938,
                14.488201141357422,
                800.0
            ],
            [
                -29.952913284301758,
                14.845117568969727,
                820.0
            ],
            [
                -30.691251754760742,
                15.202033996582031,
                840.0
            ],
            [
                -31.429105758666992,
                15.558951377868652,
                860.0
            ],
            [
                -32.1662712097168,
                15.915877342224121,
                880.0
            ],
            [
                -32.90283966064453,
                16.272809982299805,
                900.0
            ],
            [
                -33.638919830322266,
                16.629743576049805,
                920.0
            ],
            [
                -34.37444305419922,
                16.986679077148438,
                940.0
            ],
            [
                -35.10940170288086,
                17.343616485595703,
                960.0
            ],
            [
                -35.84378433227539,
                17.700557708740234,
                980.0
            ],
            [
                -36.577579498291016,
                18.057498931884766,
                1000.0
            ],
            [
                -40.23878860473633,
                19.842212677001953,
                1100.0
            ],
            [
                -43.885162353515625,
                21.6269588470459,
                1200.0
            ],
            [
                -47.51076889038086,
                23.411815643310547,
                1300.0
            ],
            [
                -51.124935150146484,
                25.19668197631836,
                1400.0
            ],
            [
                -54.7254524230957,
                26.981565475463867,
                1500.0
            ],
            [
                -58.309165954589844,
                28.76655387878418,
                1600.0
            ],
            [
                -61.87660598754883,
                30.551557540893555,
                1700.0
            ],
            [
                -65.42508697509766,
                32.33659362792969,
                1800.0
            ],
            [
                -68.95708465576172,
                34.12156677246094,
                1900.0
            ],
            [
                -72.46305847167969,
                35.906490325927734,
                2000.0
            ],
            [
                -75.94617462158203,
                37.691341400146484,
                2100.0
            ],
            [
                -79.40104675292969,
                39.47614669799805,
                2200.0
            ],
            [
                -82.80412292480469,
                41.260841369628906,
                2300.0
            ],
            [
                -86.1692123413086,
                43.045475006103516,
                2400.0
            ],
            [
                -89.47196960449219,
                44.83003616333008,
                2500.0
            ],
            [
                -92.70890045166016,
                46.61442565917969,
                2600.0
            ],
            [
                -95.86872100830078,
                48.39862060546875,
                2700.0
            ],
            [
                -98.9345932006836,
                50.182559967041016,
                2800.0
            ],
            [
                -101.8801040649414,
                51.96624755859375,
                2900.0
            ],
            [
                -104.69196319580078,
                53.74962615966797,
                3000.0
            ],
            [
                -107.35971069335938,
                55.53268814086914,
                3100.0
            ],
            [
                -109.8638687133789,
                57.31525802612305,
                3200.0
            ],
            [
                -112.1112289428711,
                59.09695816040039,
                3300.0
            ],
            [
                -114.16339874267578,
                60.87858581542969,
                3400.0
            ],
            [
                -115.95718383789063,
                62.65960693359375,
                3500.0
            ],
            [
                -117.48859405517578,
                64.43995666503906,
                3600.0
            ],
            [
                -118.70986938476563,
                66.220703125,
                3700.0
            ],
            [
                -119.6039810180664,
                68.00102233886719,
                3800.0
            ],
            [
                -120.14755249023438,
                69.7806625366211,
                3900.0
            ],
            [
                -120.33761596679688,
                71.56062316894531,
                4000.0
            ],
            [
                -120.1227035522461,
                73.34159851074219,
                4100.0
            ],
            [
                -119.53146362304688,
                75.12383270263672,
                4200.0
            ],
            [
                -118.41752624511719,
                76.90554809570313,
                4300.0
            ],
            [
                -116.93475341796875,
                78.68843078613281,
                4400.0
            ],
            [
                -115.0162124633789,
                80.47230529785156,
                4500.0
            ],
            [
                -112.64312744140625,
                82.25827026367188,
                4600.0
            ],
            [
                -109.82569122314453,
                84.044921875,
                4700.0
            ],
            [
                -106.55948638916016,
                85.83147430419922,
                4800.0
            ],
            [
                -99.29669189453125,
                85.22061920166016,
                4900.0
            ],
            [
                -95.01094055175781,
                86.96881866455078,
                5000.0
            ],
            [
                -90.26545715332031,
                88.72054290771484,
                5100.0
            ],
            [
                -85.08576202392578,
                90.47274017333984,
                5200.0
            ],
            [
                -79.46601867675781,
                92.22744750976563,
                5300.0
            ],
            [
                -73.42220306396484,
                93.98031616210938,
                5400.0
            ],
            [
                -66.9649658203125,
                95.73225402832031,
                5500.0
            ],
            [
                -60.093238830566406,
                97.48897552490234,
                5600.0
            ],
            [
                -52.803916931152344,
                99.24430084228516,
                5700.0
            ],
            [
                -45.11329650878906,
                101.00096893310547,
                5800.0
            ],
            [
                -37.043582916259766,
                102.75811767578125,
                5900.0
            ],
            [
                -28.58146095275879,
                104.51710510253906,
                6000.0
            ],
            [
                -19.7553653717041,
                106.277099609375,
                6100.0
            ],
            [
                -10.574316024780273,
                108.03667449951172,
                6200.0
            ],
            [
                -1.0485745668411255,
                109.7960205078125,
                6300.0
            ],
            [
                8.808917045593262,
                111.55511474609375,
                6400.0
            ],
            [
                18.986656188964844,
                113.3133316040039,
                6500.0
            ],
            [
                29.47247314453125,
                115.0718002319336,
                6600.0
            ],
            [
                40.2553825378418,
                116.82982635498047,
                6700.0
            ],
            [
                51.31508255004883,
                118.58707427978516,
                6800.0
            ],
            [
                62.64743423461914,
                120.34336853027344,
                6900.0
            ],
            [
                74.23100280761719,
                122.09874725341797,
                7000.0
            ],
            [
                86.05046844482422,
                123.85308837890625,
                7100.0
            ],
            [
                98.09210205078125,
                125.6063461303711,
                7200.0
            ],
            [
                110.34478759765625,
                127.35855865478516,
                7300.0
            ],
            [
                122.79752349853516,
                129.1096954345703,
                7400.0
            ],
            [
                135.42730712890625,
                130.8599853515625,
                7500.0
            ],
            [
                148.2305145263672,
                132.6091766357422,
                7600.0
            ],
            [
                161.18991088867188,
                134.35745239257813,
                7700.0
            ],
            [
                174.2985076904297,
                136.1049346923828,
                7800.0
            ],
            [
                187.54379272460938,
                137.8516845703125,
                7900.0
            ],
            [
                200.91387939453125,
                139.5977325439453,
                8000.0
            ],
            [
                214.40208435058594,
                141.34317016601563,
                8100.0
            ],
            [
                227.9952850341797,
                143.0880889892578,
                8200.0
            ],
            [
                241.68685913085938,
                144.83250427246094,
                8300.0
            ],
            [
                255.469482421875,
                146.5764617919922,
                8400.0
            ],
            [
                269.33587646484375,
                148.32000732421875,
                8500.0
            ],
            [
                283.2764892578125,
                150.0631866455078,
                8600.0
            ],
            [
                297.2874755859375,
                151.8060302734375,
                8700.0
            ],
            [
                311.3623046875,
                153.5485382080078,
                8800.0
            ],
            [
                325.4952087402344,
                155.2908477783203,
                8900.0
            ],
            [
                339.68194580078125,
                157.032958984375,
                9000.0
            ],
            [
                353.917724609375,
                158.77493286132813,
                9100.0
            ],
            [
                368.1980285644531,
                160.5167694091797,
                9200.0
            ],
            [
                382.51922607421875,
                162.25852966308594,
                9300.0
            ],
            [
                396.87762451171875,
                164.00018310546875,
                9400.0
            ],
            [
                411.2698669433594,
                165.74179077148438,
                9500.0
            ],
            [
                425.6930847167969,
                167.4833526611328,
                9600.0
            ],
            [
                440.1444396972656,
                169.22488403320313,
                9700.0
            ],
            [
                454.62152099609375,
                170.9663848876953,
                9800.0
            ],
            [
                469.12188720703125,
                172.7078857421875,
                9900.0
            ],
            [
                483.6436462402344,
                174.44937133789063,
                10000.0
            ],
            [
                512.74365234375,
                177.93235778808594,
                10200.0
            ],
            [
                541.9085083007813,
                181.4154052734375,
                10400.0
            ],
            [
                571.1262817382813,
                184.89852905273438,
                10600.0
            ],
            [
                600.389404296875,
                188.38172912597656,
                10800.0
            ],
            [
                629.68798828125,
                191.86505126953125,
                11000.0
            ],
            [
                659.0171508789063,
                195.34844970703125,
                11200.0
            ],
            [
                688.372314453125,
                198.83193969726563,
                11400.0
            ],
            [
                717.7470703125,
                202.31552124023438,
                11600.0
            ],
            [
                747.1385498046875,
                205.79917907714844,
                11800.0
            ],
            [
                776.54296875,
                209.28292846679688,
                12000.0
            ],
            [
                805.960693359375,
                212.7667236328125,
                12200.0
            ],
            [
                835.3870239257813,
                216.25057983398438,
                12400.0
            ],
            [
                864.8187255859375,
                219.73451232910156,
                12600.0
            ],
            [
                894.2555541992188,
                223.21849060058594,
                12800.0
            ],
            [
                923.6984252929688,
                226.70249938964844,
                13000.0
            ],
            [
                953.1456909179688,
                230.18653869628906,
                13200.0
            ],
            [
                982.594970703125,
                233.6706085205078,
                13400.0
            ]
        ],
        "zFirstMeasurement": 201.0477
    },
    {
        "E": 7868.587920182708,
        "chi2": 1.2378407716751099,
        "ip": 7.221656180910652,
        "ipchi2": 2389.2746510681995,
        "mass": 139.57018,
        "particleId": "pi-",
        "pvx": 0.5852,
        "pvy": 0.0186,
        "pvz": 74.108,
        "px": 170.08516158707414,
        "py": 303.5260290624583,
        "pz": 7859.652601100731,
        "q": -1.0,
        "trajectory": [
            [
                -9.760610580444336,
                -9.723506927490234,
                -100.0
            ],
            [
                -9.651957511901855,
                -9.53042221069336,
                -95.0
            ],
            [
                -9.54330825805664,
                -9.337337493896484,
                -90.0
            ],
            [
                -9.434664726257324,
                -9.144251823425293,
                -85.0
            ],
            [
                -9.326026916503906,
                -8.951167106628418,
                -80.0
            ],
            [
                -9.21739387512207,
                -8.758081436157227,
                -75.0
            ],
            [
                -9.108765602111816,
                -8.564996719360352,
                -70.0
            ],
            [
                -9.000143051147461,
                -8.37191104888916,
                -65.0
            ],
            [
                -8.891526222229004,
                -8.178825378417969,
                -60.0
            ],
            [
                -8.782915115356445,
                -7.985739231109619,
                -55.0
            ],
            [
                -8.674308776855469,
                -7.792653560638428,
                -50.0
            ],
            [
                -8.565709114074707,
                -7.599567890167236,
                -45.0
            ],
            [
                -8.457114219665527,
                -7.406481742858887,
                -40.0
            ],
            [
                -8.348526000976563,
                -7.213395595550537,
                -35.0
            ],
            [
                -8.239943504333496,
                -7.020308971405029,
                -30.0
            ],
            [
                -8.131366729736328,
                -6.82722282409668,
                -25.0
            ],
            [
                -8.022796630859375,
                -6.634136199951172,
                -20.0
            ],
            [
                -7.9142327308654785,
                -6.441049575805664,
                -15.0
            ],
            [
                -7.805675029754639,
                -6.247962951660156,
                -10.0
            ],
            [
                -7.6971235275268555,
                -6.05487585067749,
                -5.0
            ],
            [
                -7.588578701019287,
                -5.861788749694824,
                0.0
            ],
            [
                -7.480040550231934,
                -5.668701648712158,
                5.0
            ],
            [
                -7.371509552001953,
                -5.475614547729492,
                10.0
            ],
            [
                -7.262984752655029,
                -5.282527446746826,
                15.0
            ],
            [
                -7.1544671058654785,
                -5.089439868927002,
                20.0
            ],
            [
                -7.045956134796143,
                -4.896352291107178,
                25.0
            ],
            [
                -6.9374518394470215,
                -4.7032647132873535,
                30.0
            ],
            [
                -6.828956604003906,
                -4.510177135467529,
                35.0
            ],
            [
                -6.720468044281006,
                -4.317089080810547,
                40.0
            ],
            [
                -6.6119866371154785,
                -4.1240010261535645,
                45.0
            ],
            [
                -6.503512382507324,
                -3.930913209915161,
                50.0
            ],
            [
                -6.395045757293701,
                -3.7378249168395996,
                55.0
            ],
            [
                -6.286585807800293,
                -3.544736862182617,
                60.0
            ],
            [
                -6.178133487701416,
                -3.3516483306884766,
                65.0
            ],
            [
                -6.0696892738342285,
                -3.158559799194336,
                70.0
            ],
            [
                -5.961252212524414,
                -2.9654712677001953,
                75.0
            ],
            [
                -5.852822780609131,
                -2.7723824977874756,
                80.0
            ],
            [
                -5.744400978088379,
                -2.579293727874756,
                85.0
            ],
            [
                -5.635987281799316,
                -2.386204957962036,
                90.0
            ],
            [
                -5.527581691741943,
                -2.1931159496307373,
                95.0
            ],
            [
                -5.41918420791626,
                -2.0000267028808594,
                100.0
            ],
            [
                -4.98563814163208,
                -1.2276690006256104,
                120.0
            ],
            [
                -4.5522894859313965,
                -0.4553099274635315,
                140.0
            ],
            [
                -4.119073867797852,
                0.3170507848262787,
                160.0
            ],
            [
                -3.6860005855560303,
                1.0894131660461426,
                180.0
            ],
            [
                -3.2530784606933594,
                1.8617770671844482,
                200.0
            ],
            [
                -2.820317268371582,
                2.6341423988342285,
                220.0
            ],
            [
                -2.3877265453338623,
                3.4065091609954834,
                240.0
            ],
            [
                -1.9553166627883911,
                4.178877353668213,
                260.0
            ],
            [
                -1.5230976343154907,
                4.951246738433838,
                280.0
            ],
            [
                -1.091079592704773,
                5.7236175537109375,
                300.0
            ],
            [
                -0.6590880751609802,
                6.496015548706055,
                320.0
            ],
            [
                -0.2273680865764618,
                7.268389701843262,
                340.0
            ],
            [
                0.20403695106506348,
                8.040763854980469,
                360.0
            ],
            [
                0.6352364420890808,
                8.813138961791992,
                380.0
            ],
            [
                1.0662235021591187,
                9.585515022277832,
                400.0
            ],
            [
                1.4969863891601563,
                10.357892990112305,
                420.0
            ],
            [
                1.9275119304656982,
                11.130270957946777,
                440.0
            ],
            [
                2.3577866554260254,
                11.902649879455566,
                460.0
            ],
            [
                2.787797451019287,
                12.675029754638672,
                480.0
            ],
            [
                3.217531204223633,
                13.447410583496094,
                500.0
            ],
            [
                3.6469743251800537,
                14.219791412353516,
                520.0
            ],
            [
                4.076221466064453,
                14.992173194885254,
                540.0
            ],
            [
                4.50511360168457,
                15.764555931091309,
                560.0
            ],
            [
                4.933699131011963,
                16.53693962097168,
                580.0
            ],
            [
                5.361969470977783,
                17.309322357177734,
                600.0
            ],
            [
                5.789913177490234,
                18.08170509338379,
                620.0
            ],
            [
                6.217521667480469,
                18.854089736938477,
                640.0
            ],
            [
                6.644780158996582,
                19.626474380493164,
                660.0
            ],
            [
                7.071671009063721,
                20.39885902404785,
                680.0
            ],
            [
                7.498190879821777,
                21.17124366760254,
                700.0
            ],
            [
                7.924326419830322,
                21.943628311157227,
                720.0
            ],
            [
                8.350059509277344,
                22.71601104736328,
                740.0
            ],
            [
                8.77538776397705,
                23.488391876220703,
                760.0
            ],
            [
                9.200298309326172,
                24.260774612426758,
                780.0
            ],
            [
                9.62478256225586,
                25.03315544128418,
                800.0
            ],
            [
                10.04883098602295,
                25.80553436279297,
                820.0
            ],
            [
                10.472431182861328,
                26.577913284301758,
                840.0
            ],
            [
                10.8955717086792,
                27.350292205810547,
                860.0
            ],
            [
                11.318245887756348,
                28.122669219970703,
                880.0
            ],
            [
                11.740472793579102,
                28.895050048828125,
                900.0
            ],
            [
                12.162237167358398,
                29.667430877685547,
                920.0
            ],
            [
                12.583510398864746,
                30.439809799194336,
                940.0
            ],
            [
                13.004281997680664,
                31.212188720703125,
                960.0
            ],
            [
                13.424541473388672,
                31.984567642211914,
                980.0
            ],
            [
                13.844231605529785,
                32.75693893432617,
                1000.0
            ],
            [
                15.934805870056152,
                36.61875915527344,
                1100.0
            ],
            [
                18.011281967163086,
                40.48052978515625,
                1200.0
            ],
            [
                20.073762893676758,
                44.34225845336914,
                1300.0
            ],
            [
                22.12187385559082,
                48.204010009765625,
                1400.0
            ],
            [
                24.16177749633789,
                52.06602478027344,
                1500.0
            ],
            [
                26.184598922729492,
                55.92780685424805,
                1600.0
            ],
            [
                28.19269561767578,
                59.78953170776367,
                1700.0
            ],
            [
                30.18624496459961,
                63.651206970214844,
                1800.0
            ],
            [
                32.162261962890625,
                67.51282501220703,
                1900.0
            ],
            [
                34.1160888671875,
                71.37435150146484,
                2000.0
            ],
            [
                36.04899978637695,
                75.23580169677734,
                2100.0
            ],
            [
                37.95212173461914,
                79.09711456298828,
                2200.0
            ],
            [
                39.820465087890625,
                82.95829772949219,
                2300.0
            ],
            [
                41.65193557739258,
                86.81924438476563,
                2400.0
            ],
            [
                43.434879302978516,
                90.68040466308594,
                2500.0
            ],
            [
                45.158302307128906,
                94.5407485961914,
                2600.0
            ],
            [
                46.80365753173828,
                98.40067291259766,
                2700.0
            ],
            [
                48.369895935058594,
                102.26007080078125,
                2800.0
            ],
            [
                49.832889556884766,
                106.11884307861328,
                2900.0
            ],
            [
                51.177860260009766,
                109.9771957397461,
                3000.0
            ],
            [
                52.38922119140625,
                113.8350601196289,
                3100.0
            ],
            [
                53.433475494384766,
                117.6923599243164,
                3200.0
            ],
            [
                54.30154037475586,
                121.54902648925781,
                3300.0
            ],
            [
                54.9891242980957,
                125.40513610839844,
                3400.0
            ],
            [
                55.43412399291992,
                129.26168823242188,
                3500.0
            ],
            [
                55.646297454833984,
                133.11712646484375,
                3600.0
            ],
            [
                55.5797119140625,
                136.97190856933594,
                3700.0
            ],
            [
                55.22039794921875,
                140.8268585205078,
                3800.0
            ],
            [
                54.557613372802734,
                144.68240356445313,
                3900.0
            ],
            [
                53.576751708984375,
                148.53726196289063,
                4000.0
            ],
            [
                52.20380401611328,
                152.39149475097656,
                4100.0
            ],
            [
                50.47963333129883,
                156.24586486816406,
                4200.0
            ],
            [
                48.37238693237305,
                160.10044860839844,
                4300.0
            ],
            [
                45.922035217285156,
                163.95529174804688,
                4400.0
            ],
            [
                43.05119323730469,
                167.8081512451172,
                4500.0
            ],
            [
                39.77791213989258,
                171.66152954101563,
                4600.0
            ],
            [
                36.11036682128906,
                175.5152130126953,
                4700.0
            ],
            [
                32.032772064208984,
                179.3693389892578,
                4800.0
            ],
            [
                27.58587074279785,
                183.22251892089844,
                4900.0
            ],
            [
                25.638051986694336,
                183.8912353515625,
                5000.0
            ],
            [
                20.319408416748047,
                187.65150451660156,
                5100.0
            ],
            [
                14.609174728393555,
                191.41168212890625,
                5200.0
            ],
            [
                8.50428581237793,
                195.17079162597656,
                5300.0
            ],
            [
                2.019160270690918,
                198.9307403564453,
                5400.0
            ],
            [
                -4.8454108238220215,
                202.68991088867188,
                5500.0
            ],
            [
                -12.06813907623291,
                206.44662475585938,
                5600.0
            ],
            [
                -19.664949417114258,
                210.20278930664063,
                5700.0
            ],
            [
                -27.619688034057617,
                213.95777893066406,
                5800.0
            ],
            [
                -35.91065216064453,
                217.7104949951172,
                5900.0
            ],
            [
                -44.54908752441406,
                221.4607391357422,
                6000.0
            ],
            [
                -53.51650619506836,
                225.20913696289063,
                6100.0
            ],
            [
                -62.80226135253906,
                228.9559326171875,
                6200.0
            ],
            [
                -72.39739227294922,
                232.7006072998047,
                6300.0
            ],
            [
                -82.28872680664063,
                236.4431915283203,
                6400.0
            ],
            [
                -92.46907043457031,
                240.1839599609375,
                6500.0
            ],
            [
                -102.92086791992188,
                243.9216766357422,
                6600.0
            ],
            [
                -113.63846588134766,
                247.6564483642578,
                6700.0
            ],
            [
                -124.60215759277344,
                251.38844299316406,
                6800.0
            ],
            [
                -135.8088836669922,
                255.11741638183594,
                6900.0
            ],
            [
                -147.2406463623047,
                258.8431091308594,
                7000.0
            ],
            [
                -158.88340759277344,
                262.5655822753906,
                7100.0
            ],
            [
                -170.72398376464844,
                266.28485107421875,
                7200.0
            ],
            [
                -182.75196838378906,
                270.0006408691406,
                7300.0
            ],
            [
                -194.95791625976563,
                273.7130432128906,
                7400.0
            ],
            [
                -207.3206024169922,
                277.4219970703125,
                7500.0
            ],
            [
                -219.8369140625,
                281.1274108886719,
                7600.0
            ],
            [
                -232.49105834960938,
                284.82940673828125,
                7700.0
            ],
            [
                -245.2769012451172,
                288.5279846191406,
                7800.0
            ],
            [
                -258.1830139160156,
                292.2232666015625,
                7900.0
            ],
            [
                -271.1988830566406,
                295.9154357910156,
                8000.0
            ],
            [
                -284.31854248046875,
                299.6045837402344,
                8100.0
            ],
            [
                -297.5301513671875,
                303.29095458984375,
                8200.0
            ],
            [
                -310.8278503417969,
                306.9747009277344,
                8300.0
            ],
            [
                -324.20513916015625,
                310.656005859375,
                8400.0
            ],
            [
                -337.65557861328125,
                314.33502197265625,
                8500.0
            ],
            [
                -351.1706237792969,
                318.01202392578125,
                8600.0
            ],
            [
                -364.7469177246094,
                321.6871337890625,
                8700.0
            ],
            [
                -378.37872314453125,
                325.3605651855469,
                8800.0
            ],
            [
                -392.06097412109375,
                329.03240966796875,
                8900.0
            ],
            [
                -405.7900085449219,
                332.7027893066406,
                9000.0
            ],
            [
                -419.5614929199219,
                336.3718566894531,
                9100.0
            ],
            [
                -433.3716125488281,
                340.039794921875,
                9200.0
            ],
            [
                -447.21710205078125,
                343.7066345214844,
                9300.0
            ],
            [
                -461.0947570800781,
                347.37255859375,
                9400.0
            ],
            [
                -475.0016174316406,
                351.03765869140625,
                9500.0
            ],
            [
                -488.9352722167969,
                354.7019958496094,
                9600.0
            ],
            [
                -502.8931884765625,
                358.36566162109375,
                9700.0
            ],
            [
                -516.873291015625,
                362.0287780761719,
                9800.0
            ],
            [
                -530.8734741210938,
                365.6913757324219,
                9900.0
            ],
            [
                -544.8920288085938,
                369.3535461425781,
                10000.0
            ],
            [
                -572.9778442382813,
                376.6767578125,
                10200.0
            ],
            [
                -601.1193237304688,
                383.998779296875,
                10400.0
            ],
            [
                -629.306396484375,
                391.3199768066406,
                10600.0
            ],
            [
                -657.5322875976563,
                398.6405334472656,
                10800.0
            ],
            [
                -685.7886352539063,
                405.9607238769531,
                11000.0
            ],
            [
                -714.0711669921875,
                413.2806396484375,
                11200.0
            ],
            [
                -742.3759765625,
                420.6003723144531,
                11400.0
            ],
            [
                -770.697509765625,
                427.9200744628906,
                11600.0
            ],
            [
                -799.0333251953125,
                435.2397766113281,
                11800.0
            ],
            [
                -827.380126953125,
                442.5595703125,
                12000.0
            ],
            [
                -855.7383422851563,
                449.8793640136719,
                12200.0
            ],
            [
                -884.1038818359375,
                457.19921875,
                12400.0
            ],
            [
                -912.473876953125,
                464.519287109375,
                12600.0
            ],
            [
                -940.8482666015625,
                471.83941650390625,
                12800.0
            ],
            [
                -969.2278442382813,
                479.15960693359375,
                13000.0
            ],
            [
                -997.6110229492188,
                486.4798278808594,
                13200.0
            ],
            [
                -1025.99609375,
                493.8001403808594,
                13400.0
            ]
        ],
        "zFirstMeasurement": 434.2704
    }
]
