[
    {
        "E": 22884.05676194377,
        "chi2": 0.0,
        "ip": 0.020363976632550462,
        "ipchi2": 1.1238904870910758,
        "mass": 1847.203,
        "particleId": "D0",
        "pvx": 0.5782,
        "pvy": 0.0802,
        "pvz": -23.4394,
        "px": 2603.82,
        "py": -620.02,
        "pz": 22651.79,
        "q": 0.0,
        "trajectory": [
            [
                0.5781999826431274,
                0.08020000159740448,
                -23.43939971923828
            ],
            [
                0.6322000026702881,
                0.07360000163316727,
                -22.816299438476563
            ]
        ],
        "zFirstMeasurement": -9999.0
    },
    {
        "E": 7187.849022757602,
        "chi2": 0.5852863192558289,
        "ip": 0.08509078889632828,
        "ipchi2": 12.850516570272017,
        "mass": 493.677,
        "particleId": "K-",
        "pvx": 0.5782,
        "pvy": 0.0802,
        "pvz": -23.4394,
        "px": 1446.48,
        "py": -586.03,
        "pz": 6998.98,
        "q": -1.0,
        "trajectory": [
            [
                0.6263499855995178,
                0.06119244918227196,
                -22.816299438476563
            ],
            [
                1.6596940755844116,
                -0.35746097564697266,
                -17.816299438476563
            ],
            [
                2.693030834197998,
                -0.7761139273643494,
                -12.816300392150879
            ],
            [
                3.7263598442077637,
                -1.1947664022445679,
                -7.816299915313721
            ],
            [
                4.759681701660156,
                -1.6134183406829834,
                -2.8162999153137207
            ],
            [
                5.792995452880859,
                -2.0320699214935303,
                2.1837000846862793
            ],
            [
                6.826382160186768,
                -2.450727939605713,
                7.183700084686279
            ],
            [
                7.859680652618408,
                -2.8693783283233643,
                12.183699607849121
            ],
            [
                8.892971992492676,
                -3.2880282402038574,
                17.183700561523438
            ],
            [
                9.926255226135254,
                -3.7066779136657715,
                22.183700561523438
            ],
            [
                10.959529876708984,
                -4.125326633453369,
                27.183700561523438
            ],
            [
                11.9927978515625,
                -4.543975353240967,
                32.18370056152344
            ],
            [
                13.026057243347168,
                -4.962623119354248,
                37.18370056152344
            ],
            [
                14.059308052062988,
                -5.381270885467529,
                42.18370056152344
            ],
            [
                15.092550277709961,
                -5.799917697906494,
                47.18370056152344
            ],
            [
                16.125783920288086,
                -6.218564033508301,
                52.18370056152344
            ],
            [
                17.15900993347168,
                -6.637209892272949,
                57.18370056152344
            ],
            [
                18.19222640991211,
                -7.0558552742004395,
                62.18370056152344
            ],
            [
                19.225433349609375,
                -7.4745001792907715,
                67.18370056152344
            ],
            [
                20.258630752563477,
                -7.893144130706787,
                72.18370056152344
            ],
            [
                21.291820526123047,
                -8.311787605285645,
                77.18370056152344
            ],
            [
                22.325000762939453,
                -8.73043155670166,
                82.18370056152344
            ],
            [
                23.358171463012695,
                -9.149073600769043,
                87.18370056152344
            ],
            [
                24.39133071899414,
                -9.567715644836426,
                92.18370056152344
            ],
            [
                25.424482345581055,
                -9.986357688903809,
                97.18370056152344
            ],
            [
                26.457622528076172,
                -10.404997825622559,
                102.18370056152344
            ],
            [
                30.590085983276367,
                -12.07955551147461,
                122.18370056152344
            ],
            [
                34.722450256347656,
                -13.754106521606445,
                142.18370056152344
            ],
            [
                38.854610443115234,
                -15.428646087646484,
                162.18370056152344
            ],
            [
                42.98659896850586,
                -17.10317611694336,
                182.18370056152344
            ],
            [
                47.118412017822266,
                -18.77769660949707,
                202.18370056152344
            ],
            [
                51.25003433227539,
                -20.452205657958984,
                222.18370056152344
            ],
            [
                55.3814697265625,
                -22.126707077026367,
                242.18370056152344
            ],
            [
                59.512699127197266,
                -23.80119514465332,
                262.1836853027344
            ],
            [
                63.64371109008789,
                -25.475671768188477,
                282.1836853027344
            ],
            [
                67.77450561523438,
                -27.150136947631836,
                302.1836853027344
            ],
            [
                71.90506744384766,
                -28.8245906829834,
                322.1836853027344
            ],
            [
                76.03539276123047,
                -30.49903106689453,
                342.1836853027344
            ],
            [
                80.16547393798828,
                -32.173458099365234,
                362.1836853027344
            ],
            [
                84.29530334472656,
                -33.84787368774414,
                382.1836853027344
            ],
            [
                88.42488098144531,
                -35.522274017333984,
                402.1836853027344
            ],
            [
                92.55418395996094,
                -37.196659088134766,
                422.1836853027344
            ],
            [
                96.68321990966797,
                -38.871028900146484,
                442.1836853027344
            ],
            [
                100.81197357177734,
                -40.54538345336914,
                462.1836853027344
            ],
            [
                104.9404296875,
                -42.219722747802734,
                482.1836853027344
            ],
            [
                109.06856536865234,
                -43.89404296875,
                502.1836853027344
            ],
            [
                113.19633483886719,
                -45.568355560302734,
                522.1837158203125
            ],
            [
                117.32376861572266,
                -47.242652893066406,
                542.1837158203125
            ],
            [
                121.45087432861328,
                -48.916934967041016,
                562.1837158203125
            ],
            [
                125.57762145996094,
                -50.5911979675293,
                582.1837158203125
            ],
            [
                129.7039794921875,
                -52.265445709228516,
                602.1837158203125
            ],
            [
                133.82989501953125,
                -53.93968200683594,
                622.1837158203125
            ],
            [
                137.95541381835938,
                -55.61389923095703,
                642.1837158203125
            ],
            [
                142.0804901123047,
                -57.28810119628906,
                662.1837158203125
            ],
            [
                146.20513916015625,
                -58.962284088134766,
                682.1837158203125
            ],
            [
                150.3293914794922,
                -60.63644790649414,
                702.1837158203125
            ],
            [
                154.453369140625,
                -62.31058883666992,
                722.1837158203125
            ],
            [
                158.5769500732422,
                -63.98470687866211,
                742.1837158203125
            ],
            [
                162.70010375976563,
                -65.65879821777344,
                762.1837158203125
            ],
            [
                166.82281494140625,
                -67.3328628540039,
                782.1837158203125
            ],
            [
                170.9451141357422,
                -69.00691223144531,
                802.1837158203125
            ],
            [
                175.06663513183594,
                -70.68096923828125,
                822.1837158203125
            ],
            [
                179.18740844726563,
                -72.35504913330078,
                842.1837158203125
            ],
            [
                183.30763244628906,
                -74.02912139892578,
                862.1837158203125
            ],
            [
                187.4272918701172,
                -75.70318603515625,
                882.1837158203125
            ],
            [
                191.54638671875,
                -77.37723541259766,
                902.1837158203125
            ],
            [
                195.66494750976563,
                -79.05127716064453,
                922.1837158203125
            ],
            [
                199.78277587890625,
                -80.72531127929688,
                942.1837158203125
            ],
            [
                203.8999786376953,
                -82.39932250976563,
                962.1837158203125
            ],
            [
                208.01638793945313,
                -84.07335662841797,
                982.1837158203125
            ],
            [
                212.13169860839844,
                -85.74745178222656,
                1002.1837158203125
            ],
            [
                232.69659423828125,
                -94.11803436279297,
                1102.1837158203125
            ],
            [
                253.2489471435547,
                -102.48869323730469,
                1202.1837158203125
            ],
            [
                273.7835998535156,
                -110.85948944091797,
                1302.1837158203125
            ],
            [
                294.2997741699219,
                -119.2308349609375,
                1402.1837158203125
            ],
            [
                314.7988586425781,
                -127.6022720336914,
                1502.1837158203125
            ],
            [
                335.2871398925781,
                -135.9733123779297,
                1602.1837158203125
            ],
            [
                355.75958251953125,
                -144.3445587158203,
                1702.1837158203125
            ],
            [
                376.2151794433594,
                -152.7155303955078,
                1802.1837158203125
            ],
            [
                396.6508483886719,
                -161.0855255126953,
                1902.1837158203125
            ],
            [
                417.0585632324219,
                -169.4552764892578,
                2002.1837158203125
            ],
            [
                437.43231201171875,
                -177.82301330566406,
                2102.18359375
            ],
            [
                457.7802734375,
                -186.18861389160156,
                2202.18359375
            ],
            [
                478.0916442871094,
                -194.5501708984375,
                2302.18359375
            ],
            [
                498.3729553222656,
                -202.9069366455078,
                2402.18359375
            ],
            [
                518.5950317382813,
                -211.25796508789063,
                2502.18359375
            ],
            [
                538.75537109375,
                -219.6012420654297,
                2602.18359375
            ],
            [
                558.835693359375,
                -227.93585205078125,
                2702.18359375
            ],
            [
                578.8295288085938,
                -236.25875854492188,
                2802.18359375
            ],
            [
                598.7107543945313,
                -244.5696563720703,
                2902.18359375
            ],
            [
                618.4661865234375,
                -252.8673858642578,
                3002.18359375
            ],
            [
                638.0360107421875,
                -261.14813232421875,
                3102.18359375
            ],
            [
                657.477294921875,
                -269.4084777832031,
                3202.18359375
            ],
            [
                676.7191162109375,
                -277.64996337890625,
                3302.18359375
            ],
            [
                695.7410888671875,
                -285.86871337890625,
                3402.18359375
            ],
            [
                714.5081176757813,
                -294.0633850097656,
                3502.18359375
            ],
            [
                733.008056640625,
                -302.2364196777344,
                3602.18359375
            ],
            [
                751.1973266601563,
                -310.3840026855469,
                3702.18359375
            ],
            [
                769.0726928710938,
                -318.50885009765625,
                3802.18359375
            ],
            [
                786.55029296875,
                -326.61016845703125,
                3902.18359375
            ],
            [
                803.66650390625,
                -334.6922607421875,
                4002.18359375
            ],
            [
                820.3348999023438,
                -342.761474609375,
                4102.18359375
            ],
            [
                836.6213989257813,
                -350.808349609375,
                4202.18359375
            ],
            [
                852.4542846679688,
                -358.84033203125,
                4302.18359375
            ],
            [
                867.8135986328125,
                -366.8576354980469,
                4402.18359375
            ],
            [
                882.7540893554688,
                -374.8675537109375,
                4502.18359375
            ],
            [
                897.20361328125,
                -382.8687744140625,
                4602.18359375
            ],
            [
                911.219970703125,
                -390.8612976074219,
                4702.18359375
            ],
            [
                922.3289184570313,
                -398.6133117675781,
                4802.18359375
            ],
            [
                935.3811645507813,
                -406.59295654296875,
                4902.18359375
            ],
            [
                947.984375,
                -414.5675354003906,
                5002.18359375
            ],
            [
                960.1170043945313,
                -422.5404052734375,
                5102.18359375
            ],
            [
                971.8080444335938,
                -430.5101318359375,
                5202.18359375
            ],
            [
                983.0543212890625,
                -438.4787902832031,
                5302.18359375
            ],
            [
                993.8666381835938,
                -446.4447326660156,
                5402.18359375
            ],
            [
                1004.2417602539063,
                -454.40814208984375,
                5502.18359375
            ],
            [
                1014.2151489257813,
                -462.3729553222656,
                5602.18359375
            ],
            [
                1023.7687377929688,
                -470.3372802734375,
                5702.18359375
            ],
            [
                1032.91748046875,
                -478.30157470703125,
                5802.18359375
            ],
            [
                1041.6898193359375,
                -486.2655334472656,
                5902.18359375
            ],
            [
                1050.0650634765625,
                -494.23077392578125,
                6002.18359375
            ],
            [
                1058.0770263671875,
                -502.1958312988281,
                6102.18359375
            ],
            [
                1065.7310791015625,
                -510.16094970703125,
                6202.18359375
            ],
            [
                1073.034423828125,
                -518.126220703125,
                6302.18359375
            ],
            [
                1080.0059814453125,
                -526.0916137695313,
                6402.18359375
            ],
            [
                1086.65478515625,
                -534.0568237304688,
                6502.18359375
            ],
            [
                1092.9970703125,
                -542.0225219726563,
                6602.18359375
            ],
            [
                1099.0445556640625,
                -549.9884033203125,
                6702.18359375
            ],
            [
                1104.8221435546875,
                -557.953857421875,
                6802.18359375
            ],
            [
                1110.329833984375,
                -565.9189453125,
                6902.18359375
            ],
            [
                1115.5916748046875,
                -573.8831787109375,
                7002.18359375
            ],
            [
                1120.6240234375,
                -581.8461303710938,
                7102.18359375
            ],
            [
                1125.44287109375,
                -589.8076782226563,
                7202.18359375
            ],
            [
                1130.062255859375,
                -597.7672729492188,
                7302.18359375
            ],
            [
                1134.4918212890625,
                -605.7249755859375,
                7402.18359375
            ],
            [
                1138.7584228515625,
                -613.679931640625,
                7502.18359375
            ],
            [
                1142.86376953125,
                -621.6325073242188,
                7602.18359375
            ],
            [
                1146.8280029296875,
                -629.58203125,
                7702.18359375
            ],
            [
                1150.6588134765625,
                -637.528564453125,
                7802.18359375
            ],
            [
                1154.368896484375,
                -645.4718017578125,
                7902.18359375
            ],
            [
                1157.9703369140625,
                -653.41162109375,
                8002.18359375
            ],
            [
                1161.469970703125,
                -661.3479614257813,
                8102.18359375
            ],
            [
                1164.880859375,
                -669.2807006835938,
                8202.18359375
            ],
            [
                1168.209228515625,
                -677.2097778320313,
                8302.18359375
            ],
            [
                1171.4620361328125,
                -685.1351318359375,
                8402.18359375
            ],
            [
                1174.64599609375,
                -693.0568237304688,
                8502.18359375
            ],
            [
                1177.7698974609375,
                -700.974853515625,
                8602.18359375
            ],
            [
                1180.837158203125,
                -708.8892822265625,
                8702.18359375
            ],
            [
                1183.853515625,
                -716.8002319335938,
                8802.18359375
            ],
            [
                1186.823974609375,
                -724.7078247070313,
                8902.18359375
            ],
            [
                1189.7523193359375,
                -732.612060546875,
                9002.18359375
            ],
            [
                1192.6424560546875,
                -740.5131225585938,
                9102.18359375
            ],
            [
                1195.498291015625,
                -748.4111938476563,
                9202.18359375
            ],
            [
                1198.3226318359375,
                -756.3062744140625,
                9302.18359375
            ],
            [
                1201.1187744140625,
                -764.1986083984375,
                9402.18359375
            ],
            [
                1203.88916015625,
                -772.0883178710938,
                9502.18359375
            ],
            [
                1206.63623046875,
                -779.9755249023438,
                9602.18359375
            ],
            [
                1209.362060546875,
                -787.8603515625,
                9702.18359375
            ],
            [
                1212.0687255859375,
                -795.7429809570313,
                9802.18359375
            ],
            [
                1214.7579345703125,
                -803.62353515625,
                9902.18359375
            ],
            [
                1217.4312744140625,
                -811.5020751953125,
                10002.18359375
            ],
            [
                1222.7362060546875,
                -827.2538452148438,
                10202.18359375
            ],
            [
                1227.9931640625,
                -842.9991455078125,
                10402.18359375
            ],
            [
                1233.2115478515625,
                -858.73876953125,
                10602.18359375
            ],
            [
                1238.3966064453125,
                -874.4735107421875,
                10802.18359375
            ],
            [
                1243.555908203125,
                -890.2040405273438,
                11002.18359375
            ],
            [
                1248.69287109375,
                -905.930908203125,
                11202.18359375
            ],
            [
                1253.8109130859375,
                -921.6544799804688,
                11402.18359375
            ],
            [
                1258.9150390625,
                -937.3753662109375,
                11602.18359375
            ],
            [
                1264.007080078125,
                -953.0938720703125,
                11802.18359375
            ],
            [
                1269.0897216796875,
                -968.8104248046875,
                12002.18359375
            ],
            [
                1274.1627197265625,
                -984.5252075195313,
                12202.18359375
            ],
            [
                1279.2296142578125,
                -1000.2385864257813,
                12402.18359375
            ],
            [
                1284.2930908203125,
                -1015.9507446289063,
                12602.18359375
            ],
            [
                1289.3526611328125,
                -1031.6619873046875,
                12802.18359375
            ],
            [
                1294.40771484375,
                -1047.3724365234375,
                13002.18359375
            ],
            [
                1299.4598388671875,
                -1063.0821533203125,
                13202.18359375
            ],
            [
                1304.5103759765625,
                -1078.7913818359375,
                13402.18359375
            ]
        ],
        "zFirstMeasurement": 34.4329
    },
    {
        "E": 15696.459049699624,
        "chi2": 1.144711971282959,
        "ip": 0.012281481701144546,
        "ipchi2": 0.3367851421625926,
        "mass": 139.57,
        "particleId": "pi+",
        "pvx": 0.5782,
        "pvy": 0.0802,
        "pvz": -23.4394,
        "px": 1157.41,
        "py": -33.89,
        "pz": 15653.07,
        "q": 1.0,
        "trajectory": [
            [
                0.6361416578292847,
                0.08212810754776001,
                -22.816299438476563
            ],
            [
                1.0058567523956299,
                0.07130251079797745,
                -17.816299438476563
            ],
            [
                1.3755751848220825,
                0.06047682464122772,
                -12.816300392150879
            ],
            [
                1.7452969551086426,
                0.049651049077510834,
                -7.816299915313721
            ],
            [
                2.1150219440460205,
                0.03882518783211708,
                -2.8162999153137207
            ],
            [
                2.484750270843506,
                0.027999240905046463,
                2.1837000846862793
            ],
            [
                2.8544821739196777,
                0.017173202708363533,
                7.183700084686279
            ],
            [
                3.224217653274536,
                0.006347078364342451,
                12.183699607849121
            ],
            [
                3.593956470489502,
                -0.004479134920984507,
                17.183700561523438
            ],
            [
                3.9636991024017334,
                -0.015305436216294765,
                22.183700561523438
            ],
            [
                4.333445072174072,
                -0.026131827384233475,
                27.183700561523438
            ],
            [
                4.7032623291015625,
                -0.03701908513903618,
                32.18370056152344
            ],
            [
                5.073016166687012,
                -0.04784563556313515,
                37.18370056152344
            ],
            [
                5.44277286529541,
                -0.05867227166891098,
                42.18370056152344
            ],
            [
                5.812533378601074,
                -0.06949899345636368,
                47.18370056152344
            ],
            [
                6.182297229766846,
                -0.08032581210136414,
                52.18370056152344
            ],
            [
                6.552064895629883,
                -0.09115271270275116,
                57.18370056152344
            ],
            [
                6.9218363761901855,
                -0.10197970271110535,
                62.18370056152344
            ],
            [
                7.291611194610596,
                -0.1128067821264267,
                67.18370056152344
            ],
            [
                7.661389350891113,
                -0.12363395094871521,
                72.18370056152344
            ],
            [
                8.031171798706055,
                -0.1344612091779709,
                77.18370056152344
            ],
            [
                8.400958061218262,
                -0.14528855681419373,
                82.18370056152344
            ],
            [
                8.770748138427734,
                -0.15611597895622253,
                87.18370056152344
            ],
            [
                9.140542030334473,
                -0.1669435054063797,
                92.18370056152344
            ],
            [
                9.510340690612793,
                -0.17777112126350403,
                97.18370056152344
            ],
            [
                9.880143165588379,
                -0.18859881162643433,
                102.18370056152344
            ],
            [
                11.359394073486328,
                -0.23191048204898834,
                122.18370056152344
            ],
            [
                12.838716506958008,
                -0.2752235531806946,
                142.18370056152344
            ],
            [
                14.318114280700684,
                -0.31853801012039185,
                162.18370056152344
            ],
            [
                15.797593116760254,
                -0.36185383796691895,
                182.18370056152344
            ],
            [
                17.277116775512695,
                -0.40517112612724304,
                202.18370056152344
            ],
            [
                18.756742477416992,
                -0.4484896957874298,
                222.18370056152344
            ],
            [
                20.2364559173584,
                -0.4918096661567688,
                242.18370056152344
            ],
            [
                21.71625518798828,
                -0.5351309776306152,
                262.1836853027344
            ],
            [
                23.19614601135254,
                -0.5784536004066467,
                282.1836853027344
            ],
            [
                24.67613410949707,
                -0.6217775940895081,
                302.1836853027344
            ],
            [
                26.156221389770508,
                -0.6651028990745544,
                322.1836853027344
            ],
            [
                27.636409759521484,
                -0.7084295153617859,
                342.1836853027344
            ],
            [
                29.116703033447266,
                -0.7517574429512024,
                362.1836853027344
            ],
            [
                30.597105026245117,
                -0.7950867414474487,
                382.1836853027344
            ],
            [
                32.07761764526367,
                -0.8384172916412354,
                402.1836853027344
            ],
            [
                33.558250427246094,
                -0.881749153137207,
                422.1836853027344
            ],
            [
                35.039005279541016,
                -0.9250822067260742,
                442.1836853027344
            ],
            [
                36.51988983154297,
                -0.9684165120124817,
                462.1836853027344
            ],
            [
                38.00090789794922,
                -1.0117521286010742,
                482.1836853027344
            ],
            [
                39.48206329345703,
                -1.055088996887207,
                502.1836853027344
            ],
            [
                40.96335983276367,
                -1.0984268188476563,
                522.1837158203125
            ],
            [
                42.444801330566406,
                -1.1417659521102905,
                542.1837158203125
            ],
            [
                43.9263916015625,
                -1.1851061582565308,
                562.1837158203125
            ],
            [
                45.40812683105469,
                -1.228447675704956,
                582.1837158203125
            ],
            [
                46.89002227783203,
                -1.2717901468276978,
                602.1837158203125
            ],
            [
                48.372108459472656,
                -1.3151320219039917,
                622.1837158203125
            ],
            [
                49.85436248779297,
                -1.3584744930267334,
                642.1837158203125
            ],
            [
                51.336788177490234,
                -1.401817798614502,
                662.1837158203125
            ],
            [
                52.81938934326172,
                -1.4451617002487183,
                682.1837158203125
            ],
            [
                54.30216598510742,
                -1.4885064363479614,
                702.1837158203125
            ],
            [
                55.78510665893555,
                -1.531854271888733,
                722.1837158203125
            ],
            [
                57.26823043823242,
                -1.5752031803131104,
                742.1837158203125
            ],
            [
                58.75154113769531,
                -1.6185530424118042,
                762.1837158203125
            ],
            [
                60.235107421875,
                -1.6619023084640503,
                782.1837158203125
            ],
            [
                61.718955993652344,
                -1.7052507400512695,
                802.1837158203125
            ],
            [
                63.2030143737793,
                -1.7486001253128052,
                822.1837158203125
            ],
            [
                64.68729400634766,
                -1.7919498682022095,
                842.1837158203125
            ],
            [
                66.17180633544922,
                -1.835300087928772,
                862.1837158203125
            ],
            [
                67.65654754638672,
                -1.8786505460739136,
                882.1837158203125
            ],
            [
                69.14152526855469,
                -1.9220012426376343,
                902.1837158203125
            ],
            [
                70.62671661376953,
                -1.9653524160385132,
                922.1837158203125
            ],
            [
                72.11216735839844,
                -2.008700132369995,
                942.1837158203125
            ],
            [
                73.59795379638672,
                -2.0520355701446533,
                962.1837158203125
            ],
            [
                75.08399963378906,
                -2.095369577407837,
                982.1837158203125
            ],
            [
                76.57030487060547,
                -2.138701915740967,
                1002.1837158203125
            ],
            [
                84.006591796875,
                -2.355362892150879,
                1102.1837158203125
            ],
            [
                91.44916534423828,
                -2.5720601081848145,
                1202.1837158203125
            ],
            [
                98.89884185791016,
                -2.7887134552001953,
                1302.1837158203125
            ],
            [
                106.35527038574219,
                -3.0053415298461914,
                1402.1837158203125
            ],
            [
                113.8191146850586,
                -3.2219510078430176,
                1502.1837158203125
            ],
            [
                121.28839874267578,
                -3.438634157180786,
                1602.1837158203125
            ],
            [
                128.76548767089844,
                -3.6553149223327637,
                1702.1837158203125
            ],
            [
                136.2504119873047,
                -3.871994972229004,
                1802.1837158203125
            ],
            [
                143.74513244628906,
                -4.0885725021362305,
                1902.1837158203125
            ],
            [
                151.24978637695313,
                -4.30511999130249,
                2002.1837158203125
            ],
            [
                158.76956176757813,
                -4.521624565124512,
                2102.18359375
            ],
            [
                166.30221557617188,
                -4.738147735595703,
                2202.18359375
            ],
            [
                173.84896850585938,
                -4.954742431640625,
                2302.18359375
            ],
            [
                181.4185791015625,
                -5.17130184173584,
                2402.18359375
            ],
            [
                189.0128173828125,
                -5.38783597946167,
                2502.18359375
            ],
            [
                196.64019775390625,
                -5.604308128356934,
                2602.18359375
            ],
            [
                204.30299377441406,
                -5.820621013641357,
                2702.18359375
            ],
            [
                212.0096893310547,
                -6.036864757537842,
                2802.18359375
            ],
            [
                219.76766967773438,
                -6.25297737121582,
                2902.18359375
            ],
            [
                227.58566284179688,
                -6.468946933746338,
                3002.18359375
            ],
            [
                235.47732543945313,
                -6.684831142425537,
                3102.18359375
            ],
            [
                243.44525146484375,
                -6.900914669036865,
                3202.18359375
            ],
            [
                251.4982147216797,
                -7.1169257164001465,
                3302.18359375
            ],
            [
                259.6606750488281,
                -7.332878112792969,
                3402.18359375
            ],
            [
                267.9400939941406,
                -7.548962593078613,
                3502.18359375
            ],
            [
                276.3370666503906,
                -7.764795780181885,
                3602.18359375
            ],
            [
                284.8734130859375,
                -7.980363845825195,
                3702.18359375
            ],
            [
                293.5544128417969,
                -8.195956230163574,
                3802.18359375
            ],
            [
                302.3890075683594,
                -8.411633491516113,
                3902.18359375
            ],
            [
                311.3952941894531,
                -8.627166748046875,
                4002.18359375
            ],
            [
                320.5749816894531,
                -8.84176254272461,
                4102.18359375
            ],
            [
                329.9375305175781,
                -9.056657791137695,
                4202.18359375
            ],
            [
                339.4998474121094,
                -9.271618843078613,
                4302.18359375
            ],
            [
                349.2584533691406,
                -9.485864639282227,
                4402.18359375
            ],
            [
                359.1986389160156,
                -9.699800491333008,
                4502.18359375
            ],
            [
                369.354248046875,
                -9.91294002532959,
                4602.18359375
            ],
            [
                379.70623779296875,
                -10.125810623168945,
                4702.18359375
            ],
            [
                388.6498718261719,
                -10.230052947998047,
                4802.18359375
            ],
            [
                399.3523864746094,
                -10.436017036437988,
                4902.18359375
            ],
            [
                410.2525329589844,
                -10.64186954498291,
                5002.18359375
            ],
            [
                421.3580017089844,
                -10.846159934997559,
                5102.18359375
            ],
            [
                432.659912109375,
                -11.05007266998291,
                5202.18359375
            ],
            [
                444.1608581542969,
                -11.253150939941406,
                5302.18359375
            ],
            [
                455.8540954589844,
                -11.456695556640625,
                5402.18359375
            ],
            [
                467.7388916015625,
                -11.660974502563477,
                5502.18359375
            ],
            [
                479.806640625,
                -11.863201141357422,
                5602.18359375
            ],
            [
                492.0609436035156,
                -12.065603256225586,
                5702.18359375
            ],
            [
                504.4952697753906,
                -12.267672538757324,
                5802.18359375
            ],
            [
                517.09912109375,
                -12.469456672668457,
                5902.18359375
            ],
            [
                529.8781127929688,
                -12.670064926147461,
                6002.18359375
            ],
            [
                542.8217163085938,
                -12.869937896728516,
                6102.18359375
            ],
            [
                555.9254760742188,
                -13.069668769836426,
                6202.18359375
            ],
            [
                569.1846923828125,
                -13.26934814453125,
                6302.18359375
            ],
            [
                582.59228515625,
                -13.468827247619629,
                6402.18359375
            ],
            [
                596.1444702148438,
                -13.668235778808594,
                6502.18359375
            ],
            [
                609.8338012695313,
                -13.866996765136719,
                6602.18359375
            ],
            [
                623.6547241210938,
                -14.065427780151367,
                6702.18359375
            ],
            [
                637.5984497070313,
                -14.263681411743164,
                6802.18359375
            ],
            [
                651.6635131835938,
                -14.461509704589844,
                6902.18359375
            ],
            [
                665.8411865234375,
                -14.658982276916504,
                7002.18359375
            ],
            [
                680.1241455078125,
                -14.856244087219238,
                7102.18359375
            ],
            [
                694.5059204101563,
                -15.053343772888184,
                7202.18359375
            ],
            [
                708.9812622070313,
                -15.250164985656738,
                7302.18359375
            ],
            [
                723.5452880859375,
                -15.446616172790527,
                7402.18359375
            ],
            [
                738.1876831054688,
                -15.642780303955078,
                7502.18359375
            ],
            [
                752.9071655273438,
                -15.838602066040039,
                7602.18359375
            ],
            [
                767.6953125,
                -16.03413963317871,
                7702.18359375
            ],
            [
                782.5493774414063,
                -16.229351043701172,
                7802.18359375
            ],
            [
                797.4636840820313,
                -16.424211502075195,
                7902.18359375
            ],
            [
                812.4330444335938,
                -16.618759155273438,
                8002.18359375
            ],
            [
                827.4542236328125,
                -16.81298828125,
                8102.18359375
            ],
            [
                842.5215454101563,
                -17.006908416748047,
                8202.18359375
            ],
            [
                857.6319580078125,
                -17.200542449951172,
                8302.18359375
            ],
            [
                872.7821044921875,
                -17.393896102905273,
                8402.18359375
            ],
            [
                887.9688110351563,
                -17.58698844909668,
                8502.18359375
            ],
            [
                903.1879272460938,
                -17.77985382080078,
                8602.18359375
            ],
            [
                918.4375610351563,
                -17.972492218017578,
                8702.18359375
            ],
            [
                933.7149047851563,
                -18.164936065673828,
                8802.18359375
            ],
            [
                949.0173950195313,
                -18.35717010498047,
                8902.18359375
            ],
            [
                964.3430786132813,
                -18.549217224121094,
                9002.18359375
            ],
            [
                979.68994140625,
                -18.741090774536133,
                9102.18359375
            ],
            [
                995.0558471679688,
                -18.932802200317383,
                9202.18359375
            ],
            [
                1010.4393310546875,
                -19.124370574951172,
                9302.18359375
            ],
            [
                1025.8387451171875,
                -19.315805435180664,
                9402.18359375
            ],
            [
                1041.25244140625,
                -19.507122039794922,
                9502.18359375
            ],
            [
                1056.679443359375,
                -19.69832992553711,
                9602.18359375
            ],
            [
                1072.118408203125,
                -19.889442443847656,
                9702.18359375
            ],
            [
                1087.568115234375,
                -20.080467224121094,
                9802.18359375
            ],
            [
                1103.0277099609375,
                -20.271413803100586,
                9902.18359375
            ],
            [
                1118.496337890625,
                -20.462291717529297,
                10002.18359375
            ],
            [
                1149.457275390625,
                -20.843870162963867,
                10202.18359375
            ],
            [
                1180.4453125,
                -21.225255966186523,
                10402.18359375
            ],
            [
                1211.455322265625,
                -21.60649299621582,
                10602.18359375
            ],
            [
                1242.484130859375,
                -21.987613677978516,
                10802.18359375
            ],
            [
                1273.5274658203125,
                -22.368656158447266,
                11002.18359375
            ],
            [
                1304.58349609375,
                -22.7496395111084,
                11202.18359375
            ],
            [
                1335.650146484375,
                -23.130577087402344,
                11402.18359375
            ],
            [
                1366.7244873046875,
                -23.511491775512695,
                11602.18359375
            ],
            [
                1397.8057861328125,
                -23.89238929748535,
                11802.18359375
            ],
            [
                1428.892333984375,
                -24.273283004760742,
                12002.18359375
            ],
            [
                1459.9842529296875,
                -24.65416717529297,
                12202.18359375
            ],
            [
                1491.0794677734375,
                -25.03505516052246,
                12402.18359375
            ],
            [
                1522.1767578125,
                -25.415950775146484,
                12602.18359375
            ],
            [
                1553.276123046875,
                -25.796850204467773,
                12802.18359375
            ],
            [
                1584.3779296875,
                -26.177751541137695,
                13002.18359375
            ],
            [
                1615.4814453125,
                -26.558652877807617,
                13202.18359375
            ],
            [
                1646.5858154296875,
                -26.939559936523438,
                13402.18359375
            ]
        ],
        "zFirstMeasurement": 94.1031
    },
    {
        "E": 13743.398716156249,
        "chi2": 1.092249870300293,
        "ip": 0.0810891972439055,
        "ipchi2": 9.26034414555258,
        "mass": 139.57018,
        "particleId": "pi-",
        "pvx": 0.5782,
        "pvy": 0.0802,
        "pvz": -23.4394,
        "px": -741.0336826924936,
        "py": -553.13260184446,
        "pz": 13711.544108596667,
        "q": -1.0,
        "trajectory": [
            [
                4.7819976806640625,
                3.215298652648926,
                -100.0
            ],
            [
                4.51182746887207,
                3.0135951042175293,
                -95.0
            ],
            [
                4.241654396057129,
                2.811891555786133,
                -90.0
            ],
            [
                3.9714787006378174,
                2.6101880073547363,
                -85.0
            ],
            [
                3.7013001441955566,
                2.40848445892334,
                -80.0
            ],
            [
                3.4311187267303467,
                2.2067809104919434,
                -75.0
            ],
            [
                3.1609344482421875,
                2.005077600479126,
                -70.0
            ],
            [
                2.8907470703125,
                1.8033740520477295,
                -65.0
            ],
            [
                2.620556592941284,
                1.601670742034912,
                -60.0
            ],
            [
                2.35036301612854,
                1.3999673128128052,
                -55.0
            ],
            [
                2.0801661014556885,
                1.1982638835906982,
                -50.0
            ],
            [
                1.809965968132019,
                0.9965605735778809,
                -45.0
            ],
            [
                1.5397626161575317,
                0.7948572039604187,
                -40.0
            ],
            [
                1.269555926322937,
                0.5931538939476013,
                -35.0
            ],
            [
                0.9993458390235901,
                0.3914506137371063,
                -30.0
            ],
            [
                0.7291321754455566,
                0.18974731862545013,
                -25.0
            ],
            [
                0.4589150547981262,
                -0.011955954134464264,
                -20.0
            ],
            [
                0.18869434297084808,
                -0.21365921199321747,
                -15.0
            ],
            [
                -0.08153001219034195,
                -0.4153624475002289,
                -10.0
            ],
            [
                -0.35175806283950806,
                -0.6170656681060791,
                -5.0
            ],
            [
                -0.621989905834198,
                -0.8187689185142517,
                0.0
            ],
            [
                -0.8922255039215088,
                -1.0204721689224243,
                5.0
            ],
            [
                -1.16246497631073,
                -1.2221753597259521,
                10.0
            ],
            [
                -1.4327083826065063,
                -1.42387855052948,
                15.0
            ],
            [
                -1.7029558420181274,
                -1.6255816221237183,
                20.0
            ],
            [
                -1.9732074737548828,
                -1.827284812927246,
                25.0
            ],
            [
                -2.2434630393981934,
                -2.0289878845214844,
                30.0
            ],
            [
                -2.513723134994507,
                -2.2306911945343018,
                35.0
            ],
            [
                -2.783987283706665,
                -2.43239426612854,
                40.0
            ],
            [
                -3.054255723953247,
                -2.6340973377227783,
                45.0
            ],
            [
                -3.324591636657715,
                -2.8358089923858643,
                50.0
            ],
            [
                -3.5948684215545654,
                -3.0375120639801025,
                55.0
            ],
            [
                -3.86514949798584,
                -3.23921537399292,
                60.0
            ],
            [
                -4.135434627532959,
                -3.440918445587158,
                65.0
            ],
            [
                -4.405723571777344,
                -3.6426215171813965,
                70.0
            ],
            [
                -4.676016807556152,
                -3.8443245887756348,
                75.0
            ],
            [
                -4.946314334869385,
                -4.046027660369873,
                80.0
            ],
            [
                -5.216616153717041,
                -4.247730731964111,
                85.0
            ],
            [
                -5.486922740936279,
                -4.44943380355835,
                90.0
            ],
            [
                -5.757233619689941,
                -4.651136875152588,
                95.0
            ],
            [
                -6.027548789978027,
                -4.852839946746826,
                100.0
            ],
            [
                -7.108856678009033,
                -5.659652233123779,
                120.0
            ],
            [
                -8.190242767333984,
                -6.466464519500732,
                140.0
            ],
            [
                -9.271713256835938,
                -7.273276329040527,
                160.0
            ],
            [
                -10.353273391723633,
                -8.08008861541748,
                180.0
            ],
            [
                -11.434927940368652,
                -8.886900901794434,
                200.0
            ],
            [
                -12.516633033752441,
                -9.693713188171387,
                220.0
            ],
            [
                -13.59846019744873,
                -10.50052547454834,
                240.0
            ],
            [
                -14.680386543273926,
                -11.307337760925293,
                260.0
            ],
            [
                -15.762417793273926,
                -12.114151000976563,
                280.0
            ],
            [
                -16.84455680847168,
                -12.920963287353516,
                300.0
            ],
            [
                -17.92680549621582,
                -13.727777481079102,
                320.0
            ],
            [
                -19.009170532226563,
                -14.534590721130371,
                340.0
            ],
            [
                -20.09165382385254,
                -15.341404914855957,
                360.0
            ],
            [
                -21.174259185791016,
                -16.14822006225586,
                380.0
            ],
            [
                -22.256990432739258,
                -16.955034255981445,
                400.0
            ],
            [
                -23.339859008789063,
                -17.761850357055664,
                420.0
            ],
            [
                -24.422870635986328,
                -18.568666458129883,
                440.0
            ],
            [
                -25.506025314331055,
                -19.375484466552734,
                460.0
            ],
            [
                -26.589326858520508,
                -20.182302474975586,
                480.0
            ],
            [
                -27.672779083251953,
                -20.98912239074707,
                500.0
            ],
            [
                -28.756391525268555,
                -21.795942306518555,
                520.0
            ],
            [
                -29.84016227722168,
                -22.60276222229004,
                540.0
            ],
            [
                -30.924097061157227,
                -23.409584045410156,
                560.0
            ],
            [
                -32.008201599121094,
                -24.216407775878906,
                580.0
            ],
            [
                -33.09248733520508,
                -25.023231506347656,
                600.0
            ],
            [
                -34.1769905090332,
                -25.83005714416504,
                620.0
            ],
            [
                -35.26167678833008,
                -26.636882781982422,
                640.0
            ],
            [
                -36.3465576171875,
                -27.443710327148438,
                660.0
            ],
            [
                -37.431636810302734,
                -28.250539779663086,
                680.0
            ],
            [
                -38.51691818237305,
                -29.057369232177734,
                700.0
            ],
            [
                -39.60239791870117,
                -29.864200592041016,
                720.0
            ],
            [
                -40.688087463378906,
                -30.671031951904297,
                740.0
            ],
            [
                -41.774017333984375,
                -31.47786521911621,
                760.0
            ],
            [
                -42.86023712158203,
                -32.284698486328125,
                780.0
            ],
            [
                -43.94669723510742,
                -33.09153366088867,
                800.0
            ],
            [
                -45.03339385986328,
                -33.89836883544922,
                820.0
            ],
            [
                -46.12033462524414,
                -34.70520782470703,
                840.0
            ],
            [
                -47.207523345947266,
                -35.512046813964844,
                860.0
            ],
            [
                -48.29497146606445,
                -36.318885803222656,
                880.0
            ],
            [
                -49.3826789855957,
                -37.125728607177734,
                900.0
            ],
            [
                -50.47061538696289,
                -37.93257141113281,
                920.0
            ],
            [
                -51.558868408203125,
                -38.739418029785156,
                940.0
            ],
            [
                -52.647430419921875,
                -39.54627227783203,
                960.0
            ],
            [
                -53.73627853393555,
                -40.353126525878906,
                980.0
            ],
            [
                -54.825416564941406,
                -41.15998077392578,
                1000.0
            ],
            [
                -60.275211334228516,
                -45.19428253173828,
                1100.0
            ],
            [
                -65.73540496826172,
                -49.228458404541016,
                1200.0
            ],
            [
                -71.2018051147461,
                -53.262718200683594,
                1300.0
            ],
            [
                -76.67587280273438,
                -57.29698181152344,
                1400.0
            ],
            [
                -82.1583251953125,
                -61.33122634887695,
                1500.0
            ],
            [
                -87.647216796875,
                -65.36544799804688,
                1600.0
            ],
            [
                -93.1446533203125,
                -69.39971923828125,
                1700.0
            ],
            [
                -98.65100860595703,
                -73.43406677246094,
                1800.0
            ],
            [
                -104.16776275634766,
                -77.46855163574219,
                1900.0
            ],
            [
                -109.69510650634766,
                -81.5031967163086,
                2000.0
            ],
            [
                -115.23738098144531,
                -85.53800964355469,
                2100.0
            ],
            [
                -120.79915618896484,
                -89.57300567626953,
                2200.0
            ],
            [
                -126.37408447265625,
                -93.60832214355469,
                2300.0
            ],
            [
                -131.9748077392578,
                -97.64405059814453,
                2400.0
            ],
            [
                -137.60226440429688,
                -101.6803207397461,
                2500.0
            ],
            [
                -143.26705932617188,
                -105.71726989746094,
                2600.0
            ],
            [
                -148.97059631347656,
                -109.75504302978516,
                2700.0
            ],
            [
                -154.7234344482422,
                -113.793701171875,
                2800.0
            ],
            [
                -160.5323028564453,
                -117.83349609375,
                2900.0
            ],
            [
                -166.40957641601563,
                -121.87464141845703,
                3000.0
            ],
            [
                -172.3624267578125,
                -125.91706085205078,
                3100.0
            ],
            [
                -178.414794921875,
                -129.9602508544922,
                3200.0
            ],
            [
                -184.55654907226563,
                -134.00526428222656,
                3300.0
            ],
            [
                -190.82034301757813,
                -138.0518798828125,
                3400.0
            ],
            [
                -197.2165069580078,
                -142.100341796875,
                3500.0
            ],
            [
                -203.7457733154297,
                -146.15135192871094,
                3600.0
            ],
            [
                -210.43115234375,
                -150.20425415039063,
                3700.0
            ],
            [
                -217.2829132080078,
                -154.25885009765625,
                3800.0
            ],
            [
                -224.30738830566406,
                -158.31588745117188,
                3900.0
            ],
            [
                -231.53173828125,
                -162.375732421875,
                4000.0
            ],
            [
                -238.944091796875,
                -166.4383544921875,
                4100.0
            ],
            [
                -246.58482360839844,
                -170.50180053710938,
                4200.0
            ],
            [
                -254.44583129882813,
                -174.56759643554688,
                4300.0
            ],
            [
                -262.5272521972656,
                -178.6362762451172,
                4400.0
            ],
            [
                -270.8224182128906,
                -182.70706176757813,
                4500.0
            ],
            [
                -279.3587646484375,
                -186.7796173095703,
                4600.0
            ],
            [
                -288.1245422363281,
                -190.85293579101563,
                4700.0
            ],
            [
                -297.8689880371094,
                -195.89541625976563,
                4800.0
            ],
            [
                -307.0993347167969,
                -200.00157165527344,
                4900.0
            ],
            [
                -316.55633544921875,
                -204.1080322265625,
                5000.0
            ],
            [
                -326.24822998046875,
                -208.2162628173828,
                5100.0
            ],
            [
                -336.1646728515625,
                -212.32537841796875,
                5200.0
            ],
            [
                -346.30865478515625,
                -216.43638610839844,
                5300.0
            ],
            [
                -356.6733703613281,
                -220.5469207763672,
                5400.0
            ],
            [
                -367.25958251953125,
                -224.6566925048828,
                5500.0
            ],
            [
                -378.05267333984375,
                -228.7693328857422,
                5600.0
            ],
            [
                -389.0617370605469,
                -232.88145446777344,
                5700.0
            ],
            [
                -400.27825927734375,
                -236.99453735351563,
                5800.0
            ],
            [
                -411.6899108886719,
                -241.10751342773438,
                5900.0
            ],
            [
                -423.3026428222656,
                -245.2207794189453,
                6000.0
            ],
            [
                -435.10394287109375,
                -249.33441162109375,
                6100.0
            ],
            [
                -447.0898132324219,
                -253.44749450683594,
                6200.0
            ],
            [
                -459.2555236816406,
                -257.5599060058594,
                6300.0
            ],
            [
                -471.59259033203125,
                -261.6717834472656,
                6400.0
            ],
            [
                -484.09637451171875,
                -265.78277587890625,
                6500.0
            ],
            [
                -496.7577209472656,
                -269.8930358886719,
                6600.0
            ],
            [
                -509.5727233886719,
                -274.0023498535156,
                6700.0
            ],
            [
                -522.5293579101563,
                -278.1106872558594,
                6800.0
            ],
            [
                -535.6260375976563,
                -282.2174377441406,
                6900.0
            ],
            [
                -548.8523559570313,
                -286.3227233886719,
                7000.0
            ],
            [
                -562.2003784179688,
                -290.4266052246094,
                7100.0
            ],
            [
                -575.6622314453125,
                -294.5292053222656,
                7200.0
            ],
            [
                -589.2318115234375,
                -298.63043212890625,
                7300.0
            ],
            [
                -602.90380859375,
                -302.7301025390625,
                7400.0
            ],
            [
                -616.6655883789063,
                -306.82861328125,
                7500.0
            ],
            [
                -630.515625,
                -310.9256591796875,
                7600.0
            ],
            [
                -644.4447631835938,
                -315.02154541015625,
                7700.0
            ],
            [
                -658.4492797851563,
                -319.11627197265625,
                7800.0
            ],
            [
                -672.5225830078125,
                -323.2099609375,
                7900.0
            ],
            [
                -686.6585083007813,
                -327.3027038574219,
                8000.0
            ],
            [
                -700.8535766601563,
                -331.3945617675781,
                8100.0
            ],
            [
                -715.1008911132813,
                -335.4856872558594,
                8200.0
            ],
            [
                -729.3970947265625,
                -339.576171875,
                8300.0
            ],
            [
                -743.7384033203125,
                -343.6660461425781,
                8400.0
            ],
            [
                -758.1209716796875,
                -347.7554016113281,
                8500.0
            ],
            [
                -772.5401000976563,
                -351.8443298339844,
                8600.0
            ],
            [
                -786.9937133789063,
                -355.9328918457031,
                8700.0
            ],
            [
                -801.478515625,
                -360.0211181640625,
                8800.0
            ],
            [
                -815.9916381835938,
                -364.1091003417969,
                8900.0
            ],
            [
                -830.5308837890625,
                -368.1968994140625,
                9000.0
            ],
            [
                -845.0938110351563,
                -372.2845458984375,
                9100.0
            ],
            [
                -859.6782836914063,
                -376.37213134765625,
                9200.0
            ],
            [
                -874.282470703125,
                -380.45965576171875,
                9300.0
            ],
            [
                -888.9044189453125,
                -384.5471496582031,
                9400.0
            ],
            [
                -903.5426025390625,
                -388.6346740722656,
                9500.0
            ],
            [
                -918.1956176757813,
                -392.72222900390625,
                9600.0
            ],
            [
                -932.8619995117188,
                -396.8098449707031,
                9700.0
            ],
            [
                -947.5405883789063,
                -400.89752197265625,
                9800.0
            ],
            [
                -962.2301635742188,
                -404.9853210449219,
                9900.0
            ],
            [
                -976.9298706054688,
                -409.07318115234375,
                10000.0
            ],
            [
                -1006.35595703125,
                -417.2492980957031,
                10200.0
            ],
            [
                -1035.8123779296875,
                -425.4258728027344,
                10400.0
            ],
            [
                -1065.2935791015625,
                -433.6029357910156,
                10600.0
            ],
            [
                -1094.7957763671875,
                -441.78045654296875,
                10800.0
            ],
            [
                -1124.3143310546875,
                -449.9584655761719,
                11000.0
            ],
            [
                -1153.8470458984375,
                -458.1368713378906,
                11200.0
            ],
            [
                -1183.3917236328125,
                -466.3157043457031,
                11400.0
            ],
            [
                -1212.9451904296875,
                -474.4949035644531,
                11600.0
            ],
            [
                -1242.50634765625,
                -482.6744689941406,
                11800.0
            ],
            [
                -1272.0732421875,
                -490.85430908203125,
                12000.0
            ],
            [
                -1301.6463623046875,
                -499.0343933105469,
                12200.0
            ],
            [
                -1331.2232666015625,
                -507.2147521972656,
                12400.0
            ],
            [
                -1360.80224609375,
                -515.3953247070313,
                12600.0
            ],
            [
                -1390.3837890625,
                -523.5760498046875,
                12800.0
            ],
            [
                -1419.968017578125,
                -531.7568969726563,
                13000.0
            ],
            [
                -1449.55419921875,
                -539.9378662109375,
                13200.0
            ],
            [
                -1479.1412353515625,
                -548.1189575195313,
                13400.0
            ]
        ],
        "zFirstMeasurement": 109.4064
    }
]
