[
    {
        "E": 121844.2174562555,
        "chi2": 0.0,
        "ip": 0.09095350299040347,
        "ipchi2": 5.426270589375568,
        "mass": 1853.85,
        "particleId": "D0",
        "pvx": 0.5951,
        "pvy": 0.1161,
        "pvz": 62.299,
        "px": -2408.98,
        "py": 1208.43,
        "pz": 121800.3,
        "q": 0.0,
        "trajectory": [
            [
                0.5950999855995178,
                0.1160999983549118,
                62.29899978637695
            ],
            [
                0.44530001282691956,
                0.2581000030040741,
                68.1281967163086
            ]
        ],
        "zFirstMeasurement": -9999.0
    },
    {
        "E": 60594.12255155327,
        "chi2": 1.7260833978652954,
        "ip": 0.19157089931671295,
        "ipchi2": 8.441766741298673,
        "mass": 493.677,
        "particleId": "K-",
        "pvx": 0.5951,
        "pvy": 0.1161,
        "pvz": 62.299,
        "px": -928.58,
        "py": -207.62,
        "pz": 60584.64,
        "q": -1.0,
        "trajectory": [
            [
                0.5095289945602417,
                0.2876589000225067,
                68.1281967163086
            ],
            [
                0.43290045857429504,
                0.27052417397499084,
                73.1281967163086
            ],
            [
                0.3562709093093872,
                0.25338947772979736,
                78.1281967163086
            ],
            [
                0.27964040637016296,
                0.23625478148460388,
                83.1281967163086
            ],
            [
                0.20300890505313873,
                0.2191200852394104,
                88.1281967163086
            ],
            [
                0.12637639045715332,
                0.2019854187965393,
                93.1281967163086
            ],
            [
                0.049742840230464935,
                0.1848507523536682,
                98.1281967163086
            ],
            [
                -0.02689174935221672,
                0.1677161008119583,
                103.1281967163086
            ],
            [
                -0.333440899848938,
                0.09917756915092468,
                123.1281967163086
            ],
            [
                -0.6400082111358643,
                0.030639201402664185,
                143.12820434570313
            ],
            [
                -0.9465948939323425,
                -0.03789902850985527,
                163.12820434570313
            ],
            [
                -1.253202199935913,
                -0.10643711686134338,
                183.12820434570313
            ],
            [
                -1.559831142425537,
                -0.17497508227825165,
                203.12820434570313
            ],
            [
                -1.866468906402588,
                -0.243512824177742,
                223.12820434570313
            ],
            [
                -2.1731367111206055,
                -0.3120504915714264,
                243.12820434570313
            ],
            [
                -2.4798271656036377,
                -0.3805880546569824,
                263.1282043457031
            ],
            [
                -2.786541223526001,
                -0.4491254687309265,
                283.1282043457031
            ],
            [
                -3.093280076980591,
                -0.517662763595581,
                303.1282043457031
            ],
            [
                -3.4000442028045654,
                -0.5861999988555908,
                323.1282043457031
            ],
            [
                -3.706834554672241,
                -0.654737114906311,
                343.1282043457031
            ],
            [
                -4.013638019561768,
                -0.7232256531715393,
                363.1282043457031
            ],
            [
                -4.320483684539795,
                -0.7917625308036804,
                383.1282043457031
            ],
            [
                -4.627358913421631,
                -0.8602993488311768,
                403.1282043457031
            ],
            [
                -4.934264183044434,
                -0.9288361072540283,
                423.1282043457031
            ],
            [
                -5.241200923919678,
                -0.9973727464675903,
                443.1282043457031
            ],
            [
                -5.54817008972168,
                -1.0659093856811523,
                463.1282043457031
            ],
            [
                -5.855173110961914,
                -1.1344460248947144,
                483.1282043457031
            ],
            [
                -6.162198543548584,
                -1.2029825448989868,
                503.1282043457031
            ],
            [
                -6.469278335571289,
                -1.2715190649032593,
                523.128173828125
            ],
            [
                -6.776393413543701,
                -1.3400555849075317,
                543.128173828125
            ],
            [
                -7.083544731140137,
                -1.4085919857025146,
                563.128173828125
            ],
            [
                -7.390735149383545,
                -1.477128505706787,
                583.128173828125
            ],
            [
                -7.6979660987854,
                -1.54566490650177,
                603.128173828125
            ],
            [
                -8.005240440368652,
                -1.614201307296753,
                623.128173828125
            ],
            [
                -8.312559127807617,
                -1.6827377080917358,
                643.128173828125
            ],
            [
                -8.619925498962402,
                -1.7512741088867188,
                663.128173828125
            ],
            [
                -8.92734146118164,
                -1.8198107481002808,
                683.128173828125
            ],
            [
                -9.23479175567627,
                -1.8883470296859741,
                703.128173828125
            ],
            [
                -9.542301177978516,
                -1.9568836688995361,
                723.128173828125
            ],
            [
                -9.849861145019531,
                -2.0254204273223877,
                743.128173828125
            ],
            [
                -10.157475471496582,
                -2.0939574241638184,
                763.128173828125
            ],
            [
                -10.465142250061035,
                -2.162494421005249,
                783.128173828125
            ],
            [
                -10.772865295410156,
                -2.2310314178466797,
                803.128173828125
            ],
            [
                -11.080644607543945,
                -2.2995688915252686,
                823.128173828125
            ],
            [
                -11.388482093811035,
                -2.3681063652038574,
                843.128173828125
            ],
            [
                -11.696379661560059,
                -2.4366438388824463,
                863.128173828125
            ],
            [
                -12.004338264465332,
                -2.5051817893981934,
                883.128173828125
            ],
            [
                -12.312358856201172,
                -2.5737199783325195,
                903.128173828125
            ],
            [
                -12.620442390441895,
                -2.6422581672668457,
                923.128173828125
            ],
            [
                -12.928589820861816,
                -2.71079683303833,
                943.128173828125
            ],
            [
                -13.236800193786621,
                -2.7793350219726563,
                963.128173828125
            ],
            [
                -13.545077323913574,
                -2.8478736877441406,
                983.128173828125
            ],
            [
                -13.853421211242676,
                -2.916412353515625,
                1003.128173828125
            ],
            [
                -15.396174430847168,
                -3.2591090202331543,
                1103.128173828125
            ],
            [
                -16.9406795501709,
                -3.6018106937408447,
                1203.128173828125
            ],
            [
                -18.48699188232422,
                -3.944516897201538,
                1303.128173828125
            ],
            [
                -20.035066604614258,
                -4.287225723266602,
                1403.128173828125
            ],
            [
                -21.58502769470215,
                -4.629938125610352,
                1503.128173828125
            ],
            [
                -23.136306762695313,
                -4.972661018371582,
                1603.128173828125
            ],
            [
                -24.689697265625,
                -5.315382480621338,
                1703.128173828125
            ],
            [
                -26.24521827697754,
                -5.658107757568359,
                1803.128173828125
            ],
            [
                -27.80314826965332,
                -6.000837326049805,
                1903.128173828125
            ],
            [
                -29.363557815551758,
                -6.343570232391357,
                2003.128173828125
            ],
            [
                -30.92699432373047,
                -6.686306953430176,
                2103.128173828125
            ],
            [
                -32.49433898925781,
                -7.029053688049316,
                2203.128173828125
            ],
            [
                -34.066368103027344,
                -7.371811866760254,
                2303.128173828125
            ],
            [
                -35.6435546875,
                -7.7145843505859375,
                2403.128173828125
            ],
            [
                -37.22753143310547,
                -8.057374000549316,
                2503.128173828125
            ],
            [
                -38.819149017333984,
                -8.4002046585083,
                2603.128173828125
            ],
            [
                -40.41963577270508,
                -8.743043899536133,
                2703.128173828125
            ],
            [
                -42.0321044921875,
                -9.085919380187988,
                2803.128173828125
            ],
            [
                -43.657955169677734,
                -9.428828239440918,
                2903.128173828125
            ],
            [
                -45.29914855957031,
                -9.771768569946289,
                3003.128173828125
            ],
            [
                -46.95909881591797,
                -10.114729881286621,
                3103.128173828125
            ],
            [
                -48.6390495300293,
                -10.457701683044434,
                3203.128173828125
            ],
            [
                -50.34176254272461,
                -10.800691604614258,
                3303.128173828125
            ],
            [
                -52.07052230834961,
                -11.143707275390625,
                3403.128173828125
            ],
            [
                -53.829132080078125,
                -11.486741065979004,
                3503.128173828125
            ],
            [
                -55.61936950683594,
                -11.82982349395752,
                3603.128173828125
            ],
            [
                -57.44570541381836,
                -12.172953605651855,
                3703.128173828125
            ],
            [
                -59.3077507019043,
                -12.516088485717773,
                3803.128173828125
            ],
            [
                -61.2111930847168,
                -12.859307289123535,
                3903.128173828125
            ],
            [
                -63.15888214111328,
                -13.202630043029785,
                4003.128173828125
            ],
            [
                -65.15232849121094,
                -13.546041488647461,
                4103.12841796875
            ],
            [
                -67.1902847290039,
                -13.88951301574707,
                4203.12841796875
            ],
            [
                -69.2746353149414,
                -14.233030319213867,
                4303.12841796875
            ],
            [
                -71.4095458984375,
                -14.576704025268555,
                4403.12841796875
            ],
            [
                -73.59970092773438,
                -14.920442581176758,
                4503.12841796875
            ],
            [
                -75.83814239501953,
                -15.264322280883789,
                4603.12841796875
            ],
            [
                -78.12831115722656,
                -15.608330726623535,
                4703.12841796875
            ],
            [
                -80.47113800048828,
                -15.952519416809082,
                4803.12841796875
            ],
            [
                -82.86921691894531,
                -16.29683494567871,
                4903.12841796875
            ],
            [
                -85.31658172607422,
                -16.64124298095703,
                5003.12841796875
            ],
            [
                -88.09408569335938,
                -16.32132911682129,
                5103.12841796875
            ],
            [
                -90.65615844726563,
                -16.63946533203125,
                5203.12841796875
            ],
            [
                -93.2687759399414,
                -16.9578857421875,
                5303.12841796875
            ],
            [
                -95.93037414550781,
                -17.276153564453125,
                5403.12841796875
            ],
            [
                -98.64043426513672,
                -17.594322204589844,
                5503.12841796875
            ],
            [
                -101.39693450927734,
                -17.912961959838867,
                5603.12841796875
            ],
            [
                -104.20110321044922,
                -18.231529235839844,
                5703.12841796875
            ],
            [
                -107.0511245727539,
                -18.550302505493164,
                5803.12841796875
            ],
            [
                -109.94413757324219,
                -18.869203567504883,
                5903.12841796875
            ],
            [
                -112.88151550292969,
                -19.188262939453125,
                6003.12841796875
            ],
            [
                -115.86054992675781,
                -19.50749397277832,
                6103.12841796875
            ],
            [
                -118.88018798828125,
                -19.82677459716797,
                6203.12841796875
            ],
            [
                -121.93912506103516,
                -20.146089553833008,
                6303.12841796875
            ],
            [
                -125.03570556640625,
                -20.465471267700195,
                6403.12841796875
            ],
            [
                -128.1689910888672,
                -20.78485870361328,
                6503.12841796875
            ],
            [
                -131.33677673339844,
                -21.104358673095703,
                6603.12841796875
            ],
            [
                -134.53819274902344,
                -21.4239444732666,
                6703.12841796875
            ],
            [
                -137.77072143554688,
                -21.74358558654785,
                6803.12841796875
            ],
            [
                -141.03395080566406,
                -22.06324005126953,
                6903.12841796875
            ],
            [
                -144.32566833496094,
                -22.382932662963867,
                7003.12841796875
            ],
            [
                -147.64405822753906,
                -22.702669143676758,
                7103.12841796875
            ],
            [
                -150.98756408691406,
                -23.02244758605957,
                7203.12841796875
            ],
            [
                -154.35482788085938,
                -23.3422794342041,
                7303.12841796875
            ],
            [
                -157.74456787109375,
                -23.662141799926758,
                7403.12841796875
            ],
            [
                -161.15426635742188,
                -23.982074737548828,
                7503.12841796875
            ],
            [
                -164.58352661132813,
                -24.30204963684082,
                7603.12841796875
            ],
            [
                -168.0303192138672,
                -24.622089385986328,
                7703.12841796875
            ],
            [
                -171.49391174316406,
                -24.94219970703125,
                7803.12841796875
            ],
            [
                -174.97288513183594,
                -25.26237678527832,
                7903.12841796875
            ],
            [
                -178.46592712402344,
                -25.582622528076172,
                8003.12841796875
            ],
            [
                -181.97225952148438,
                -25.90294075012207,
                8103.12841796875
            ],
            [
                -185.4904327392578,
                -26.223325729370117,
                8203.1279296875
            ],
            [
                -189.01966857910156,
                -26.54377555847168,
                8303.1279296875
            ],
            [
                -192.5591583251953,
                -26.864286422729492,
                8403.1279296875
            ],
            [
                -196.10806274414063,
                -27.184856414794922,
                8503.1279296875
            ],
            [
                -199.6653594970703,
                -27.505475997924805,
                8603.1279296875
            ],
            [
                -203.23057556152344,
                -27.826143264770508,
                8703.1279296875
            ],
            [
                -206.802978515625,
                -28.146852493286133,
                8803.1279296875
            ],
            [
                -210.38194274902344,
                -28.467607498168945,
                8903.1279296875
            ],
            [
                -213.96697998046875,
                -28.78840446472168,
                9003.1279296875
            ],
            [
                -217.55752563476563,
                -29.109241485595703,
                9103.1279296875
            ],
            [
                -221.1531219482422,
                -29.43011474609375,
                9203.1279296875
            ],
            [
                -224.75331115722656,
                -29.751022338867188,
                9303.1279296875
            ],
            [
                -228.3577117919922,
                -30.07196044921875,
                9403.1279296875
            ],
            [
                -231.9659423828125,
                -30.392927169799805,
                9503.1279296875
            ],
            [
                -235.57766723632813,
                -30.71392250061035,
                9603.1279296875
            ],
            [
                -239.1925811767578,
                -31.034940719604492,
                9703.1279296875
            ],
            [
                -242.8104248046875,
                -31.35598373413086,
                9803.1279296875
            ],
            [
                -246.43089294433594,
                -31.677045822143555,
                9903.1279296875
            ],
            [
                -250.0537872314453,
                -31.998126983642578,
                10003.1279296875
            ],
            [
                -257.3059997558594,
                -32.64033889770508,
                10203.1279296875
            ],
            [
                -264.5655822753906,
                -33.28260803222656,
                10403.1279296875
            ],
            [
                -271.8312072753906,
                -33.924922943115234,
                10603.1279296875
            ],
            [
                -279.10198974609375,
                -34.56727600097656,
                10803.1279296875
            ],
            [
                -286.3768615722656,
                -35.20965576171875,
                11003.1279296875
            ],
            [
                -293.6552429199219,
                -35.8520622253418,
                11203.1279296875
            ],
            [
                -300.9366149902344,
                -36.49448776245117,
                11403.1279296875
            ],
            [
                -308.22021484375,
                -37.136924743652344,
                11603.1279296875
            ],
            [
                -315.5057678222656,
                -37.77937316894531,
                11803.1279296875
            ],
            [
                -322.7928466796875,
                -38.42182922363281,
                12003.1279296875
            ],
            [
                -330.08148193359375,
                -39.064292907714844,
                12203.1279296875
            ],
            [
                -337.37109375,
                -39.70676040649414,
                12403.1279296875
            ],
            [
                -344.66131591796875,
                -40.34922790527344,
                12603.1279296875
            ],
            [
                -351.9521789550781,
                -40.99169921875,
                12803.1279296875
            ],
            [
                -359.2437744140625,
                -41.63417434692383,
                13003.1279296875
            ],
            [
                -366.53582763671875,
                -42.276649475097656,
                13203.1279296875
            ],
            [
                -373.8281555175781,
                -42.919124603271484,
                13403.1279296875
            ]
        ],
        "zFirstMeasurement": 599.2573
    },
    {
        "E": 61172.863891307206,
        "chi2": 1.0020407438278198,
        "ip": 0.032795023976817037,
        "ipchi2": 0.7451524885939356,
        "mass": 139.57,
        "particleId": "pi+",
        "pvx": 0.5951,
        "pvy": 0.1161,
        "pvz": 62.299,
        "px": -1483.95,
        "py": 1414.16,
        "pz": 61138.35,
        "q": 1.0,
        "trajectory": [
            [
                0.42119544744491577,
                0.24591726064682007,
                68.1281967163086
            ],
            [
                0.29983484745025635,
                0.36156946420669556,
                73.1281967163086
            ],
            [
                0.1784752607345581,
                0.47722166776657104,
                78.1281967163086
            ],
            [
                0.05711666867136955,
                0.5928738713264465,
                83.1281967163086
            ],
            [
                -0.06424089521169662,
                0.7085260152816772,
                88.1281967163086
            ],
            [
                -0.18559741973876953,
                0.824178159236908,
                93.1281967163086
            ],
            [
                -0.30695289373397827,
                0.9398303627967834,
                98.1281967163086
            ],
            [
                -0.42830729484558105,
                1.0554825067520142,
                103.1281967163086
            ],
            [
                -0.9137139320373535,
                1.5180909633636475,
                123.1281967163086
            ],
            [
                -1.399101972579956,
                1.9806993007659912,
                143.12820434570313
            ],
            [
                -1.884469985961914,
                2.443307638168335,
                163.12820434570313
            ],
            [
                -2.3698275089263916,
                2.9059157371520996,
                183.12820434570313
            ],
            [
                -2.855159282684326,
                3.368523597717285,
                203.12820434570313
            ],
            [
                -3.3404700756073,
                3.8311314582824707,
                223.12820434570313
            ],
            [
                -3.825759172439575,
                4.293738842010498,
                243.12820434570313
            ],
            [
                -4.310996055603027,
                4.756402969360352,
                263.1282043457031
            ],
            [
                -4.796239376068115,
                5.219010353088379,
                283.1282043457031
            ],
            [
                -5.281457424163818,
                5.681617736816406,
                303.1282043457031
            ],
            [
                -5.766650676727295,
                6.144225120544434,
                323.1282043457031
            ],
            [
                -6.25181770324707,
                6.606832027435303,
                343.1282043457031
            ],
            [
                -6.736965656280518,
                7.069438934326172,
                363.1282043457031
            ],
            [
                -7.222073554992676,
                7.532045841217041,
                383.1282043457031
            ],
            [
                -7.707154750823975,
                7.99465274810791,
                403.1282043457031
            ],
            [
                -8.192207336425781,
                8.457259178161621,
                423.1282043457031
            ],
            [
                -8.677228927612305,
                8.919866561889648,
                443.1282043457031
            ],
            [
                -9.162219047546387,
                9.38247299194336,
                463.1282043457031
            ],
            [
                -9.647174835205078,
                9.84507942199707,
                483.1282043457031
            ],
            [
                -10.132096290588379,
                10.307685852050781,
                503.1282043457031
            ],
            [
                -10.616979598999023,
                10.770292282104492,
                523.128173828125
            ],
            [
                -11.101823806762695,
                11.232898712158203,
                543.128173828125
            ],
            [
                -11.586645126342773,
                11.695505142211914,
                563.128173828125
            ],
            [
                -12.071416854858398,
                12.158110618591309,
                583.128173828125
            ],
            [
                -12.556147575378418,
                12.62071704864502,
                603.128173828125
            ],
            [
                -13.040836334228516,
                13.08332347869873,
                623.128173828125
            ],
            [
                -13.525480270385742,
                13.545928955078125,
                643.128173828125
            ],
            [
                -14.010079383850098,
                14.008535385131836,
                663.128173828125
            ],
            [
                -14.494632720947266,
                14.471141815185547,
                683.128173828125
            ],
            [
                -14.979137420654297,
                14.933747291564941,
                703.128173828125
            ],
            [
                -15.463591575622559,
                15.396353721618652,
                723.128173828125
            ],
            [
                -15.94799518585205,
                15.858959197998047,
                743.128173828125
            ],
            [
                -16.43234634399414,
                16.321565628051758,
                763.128173828125
            ],
            [
                -16.916645050048828,
                16.78417205810547,
                783.128173828125
            ],
            [
                -17.400888442993164,
                17.24677848815918,
                803.128173828125
            ],
            [
                -17.885074615478516,
                17.70938491821289,
                823.128173828125
            ],
            [
                -18.369203567504883,
                18.1719913482666,
                843.128173828125
            ],
            [
                -18.853273391723633,
                18.634597778320313,
                863.128173828125
            ],
            [
                -19.3372859954834,
                19.097204208374023,
                883.128173828125
            ],
            [
                -19.821239471435547,
                19.559810638427734,
                903.128173828125
            ],
            [
                -20.305131912231445,
                20.022417068481445,
                923.128173828125
            ],
            [
                -20.78896141052246,
                20.485023498535156,
                943.128173828125
            ],
            [
                -21.272722244262695,
                20.947629928588867,
                963.128173828125
            ],
            [
                -21.756412506103516,
                21.41023826599121,
                983.128173828125
            ],
            [
                -22.240036010742188,
                21.872846603393555,
                1003.128173828125
            ],
            [
                -24.65715217590332,
                24.185890197753906,
                1103.128173828125
            ],
            [
                -27.07245635986328,
                26.498943328857422,
                1203.128173828125
            ],
            [
                -29.485984802246094,
                28.812002182006836,
                1303.128173828125
            ],
            [
                -31.897701263427734,
                31.125062942504883,
                1403.128173828125
            ],
            [
                -34.30824661254883,
                33.438106536865234,
                1503.128173828125
            ],
            [
                -36.71660614013672,
                35.75117111206055,
                1603.128173828125
            ],
            [
                -39.12307357788086,
                38.06424331665039,
                1703.128173828125
            ],
            [
                -41.5277214050293,
                40.37731170654297,
                1803.128173828125
            ],
            [
                -43.92999267578125,
                42.69038391113281,
                1903.128173828125
            ],
            [
                -46.32954025268555,
                45.00345230102539,
                2003.128173828125
            ],
            [
                -48.726158142089844,
                47.3165168762207,
                2103.128173828125
            ],
            [
                -51.11910629272461,
                49.62957000732422,
                2203.128173828125
            ],
            [
                -53.50737762451172,
                51.94261169433594,
                2303.128173828125
            ],
            [
                -55.890869140625,
                54.255645751953125,
                2403.128173828125
            ],
            [
                -58.267887115478516,
                56.56863784790039,
                2503.128173828125
            ],
            [
                -60.6374397277832,
                58.881649017333984,
                2603.128173828125
            ],
            [
                -62.99652099609375,
                61.194644927978516,
                2703.128173828125
            ],
            [
                -65.34559631347656,
                63.50761032104492,
                2803.128173828125
            ],
            [
                -67.68103790283203,
                65.820556640625,
                2903.128173828125
            ],
            [
                -70.0010757446289,
                68.13346099853516,
                3003.128173828125
            ],
            [
                -72.30441284179688,
                70.4463119506836,
                3103.128173828125
            ],
            [
                -74.58518981933594,
                72.75910949707031,
                3203.128173828125
            ],
            [
                -76.84424591064453,
                75.07183074951172,
                3303.128173828125
            ],
            [
                -79.07897186279297,
                77.38449096679688,
                3403.128173828125
            ],
            [
                -81.28287506103516,
                79.6970443725586,
                3503.128173828125
            ],
            [
                -83.45643615722656,
                82.00955963134766,
                3603.128173828125
            ],
            [
                -85.59423828125,
                84.32203674316406,
                3703.128173828125
            ],
            [
                -87.69419860839844,
                86.6344223022461,
                3803.128173828125
            ],
            [
                -89.755859375,
                88.94668579101563,
                3903.128173828125
            ],
            [
                -91.77650451660156,
                91.2590103149414,
                4003.128173828125
            ],
            [
                -93.74554443359375,
                93.57140350341797,
                4103.12841796875
            ],
            [
                -95.67166900634766,
                95.88374328613281,
                4203.12841796875
            ],
            [
                -97.54986572265625,
                98.19603729248047,
                4303.12841796875
            ],
            [
                -99.38166809082031,
                100.50831604003906,
                4403.12841796875
            ],
            [
                -101.16059112548828,
                102.82086944580078,
                4503.12841796875
            ],
            [
                -102.88743591308594,
                105.13340759277344,
                4603.12841796875
            ],
            [
                -104.5659408569336,
                107.44587707519531,
                4703.12841796875
            ],
            [
                -106.19132995605469,
                109.75846099853516,
                4803.12841796875
            ],
            [
                -107.76869201660156,
                112.0711898803711,
                4903.12841796875
            ],
            [
                -108.9560546875,
                113.7645263671875,
                5003.12841796875
            ],
            [
                -110.42113494873047,
                116.05863189697266,
                5103.12841796875
            ],
            [
                -111.8365707397461,
                118.35277557373047,
                5203.12841796875
            ],
            [
                -113.20176696777344,
                120.64713287353516,
                5303.12841796875
            ],
            [
                -114.51848602294922,
                122.94132995605469,
                5403.12841796875
            ],
            [
                -115.78739929199219,
                125.2354965209961,
                5503.12841796875
            ],
            [
                -117.0101547241211,
                127.53012084960938,
                5603.12841796875
            ],
            [
                -118.18569946289063,
                129.8246612548828,
                5703.12841796875
            ],
            [
                -119.31582641601563,
                132.11936950683594,
                5803.12841796875
            ],
            [
                -120.40345764160156,
                134.4142303466797,
                5903.12841796875
            ],
            [
                -121.44709777832031,
                136.70932006835938,
                6003.12841796875
            ],
            [
                -122.4493408203125,
                139.0045623779297,
                6103.12841796875
            ],
            [
                -123.41134643554688,
                141.29983520507813,
                6203.12841796875
            ],
            [
                -124.33446502685547,
                143.59519958496094,
                6303.12841796875
            ],
            [
                -125.22030639648438,
                145.89064025878906,
                6403.12841796875
            ],
            [
                -126.06977081298828,
                148.1860809326172,
                6503.12841796875
            ],
            [
                -126.88500213623047,
                150.48167419433594,
                6603.12841796875
            ],
            [
                -127.66693115234375,
                152.77737426757813,
                6703.12841796875
            ],
            [
                -128.4180450439453,
                155.07313537597656,
                6803.12841796875
            ],
            [
                -129.1387481689453,
                157.36892700195313,
                6903.12841796875
            ],
            [
                -129.83120727539063,
                159.664794921875,
                7003.12841796875
            ],
            [
                -130.49728393554688,
                161.96072387695313,
                7103.12841796875
            ],
            [
                -131.1385498046875,
                164.2567138671875,
                7203.12841796875
            ],
            [
                -131.75633239746094,
                166.55274963378906,
                7303.12841796875
            ],
            [
                -132.35186767578125,
                168.84884643554688,
                7403.12841796875
            ],
            [
                -132.927734375,
                171.14501953125,
                7503.12841796875
            ],
            [
                -133.48426818847656,
                173.44126892089844,
                7603.12841796875
            ],
            [
                -134.02354431152344,
                175.73756408691406,
                7703.12841796875
            ],
            [
                -134.54627990722656,
                178.03395080566406,
                7803.12841796875
            ],
            [
                -135.0538787841797,
                180.33042907714844,
                7903.12841796875
            ],
            [
                -135.5476531982422,
                182.626953125,
                8003.12841796875
            ],
            [
                -136.02838134765625,
                184.92356872558594,
                8103.12841796875
            ],
            [
                -136.49749755859375,
                187.22024536132813,
                8203.1279296875
            ],
            [
                -136.9557342529297,
                189.51699829101563,
                8303.1279296875
            ],
            [
                -137.4039306640625,
                191.8137969970703,
                8403.1279296875
            ],
            [
                -137.84291076660156,
                194.11065673828125,
                8503.1279296875
            ],
            [
                -138.27365112304688,
                196.40757751464844,
                8603.1279296875
            ],
            [
                -138.69664001464844,
                198.70452880859375,
                8703.1279296875
            ],
            [
                -139.11257934570313,
                201.00152587890625,
                8803.1279296875
            ],
            [
                -139.52210998535156,
                203.29856872558594,
                8903.1279296875
            ],
            [
                -139.9257049560547,
                205.59564208984375,
                9003.1279296875
            ],
            [
                -140.32388305664063,
                207.8927459716797,
                9103.1279296875
            ],
            [
                -140.71713256835938,
                210.18988037109375,
                9203.1279296875
            ],
            [
                -141.1058807373047,
                212.487060546875,
                9303.1279296875
            ],
            [
                -141.4905242919922,
                214.7842559814453,
                9403.1279296875
            ],
            [
                -141.8714141845703,
                217.0814666748047,
                9503.1279296875
            ],
            [
                -142.24888610839844,
                219.3787078857422,
                9603.1279296875
            ],
            [
                -142.6232452392578,
                221.6759796142578,
                9703.1279296875
            ],
            [
                -142.9947509765625,
                223.97325134277344,
                9803.1279296875
            ],
            [
                -143.36367797851563,
                226.27053833007813,
                9903.1279296875
            ],
            [
                -143.73023986816406,
                228.56784057617188,
                10003.1279296875
            ],
            [
                -144.4570770263672,
                233.1624755859375,
                10203.1279296875
            ],
            [
                -145.1767120361328,
                237.75714111328125,
                10403.1279296875
            ],
            [
                -145.8904571533203,
                242.35183715820313,
                10603.1279296875
            ],
            [
                -146.59913635253906,
                246.94656372070313,
                10803.1279296875
            ],
            [
                -147.30384826660156,
                251.54127502441406,
                11003.1279296875
            ],
            [
                -148.005126953125,
                256.1360168457031,
                11203.1279296875
            ],
            [
                -148.70346069335938,
                260.7307434082031,
                11403.1279296875
            ],
            [
                -149.39964294433594,
                265.3254699707031,
                11603.1279296875
            ],
            [
                -150.0938720703125,
                269.92022705078125,
                11803.1279296875
            ],
            [
                -150.78663635253906,
                274.51495361328125,
                12003.1279296875
            ],
            [
                -151.47789001464844,
                279.10968017578125,
                12203.1279296875
            ],
            [
                -152.1681671142578,
                283.70440673828125,
                12403.1279296875
            ],
            [
                -152.8578643798828,
                288.29913330078125,
                12603.1279296875
            ],
            [
                -153.54690551757813,
                292.89385986328125,
                12803.1279296875
            ],
            [
                -154.23526000976563,
                297.4885559082031,
                13003.1279296875
            ],
            [
                -154.9231414794922,
                302.0832824707031,
                13203.1279296875
            ],
            [
                -155.6107635498047,
                306.6780090332031,
                13403.1279296875
            ]
        ],
        "zFirstMeasurement": 449.2342
    },
    {
        "E": 3085.338455914559,
        "chi2": 1.0593055486679077,
        "ip": 51.688991517776664,
        "ipchi2": 21730.79734176687,
        "mass": 139.57018,
        "particleId": "pi+",
        "pvx": 0.5951,
        "pvy": 0.1161,
        "pvz": 62.299,
        "px": 374.93817526374613,
        "py": 61.8886684255445,
        "pz": 3058.663876572646,
        "q": 1.0,
        "trajectory": [
            [
                -71.24140930175781,
                -4.951449394226074,
                -100.0
            ],
            [
                -70.63151550292969,
                -4.8502326011657715,
                -95.0
            ],
            [
                -70.02159881591797,
                -4.749016761779785,
                -90.0
            ],
            [
                -69.41168212890625,
                -4.647801399230957,
                -85.0
            ],
            [
                -68.80175018310547,
                -4.546586513519287,
                -80.0
            ],
            [
                -68.19180297851563,
                -4.445372104644775,
                -75.0
            ],
            [
                -67.58184814453125,
                -4.34415864944458,
                -70.0
            ],
            [
                -66.97187805175781,
                -4.242945194244385,
                -65.0
            ],
            [
                -66.36189270019531,
                -4.141732215881348,
                -60.0
            ],
            [
                -65.75189971923828,
                -4.040520191192627,
                -55.0
            ],
            [
                -65.14189147949219,
                -3.9393084049224854,
                -50.0
            ],
            [
                -64.53186798095703,
                -3.838097095489502,
                -45.0
            ],
            [
                -63.92182922363281,
                -3.736886501312256,
                -40.0
            ],
            [
                -63.3117790222168,
                -3.635676383972168,
                -35.0
            ],
            [
                -62.70171356201172,
                -3.534466505050659,
                -30.0
            ],
            [
                -62.09163284301758,
                -3.4332573413848877,
                -25.0
            ],
            [
                -61.481536865234375,
                -3.3320486545562744,
                -20.0
            ],
            [
                -60.871429443359375,
                -3.2308404445648193,
                -15.0
            ],
            [
                -60.26130294799805,
                -3.1296329498291016,
                -10.0
            ],
            [
                -59.651161193847656,
                -3.028425693511963,
                -5.0
            ],
            [
                -59.0410041809082,
                -2.9272189140319824,
                0.0
            ],
            [
                -58.430824279785156,
                -2.82601261138916,
                5.0
            ],
            [
                -57.82062911987305,
                -2.724807024002075,
                10.0
            ],
            [
                -57.21041488647461,
                -2.6236016750335693,
                15.0
            ],
            [
                -56.60017776489258,
                -2.5223968029022217,
                20.0
            ],
            [
                -55.98992156982422,
                -2.4211924076080322,
                25.0
            ],
            [
                -55.379642486572266,
                -2.319988250732422,
                30.0
            ],
            [
                -54.769351959228516,
                -2.218784809112549,
                35.0
            ],
            [
                -54.15903854370117,
                -2.117581844329834,
                40.0
            ],
            [
                -53.548709869384766,
                -2.0163793563842773,
                45.0
            ],
            [
                -52.9383659362793,
                -1.915177345275879,
                50.0
            ],
            [
                -52.327999114990234,
                -1.8139759302139282,
                55.0
            ],
            [
                -51.71761703491211,
                -1.7127748727798462,
                60.0
            ],
            [
                -51.10721206665039,
                -1.6115742921829224,
                65.0
            ],
            [
                -50.49679183959961,
                -1.5103743076324463,
                70.0
            ],
            [
                -49.8863525390625,
                -1.4091746807098389,
                75.0
            ],
            [
                -49.2758903503418,
                -1.3079756498336792,
                80.0
            ],
            [
                -48.665409088134766,
                -1.2067769765853882,
                85.0
            ],
            [
                -48.054908752441406,
                -1.105578899383545,
                90.0
            ],
            [
                -47.44438934326172,
                -1.0043811798095703,
                95.0
            ],
            [
                -46.83384704589844,
                -0.9031839966773987,
                100.0
            ],
            [
                -44.391448974609375,
                -0.49839985370635986,
                120.0
            ],
            [
                -41.94869613647461,
                -0.09362304210662842,
                140.0
            ],
            [
                -39.505577087402344,
                0.3111465573310852,
                160.0
            ],
            [
                -37.06207275390625,
                0.7159091234207153,
                180.0
            ],
            [
                -34.618141174316406,
                1.1206655502319336,
                200.0
            ],
            [
                -32.17378616333008,
                1.525415301322937,
                220.0
            ],
            [
                -29.728965759277344,
                1.9301575422286987,
                240.0
            ],
            [
                -27.283687591552734,
                2.334893226623535,
                260.0
            ],
            [
                -24.837947845458984,
                2.7396225929260254,
                280.0
            ],
            [
                -22.391725540161133,
                3.144346237182617,
                300.0
            ],
            [
                -19.94499969482422,
                3.5490639209747314,
                320.0
            ],
            [
                -17.497751235961914,
                3.9537761211395264,
                340.0
            ],
            [
                -15.049952507019043,
                4.358482837677002,
                360.0
            ],
            [
                -12.601792335510254,
                4.763182640075684,
                380.0
            ],
            [
                -10.152741432189941,
                5.167879581451416,
                400.0
            ],
            [
                -7.70313024520874,
                5.572571754455566,
                420.0
            ],
            [
                -5.252923488616943,
                5.977259159088135,
                440.0
            ],
            [
                -2.802086353302002,
                6.381942272186279,
                460.0
            ],
            [
                -0.35058438777923584,
                6.78662109375,
                480.0
            ],
            [
                2.1016170978546143,
                7.191295623779297,
                500.0
            ],
            [
                4.5545525550842285,
                7.595966815948486,
                520.0
            ],
            [
                7.008133411407471,
                8.00063705444336,
                540.0
            ],
            [
                9.462592124938965,
                8.405301094055176,
                560.0
            ],
            [
                11.917834281921387,
                8.809961318969727,
                580.0
            ],
            [
                14.3739013671875,
                9.214618682861328,
                600.0
            ],
            [
                16.830835342407227,
                9.619274139404297,
                620.0
            ],
            [
                19.288681030273438,
                10.02392864227295,
                640.0
            ],
            [
                21.747488021850586,
                10.428582191467285,
                660.0
            ],
            [
                24.207304000854492,
                10.833237648010254,
                680.0
            ],
            [
                26.66768455505371,
                11.237884521484375,
                700.0
            ],
            [
                29.129350662231445,
                11.642538070678711,
                720.0
            ],
            [
                31.592060089111328,
                12.047194480895996,
                740.0
            ],
            [
                34.05584716796875,
                12.45185375213623,
                760.0
            ],
            [
                36.52073287963867,
                12.856515884399414,
                780.0
            ],
            [
                38.98672866821289,
                13.261178970336914,
                800.0
            ],
            [
                41.453880310058594,
                13.665844917297363,
                820.0
            ],
            [
                43.92221450805664,
                14.070515632629395,
                840.0
            ],
            [
                46.39176559448242,
                14.475189208984375,
                860.0
            ],
            [
                48.8625602722168,
                14.879868507385254,
                880.0
            ],
            [
                51.334632873535156,
                15.284552574157715,
                900.0
            ],
            [
                53.807979583740234,
                15.689242362976074,
                920.0
            ],
            [
                56.282657623291016,
                16.093936920166016,
                940.0
            ],
            [
                58.7586669921875,
                16.49863624572754,
                960.0
            ],
            [
                61.23598098754883,
                16.903331756591797,
                980.0
            ],
            [
                63.71461486816406,
                17.30802345275879,
                1000.0
            ],
            [
                76.12862396240234,
                19.331510543823242,
                1100.0
            ],
            [
                88.5781021118164,
                21.355030059814453,
                1200.0
            ],
            [
                101.06478118896484,
                23.37857437133789,
                1300.0
            ],
            [
                113.58614349365234,
                25.402084350585938,
                1400.0
            ],
            [
                126.14586639404297,
                27.425601959228516,
                1500.0
            ],
            [
                138.7334442138672,
                29.449323654174805,
                1600.0
            ],
            [
                151.362548828125,
                31.473073959350586,
                1700.0
            ],
            [
                164.0342559814453,
                33.497039794921875,
                1800.0
            ],
            [
                176.75286865234375,
                35.5213623046875,
                1900.0
            ],
            [
                189.52418518066406,
                37.54616928100586,
                2000.0
            ],
            [
                202.35398864746094,
                39.5717658996582,
                2100.0
            ],
            [
                215.25979614257813,
                41.59833526611328,
                2200.0
            ],
            [
                228.26077270507813,
                43.62651062011719,
                2300.0
            ],
            [
                241.36404418945313,
                45.65659713745117,
                2400.0
            ],
            [
                254.59713745117188,
                47.68881607055664,
                2500.0
            ],
            [
                267.9901428222656,
                49.72442626953125,
                2600.0
            ],
            [
                281.5562744140625,
                51.763206481933594,
                2700.0
            ],
            [
                295.36767578125,
                53.807456970214844,
                2800.0
            ],
            [
                309.43817138671875,
                55.85643005371094,
                2900.0
            ],
            [
                323.8157958984375,
                57.91126251220703,
                3000.0
            ],
            [
                338.56591796875,
                59.97324752807617,
                3100.0
            ],
            [
                353.7314453125,
                62.04330062866211,
                3200.0
            ],
            [
                369.35626220703125,
                64.12297058105469,
                3300.0
            ],
            [
                385.4904479980469,
                66.21195220947266,
                3400.0
            ],
            [
                402.2525329589844,
                68.31111907958984,
                3500.0
            ],
            [
                419.6448669433594,
                70.42310333251953,
                3600.0
            ],
            [
                437.7727966308594,
                72.54632568359375,
                3700.0
            ],
            [
                456.65740966796875,
                74.68236541748047,
                3800.0
            ],
            [
                476.38336181640625,
                76.83252716064453,
                3900.0
            ],
            [
                497.0354309082031,
                78.99666595458984,
                4000.0
            ],
            [
                518.6522827148438,
                81.1759033203125,
                4100.0
            ],
            [
                541.2308959960938,
                83.36822509765625,
                4200.0
            ],
            [
                564.7616577148438,
                85.5744400024414,
                4300.0
            ],
            [
                589.4009399414063,
                87.79348754882813,
                4400.0
            ],
            [
                615.2239379882813,
                90.02506256103516,
                4500.0
            ],
            [
                642.1011352539063,
                92.26789093017578,
                4600.0
            ],
            [
                670.0830078125,
                94.52237701416016,
                4700.0
            ],
            [
                699.2335815429688,
                96.78671264648438,
                4800.0
            ],
            [
                729.6629638671875,
                99.05760192871094,
                4900.0
            ],
            [
                761.1815185546875,
                101.34320831298828,
                5000.0
            ],
            [
                787.78564453125,
                98.56385040283203,
                5100.0
            ],
            [
                821.4383544921875,
                100.73458862304688,
                5200.0
            ],
            [
                856.2769165039063,
                102.9157485961914,
                5300.0
            ],
            [
                892.25244140625,
                105.0955810546875,
                5400.0
            ],
            [
                929.3982543945313,
                107.27461242675781,
                5500.0
            ],
            [
                967.6254272460938,
                109.47105407714844,
                5600.0
            ],
            [
                1007.0150146484375,
                111.66450500488281,
                5700.0
            ],
            [
                1047.52783203125,
                113.8595199584961,
                5800.0
            ],
            [
                1089.1009521484375,
                116.05213165283203,
                5900.0
            ],
            [
                1131.794189453125,
                118.24895477294922,
                6000.0
            ],
            [
                1175.5394287109375,
                120.44819641113281,
                6100.0
            ],
            [
                1220.3128662109375,
                122.64224243164063,
                6200.0
            ],
            [
                1266.1065673828125,
                124.8314208984375,
                6300.0
            ],
            [
                1312.881591796875,
                127.01537322998047,
                6400.0
            ],
            [
                1360.6014404296875,
                129.1960906982422,
                6500.0
            ],
            [
                1409.234619140625,
                131.3666534423828,
                6600.0
            ],
            [
                1458.7620849609375,
                133.52919006347656,
                6700.0
            ],
            [
                1509.120361328125,
                135.6836395263672,
                6800.0
            ],
            [
                1560.3070068359375,
                137.82562255859375,
                6900.0
            ],
            [
                1612.2564697265625,
                139.9578857421875,
                7000.0
            ],
            [
                1664.9241943359375,
                142.07876586914063,
                7100.0
            ],
            [
                1718.2669677734375,
                144.18789672851563,
                7200.0
            ],
            [
                1772.2413330078125,
                146.28822326660156,
                7300.0
            ],
            [
                1826.8218994140625,
                148.3761749267578,
                7400.0
            ],
            [
                1881.9195556640625,
                150.45684814453125,
                7500.0
            ],
            [
                1937.5355224609375,
                152.52391052246094,
                7600.0
            ],
            [
                1993.60888671875,
                154.58277893066406,
                7700.0
            ],
            [
                2050.11083984375,
                156.63461303710938,
                7800.0
            ],
            [
                2106.998291015625,
                158.6797332763672,
                7900.0
            ],
            [
                2164.23193359375,
                160.7192840576172,
                8000.0
            ],
            [
                2221.7880859375,
                162.75482177734375,
                8100.0
            ],
            [
                2279.62109375,
                164.78652954101563,
                8200.0
            ],
            [
                2337.708984375,
                166.81622314453125,
                8300.0
            ],
            [
                2396.026123046875,
                168.84359741210938,
                8400.0
            ],
            [
                2454.547607421875,
                170.8700714111328,
                8500.0
            ],
            [
                2513.2451171875,
                172.8955535888672,
                8600.0
            ],
            [
                2572.103759765625,
                174.92105102539063,
                8700.0
            ],
            [
                2631.10498046875,
                176.946533203125,
                8800.0
            ],
            [
                2690.22900390625,
                178.97177124023438,
                8900.0
            ],
            [
                2749.462890625,
                180.9967498779297,
                9000.0
            ],
            [
                2808.79296875,
                183.02207946777344,
                9100.0
            ],
            [
                2868.206787109375,
                185.0478515625,
                9200.0
            ],
            [
                2927.69482421875,
                187.0742950439453,
                9300.0
            ],
            [
                2987.247314453125,
                189.10153198242188,
                9400.0
            ],
            [
                3046.8564453125,
                191.12969970703125,
                9500.0
            ],
            [
                3106.51513671875,
                193.1588134765625,
                9600.0
            ],
            [
                3166.217529296875,
                195.1889190673828,
                9700.0
            ],
            [
                3225.9580078125,
                197.22003173828125,
                9800.0
            ],
            [
                3285.731689453125,
                199.2521209716797,
                9900.0
            ],
            [
                3345.534423828125,
                201.28517150878906,
                10000.0
            ],
            [
                3465.2138671875,
                205.35403442382813,
                10200.0
            ],
            [
                3584.972412109375,
                209.42642211914063,
                10400.0
            ],
            [
                3704.7890625,
                213.50196838378906,
                10600.0
            ],
            [
                3824.6533203125,
                217.58041381835938,
                10800.0
            ],
            [
                3944.549560546875,
                221.66140747070313,
                11000.0
            ],
            [
                4064.47119140625,
                225.74449157714844,
                11200.0
            ],
            [
                4184.38134765625,
                229.8264617919922,
                11400.0
            ],
            [
                4304.27001953125,
                233.90647888183594,
                11600.0
            ],
            [
                4424.24169921875,
                237.99417114257813,
                11800.0
            ],
            [
                4544.14013671875,
                242.0752410888672,
                12000.0
            ],
            [
                4664.07763671875,
                246.1600799560547,
                12200.0
            ],
            [
                4783.96826171875,
                250.2399444580078,
                12400.0
            ],
            [
                4903.9404296875,
                254.32760620117188,
                12600.0
            ],
            [
                5023.8740234375,
                258.4130554199219,
                12800.0
            ],
            [
                5143.7958984375,
                262.4959411621094,
                13000.0
            ],
            [
                5263.73095703125,
                266.5805969238281,
                13200.0
            ],
            [
                5383.5625,
                270.6541748046875,
                13400.0
            ]
        ],
        "zFirstMeasurement": 584.4155
    }
]
