[
    {
        "E": 26229.626719537297,
        "chi2": 0.0,
        "ip": 0.05214583269868634,
        "ipchi2": 11.028881586819493,
        "mass": 1873.26,
        "particleId": "D0",
        "pvx": 0.6239,
        "pvy": 0.0669,
        "pvz": 15.2357,
        "px": -1354.69,
        "py": 3469.87,
        "pz": 25896.12,
        "q": 0.0,
        "trajectory": [
            [
                0.6238999962806702,
                0.06689999997615814,
                15.235699653625488
            ],
            [
                0.5640000104904175,
                0.19349999725818634,
                16.56679916381836
            ]
        ],
        "zFirstMeasurement": -9999.0
    },
    {
        "E": 8640.20870742469,
        "chi2": 1.0896154642105103,
        "ip": 0.11458674105630912,
        "ipchi2": 14.537826917544393,
        "mass": 493.677,
        "particleId": "K-",
        "pvx": 0.6239,
        "pvy": 0.0669,
        "pvz": 15.2357,
        "px": 305.56,
        "py": 946.34,
        "pz": 8568.58,
        "q": -1.0,
        "trajectory": [
            [
                0.5606720447540283,
                0.1834239661693573,
                16.56679916381836
            ],
            [
                0.7389693856239319,
                0.7356398701667786,
                21.56679916381836
            ],
            [
                0.9172602891921997,
                1.287855863571167,
                26.56679916381836
            ],
            [
                1.095544457435608,
                1.8400719165802002,
                31.56679916381836
            ],
            [
                1.2738220691680908,
                2.3922882080078125,
                36.56679916381836
            ],
            [
                1.4520927667617798,
                2.944504499435425,
                41.56679916381836
            ],
            [
                1.6303565502166748,
                3.496720790863037,
                46.56679916381836
            ],
            [
                1.8086134195327759,
                4.0489373207092285,
                51.56679916381836
            ],
            [
                1.9868535995483398,
                4.601163864135742,
                56.56679916381836
            ],
            [
                2.1650965213775635,
                5.153380393981934,
                61.56679916381836
            ],
            [
                2.3433327674865723,
                5.705596923828125,
                66.56680297851563
            ],
            [
                2.521562099456787,
                6.257813930511475,
                71.56680297851563
            ],
            [
                2.699784517288208,
                6.810030937194824,
                76.56680297851563
            ],
            [
                2.877999782562256,
                7.362247943878174,
                81.56680297851563
            ],
            [
                3.0562078952789307,
                7.914464950561523,
                86.56680297851563
            ],
            [
                3.2344086170196533,
                8.466682434082031,
                91.56680297851563
            ],
            [
                3.412602186203003,
                9.018899917602539,
                96.56680297851563
            ],
            [
                3.590787887573242,
                9.571117401123047,
                101.56680297851563
            ],
            [
                4.3034539222717285,
                11.779987335205078,
                121.56680297851563
            ],
            [
                5.015989780426025,
                13.988859176635742,
                141.56680297851563
            ],
            [
                5.728386878967285,
                16.197731018066406,
                161.56680297851563
            ],
            [
                6.440637111663818,
                18.406606674194336,
                181.56680297851563
            ],
            [
                7.15280294418335,
                20.615482330322266,
                201.56680297851563
            ],
            [
                7.864781379699707,
                22.824357986450195,
                221.56680297851563
            ],
            [
                8.576604843139648,
                25.033235549926758,
                241.56680297851563
            ],
            [
                9.28826904296875,
                27.24211311340332,
                261.5668029785156
            ],
            [
                9.999765396118164,
                29.450992584228516,
                281.5668029785156
            ],
            [
                10.711088180541992,
                31.65987205505371,
                301.5668029785156
            ],
            [
                11.42223072052002,
                33.868751525878906,
                321.5668029785156
            ],
            [
                12.13318920135498,
                36.077632904052734,
                341.5668029785156
            ],
            [
                12.843957901000977,
                38.28651428222656,
                361.5668029785156
            ],
            [
                13.554529190063477,
                40.495399475097656,
                381.5668029785156
            ],
            [
                14.264899253845215,
                42.704280853271484,
                401.5668029785156
            ],
            [
                14.975054740905762,
                44.91316223144531,
                421.5668029785156
            ],
            [
                15.684992790222168,
                47.122047424316406,
                441.5668029785156
            ],
            [
                16.394689559936523,
                49.330928802490234,
                461.5668029785156
            ],
            [
                17.104148864746094,
                51.53981018066406,
                481.5668029785156
            ],
            [
                17.813369750976563,
                53.748695373535156,
                501.5668029785156
            ],
            [
                18.522335052490234,
                55.957576751708984,
                521.5667724609375
            ],
            [
                19.23104476928711,
                58.16645812988281,
                541.5667724609375
            ],
            [
                19.939495086669922,
                60.37533950805664,
                561.5667724609375
            ],
            [
                20.647680282592773,
                62.58422088623047,
                581.5667724609375
            ],
            [
                21.355588912963867,
                64.79309844970703,
                601.5667724609375
            ],
            [
                22.063140869140625,
                67.0019760131836,
                621.5667724609375
            ],
            [
                22.7703857421875,
                69.21086120605469,
                641.5667724609375
            ],
            [
                23.47732162475586,
                71.41973876953125,
                661.5667724609375
            ],
            [
                24.183944702148438,
                73.62861633300781,
                681.5667724609375
            ],
            [
                24.890247344970703,
                75.83749389648438,
                701.5667724609375
            ],
            [
                25.596233367919922,
                78.04637908935547,
                721.5667724609375
            ],
            [
                26.30188751220703,
                80.25525665283203,
                741.5667724609375
            ],
            [
                27.007198333740234,
                82.46414184570313,
                761.5667724609375
            ],
            [
                27.71209716796875,
                84.67301940917969,
                781.5667724609375
            ],
            [
                28.41653060913086,
                86.88188934326172,
                801.5667724609375
            ],
            [
                29.120595932006836,
                89.09075927734375,
                821.5667724609375
            ],
            [
                29.824270248413086,
                91.29962921142578,
                841.5667724609375
            ],
            [
                30.52754783630371,
                93.50849151611328,
                861.5667724609375
            ],
            [
                31.23042106628418,
                95.71736145019531,
                881.5667724609375
            ],
            [
                31.932886123657227,
                97.92622375488281,
                901.5667724609375
            ],
            [
                32.63499450683594,
                100.13508605957031,
                921.5667724609375
            ],
            [
                33.33664321899414,
                102.34395599365234,
                941.5667724609375
            ],
            [
                34.037715911865234,
                104.55281829833984,
                961.5667724609375
            ],
            [
                34.73833084106445,
                106.76168060302734,
                981.5667724609375
            ],
            [
                35.43849563598633,
                108.97055053710938,
                1001.5667724609375
            ],
            [
                38.93001937866211,
                120.01494598388672,
                1101.5667724609375
            ],
            [
                42.41032409667969,
                131.05941772460938,
                1201.5667724609375
            ],
            [
                45.87809753417969,
                142.10389709472656,
                1301.5667724609375
            ],
            [
                49.33369445800781,
                153.1485137939453,
                1401.5667724609375
            ],
            [
                52.77654266357422,
                164.1931915283203,
                1501.5667724609375
            ],
            [
                56.20980453491211,
                175.23788452148438,
                1601.5667724609375
            ],
            [
                59.629966735839844,
                186.28250122070313,
                1701.5667724609375
            ],
            [
                63.037776947021484,
                197.32696533203125,
                1801.5667724609375
            ],
            [
                66.43030548095703,
                208.37132263183594,
                1901.5667724609375
            ],
            [
                69.80799865722656,
                219.41546630859375,
                2001.5667724609375
            ],
            [
                73.1593246459961,
                230.45944213867188,
                2101.56689453125
            ],
            [
                76.49322509765625,
                241.50296020507813,
                2201.56689453125
            ],
            [
                79.80643463134766,
                252.54576110839844,
                2301.56689453125
            ],
            [
                83.08448791503906,
                263.5879211425781,
                2401.56689453125
            ],
            [
                86.32611083984375,
                274.62884521484375,
                2501.56689453125
            ],
            [
                89.51675415039063,
                285.6682434082031,
                2601.56689453125
            ],
            [
                92.65270233154297,
                296.70635986328125,
                2701.56689453125
            ],
            [
                95.71842193603516,
                307.74267578125,
                2801.56689453125
            ],
            [
                98.70262908935547,
                318.77655029296875,
                2901.56689453125
            ],
            [
                101.59165954589844,
                329.8081970214844,
                3001.56689453125
            ],
            [
                104.35264587402344,
                340.8381042480469,
                3101.56689453125
            ],
            [
                106.99102783203125,
                351.8646545410156,
                3201.56689453125
            ],
            [
                109.48686981201172,
                362.8885803222656,
                3301.56689453125
            ],
            [
                111.80050659179688,
                373.90875244140625,
                3401.56689453125
            ],
            [
                113.91320037841797,
                384.9256286621094,
                3501.56689453125
            ],
            [
                115.81749725341797,
                395.9415283203125,
                3601.56689453125
            ],
            [
                117.46820068359375,
                406.9549560546875,
                3701.56689453125
            ],
            [
                118.8519287109375,
                417.9651184082031,
                3801.56689453125
            ],
            [
                119.9445571899414,
                428.9731140136719,
                3901.56689453125
            ],
            [
                120.71089935302734,
                439.97967529296875,
                4001.56689453125
            ],
            [
                121.1489028930664,
                450.9872131347656,
                4101.56689453125
            ],
            [
                121.22757720947266,
                461.9920959472656,
                4201.56689453125
            ],
            [
                120.93247985839844,
                472.99346923828125,
                4301.56689453125
            ],
            [
                120.26414489746094,
                483.99517822265625,
                4401.56689453125
            ],
            [
                119.23402404785156,
                494.99810791015625,
                4501.56689453125
            ],
            [
                117.7972183227539,
                506.00067138671875,
                4601.56689453125
            ],
            [
                115.98767852783203,
                517.000732421875,
                4701.56689453125
            ],
            [
                113.96013641357422,
                528.2951049804688,
                4801.56689453125
            ],
            [
                111.47996520996094,
                539.3645629882813,
                4901.56689453125
            ],
            [
                108.6268539428711,
                550.4315795898438,
                5001.56689453125
            ],
            [
                105.38419342041016,
                561.4979248046875,
                5101.56689453125
            ],
            [
                101.77759552001953,
                572.5630493164063,
                5201.56689453125
            ],
            [
                97.79643249511719,
                583.6290893554688,
                5301.56689453125
            ],
            [
                93.45558166503906,
                594.6930541992188,
                5401.56689453125
            ],
            [
                88.74954986572266,
                605.75537109375,
                5501.56689453125
            ],
            [
                83.70792388916016,
                616.8176879882813,
                5601.56689453125
            ],
            [
                78.31818389892578,
                627.8760375976563,
                5701.56689453125
            ],
            [
                72.58209991455078,
                638.9339599609375,
                5801.56689453125
            ],
            [
                66.52742767333984,
                649.9886474609375,
                5901.56689453125
            ],
            [
                60.135501861572266,
                661.040283203125,
                6001.56689453125
            ],
            [
                53.43400955200195,
                672.0891723632813,
                6101.56689453125
            ],
            [
                46.42514419555664,
                683.1344604492188,
                6201.56689453125
            ],
            [
                39.11567306518555,
                694.1756591796875,
                6301.56689453125
            ],
            [
                31.519245147705078,
                705.212890625,
                6401.56689453125
            ],
            [
                23.640867233276367,
                716.2442626953125,
                6501.56689453125
            ],
            [
                15.496999740600586,
                727.2713012695313,
                6601.56689453125
            ],
            [
                7.097701549530029,
                738.2916259765625,
                6701.56689453125
            ],
            [
                -1.5380756855010986,
                749.3054809570313,
                6801.56689453125
            ],
            [
                -10.409557342529297,
                760.3117065429688,
                6901.56689453125
            ],
            [
                -19.494564056396484,
                771.310302734375,
                7001.56689453125
            ],
            [
                -28.77785873413086,
                782.301025390625,
                7101.56689453125
            ],
            [
                -38.2457275390625,
                793.2838134765625,
                7201.56689453125
            ],
            [
                -47.884056091308594,
                804.2581176757813,
                7301.56689453125
            ],
            [
                -57.68561935424805,
                815.2239379882813,
                7401.56689453125
            ],
            [
                -67.62516784667969,
                826.181884765625,
                7501.56689453125
            ],
            [
                -77.69961547851563,
                837.13134765625,
                7601.56689453125
            ],
            [
                -87.89131164550781,
                848.0732421875,
                7701.56689453125
            ],
            [
                -98.1937484741211,
                859.0073852539063,
                7801.56689453125
            ],
            [
                -108.59503173828125,
                869.9343872070313,
                7901.56689453125
            ],
            [
                -119.08482360839844,
                880.8546752929688,
                8001.56689453125
            ],
            [
                -129.65724182128906,
                891.7684936523438,
                8101.56689453125
            ],
            [
                -140.30149841308594,
                902.676513671875,
                8201.56640625
            ],
            [
                -151.01185607910156,
                913.5790405273438,
                8301.56640625
            ],
            [
                -161.7825927734375,
                924.4764404296875,
                8401.56640625
            ],
            [
                -172.60821533203125,
                935.3692016601563,
                8501.56640625
            ],
            [
                -183.4814453125,
                946.2578125,
                8601.56640625
            ],
            [
                -194.39962768554688,
                957.1424560546875,
                8701.56640625
            ],
            [
                -205.35806274414063,
                968.0236206054688,
                8801.56640625
            ],
            [
                -216.35287475585938,
                978.901611328125,
                8901.56640625
            ],
            [
                -227.38111877441406,
                989.7766723632813,
                9001.56640625
            ],
            [
                -238.4395751953125,
                1000.649169921875,
                9101.56640625
            ],
            [
                -249.52528381347656,
                1011.519287109375,
                9201.56640625
            ],
            [
                -260.6357727050781,
                1022.3872680664063,
                9301.56640625
            ],
            [
                -271.76873779296875,
                1033.25341796875,
                9401.56640625
            ],
            [
                -282.9219970703125,
                1044.117919921875,
                9501.56640625
            ],
            [
                -294.0937194824219,
                1054.9808349609375,
                9601.56640625
            ],
            [
                -305.28216552734375,
                1065.842529296875,
                9701.56640625
            ],
            [
                -316.4858093261719,
                1076.7030029296875,
                9801.56640625
            ],
            [
                -327.70318603515625,
                1087.5625,
                9901.56640625
            ],
            [
                -338.9331359863281,
                1098.421142578125,
                10001.56640625
            ],
            [
                -361.42608642578125,
                1120.135986328125,
                10201.56640625
            ],
            [
                -383.95684814453125,
                1141.8485107421875,
                10401.56640625
            ],
            [
                -406.5181884765625,
                1163.5592041015625,
                10601.56640625
            ],
            [
                -429.105712890625,
                1185.2685546875,
                10801.56640625
            ],
            [
                -451.713623046875,
                1206.97705078125,
                11001.56640625
            ],
            [
                -474.339111328125,
                1228.684814453125,
                11201.56640625
            ],
            [
                -496.9794006347656,
                1250.39208984375,
                11401.56640625
            ],
            [
                -519.630615234375,
                1272.0992431640625,
                11601.56640625
            ],
            [
                -542.2913818359375,
                1293.8062744140625,
                11801.56640625
            ],
            [
                -564.9595336914063,
                1315.51318359375,
                12001.56640625
            ],
            [
                -587.635009765625,
                1337.2200927734375,
                12201.56640625
            ],
            [
                -610.3153076171875,
                1358.9271240234375,
                12401.56640625
            ],
            [
                -632.998291015625,
                1380.6343994140625,
                12601.56640625
            ],
            [
                -655.684326171875,
                1402.3416748046875,
                12801.56640625
            ],
            [
                -678.3736572265625,
                1424.049072265625,
                13001.56640625
            ],
            [
                -701.0652465820313,
                1445.7564697265625,
                13201.56640625
            ],
            [
                -723.7579956054688,
                1467.4639892578125,
                13401.56640625
            ]
        ],
        "zFirstMeasurement": 94.1031
    },
    {
        "E": 17590.516646176064,
        "chi2": 0.5529086589813232,
        "ip": 0.09340876215911789,
        "ipchi2": 34.90267119332783,
        "mass": 139.57,
        "particleId": "pi+",
        "pvx": 0.6239,
        "pvy": 0.0669,
        "pvz": 15.2357,
        "px": -1660.46,
        "py": 2524.02,
        "pz": 17328.56,
        "q": 1.0,
        "trajectory": [
            [
                0.5668940544128418,
                0.19756758213043213,
                16.56679916381836
            ],
            [
                0.08778297901153564,
                0.9258502125740051,
                21.56679916381836
            ],
            [
                -0.39132487773895264,
                1.6541328430175781,
                26.56679916381836
            ],
            [
                -0.8704293966293335,
                2.382415294647217,
                31.56679916381836
            ],
            [
                -1.349530577659607,
                3.1106979846954346,
                36.56679916381836
            ],
            [
                -1.828628420829773,
                3.8389804363250732,
                41.56679916381836
            ],
            [
                -2.307722806930542,
                4.567262649536133,
                46.56679916381836
            ],
            [
                -2.7867980003356934,
                5.295535564422607,
                51.56679916381836
            ],
            [
                -3.265885591506958,
                6.023817539215088,
                56.56679916381836
            ],
            [
                -3.7449698448181152,
                6.752099990844727,
                61.56679916381836
            ],
            [
                -4.224050521850586,
                7.480382442474365,
                66.56680297851563
            ],
            [
                -4.703127861022949,
                8.208664894104004,
                71.56680297851563
            ],
            [
                -5.182201385498047,
                8.936946868896484,
                76.56680297851563
            ],
            [
                -5.661271572113037,
                9.665228843688965,
                81.56680297851563
            ],
            [
                -6.140337944030762,
                10.393510818481445,
                86.56680297851563
            ],
            [
                -6.619400978088379,
                11.121792793273926,
                91.56680297851563
            ],
            [
                -7.098459720611572,
                11.850074768066406,
                96.56680297851563
            ],
            [
                -7.577515125274658,
                12.578356742858887,
                101.56680297851563
            ],
            [
                -9.493697166442871,
                15.491483688354492,
                121.56680297851563
            ],
            [
                -11.409812927246094,
                18.40460968017578,
                141.56680297851563
            ],
            [
                -13.325858116149902,
                21.317733764648438,
                161.56680297851563
            ],
            [
                -15.24185848236084,
                24.230857849121094,
                181.56680297851563
            ],
            [
                -17.157772064208984,
                27.14398193359375,
                201.56680297851563
            ],
            [
                -19.073612213134766,
                30.05710220336914,
                221.56680297851563
            ],
            [
                -20.9893741607666,
                32.97022247314453,
                241.56680297851563
            ],
            [
                -22.905057907104492,
                35.88334274291992,
                261.5668029785156
            ],
            [
                -24.82065773010254,
                38.79645919799805,
                281.5668029785156
            ],
            [
                -26.736169815063477,
                41.70957565307617,
                301.5668029785156
            ],
            [
                -28.651594161987305,
                44.62268829345703,
                321.5668029785156
            ],
            [
                -30.566925048828125,
                47.53580093383789,
                341.5668029785156
            ],
            [
                -32.48216247558594,
                50.44891357421875,
                361.5668029785156
            ],
            [
                -34.39730453491211,
                53.362022399902344,
                381.5668029785156
            ],
            [
                -36.31234359741211,
                56.27512741088867,
                401.5668029785156
            ],
            [
                -38.22727584838867,
                59.188232421875,
                421.5668029785156
            ],
            [
                -40.1421012878418,
                62.10133743286133,
                441.5668029785156
            ],
            [
                -42.05681228637695,
                65.01443481445313,
                461.5668029785156
            ],
            [
                -43.97140884399414,
                67.92753601074219,
                481.5668029785156
            ],
            [
                -45.88587951660156,
                70.84062957763672,
                501.5668029785156
            ],
            [
                -47.80022430419922,
                73.75372314453125,
                521.5667724609375
            ],
            [
                -49.714447021484375,
                76.66680908203125,
                541.5667724609375
            ],
            [
                -51.628536224365234,
                79.57989501953125,
                561.5667724609375
            ],
            [
                -53.54249954223633,
                82.49298095703125,
                581.5667724609375
            ],
            [
                -55.45632553100586,
                85.40605926513672,
                601.5667724609375
            ],
            [
                -57.36998748779297,
                88.31913757324219,
                621.5667724609375
            ],
            [
                -59.28348159790039,
                91.23221588134766,
                641.5667724609375
            ],
            [
                -61.19682312011719,
                94.1452865600586,
                661.5667724609375
            ],
            [
                -63.110008239746094,
                97.05835723876953,
                681.5667724609375
            ],
            [
                -65.02303314208984,
                99.97142791748047,
                701.5667724609375
            ],
            [
                -66.93589782714844,
                102.88449096679688,
                721.5667724609375
            ],
            [
                -68.84859466552734,
                105.79756164550781,
                741.5667724609375
            ],
            [
                -70.7611312866211,
                108.71062469482422,
                761.5667724609375
            ],
            [
                -72.67347717285156,
                111.6236801147461,
                781.5667724609375
            ],
            [
                -74.58560943603516,
                114.53673553466797,
                801.5667724609375
            ],
            [
                -76.49755859375,
                117.44979095458984,
                821.5667724609375
            ],
            [
                -78.40929412841797,
                120.36283874511719,
                841.5667724609375
            ],
            [
                -80.32083129882813,
                123.27588653564453,
                861.5667724609375
            ],
            [
                -82.23217010498047,
                126.18893432617188,
                881.5667724609375
            ],
            [
                -84.143310546875,
                129.1019744873047,
                901.5667724609375
            ],
            [
                -86.05427551269531,
                132.0150146484375,
                921.5667724609375
            ],
            [
                -87.96503448486328,
                134.9280548095703,
                941.5667724609375
            ],
            [
                -89.87551879882813,
                137.84109497070313,
                961.5667724609375
            ],
            [
                -91.7857666015625,
                140.754150390625,
                981.5667724609375
            ],
            [
                -93.69578552246094,
                143.66720581054688,
                1001.5667724609375
            ],
            [
                -103.24132537841797,
                158.23257446289063,
                1101.5667724609375
            ],
            [
                -112.78117370605469,
                172.79806518554688,
                1201.5667724609375
            ],
            [
                -122.31478881835938,
                187.36370849609375,
                1301.5667724609375
            ],
            [
                -131.8422088623047,
                201.92953491210938,
                1401.5667724609375
            ],
            [
                -141.3634033203125,
                216.49546813964844,
                1501.5667724609375
            ],
            [
                -150.88023376464844,
                231.06143188476563,
                1601.5667724609375
            ],
            [
                -160.39064025878906,
                245.6273193359375,
                1701.5667724609375
            ],
            [
                -169.8954620361328,
                260.1930236816406,
                1801.5667724609375
            ],
            [
                -179.3935546875,
                274.75848388671875,
                1901.5667724609375
            ],
            [
                -188.884765625,
                289.3235168457031,
                2001.5667724609375
            ],
            [
                -198.36505126953125,
                303.8877868652344,
                2101.56689453125
            ],
            [
                -207.83702087402344,
                318.4514465332031,
                2201.56689453125
            ],
            [
                -217.3014678955078,
                333.013671875,
                2301.56689453125
            ],
            [
                -226.75094604492188,
                347.57452392578125,
                2401.56689453125
            ],
            [
                -236.18423461914063,
                362.1331787109375,
                2501.56689453125
            ],
            [
                -245.5961456298828,
                376.6890869140625,
                2601.56689453125
            ],
            [
                -254.98414611816406,
                391.24212646484375,
                2701.56689453125
            ],
            [
                -264.3421630859375,
                405.7917175292969,
                2801.56689453125
            ],
            [
                -273.66326904296875,
                420.337158203125,
                2901.56689453125
            ],
            [
                -282.9432678222656,
                434.8774108886719,
                3001.56689453125
            ],
            [
                -292.1640625,
                449.4123840332031,
                3101.56689453125
            ],
            [
                -301.3290100097656,
                463.9415588378906,
                3201.56689453125
            ],
            [
                -310.4266052246094,
                478.4634704589844,
                3301.56689453125
            ],
            [
                -319.4412841796875,
                492.9783630371094,
                3401.56689453125
            ],
            [
                -328.36285400390625,
                507.48565673828125,
                3501.56689453125
            ],
            [
                -337.18341064453125,
                521.9844360351563,
                3601.56689453125
            ],
            [
                -345.87744140625,
                536.4750366210938,
                3701.56689453125
            ],
            [
                -354.44036865234375,
                550.9580688476563,
                3801.56689453125
            ],
            [
                -362.85125732421875,
                565.4320678710938,
                3901.56689453125
            ],
            [
                -371.0997619628906,
                579.8984375,
                4001.56689453125
            ],
            [
                -379.17730712890625,
                594.3605346679688,
                4101.56689453125
            ],
            [
                -387.06549072265625,
                608.8148193359375,
                4201.56689453125
            ],
            [
                -394.7635803222656,
                623.2655639648438,
                4301.56689453125
            ],
            [
                -402.26385498046875,
                637.7117919921875,
                4401.56689453125
            ],
            [
                -409.57958984375,
                652.1538696289063,
                4501.56689453125
            ],
            [
                -416.6772155761719,
                666.5945434570313,
                4601.56689453125
            ],
            [
                -423.59393310546875,
                681.0341796875,
                4701.56689453125
            ],
            [
                -431.1651916503906,
                696.102783203125,
                4801.56689453125
            ],
            [
                -437.6837463378906,
                710.5484008789063,
                4901.56689453125
            ],
            [
                -444.01593017578125,
                724.9927978515625,
                5001.56689453125
            ],
            [
                -450.14801025390625,
                739.4373168945313,
                5101.56689453125
            ],
            [
                -456.10009765625,
                753.882568359375,
                5201.56689453125
            ],
            [
                -461.8609924316406,
                768.3275146484375,
                5301.56689453125
            ],
            [
                -467.43878173828125,
                782.7739868164063,
                5401.56689453125
            ],
            [
                -472.84149169921875,
                797.2191772460938,
                5501.56689453125
            ],
            [
                -478.0675354003906,
                811.66552734375,
                5601.56689453125
            ],
            [
                -483.11865234375,
                826.114013671875,
                5701.56689453125
            ],
            [
                -487.9915466308594,
                840.5623779296875,
                5801.56689453125
            ],
            [
                -492.70745849609375,
                855.0108032226563,
                5901.56689453125
            ],
            [
                -497.2499084472656,
                869.4607543945313,
                6001.56689453125
            ],
            [
                -501.63623046875,
                883.9119262695313,
                6101.56689453125
            ],
            [
                -505.8642578125,
                898.3643798828125,
                6201.56689453125
            ],
            [
                -509.93951416015625,
                912.8177490234375,
                6301.56689453125
            ],
            [
                -513.8655395507813,
                927.2721557617188,
                6401.56689453125
            ],
            [
                -517.6473999023438,
                941.7285766601563,
                6501.56689453125
            ],
            [
                -521.2886352539063,
                956.1856079101563,
                6601.56689453125
            ],
            [
                -524.7979736328125,
                970.6441650390625,
                6701.56689453125
            ],
            [
                -528.1866455078125,
                985.1040649414063,
                6801.56689453125
            ],
            [
                -531.4542236328125,
                999.5657348632813,
                6901.56689453125
            ],
            [
                -534.6132202148438,
                1014.0287475585938,
                7001.56689453125
            ],
            [
                -537.6739501953125,
                1028.4930419921875,
                7101.56689453125
            ],
            [
                -540.6436767578125,
                1042.9583740234375,
                7201.56689453125
            ],
            [
                -543.5316772460938,
                1057.4248046875,
                7301.56689453125
            ],
            [
                -546.3419799804688,
                1071.892333984375,
                7401.56689453125
            ],
            [
                -549.0884399414063,
                1086.3603515625,
                7501.56689453125
            ],
            [
                -551.7722778320313,
                1100.8289794921875,
                7601.56689453125
            ],
            [
                -554.4044799804688,
                1115.2979736328125,
                7701.56689453125
            ],
            [
                -556.9884033203125,
                1129.76708984375,
                7801.56689453125
            ],
            [
                -559.5298461914063,
                1144.236328125,
                7901.56689453125
            ],
            [
                -562.0339965820313,
                1158.7054443359375,
                8001.56689453125
            ],
            [
                -564.5040283203125,
                1173.1744384765625,
                8101.56689453125
            ],
            [
                -566.94482421875,
                1187.6431884765625,
                8201.56640625
            ],
            [
                -569.3591918945313,
                1202.1114501953125,
                8301.56640625
            ],
            [
                -571.749755859375,
                1216.579345703125,
                8401.56640625
            ],
            [
                -574.1189575195313,
                1231.046630859375,
                8501.56640625
            ],
            [
                -576.4698486328125,
                1245.5135498046875,
                8601.56640625
            ],
            [
                -578.8036499023438,
                1259.9798583984375,
                8701.56640625
            ],
            [
                -581.1222534179688,
                1274.445556640625,
                8801.56640625
            ],
            [
                -583.4271850585938,
                1288.91064453125,
                8901.56640625
            ],
            [
                -585.7196655273438,
                1303.375244140625,
                9001.56640625
            ],
            [
                -588.0009155273438,
                1317.8392333984375,
                9101.56640625
            ],
            [
                -590.272216796875,
                1332.3026123046875,
                9201.56640625
            ],
            [
                -592.5343627929688,
                1346.765380859375,
                9301.56640625
            ],
            [
                -594.7883911132813,
                1361.2275390625,
                9401.56640625
            ],
            [
                -597.0350341796875,
                1375.689208984375,
                9501.56640625
            ],
            [
                -599.2750244140625,
                1390.150390625,
                9601.56640625
            ],
            [
                -601.5089721679688,
                1404.61083984375,
                9701.56640625
            ],
            [
                -603.7374877929688,
                1419.0709228515625,
                9801.56640625
            ],
            [
                -605.9610595703125,
                1433.530517578125,
                9901.56640625
            ],
            [
                -608.1801147460938,
                1447.989501953125,
                10001.56640625
            ],
            [
                -612.6065673828125,
                1476.9063720703125,
                10201.56640625
            ],
            [
                -617.0195922851563,
                1505.8214111328125,
                10401.56640625
            ],
            [
                -621.4218139648438,
                1534.735107421875,
                10601.56640625
            ],
            [
                -625.8148193359375,
                1563.6474609375,
                10801.56640625
            ],
            [
                -630.20068359375,
                1592.55859375,
                11001.56640625
            ],
            [
                -634.5805053710938,
                1621.4686279296875,
                11201.56640625
            ],
            [
                -638.9551391601563,
                1650.3778076171875,
                11401.56640625
            ],
            [
                -643.3259887695313,
                1679.2861328125,
                11601.56640625
            ],
            [
                -647.6936645507813,
                1708.1937255859375,
                11801.56640625
            ],
            [
                -652.0587768554688,
                1737.100830078125,
                12001.56640625
            ],
            [
                -656.4214477539063,
                1766.0072021484375,
                12201.56640625
            ],
            [
                -660.7825317382813,
                1794.913330078125,
                12401.56640625
            ],
            [
                -665.1427001953125,
                1823.81884765625,
                12601.56640625
            ],
            [
                -669.5018920898438,
                1852.7242431640625,
                12801.56640625
            ],
            [
                -673.8599853515625,
                1881.6292724609375,
                13001.56640625
            ],
            [
                -678.2174072265625,
                1910.5340576171875,
                13201.56640625
            ],
            [
                -682.5745239257813,
                1939.438720703125,
                13401.56640625
            ]
        ],
        "zFirstMeasurement": 79.5152
    }
]
